<?xml version="1.0" encoding="utf-8"?>
<COLLADA xmlns="http://www.collada.org/2005/11/COLLADASchema" version="1.4.1">
  <asset>
    <contributor>
      <author>RonMain</author>
      <authoring_tool>OpenCOLLADA for 3ds Max;  Version: 1.2.5;  Revision: 673;  Platform: Win32;  Configuration: Release Max9</authoring_tool>
      <source_data>file:///E:/3TDS%20Torque%20Model%20Library/Rocks%20and%20Stones/MossRock/MossRock01_Final.max</source_data>
    </contributor>
    <created>2012-09-22T15:52:15</created>
    <modified>2012-09-22T15:52:15</modified>
    <unit name="inch" meter="0.0254"/>
    <up_axis>Z_UP</up_axis>
  </asset>
  <library_effects>
    <effect id="MossRock01_jpg">
      <profile_COMMON>
        <newparam sid="_td_mossGranite_01_512_png-surface">
          <surface type="2D">
            <init_from>_td_mossGranite_01_512_png</init_from>
          </surface>
        </newparam>
        <newparam sid="_td_mossGranite_01_512_png-sampler">
          <sampler2D>
            <source>_td_mossGranite_01_512_png-surface</source>
          </sampler2D>
        </newparam>
        <technique sid="common">
          <blinn>
            <emission>
              <color>0 0 0 1</color>
            </emission>
            <ambient>
              <color>0.5882353 0.5882353 0.5882353 1</color>
            </ambient>
            <diffuse>
              <texture texture="_td_mossGranite_01_512_png-sampler" texcoord="CHANNEL1"/>
            </diffuse>
            <specular>
              <color>0.9 0.9 0.9 1</color>
            </specular>
            <shininess>
              <float>9.999999</float>
            </shininess>
            <reflective>
              <color>0 0 0 1</color>
            </reflective>
            <transparent opaque="A_ONE">
              <color>1 1 1 1</color>
            </transparent>
            <transparency>
              <float>1</float>
            </transparency>
          </blinn>
        </technique>
      </profile_COMMON>
      <extra>
        <technique profile="OpenCOLLADA3dsMax">
          <extended_shader>
            <apply_reflection_dimming>0</apply_reflection_dimming>
            <dim_level>0</dim_level>
            <falloff_type>0</falloff_type>
            <index_of_refraction>1.5</index_of_refraction>
            <opacity_type>0</opacity_type>
            <reflection_level>3</reflection_level>
            <wire_size>1</wire_size>
            <wire_units>0</wire_units>
          </extended_shader>
          <shader>
            <ambient_diffuse_lock>1</ambient_diffuse_lock>
            <ambient_diffuse_texture_lock>1</ambient_diffuse_texture_lock>
            <diffuse_specular_lock>0</diffuse_specular_lock>
            <soften>0.1</soften>
            <use_self_illum_color>0</use_self_illum_color>
          </shader>
        </technique>
      </extra>
    </effect>
  </library_effects>
  <library_materials>
    <material id="MossRock01_jpg-material" name="MossRock01_jpg">
      <instance_effect url="#MossRock01_jpg"/>
    </material>
  </library_materials>
  <library_geometries>
    <geometry id="geom-MossRock256" name="MossRock256">
      <mesh>
        <source id="geom-MossRock256-positions">
          <float_array id="geom-MossRock256-positions-array" count="243">2.405561 2.665051 8.716794 -3.633297 1.882419 3.377989 3.160293 -3.547048 2.480614 0.3644367 -3.378536 9.113975 1.615121 4.730796 7.168734 -3.779435 1.955124 7.289916 2.045687 -2.139485 9.638109 2.119315 3.957741 3.367444 -5.054646 1.283851 6.189912 1.89088 -4.501116 2.74613 0.4594858 -1.434592 10.24982 4.387677 -2.27731 3.886643 -2.820383 -2.001248 6.730259 0.7567624 -3.326678 2.98544 2.786891 -1.169358 2.47441 -4.977159 1.268224 4.416107 3.062791 2.131052 8.507813 2.443623 4.605247 5.50963 -1.428684 3.203076 7.149272 0.5422997 4.816423 6.463979 2.778218 -3.102504 7.768837 2.514671 -2.906963 2.038536 -2.374062 -2.094035 4.204365 1.380172 -3.496841 8.888846 1.976258 -4.80779 3.832181 1.35056 0.9748022 10.07911 2.53862 1.325666 9.944895 -3.986483 0.3546098 5.328132 -0.9642549 3.081962 3.667652 1.261863 2.556161 8.574798 2.077385 2.723778 3.059229 -3.515783 2.79614 5.336683 -3.7092 0.9008422 6.948967 2.921297 2.912393 4.061323 -4.917509 2.139593 6.180303 3.425619 -3.80646 3.718881 -4.834144 2.15699 4.418392 -1.285878 -3.242568 5.725871 -0.28082 -0.05304712 2.911438 1.210831 -4.61272 3.742574 2.439873 3.330883 7.349003 0.8344682 4.625533 4.335772 0.3063647 -3.882938 8.160884 1.22262 -2.345695 10.21439 3.093067 2.982973 5.856506 4.053635 -2.274413 3.012256 3.091809 -1.160434 8.265621 -3.476294 0.8046609 3.732224 3.336461 -2.5189 2.330976 -1.662806 0.2942037 8.004066 -0.4329345 -2.39395 8.740711 3.168628 1.19532 3.744925 2.049735 4.505809 3.790551 3.891004 -0.739157 4.920259 -0.1062644 0.07369285 8.982489 2.427166 -0.685086 9.946031 2.173358 -3.465685 8.23747 -1.293216 3.570923 5.392138 2.590507 -4.430858 3.020547 -3.021125 2.318746 7.488741 -2.729973 2.200238 3.229915 -2.75544 -2.364347 5.483924 0.5821433 2.589499 2.968694 1.593579 4.905 5.432185 -2.443316 2.876894 3.848451 0.5110145 -2.761237 9.904435 0.5426924 4.173933 7.603449 1.873803 -3.220565 2.225148 3.457366 -2.178077 6.681843 -5.17696 1.690507 5.295402 2.207385 2.054337 9.563326 4.022236 -2.964184 3.27041 3.30192 0.7795684 8.29591 2.640754 4.034389 4.246571 1.564533 -0.4179645 10.30957 -3.632642 2.586146 6.713116 2.989281 0.6591063 9.36304 -4.445899 1.765956 3.703732 1.189225 3.972933 3.329769 -0.9094923 -2.402736 3.785163 -0.3223755 2.716717 8.081301</float_array>
          <technique_common>
            <accessor source="#geom-MossRock256-positions-array" count="81" stride="3">
              <param name="X" type="float"/>
              <param name="Y" type="float"/>
              <param name="Z" type="float"/>
            </accessor>
          </technique_common>
        </source>
        <source id="geom-MossRock256-normals">
          <float_array id="geom-MossRock256-normals-array" count="243">-0.5322707 -0.8461822 -0.02575622 -0.4755172 -0.5170119 -0.7117458 -0.5863629 -0.3676162 -0.7218289 -0.4698729 -0.8606955 -0.1960169 -0.1556544 0.545442 -0.8235683 -0.1456851 0.173358 -0.9740241 -0.3023219 0.6308731 -0.7145631 -0.225149 0.5913269 0.7743645 -0.3761511 0.3192252 0.8698308 -0.476164 0.04134842 0.8783839 -0.6358811 0.2493843 0.7303855 0.983328 0.1759256 0.0460025 0.9458883 0.3180686 0.06424671 0.9776313 0.05137543 0.2039544 0.9389392 -0.1742347 0.2967077 -0.4286117 0.7002331 0.5709341 -0.2484426 0.664215 0.7050496 -0.5478354 -0.5640709 -0.6178191 -0.7247303 -0.6821272 -0.09730591 -0.7778903 -0.6258757 -0.05626984 -0.2311498 0.8897613 -0.3935665 -0.3355526 0.9415542 -0.02966553 -0.4551464 0.8850456 -0.0976521 -0.7283875 -0.5206233 0.4454245 -0.7624446 -0.3298123 0.5566885 0.4968608 -0.7749002 0.390716 0.1307916 -0.9895507 0.06068623 0.7806361 -0.5166249 0.3517187 0.674759 0.589876 0.4435613 0.6917669 0.719648 0.05971106 0.3072314 0.8005966 0.5144452 -0.2973104 0.8866893 -0.3541024 0.3329722 0.8004289 -0.4984408 -0.7060924 0.6161268 -0.3490291 -0.5925041 -0.3610714 0.7201154 -0.8293257 -0.3752516 0.4140111 -0.3702435 0.05920181 -0.9270464 -0.1631486 -0.7283086 -0.6655443 0.7220885 -0.6914104 0.02323745 0.6730123 -0.1712285 0.7195382 0.4939416 0.3020984 0.815327 0.1122194 0.031046 0.9931984 0.6898496 -0.4105181 0.5963073 0.2079681 -0.4184121 0.884127 0.2790529 -0.8241474 0.4928595 0.8289354 0.09391484 -0.5514037 0.5305092 0.03735085 -0.8468559 0.2972634 0.2657852 -0.9170565 0.8692423 0.2481809 -0.4275794 0.9985951 -0.03564211 -0.03921283 -0.3347427 -0.887657 0.3162473 -0.8163837 -0.4114241 -0.4052752 -0.4594066 -0.4297701 -0.7773308 -0.2296152 -0.02732896 -0.9728977 -0.2106304 0.3354385 -0.9182134 0.3888738 0.2026469 -0.8987276 0.02087492 -0.1389479 -0.9900796 0.52027 -0.4915328 -0.6983656 -0.7414801 0.5673826 0.358168 0.1303088 0.6771448 0.72422 -0.3547813 0.3819692 0.8533638 0.8558738 0.4077647 0.3181321 0.09842335 0.9932407 -0.06152844 -0.2956518 0.4040611 0.8656354 -0.3957597 0.840144 0.3708535 -0.4384448 0.1359432 0.8884175 -0.3319181 0.9296259 0.1600814 0.9112837 -0.1915909 0.3644926 0.8941758 -0.001403774 0.4477138 -0.3865995 -0.5363483 0.7502475 0.4773191 -0.8088925 -0.3433068 -0.5246157 0.002272387 0.8513362 0.289216 0.8070331 0.5148318 -0.2991675 0.1872981 -0.935638 -0.5650388 0.1301542 -0.8147337 0.854638 0.4281524 -0.2937338 0.4780741 0.3744542 -0.7944994 0.8890041 0.2409835 -0.3893567 -0.9933151 0.1073815 -0.04235773 0.8532643 -0.4384131 -0.2823721 -0.423894 -0.7358665 0.5280288</float_array>
          <technique_common>
            <accessor source="#geom-MossRock256-normals-array" count="81" stride="3">
              <param name="X" type="float"/>
              <param name="Y" type="float"/>
              <param name="Z" type="float"/>
            </accessor>
          </technique_common>
        </source>
        <source id="geom-MossRock256-map1">
          <float_array id="geom-MossRock256-map1-array" count="549">0.8556259 0.8322886 1.145856 0.9113092 0.7328945 -0.2102008 0.04852349 0.04335204 -0.4381341 0.5964028 0.06475312 1.24674 1.094638 0.7526484 0.75524 0.07013121 0.742128 0.7834287 0.8099216 0.2221126 1.37987 0.9964603 -0.2128792 0.8192726 0.3431236 0.5040277 -0.0918206 0.209739 -0.07781458 -0.3706928 0.6084741 0.311634 1.535245 0.2046087 -0.08100271 1.107354 0.1919308 0.2396688 0.6412758 0.3537718 0.07133907 -0.3099081 0.09594536 0.3453187 -0.4397098 1.08198 0.6548917 0.05348122 0.7644707 1.092775 0.9390939 1.078694 0.3312361 0.8604597 0.3686768 0.9006178 0.7477052 0.6189917 1.105513 0.5736407 0.902953 0.9050746 0.09980905 0.1305174 0.1246428 -0.550422 0.7721152 -3.01361e-4 0.2486136 0.7254012 0.04972839 1.189557 0.8011041 -0.09483594 -0.1167622 0.7216407 0.6176271 1.491885 0.8725243 0.6621867 1.457793 0.4611372 0.2851356 0.04383612 0.5723408 0.8852365 -0.1366265 0.7103761 0.8184596 1.109789 0.1860525 0.839747 -0.2911659 0.8963848 0.2873075 0.8489372 0.3917657 0.6968277 0.07905108 0.07887572 0.863701 -0.03663397 1.074404 0.5015869 0.7655557 0.985173 -0.1236143 0.01040664 1.063817 0.05406165 0.7677651 0.6131871 0.08202103 0.3861612 0.4855447 0.4870903 -0.3287047 0.2961052 -0.09198833 -0.1175961 0.9168493 0.7984368 0.8599834 0.3439029 1.08127 0.03307617 0.5890276 1.004655 6.94096e-4 0.7053922 0.195924 1.526244 0.8726647 0.4193426 0.9429391 -0.06493109 0.2049767 -0.3030968 0.3464519 1.031258 0.9427792 0.8913699 0.5960193 -0.120225 0.02615005 0.1739268 -0.4761422 0.3389432 0.5311912 0.9648229 0.4951367 0.1897956 1.151931 0.04746473 0.6456327 -0.1169991 0.189564 1.066065 -0.1054099 0.3999542 0.1815358 1.044277 0.5366239 0.5031862 1.213342 0.8583695 0.4068212 1.458082 0.8261358 1.024107 0.05368513 0.6141188 0.3013929 0.9473345 0.1208863 -0.06889176 -0.3009909 0.1664366 0.7883081 0.8339303 0.7965871 0.7732576 -0.2478115 0.8064447 0.3247068 0.2001785 0.3759483 0.8226936 -0.3141617 0.2474959 0.311565 1.116762 0.7601815 -0.09070349 0.8591928 0.6150182 0.1431501 1.447517 0.6190415 1.023917 0.8630661 0.2119077 0.08481541 -0.5030224 0.2172113 0.6289781 0.9892049 0.2914782 0.2768221 -0.1073544 0.8304574 0.754728 1.360875 0.1173758 -0.2375259 1.060943 0.5928323 1.038951 0.9694633 1.006195 0.01041901 0.8854953 0.7488151 0.4407457 1.550422 0.08877397 0.8222679 0.6369215 0.5775337 1.310002 0.9297582 1.01451 0.7181038 -0.1274621 0.2988488 0.9983897 -0.2224486 0.5653861 0.1886797 -0.1067786 0.5091779 0.8388503 0.9844404 0.5723408 -0.1366265 0.8852365 0.7603312 0.6412758 0.1919308 0.09980905 0.9050746 0.902953 0.01040664 -0.1236143 0.985173 0.7038948 -0.1175961 -0.09198833 0.3868129 0.3861612 0.08202103 0.7513864 0.2278848 -3.01361e-4 0.9561639 0.5388628 0.2851356 0.6456327 -0.1169991 0.9525353 0.189564 -0.1054099 1.066065 0.3439029 0.03307617 1.08127 -0.07440418 0.7655557 0.5015869 0.75524 1.094638 0.7526484 0.3810083 0.5736407 1.105513 0.24476 0.7526484 1.094638 0.3439029 0.03307617 1.08127 0.4068212 1.458082 0.8583695 0.8261358 0.05368513 1.024107 0.902953 0.09980905 0.9050746 0.7513864 0.2278848 -3.01361e-4 0.7038948 -0.1175961 -0.09198833 0.01482698 0.01040664 -0.1236143 0.9390939 0.7644707 1.092775 0.04383612 0.2851356 0.5388628 -0.0918206 0.5040277 0.6568764 -0.08197963 0.05348122 0.6548917 1.063817 0.7677651 0.05406165 0.7601815 0.8591928 -0.09070349 0.8599834 0.9168493 0.7984368 0.75524 1.094638 0.7526484 0.911226 0.6369215 0.8222679 0.6313232 0.7477052 0.9006178 0.911226 0.6369215 0.8222679 -0.0918206 0.6568764 0.5040277 0.07905108 0.6082343 0.6968277 1.066065 -0.1054099 0.810436 0.1807274 0.9964603 -0.2128792 0.1145047 1.006195 0.01041901 -0.07440418 0.7655557 0.5015869 -0.0918206 0.6568764 0.5040277 0.2344443 0.5015869 -0.07440418 0.01040664 -0.1236143 0.985173 0.04335204 -0.4381341 0.9514765 0.2344443 0.5015869 -0.07440418 0.2322349 0.05406165 -0.06381673 0.3451082 0.05348122 -0.08197963 1.063817 0.7677651 0.05406165 0.3868129 0.3861612 0.08202103 0.2001785 0.3247068 0.1935553 0.2486136 -3.01361e-4 0.2278848 0.4346139 -0.1067786 0.1886797 0.3868129 0.08202103 0.3861612 0.5890276 6.94096e-4 1.004655 0.790261 -0.3706928 -0.07781458 0.7038948 -0.1175961 -0.09198833 0.8599834 0.9168493 0.7984368 0.9390939 0.7644707 1.092775 0.3439029 0.03307617 1.08127 0.5723408 -0.1366265 0.8852365 0.5890276 6.94096e-4 1.004655 0.863701 -0.03663397 0.9211243 0.2049767 -0.3030968 1.064931 0.6456327 -0.1169991 0.9525353 -0.06094331 0.1173758 -0.2375259 -0.1073544 0.2046087 -0.08100271 0.09980905 0.9050746 0.902953 0.902953 0.09980905 0.9050746 0.9427792 0.3464519 1.031258 0.07905108 0.6082343 0.6968277 0.9993059 1.004655 0.5890276 0.9352469 1.24674 0.5964028 0.8102044 1.151931 0.4951367 0.6456327 -0.1169991 0.9525353 0.863701 -0.03663397 0.9211243 0.7254012 1.189557 0.04972839 0.8261358 0.05368513 1.024107 0.6313232 0.7477052 0.9006178 0.3810083 0.5736407 1.105513 0.3439029 0.03307617 1.08127 0.8791137 -0.3009909 -0.06889176 0.8791137 -0.3009909 -0.06889176 0.790261 -0.3706928 -0.07781458 0.07905108 0.6082343 0.6968277 0.7601815 0.8591928 -0.09070349 0.7603312 0.6412758 0.1919308 0.1919308 0.6412758 0.2396688 0.2001785 0.3247068 0.1935553 0.3868129 0.3861612 0.08202103 0.1807274 0.9964603 -0.2128792 0.1395403 0.3312361 1.078694 0.189564 -0.1054099 1.066065 0.24476 0.7526484 1.094638 0.1395403 0.3312361 1.078694 0.7601815 0.8591928 -0.09070349 0.75524 1.094638 0.7526484 0.09980905 0.9050746 0.902953 0.3451082 0.05348122 -0.08197963 0.01040664 -0.1236143 0.985173 0.6621867 1.457793 0.8725243 0.9297582 0.5775337 1.310002 0.1807274 0.9964603 -0.2128792 0.7513864 0.2278848 -3.01361e-4</float_array>
          <technique_common>
            <accessor source="#geom-MossRock256-map1-array" count="183" stride="3">
              <param name="S" type="float"/>
              <param name="T" type="float"/>
              <param name="P" type="float"/>
            </accessor>
          </technique_common>
        </source>
        <vertices id="geom-MossRock256-vertices">
          <input semantic="POSITION" source="#geom-MossRock256-positions"/>
        </vertices>
        <triangles material="MossRock01_jpg_1" count="158">
          <input semantic="VERTEX" source="#geom-MossRock256-vertices" offset="0"/>
          <input semantic="NORMAL" source="#geom-MossRock256-normals" offset="1"/>
          <input semantic="TEXCOORD" source="#geom-MossRock256-map1" offset="2" set="1"/>
          <p>37 0 37 79 1 79 13 2 13 13 2 13 39 3 39 37 0 37 78 4 78 62 5 62 28 6 28 29 7 29 80 8 80 49 9 49 49 9 49 54 10 54 29 7 29 53 11 53 44 12 44 72 13 72 72 13 72 68 14 68 53 11 53 18 15 18 80 8 80 66 16 66 22 17 22 61 18 61 27 19 27 28 6 81 64 20 64 31 21 31 31 21 31 57 22 57 28 6 81 49 9 49 12 23 12 50 24 50 50 24 50 54 10 54 49 9 49 56 25 56 24 26 24 20 27 20 40 28 40 17 29 17 4 30 4 41 31 41 52 32 52 78 4 78 78 4 78 28 6 28 41 31 41 64 20 64 36 33 36 31 21 31 32 34 32 8 35 8 27 19 27 27 19 27 12 23 82 32 34 32 67 36 67 9 37 9 13 2 13 24 26 24 35 38 35 20 27 20 55 39 55 26 40 26 74 41 74 6 42 6 55 39 55 43 43 43 43 43 43 23 44 23 6 42 6 45 45 45 48 46 48 14 47 14 14 47 14 51 48 51 45 45 45 20 27 83 35 38 84 11 49 11 39 3 85 42 50 42 37 0 86 27 19 88 15 51 15 47 52 47 47 52 47 22 17 87 27 19 88 38 53 38 60 54 60 28 6 28 28 6 28 62 5 62 38 53 38 38 53 38 30 55 30 14 47 14 14 47 14 21 56 21 38 53 38 45 45 45 2 57 2 48 46 48 36 33 36 34 58 34 31 21 31 70 59 70 25 60 25 26 40 26 44 12 44 17 29 17 40 28 40 40 28 40 16 61 16 44 12 44 51 48 89 44 12 44 53 11 53 63 62 63 52 32 90 41 31 91 18 15 18 59 63 59 49 9 49 49 9 49 80 8 80 18 15 18 75 64 75 34 58 92 5 65 5 66 16 66 4 30 93 19 66 19 19 66 19 18 15 18 66 16 66 63 62 63 41 31 96 19 66 94 19 66 94 4 30 95 63 62 63 46 67 46 72 13 72 76 68 76 76 68 76 55 39 97 46 67 46 6 42 6 56 25 98 20 27 99 67 36 67 21 56 21 2 57 2 2 57 2 9 37 9 67 36 67 2 57 2 21 56 21 48 46 48 47 52 47 60 54 60 38 53 38 38 53 38 22 17 100 47 52 47 39 3 101 24 26 24 56 25 56 56 25 56 42 50 42 39 3 101 65 69 65 23 44 23 43 43 43 2 57 2 35 38 102 58 70 58 58 70 58 9 37 9 2 57 2 26 40 26 25 60 25 74 41 74 50 24 50 10 71 10 54 10 54 16 61 103 0 72 0 70 59 70 70 59 70 26 40 26 16 61 103 27 19 104 8 35 105 15 51 106 64 20 108 1 73 1 77 74 77 77 74 77 36 33 107 64 20 108 29 7 29 0 72 0 40 28 109 40 28 109 4 30 110 29 7 29 70 59 70 0 72 0 29 7 29 29 7 29 25 60 25 70 59 70 14 47 14 30 55 30 51 48 51 31 21 31 34 58 34 75 64 111 31 21 31 75 64 113 18 15 112 18 15 112 57 22 57 31 21 31 5 65 5 8 35 114 32 34 115 73 75 73 7 76 7 52 32 116 52 32 116 17 29 17 73 75 73 73 75 118 33 77 33 30 55 30 30 55 30 7 76 117 73 75 118 34 58 119 8 35 120 5 65 5 69 78 69 8 35 8 34 58 121 71 79 71 35 38 122 2 57 123 36 33 125 15 51 126 69 78 69 69 78 69 34 58 124 36 33 125 77 74 77 15 51 15 36 33 127 22 17 130 79 1 131 37 0 128 37 0 128 61 18 129 22 17 130 37 0 132 42 50 133 50 24 50 50 24 50 12 23 12 37 0 132 13 2 13 79 1 79 38 53 38 38 53 38 21 56 21 13 2 13 13 2 13 9 37 9 39 3 39 9 37 134 24 26 24 39 3 135 40 28 136 0 72 0 16 61 137 41 31 138 28 6 139 57 22 57 23 44 23 3 80 3 42 50 140 25 60 25 10 71 10 74 41 74 65 69 65 43 43 43 10 71 10 44 12 44 33 77 141 73 75 73 73 75 73 17 29 17 44 12 44 53 11 53 11 49 11 45 45 142 45 45 142 51 48 143 53 11 53 45 45 45 11 49 145 71 79 144 71 79 144 2 57 2 45 45 45 20 27 146 11 49 11 68 14 68 46 67 148 55 39 55 6 42 6 6 42 6 20 27 147 46 67 148 77 74 77 1 73 1 47 52 47 47 52 47 15 51 15 77 74 77 48 46 48 21 56 21 14 47 14 32 34 149 12 23 12 49 9 49 49 9 49 59 63 59 32 34 149 50 24 50 3 80 3 65 69 65 65 69 65 10 71 10 50 24 50 42 50 150 3 80 151 50 24 152 51 48 153 33 77 154 44 12 44 30 55 30 33 77 33 51 48 51 68 14 68 11 49 11 53 11 53 54 10 54 25 60 25 29 7 29 54 10 54 10 71 10 25 60 25 23 44 155 42 50 42 56 25 56 23 44 23 56 25 156 6 42 6 19 66 158 41 31 159 57 22 57 57 22 57 18 15 157 19 66 158 24 26 24 58 70 160 35 38 35 58 70 161 24 26 24 9 37 162 59 63 59 5 65 5 32 34 163 75 64 75 5 65 5 59 63 59 60 54 60 1 73 1 64 20 164 47 52 47 1 73 1 60 54 60 27 19 27 61 18 61 12 23 165 12 23 166 61 18 167 37 0 168 78 4 78 7 76 169 30 55 30 30 55 30 62 5 62 78 4 78 38 53 38 62 5 62 30 55 30 63 62 63 17 29 170 52 32 171 4 30 172 17 29 173 63 62 63 60 54 60 64 20 174 28 6 28 65 69 65 3 80 3 23 44 23 66 16 66 80 8 80 29 7 29 29 7 29 4 30 175 66 16 66 21 56 21 67 36 67 13 2 13 46 67 46 68 14 68 72 13 72 46 67 46 20 27 176 68 14 68 15 51 177 8 35 8 69 78 69 71 79 71 11 49 11 35 38 178 44 12 44 16 61 16 72 13 72 16 61 16 26 40 179 76 68 76 76 68 76 72 13 72 16 61 16 10 71 10 43 43 43 74 41 74 43 43 43 55 39 55 74 41 74 18 15 18 75 64 75 59 63 59 76 68 180 26 40 26 55 39 55 52 32 52 7 76 181 78 4 78 38 53 38 79 1 79 22 17 182</p>
        </triangles>
      </mesh>
    </geometry>
    <geometry id="geom-MossRock128" name="MossRock128">
      <mesh>
        <source id="geom-MossRock128-positions">
          <float_array id="geom-MossRock128-positions-array" count="123">2.405561 2.665051 8.716794 -3.633297 1.882419 3.377989 3.160293 -3.547048 2.480614 0.3644367 -3.378536 9.113975 2.640754 4.034389 4.246571 -3.779435 1.955124 7.289916 2.173358 -3.465685 8.23747 1.615121 4.730796 7.168734 0.4594858 -1.434592 10.24982 0.7567624 -3.326678 2.98544 -4.834144 2.15699 4.418392 -2.820383 -2.001248 6.730259 1.89088 -4.501116 2.74613 4.387677 -2.27731 3.886643 1.189225 3.972933 3.329769 -5.054646 1.283851 6.189912 3.062791 2.131052 8.507813 -2.374062 -2.094035 4.204365 2.045687 -2.139485 9.638109 2.077385 2.723778 3.059229 0.5422997 4.816423 6.463979 -1.662806 0.2942037 8.004066 -4.977159 1.268224 4.416107 1.35056 0.9748022 10.07911 2.53862 1.325666 9.944895 2.514671 -2.906963 2.038536 -0.9642549 3.081962 3.667652 1.261863 2.556161 8.574798 -1.428684 3.203076 7.149272 -1.285878 -3.242568 5.725871 -0.28082 -0.05304712 2.911438 2.119315 3.957741 3.367444 2.443623 4.605247 5.50963 1.22262 -2.345695 10.21439 3.091809 -1.160434 8.265621 -3.986483 0.3546098 5.328132 1.976258 -4.80779 3.832181 -4.917509 2.139593 6.180303 -0.4329345 -2.39395 8.740711 3.425619 -3.80646 3.718881 0.8344682 4.625533 4.335772</float_array>
          <technique_common>
            <accessor source="#geom-MossRock128-positions-array" count="41" stride="3">
              <param name="X" type="float"/>
              <param name="Y" type="float"/>
              <param name="Z" type="float"/>
            </accessor>
          </technique_common>
        </source>
        <source id="geom-MossRock128-normals">
          <float_array id="geom-MossRock128-normals-array" count="123">-0.6381957 -0.557054 -0.5314103 -0.7538465 -0.5482547 0.3621217 -0.7946208 -0.6043063 -0.05823764 -0.2362734 0.002196548 -0.9716841 -0.4303035 0.1977471 -0.8807582 -0.2819913 0.6006259 -0.7481506 -0.13175 0.5558842 -0.8207526 0.9704863 -0.1210832 -0.2085552 0.7936977 0.5360433 -0.2875792 0.8673981 0.3826053 0.3181722 0.9066427 -0.1766091 0.3831556 -0.3982597 0.6317992 0.6649956 -0.5151599 0.2323832 0.8249899 -0.486636 0.05703611 0.8717409 -0.299231 0.5585303 0.7736309 0.2096632 0.8420684 0.4969529 -0.775607 -0.4065202 -0.482882 -0.7299125 0.5741865 -0.3708606 -0.2807272 0.9406508 0.1907052 0.7068887 -0.3402298 0.6201227 0.507372 0.3063667 0.8054273 0.1242628 -0.4395265 0.8895927 -0.1309918 -0.8091453 -0.572822 -0.3798276 -0.9244228 0.03425666 0.5146431 -0.7676445 0.381922 -0.3392104 -0.7848054 0.5186683 -0.2142979 0.9194666 -0.3296327 0.3480469 0.6968497 0.6271075 0.6764162 0.7365161 -0.002271937 -0.2800116 0.3412738 0.897288 0.7276068 -0.6852423 -0.03211195 0.3612879 0.2094635 -0.9086232 -0.803134 -0.4055165 0.4364999 -0.4981758 -0.8670209 0.009780512 -0.5455374 -0.3927931 -0.7403396 0.1477558 -0.06651516 -0.9867847 0.4525598 0.5363026 -0.7124389 -0.7535289 0.5827641 0.3042699 -0.7399555 -0.3127928 0.5955054 -0.561176 0.05585615 0.8258097 0.6117712 -0.4047838 -0.6796221</float_array>
          <technique_common>
            <accessor source="#geom-MossRock128-normals-array" count="41" stride="3">
              <param name="X" type="float"/>
              <param name="Y" type="float"/>
              <param name="Z" type="float"/>
            </accessor>
          </technique_common>
        </source>
        <source id="geom-MossRock128-map1">
          <float_array id="geom-MossRock128-map1-array" count="339">0.8379132 1.153444 0.847859 0.9190761 0.7385191 -0.2026122 0.05629039 0.0489766 -0.4305454 0.5886359 1.254328 0.07037768 1.011819 0.01800764 0.8777284 0.06236431 0.7477526 0.7910173 0.8183689 1.031696 0.05930969 0.7474731 1.100263 0.760237 0.6827415 1.542833 0.6007072 0.3615387 0.07696363 -0.3023195 1.071584 0.06165028 0.7733897 0.7547066 0.6488644 0.1841639 0.7824941 -0.3631042 -0.07219005 0.2102333 -0.07341409 1.099587 0.3066157 1.004014 -0.21486 -0.0995875 0.662501 0.5116163 0.7700953 1.100363 0.9313271 0.7664907 0.007287264 0.2408467 0.8021548 0.2277372 1.387458 0.1938194 0.8453715 -0.2835773 0.3887752 0.5812293 1.111138 0.3311763 0.5368157 0.9724115 1.089746 0.6605163 0.06106985 0.7138737 0.6232516 1.499474 0.8647574 0.6678113 1.465382 0.1382843 0.1302674 -0.5428333 0.5801077 0.890861 -0.1290379 0.7026092 0.8240842 1.117377 0.3609098 0.9062424 0.7552938 0.379046 0.3937498 0.08764559 0.4933116 0.4927148 -0.3211161 0.1884943 -0.2052906 1.002085 1.084318 0.3388247 0.8526928 0.6976253 0.2015485 1.533833 0.3520765 1.038846 0.9350123 0.4555126 0.2927243 0.03606921 0.7933372 -0.08724731 -0.1111376 1.082171 0.5091755 0.7711803 0.4873698 0.1954201 1.159519 0.9774061 -0.1160256 0.01603121 0.3516698 0.04066479 1.086894 0.7591534 0.2335093 0.007287264 0.9639308 0.5444874 0.2927243 0.5801077 -0.1290379 0.890861 0.5801077 -0.1290379 0.890861 0.5886359 0.07037768 1.254328 0.8183689 0.05930969 1.031696 0.03606921 0.5444874 0.2927243 0.1841639 0.2452934 0.6488644 0.6390902 0.7552938 0.9062424 0.1841639 0.2452934 0.6488644 0.2175059 -0.07219005 -0.3631042 0.620954 0.08764559 0.3937498 0.7591534 0.2335093 0.007287264 0.2175059 -0.07219005 -0.3631042 0.1222716 1.011819 0.01800764 -0.0995875 0.2102333 -0.07341409 0.05930969 1.031696 0.8183689 0.01603121 -0.1160256 0.9774061 0.1473072 0.3388247 1.084318 0.1884943 1.002085 -0.2052906 0.6390902 0.7552938 0.9062424 0.847859 0.8379132 1.153444 0.7591534 0.2335093 0.007287264 0.05930969 1.031696 0.8183689 0.8183689 0.05930969 1.031696 0.1473072 0.3388247 1.084318 0.2525269 0.760237 1.100263 0.6112248 1.111138 0.5812293 0.1841639 0.2452934 0.6488644 1.071584 0.7733897 0.06165028 0.2266103 0.06165028 -0.07158363 0.3394837 0.06106985 -0.08974653 0.337499 0.5116163 -0.0995875 0.2288197 0.5091755 -0.08217108 0.8045799 1.159519 0.4873698 0.3767484 1.499474 0.7138737 0.6678113 1.465382 0.8647574 0.2277372 1.387458 0.8021548 0.847859 0.8379132 1.153444 0.9313271 0.7700953 1.100363 -0.0995875 0.2102333 -0.07341409 0.2175059 -0.07219005 -0.3631042 1.071584 0.7733897 0.06165028 0.847859 0.8379132 1.153444 -0.08217108 0.7711803 0.5091755 0.1841639 0.6488644 0.2452934 0.2408467 0.007287264 0.2335093 0.1841639 0.2452934 0.6488644 0.379046 0.08764559 0.3937498 0.5886359 0.07037768 1.254328 0.7591534 0.2335093 0.007287264 0.1473072 0.3388247 1.084318 0.1222716 0.01800764 1.011819 0.1884943 1.002085 -0.2052906 0.1222716 1.011819 0.01800764 1.100263 0.760237 0.7474731 0.6007072 0.3172585 1.542833 0.5886359 0.07037768 1.254328 0.6007072 0.3172585 1.542833 0.2277372 1.387458 0.8021548 0.05930969 1.031696 0.8183689 0.03606921 0.2927243 0.5444874 -0.0995875 0.5116163 0.662501 -0.08974653 0.06106985 0.6605163 -0.08217108 0.7711803 0.5091755 0.5886359 0.07037768 1.254328 0.6007072 0.3172585 1.542833 0.01603121 -0.1160256 0.9774061 0.0489766 -0.4305454 0.9437096 0.9437096 -0.4305454 0.0489766 0.3516698 1.086894 0.04066479 0.1884943 1.002085 -0.2052906</float_array>
          <technique_common>
            <accessor source="#geom-MossRock128-map1-array" count="113" stride="3">
              <param name="S" type="float"/>
              <param name="T" type="float"/>
              <param name="P" type="float"/>
            </accessor>
          </technique_common>
        </source>
        <vertices id="geom-MossRock128-vertices">
          <input semantic="POSITION" source="#geom-MossRock128-positions"/>
        </vertices>
        <triangles material="MossRock01_jpg" count="78">
          <input semantic="VERTEX" source="#geom-MossRock128-vertices" offset="0"/>
          <input semantic="NORMAL" source="#geom-MossRock128-normals" offset="1"/>
          <input semantic="TEXCOORD" source="#geom-MossRock128-map1" offset="2" set="1"/>
          <p>17 0 17 11 1 11 35 2 35 30 3 30 1 4 1 26 5 26 26 5 26 14 6 14 30 3 30 13 7 13 4 8 4 16 9 16 16 9 16 34 10 34 13 7 13 28 11 28 5 12 5 21 13 21 21 13 21 27 14 27 28 11 28 28 11 28 27 14 27 7 15 7 35 2 42 22 16 22 1 4 1 1 4 1 17 0 41 35 2 42 10 17 10 20 18 20 26 5 43 18 19 18 24 20 24 33 21 33 12 22 12 36 23 36 6 24 6 6 24 6 3 25 3 12 22 12 40 26 40 26 5 44 20 18 20 0 27 0 16 9 16 4 8 4 4 8 4 32 28 32 0 27 0 21 13 21 23 29 23 27 14 27 3 25 45 6 24 46 33 21 33 36 23 36 39 30 39 6 24 6 30 3 30 14 6 14 19 31 19 5 12 5 15 32 15 35 2 47 35 2 47 11 1 48 5 12 5 28 11 49 20 18 20 10 17 10 5 12 5 11 1 50 21 13 21 12 22 12 3 25 3 29 33 29 29 33 52 17 0 53 9 34 9 9 34 9 12 22 51 29 33 52 25 35 25 12 22 54 9 34 9 13 7 56 25 35 25 19 31 19 19 31 19 4 8 55 13 7 56 6 24 57 39 30 58 13 7 13 32 28 59 31 36 31 40 26 40 14 6 14 31 36 60 19 31 19 10 17 10 37 37 37 28 11 61 0 27 62 23 29 23 24 20 24 30 3 30 17 0 63 1 4 1 6 24 64 13 7 13 34 10 34 33 21 33 6 24 65 18 19 18 19 31 19 25 35 25 30 3 30 20 18 20 7 15 67 32 28 66 32 28 66 40 26 40 20 18 20 20 18 68 28 11 28 7 15 7 21 13 21 11 1 69 38 38 38 38 38 38 23 29 23 21 13 21 1 4 1 22 16 22 10 17 70 15 32 73 37 37 74 10 17 71 10 17 71 22 16 72 15 32 73 24 20 24 23 29 23 33 21 33 38 38 75 8 39 8 23 29 76 24 20 77 18 19 78 34 10 34 34 10 34 16 9 16 24 20 77 0 27 79 24 20 24 16 9 80 13 7 81 2 40 2 25 35 25 2 40 2 12 22 82 25 35 25 1 4 1 10 17 83 26 5 26 27 14 27 23 29 23 0 27 84 0 27 84 7 15 7 27 14 27 28 11 28 37 37 85 5 12 5 29 33 29 11 1 86 17 0 87 29 33 89 3 25 90 38 38 38 38 38 38 11 1 88 29 33 89 9 34 9 17 0 91 30 3 30 30 3 30 25 35 25 9 34 9 31 36 31 32 28 92 4 8 93 19 31 19 31 36 94 4 8 95 0 27 0 32 28 32 7 15 96 23 29 23 8 39 97 33 21 33 3 25 98 33 21 33 8 39 99 18 19 100 6 24 101 34 10 34 35 2 102 15 32 103 22 16 104 36 23 36 12 22 12 39 30 39 37 37 105 15 32 15 5 12 5 3 25 106 8 39 107 38 38 38 13 7 13 39 30 108 2 40 109 2 40 110 39 30 39 12 22 12 40 26 111 31 36 112 14 6 14 14 6 14 26 5 26 40 26 111</p>
        </triangles>
      </mesh>
    </geometry>
    <geometry id="geom-Collision" name="Collision">
      <mesh>
        <source id="geom-Collision-positions">
          <float_array id="geom-Collision-positions-array" count="243">2.405561 2.665051 8.716794 -3.633297 1.882419 3.377989 3.160293 -3.547048 2.480614 0.3644367 -3.378536 9.113975 1.615121 4.730796 7.168734 -3.779435 1.955124 7.289916 2.045687 -2.139485 9.638109 2.119315 3.957741 3.367444 -5.054646 1.283851 6.189912 1.89088 -4.501116 2.74613 0.4594858 -1.434592 10.24982 4.387677 -2.27731 3.886643 -2.820383 -2.001248 6.730259 0.7567624 -3.326678 2.98544 2.786891 -1.169358 2.47441 -4.977159 1.268224 4.416107 3.062791 2.131052 8.507813 2.443623 4.605247 5.50963 -1.428684 3.203076 7.149272 0.5422997 4.816423 6.463979 2.778218 -3.102504 7.768837 2.514671 -2.906963 2.038536 -2.374062 -2.094035 4.204365 1.380172 -3.496841 8.888846 1.976258 -4.80779 3.832181 1.35056 0.9748022 10.07911 2.53862 1.325666 9.944895 -3.986483 0.3546098 5.328132 -0.9642549 3.081962 3.667652 1.261863 2.556161 8.574798 2.077385 2.723778 3.059229 -3.515783 2.79614 5.336683 -3.7092 0.9008422 6.948967 2.921297 2.912393 4.061323 -4.917509 2.139593 6.180303 3.425619 -3.80646 3.718881 -4.834144 2.15699 4.418392 -1.285878 -3.242568 5.725871 -0.28082 -0.05304712 2.911438 1.210831 -4.61272 3.742574 2.439873 3.330883 7.349003 0.8344682 4.625533 4.335772 0.3063647 -3.882938 8.160884 1.22262 -2.345695 10.21439 3.093067 2.982973 5.856506 4.053635 -2.274413 3.012256 3.091809 -1.160434 8.265621 -3.476294 0.8046609 3.732224 3.336461 -2.5189 2.330976 -1.662806 0.2942037 8.004066 -0.4329345 -2.39395 8.740711 3.168628 1.19532 3.744925 2.049735 4.505809 3.790551 3.891004 -0.739157 4.920259 -0.1062644 0.07369285 8.982489 2.427166 -0.685086 9.946031 2.173358 -3.465685 8.23747 -1.293216 3.570923 5.392138 2.590507 -4.430858 3.020547 -3.021125 2.318746 7.488741 -2.729973 2.200238 3.229915 -2.75544 -2.364347 5.483924 0.5821433 2.589499 2.968694 1.593579 4.905 5.432185 -2.443316 2.876894 3.848451 0.5110145 -2.761237 9.904435 0.5426924 4.173933 7.603449 1.873803 -3.220565 2.225148 3.457366 -2.178077 6.681843 -5.17696 1.690507 5.295402 2.207385 2.054337 9.563326 4.022236 -2.964184 3.27041 3.30192 0.7795684 8.29591 2.640754 4.034389 4.246571 1.564533 -0.4179645 10.30957 -3.632642 2.586146 6.713116 2.989281 0.6591063 9.36304 -4.445899 1.765956 3.703732 1.189225 3.972933 3.329769 -0.9094923 -2.402736 3.785163 -0.3223755 2.716717 8.081301</float_array>
          <technique_common>
            <accessor source="#geom-Collision-positions-array" count="81" stride="3">
              <param name="X" type="float"/>
              <param name="Y" type="float"/>
              <param name="Z" type="float"/>
            </accessor>
          </technique_common>
        </source>
        <source id="geom-Collision-normals">
          <float_array id="geom-Collision-normals-array" count="243">-0.5322707 -0.8461822 -0.02575622 -0.4755172 -0.5170119 -0.7117458 -0.5863629 -0.3676162 -0.7218289 -0.4698729 -0.8606955 -0.1960169 -0.1556544 0.545442 -0.8235683 -0.1456851 0.173358 -0.9740241 -0.3023219 0.6308731 -0.7145631 -0.225149 0.5913269 0.7743645 -0.3761511 0.3192252 0.8698308 -0.476164 0.04134842 0.8783839 -0.6358811 0.2493843 0.7303855 0.983328 0.1759256 0.0460025 0.9458883 0.3180686 0.06424671 0.9776313 0.05137543 0.2039544 0.9389392 -0.1742347 0.2967077 -0.4286117 0.7002331 0.5709341 -0.2484426 0.664215 0.7050496 -0.5478354 -0.5640709 -0.6178191 -0.7247303 -0.6821272 -0.09730591 -0.7778903 -0.6258757 -0.05626984 -0.2311498 0.8897613 -0.3935665 -0.3355526 0.9415542 -0.02966553 -0.4551464 0.8850456 -0.0976521 -0.7283875 -0.5206233 0.4454245 -0.7624446 -0.3298123 0.5566885 0.4968608 -0.7749002 0.390716 0.1307916 -0.9895507 0.06068623 0.7806361 -0.5166249 0.3517187 0.674759 0.589876 0.4435613 0.6917669 0.719648 0.05971106 0.3072314 0.8005966 0.5144452 -0.2973104 0.8866893 -0.3541024 0.3329722 0.8004289 -0.4984408 -0.7060924 0.6161268 -0.3490291 -0.5925041 -0.3610714 0.7201154 -0.8293257 -0.3752516 0.4140111 -0.3702435 0.05920181 -0.9270464 -0.1631486 -0.7283086 -0.6655443 0.7220885 -0.6914104 0.02323745 0.6730123 -0.1712285 0.7195382 0.4939416 0.3020984 0.815327 0.1122194 0.031046 0.9931984 0.6898496 -0.4105181 0.5963073 0.2079681 -0.4184121 0.884127 0.2790529 -0.8241474 0.4928595 0.8289354 0.09391484 -0.5514037 0.5305092 0.03735085 -0.8468559 0.2972634 0.2657852 -0.9170565 0.8692423 0.2481809 -0.4275794 0.9985951 -0.03564211 -0.03921283 -0.3347427 -0.887657 0.3162473 -0.8163837 -0.4114241 -0.4052752 -0.4594066 -0.4297701 -0.7773308 -0.2296152 -0.02732896 -0.9728977 -0.2106304 0.3354385 -0.9182134 0.3888738 0.2026469 -0.8987276 0.02087492 -0.1389479 -0.9900796 0.52027 -0.4915328 -0.6983656 -0.7414801 0.5673826 0.358168 0.1303088 0.6771448 0.72422 -0.3547813 0.3819692 0.8533638 0.8558738 0.4077647 0.3181321 0.09842335 0.9932407 -0.06152844 -0.2956518 0.4040611 0.8656354 -0.3957597 0.840144 0.3708535 -0.4384448 0.1359432 0.8884175 -0.3319181 0.9296259 0.1600814 0.9112837 -0.1915909 0.3644926 0.8941758 -0.001403774 0.4477138 -0.3865995 -0.5363483 0.7502475 0.4773191 -0.8088925 -0.3433068 -0.5246157 0.002272387 0.8513362 0.289216 0.8070331 0.5148318 -0.2991675 0.1872981 -0.935638 -0.5650388 0.1301542 -0.8147337 0.854638 0.4281524 -0.2937338 0.4780741 0.3744542 -0.7944994 0.8890041 0.2409835 -0.3893567 -0.9933151 0.1073815 -0.04235773 0.8532643 -0.4384131 -0.2823721 -0.423894 -0.7358665 0.5280288</float_array>
          <technique_common>
            <accessor source="#geom-Collision-normals-array" count="81" stride="3">
              <param name="X" type="float"/>
              <param name="Y" type="float"/>
              <param name="Z" type="float"/>
            </accessor>
          </technique_common>
        </source>
        <source id="geom-Collision-map1">
          <float_array id="geom-Collision-map1-array" count="669">0.9430515 0.9305705 0.9741678 1.048412 0.02653277 0.810526 -0.1088639 -0.1254227 1.101969 0.6285371 0.9978265 -0.08032918 1.292851 0.6684322 0.8403201 1.073159 0.6889524 0.8228374 0.9132289 0.1294834 1.08658 1.161947 0.02474719 0.9256968 0.2908314 0.5026852 -0.2890942 0.1129853 -0.2704194 -0.08046186 0.7511547 1.190163 0.6446322 0.1061449 0.1126648 1.309806 0.08924106 0.1528918 0.5941839 1.071548 -0.03993875 0.6949709 -0.0387395 0.2937583 -0.1264732 0.2934777 0.2023208 -0.2759729 0.8526276 0.8951831 1.085459 1.271591 0.3874907 0.9806129 0.3249023 1.034157 0.6651368 0.3413444 0.5490937 1.307351 1.037271 0.7700498 -0.03358793 0.007356524 -4.76241e-4 -0.2002813 0.8628203 0.1664658 0.1648181 0.8005349 -0.1003622 0.9597048 0.9014722 0.1034427 -0.3223495 0.7955209 0.6568361 1.161257 0.9966991 0.7162489 1.138529 0.448183 0.356757 -0.1082186 0.5964544 1.013649 0.07558239 0.7805015 0.9246128 0.9065257 0.08140332 0.9529959 -0.02744395 1.028513 0.358205 0.9652495 0.3556876 0.6312184 -0.06126523 0.9849347 0.142244 1.061499 1.265872 0.501058 0.8540743 1.146897 0.08425719 -0.1527911 1.251756 0.2027078 0.8570201 1.057305 0.4241074 0.3490838 0.4807262 0.482787 -0.05246985 1.289318 0.08826923 0.7718598 1.055799 0.6989578 0.979978 0.2918706 0.1887174 1.275026 0.6187035 0.8364364 -0.1657412 0.7738562 0.09456527 1.184163 0.9968862 0.4462284 1.090585 -0.2532414 0.1066356 -0.03539789 0.2952693 0.8541719 1.090372 0.3719743 0.08651668 -0.02182651 -0.1317999 0.0652357 -0.1507615 0.2852575 0.5415882 0.8098819 0.4935156 0.0863941 0.9346205 -0.1033804 0.694177 0.08866721 0.08608541 0.09639341 1.254753 0.3666055 0.2876905 1.225703 0.5488318 0.5042483 0.9755615 0.977826 0.3757616 1.138721 0.9348477 0.8494049 -0.09508646 0.6521584 0.3675953 1.096446 1.005485 -0.03399396 -0.2585225 0.05524883 0.8844107 0.7226201 0.8954495 0.8643434 0.001459002 0.9085929 0.3831379 0.100238 0.3345977 0.9302581 -0.04277444 0.1633278 0.3743767 1.32235 0.8469088 0.1061977 0.9789238 0.6533576 1.131678 0.02420008 0.658722 1.198556 0.7420441 0.1158769 -0.05357945 -0.1686816 0.1229484 0.5859854 1.152273 0.2219709 0.3512147 -0.3098059 0.9406099 0.8396373 1.073917 -0.01016569 0.00831604 1.247924 0.6237764 0.8593007 1.125951 1.174926 0.1736127 1.013994 0.8317535 0.4209942 1.200281 1.048301 0.5912811 0.9296905 0.6033782 1.040002 1.073011 1.186013 0.08169192 0.790805 0.2317984 1.16452 0.01836759 0.9150938 0.09548092 0.4128185 0.5122371 0.9518004 0.8229603 0.5964544 0.07558239 1.013649 0.2317984 0.01836759 1.16452 0.5964544 0.07558239 1.013649 0.8471082 0.5941839 0.08924106 0.3050291 -0.07154793 -0.03993875 -0.03358793 0.7700498 1.037271 -0.1527911 0.08425719 1.146897 0.7718598 0.08826923 -0.2893177 0.3490838 0.4241074 -0.05730528 0.1066356 -0.03539789 1.253241 0.0652357 -0.1507615 1.1318 0.694177 0.08866721 1.10338 0.6750977 0.6651368 1.034157 0.341278 0.7420441 1.198556 0.1596799 0.6684322 1.292851 0.1596799 0.6684322 1.292851 0.3757616 1.138721 0.977826 0.1294834 1.08658 0.9132289 -0.09508646 0.8494049 0.9348477 -0.03358793 0.7700498 1.037271 -0.1019687 -0.1088639 -0.1254227 -0.1019687 -0.1088639 -0.1254227 0.835182 0.1371797 0.1664658 1.021827 0.6280257 0.08651668 0.7718598 0.08826923 -0.2893177 0.8005349 0.9597048 -0.1003622 0.7738562 1.184163 0.09456527 0.8870147 -0.08046186 -0.2704194 1.101969 -0.1254227 -0.1088639 0.9136059 0.9346205 0.4935156 0.4957517 0.9755615 0.5488318 0.8396373 1.073917 0.9406099 0.7162489 1.138529 0.9966991 -0.1082186 0.356757 0.5518171 -0.2890942 0.5026852 0.7091686 -0.2759729 0.2023208 0.7065223 0.979978 1.055799 0.6989578 0.8403201 1.292851 0.6684322 0.9741678 0.9430515 0.9305705 0.2194985 0.9065257 0.9246128 0.2044791 1.161257 0.6568361 0.05939007 1.073917 0.8396373 0.02583218 0.9305705 0.9430515 0.2937583 -0.1264732 1.038739 0.9529959 -0.02744395 0.9185967 0.694177 0.08866721 1.10338 0.6750977 0.6651368 1.034157 -0.07315844 0.8228374 0.6889524 -0.2890942 0.7091686 0.5026852 -0.06126523 0.6443124 0.6312184 1.254753 0.09639341 0.9139146 0.9529959 -0.02744395 0.9185967 -0.2658722 0.8540743 0.501058 -0.2890942 0.7091686 0.5026852 -0.07315844 0.8228374 0.6889524 0.1459257 0.501058 -0.2658722 -0.1527911 0.08425719 1.146897 0.1459257 0.501058 -0.2658722 0.1429799 0.2027078 -0.2517557 0.209195 0.08169192 -0.1860129 0.1429799 0.2027078 -0.2517557 0.3490838 0.4241074 -0.05730528 0.100238 0.3831379 0.09140703 0.1648181 0.1664658 0.1371797 0.4128185 0.09548092 0.08490625 0.4935156 0.9346205 0.0863941 0.08924106 0.5941839 0.1528918 0.3490838 0.4241074 -0.05730528 0.3050291 -0.07154793 -0.03993875 0.5871815 0.08490625 0.09548092 1.270419 -0.08046186 0.8870147 0.8870147 -0.08046186 -0.2704194 0.7718598 0.08826923 -0.2893177 0.020022 0.6989578 1.055799 0.02583218 0.9305705 0.9430515 -0.08545858 0.8951831 0.8526276 0.5964544 0.07558239 1.013649 0.8005349 0.9597048 -0.1003622 0.6446322 0.2488453 1.190163 0.6533576 0.02420008 1.131678 0.6446322 0.2488453 1.190163 0.1066356 -0.03539789 1.253241 0.694177 0.08866721 1.10338 0.1066356 -0.03539789 1.253241 -0.03358793 0.7700498 1.037271 0.1294834 1.08658 0.9132289 -0.03358793 0.7700498 1.037271 0.3757616 1.138721 0.977826 1.021827 0.6280257 0.08651668 1.275973 0.7065223 0.2023208 1.186013 0.790805 0.08169192 1.048412 0.810526 0.02653277 -0.06126523 0.6443124 0.6312184 0.9757999 1.131678 0.6533576 0.9136059 0.9346205 0.4935156 1.080329 0.9978265 0.6285371 1.165741 0.8364364 0.6187035 1.080329 0.9978265 0.6285371 0.9136059 0.9346205 0.4935156 0.694177 0.08866721 1.10338 0.9529959 -0.02744395 0.9185967 0.694177 0.08866721 1.10338 0.4957517 0.9755615 0.5488318 0.3431639 1.161257 0.7955209 0.07538718 0.9065257 0.7805015 0.4957517 0.9755615 0.5488318 0.3431639 1.161257 0.7955209 0.8005349 0.9597048 -0.1003622 0.9348477 -0.09508646 0.8494049 0.6750977 0.6651368 1.034157 0.8870147 -0.08046186 -0.2704194 -0.07315844 0.8228374 0.6889524 -0.06126523 0.6443124 0.6312184 0.9447511 0.7226201 0.8844107 0.8954495 0.001459002 0.8643434 1.021827 0.6280257 0.08651668 1.048412 0.810526 0.02653277 0.8471082 0.5941839 0.08924106 0.08924106 0.5941839 0.1528918 0.100238 0.3831379 0.09140703 0.3490838 0.4241074 -0.05730528 0.07430318 1.161947 0.02474719 0.0193871 0.3874907 1.271591 0.1596799 0.6684322 1.292851 0.0193871 0.3874907 1.271591 0.8954495 0.001459002 0.8643434 0.5964544 0.07558239 1.013649 0.8005349 0.9597048 -0.1003622 0.8403201 1.292851 0.6684322 0.3050291 -0.07154793 -0.03993875 -0.03358793 0.7700498 1.037271 -0.1527911 0.08425719 1.146897 0.7162489 1.138529 0.9966991 0.6446322 0.2488453 1.190163 0.6750977 0.6651368 1.034157 0.9447511 0.7226201 0.8844107 0.7162489 1.138529 0.9966991 0.3757616 1.138721 0.977826 0.08608541 1.254753 0.09639341 0.07430318 1.161947 0.02474719 0.5871815 0.08490625 0.09548092 0.835182 0.1371797 0.1664658</float_array>
          <technique_common>
            <accessor source="#geom-Collision-map1-array" count="223" stride="3">
              <param name="S" type="float"/>
              <param name="T" type="float"/>
              <param name="P" type="float"/>
            </accessor>
          </technique_common>
        </source>
        <vertices id="geom-Collision-vertices">
          <input semantic="POSITION" source="#geom-Collision-positions"/>
        </vertices>
        <triangles material="MossRock01_jpg" count="158">
          <input semantic="VERTEX" source="#geom-Collision-vertices" offset="0"/>
          <input semantic="NORMAL" source="#geom-Collision-normals" offset="1"/>
          <input semantic="TEXCOORD" source="#geom-Collision-map1" offset="2" set="1"/>
          <p>37 0 37 79 1 79 13 2 13 13 2 13 39 3 39 37 0 37 78 4 78 62 5 62 28 6 28 29 7 29 80 8 80 49 9 49 49 9 49 54 10 54 29 7 29 53 11 53 44 12 44 72 13 72 72 13 72 68 14 68 53 11 53 18 15 18 80 8 80 66 16 66 22 17 22 61 18 61 27 19 27 28 6 81 64 20 64 31 21 31 31 21 31 57 22 57 28 6 81 49 9 49 12 23 12 50 24 50 50 24 50 54 10 54 49 9 49 56 25 56 24 26 24 20 27 20 40 28 40 17 29 17 4 30 4 41 31 41 52 32 52 78 4 82 78 4 82 28 6 83 41 31 41 64 20 64 36 33 36 31 21 31 32 34 32 8 35 8 27 19 27 27 19 27 12 23 84 32 34 32 67 36 67 9 37 9 13 2 85 24 26 24 35 38 35 20 27 20 55 39 55 26 40 26 74 41 74 6 42 6 55 39 55 43 43 43 43 43 43 23 44 23 6 42 6 45 45 45 48 46 48 14 47 14 14 47 14 51 48 51 45 45 45 20 27 86 35 38 87 11 49 11 39 3 88 42 50 42 37 0 89 27 19 27 15 51 15 47 52 47 47 52 47 22 17 22 27 19 27 38 53 38 60 54 60 28 6 28 28 6 28 62 5 62 38 53 38 38 53 38 30 55 30 14 47 14 14 47 14 21 56 21 38 53 38 45 45 90 2 57 2 48 46 91 36 33 36 34 58 34 31 21 31 70 59 70 25 60 25 26 40 26 44 12 44 17 29 17 40 28 40 40 28 40 16 61 16 44 12 44 51 48 92 44 12 44 53 11 53 63 62 63 52 32 52 41 31 41 18 15 18 59 63 59 49 9 49 49 9 49 80 8 80 18 15 18 75 64 75 34 58 34 5 65 5 66 16 94 4 30 95 19 66 19 19 66 19 18 15 93 66 16 94 63 62 63 41 31 41 19 66 19 19 66 19 4 30 96 63 62 63 46 67 46 72 13 72 76 68 76 76 68 76 55 39 97 46 67 46 6 42 98 56 25 99 20 27 100 67 36 67 21 56 21 2 57 101 2 57 101 9 37 9 67 36 67 2 57 102 21 56 21 48 46 48 47 52 104 60 54 60 38 53 38 38 53 38 22 17 103 47 52 104 39 3 105 24 26 24 56 25 56 56 25 56 42 50 42 39 3 105 65 69 65 23 44 106 43 43 107 2 57 109 35 38 35 58 70 58 58 70 58 9 37 108 2 57 109 26 40 26 25 60 25 74 41 74 50 24 110 10 71 10 54 10 111 16 61 16 0 72 0 70 59 112 70 59 112 26 40 113 16 61 16 27 19 114 8 35 115 15 51 116 64 20 64 1 73 1 77 74 77 77 74 77 36 33 36 64 20 64 29 7 29 0 72 119 40 28 117 40 28 117 4 30 118 29 7 29 70 59 122 0 72 123 29 7 120 29 7 120 25 60 121 70 59 122 14 47 124 30 55 125 51 48 126 31 21 31 34 58 34 75 64 75 31 21 31 75 64 75 18 15 127 18 15 127 57 22 57 31 21 31 5 65 128 8 35 129 32 34 130 73 75 73 7 76 7 52 32 131 52 32 131 17 29 17 73 75 73 73 75 73 33 77 33 30 55 132 30 55 132 7 76 7 73 75 73 34 58 133 8 35 134 5 65 135 69 78 69 8 35 8 34 58 136 71 79 71 35 38 137 2 57 2 36 33 139 15 51 15 69 78 69 69 78 69 34 58 138 36 33 139 77 74 140 15 51 15 36 33 141 22 17 144 79 1 145 37 0 142 37 0 142 61 18 143 22 17 144 37 0 148 42 50 42 50 24 146 50 24 146 12 23 147 37 0 148 13 2 149 79 1 150 38 53 38 38 53 38 21 56 21 13 2 149 13 2 13 9 37 151 39 3 39 9 37 152 24 26 24 39 3 153 40 28 154 0 72 155 16 61 156 41 31 41 28 6 157 57 22 57 23 44 158 3 80 3 42 50 42 25 60 25 10 71 159 74 41 74 65 69 160 43 43 43 10 71 161 44 12 44 33 77 33 73 75 73 73 75 73 17 29 17 44 12 44 53 11 53 11 49 11 45 45 162 45 45 162 51 48 163 53 11 53 45 45 164 11 49 11 71 79 71 71 79 71 2 57 2 45 45 164 20 27 165 11 49 11 68 14 68 46 67 46 55 39 168 6 42 166 6 42 166 20 27 167 46 67 46 77 74 171 1 73 172 47 52 169 47 52 169 15 51 170 77 74 171 48 46 48 21 56 21 14 47 14 32 34 173 12 23 12 49 9 49 49 9 49 59 63 59 32 34 173 50 24 175 3 80 176 65 69 174 65 69 174 10 71 10 50 24 175 42 50 177 3 80 178 50 24 179 51 48 180 33 77 33 44 12 44 30 55 181 33 77 33 51 48 182 68 14 68 11 49 11 53 11 53 54 10 183 25 60 184 29 7 185 54 10 186 10 71 10 25 60 187 23 44 188 42 50 42 56 25 56 23 44 23 56 25 189 6 42 6 19 66 19 41 31 41 57 22 57 57 22 57 18 15 190 19 66 19 24 26 24 58 70 58 35 38 35 58 70 58 24 26 24 9 37 191 59 63 59 5 65 192 32 34 193 75 64 75 5 65 5 59 63 194 60 54 195 1 73 1 64 20 64 47 52 196 1 73 197 60 54 60 27 19 27 61 18 61 12 23 198 12 23 199 61 18 200 37 0 201 78 4 78 7 76 202 30 55 30 30 55 30 62 5 62 78 4 78 38 53 38 62 5 62 30 55 30 63 62 63 17 29 203 52 32 52 4 30 204 17 29 205 63 62 63 60 54 206 64 20 64 28 6 207 65 69 65 3 80 3 23 44 208 66 16 66 80 8 80 29 7 29 29 7 29 4 30 209 66 16 66 21 56 21 67 36 67 13 2 210 46 67 46 68 14 68 72 13 72 46 67 46 20 27 211 68 14 68 15 51 15 8 35 8 69 78 69 71 79 71 11 49 11 35 38 212 44 12 44 16 61 16 72 13 72 16 61 16 26 40 213 76 68 76 76 68 76 72 13 72 16 61 16 10 71 214 43 43 43 74 41 74 43 43 43 55 39 55 74 41 74 18 15 215 75 64 75 59 63 216 76 68 76 26 40 217 55 39 218 52 32 219 7 76 220 78 4 78 38 53 38 79 1 221 22 17 222</p>
        </triangles>
      </mesh>
    </geometry>
  </library_geometries>
  <library_lights>
    <light id="EnvironmentAmbientLight" name="EnvironmentAmbientLight">
      <technique_common>
        <ambient>
          <color>0 0 0</color>
        </ambient>
      </technique_common>
    </light>
  </library_lights>
  <library_images>
    <image id="_td_mossGranite_01_512_png">
      <init_from>file:///E:/3TDS%20Torque%20Model%20Library/Rocks%20and%20Stones/MossRock/Textures/3td_mossGranite_01_512.png</init_from>
    </image>
  </library_images>
  <library_visual_scenes>
    <visual_scene id="MaxScene">
      <node name="EnvironmentAmbientLight">
        <instance_light url="#EnvironmentAmbientLight"/>
      </node>
      <node id="node-base01" name="base01">
        <matrix>5.412651 0 0 0.09128059 0 -2.36594e-7 -5.412651 -0.6183994 0 5.412651 -2.36594e-7 -11.3638 0 0 0 1</matrix>
        <node id="node-start01" name="start01">
          <matrix>1 0 0 0 0 1 7.10543e-15 0 0 -7.10543e-15 1 0 0 0 0 1</matrix>
          <node id="node-MossRock256" name="MossRock256">
            <matrix>2.991945 0 0 -0.3904124 0 -4.8745e-7 2.991945 6.502878 0 -2.991945 -4.8745e-7 -0.8824358 0 0 0 1</matrix>
            <node>
              <matrix>1 0 0 0.3946414 0 1 0 -0.04860494 0 0 1 -6.174055 0 0 0 1</matrix>
              <instance_geometry url="#geom-MossRock256">
                <bind_material>
                  <technique_common>
                    <instance_material symbol="MossRock01_jpg_1" target="#MossRock01_jpg-material">
                      <bind_vertex_input semantic="CHANNEL1" input_semantic="TEXCOORD" input_set="1"/>
                    </instance_material>
                  </technique_common>
                </bind_material>
              </instance_geometry>
            </node>
          </node>
          <node id="node-MossRock128" name="MossRock128">
            <matrix>2.991945 0 0 -0.2074348 0 -4.8745e-7 2.991945 6.413489 0 -2.991945 -4.8745e-7 -0.7499259 0 0 0 1</matrix>
            <node>
              <matrix>1 0 0 0.3334846 0 1 0 -0.004316807 0 0 1 -6.144178 0 0 0 1</matrix>
              <instance_geometry url="#geom-MossRock128">
                <bind_material>
                  <technique_common>
                    <instance_material symbol="MossRock01_jpg" target="#MossRock01_jpg-material">
                      <bind_vertex_input semantic="CHANNEL1" input_semantic="TEXCOORD" input_set="1"/>
                    </instance_material>
                  </technique_common>
                </bind_material>
              </instance_geometry>
            </node>
          </node>
          <node id="node-Collision" name="Collision">
            <matrix>2.991945 0 0 -0.3904124 0 -4.8745e-7 2.991945 6.502878 0 -2.991945 -4.8745e-7 -0.8824358 0 0 0 1</matrix>
            <node>
              <matrix>1 0 0 0.3946414 0 1 0 -0.04860494 0 0 1 -6.174055 0 0 0 1</matrix>
              <instance_geometry url="#geom-Collision">
                <bind_material>
                  <technique_common>
                    <instance_material symbol="MossRock01_jpg" target="#MossRock01_jpg-material">
                      <bind_vertex_input semantic="CHANNEL1" input_semantic="TEXCOORD" input_set="1"/>
                    </instance_material>
                  </technique_common>
                </bind_material>
              </instance_geometry>
            </node>
          </node>
        </node>
        <node id="node-detail256" name="detail256">
          <matrix>1 0 0 0 0 1 7.10543e-15 0 0 -7.10543e-15 1 0 0 0 0 1</matrix>
        </node>
        <node id="node-detail128" name="detail128">
          <matrix>1 0 0 0 0 1 7.10543e-15 0 0 -7.10543e-15 1 0 0 0 0 1</matrix>
        </node>
      </node>
    </visual_scene>
  </library_visual_scenes>
  <scene>
    <instance_visual_scene url="#MaxScene"/>
  </scene>
</COLLADA>