<?xml version="1.0" encoding="utf-8"?>
<COLLADA xmlns="http://www.collada.org/2005/11/COLLADASchema" version="1.4.1">
  <asset>
    <contributor>
      <author>Duion</author>
      <authoring_tool>Blender 2.65.0 r53189</authoring_tool>
    </contributor>
    <created>2013-06-11T18:11:38</created>
    <modified>2013-06-11T18:11:38</modified>
    <unit name="meter" meter="1"/>
    <up_axis>Z_UP</up_axis>
  </asset>
  <library_lights>
    <light id="Hemi-light" name="Hemi">
      <technique_common>
        <ambient>
          <color>1 1 1</color>
        </ambient>
      </technique_common>
      <extra>
        <technique profile="blender">
          <adapt_thresh>0.000999987</adapt_thresh>
          <area_shape>0</area_shape>
          <area_size>0.1</area_size>
          <area_sizey>0.1</area_sizey>
          <area_sizez>0.1</area_sizez>
          <atm_distance_factor>1</atm_distance_factor>
          <atm_extinction_factor>1</atm_extinction_factor>
          <atm_turbidity>2</atm_turbidity>
          <att1>0</att1>
          <att2>1</att2>
          <backscattered_light>1</backscattered_light>
          <bias>1</bias>
          <blue>1</blue>
          <buffers>1</buffers>
          <bufflag>0</bufflag>
          <bufsize>512</bufsize>
          <buftype>2</buftype>
          <clipend>40</clipend>
          <clipsta>0.5</clipsta>
          <compressthresh>0.04999995</compressthresh>
          <dist sid="blender_dist">25</dist>
          <energy sid="blender_energy">1</energy>
          <falloff_type>2</falloff_type>
          <filtertype>0</filtertype>
          <flag>0</flag>
          <gamma sid="blender_gamma">1</gamma>
          <green>1</green>
          <halo_intensity sid="blnder_halo_intensity">1</halo_intensity>
          <horizon_brightness>1</horizon_brightness>
          <mode>1</mode>
          <ray_samp>1</ray_samp>
          <ray_samp_method>1</ray_samp_method>
          <ray_samp_type>0</ray_samp_type>
          <ray_sampy>1</ray_sampy>
          <ray_sampz>1</ray_sampz>
          <red>1</red>
          <samp>3</samp>
          <shadhalostep>0</shadhalostep>
          <shadow_b sid="blender_shadow_b">0</shadow_b>
          <shadow_g sid="blender_shadow_g">0</shadow_g>
          <shadow_r sid="blender_shadow_r">0</shadow_r>
          <shadspotsize>45</shadspotsize>
          <sky_colorspace>2</sky_colorspace>
          <sky_exposure>1</sky_exposure>
          <skyblendfac>1</skyblendfac>
          <skyblendtype>1</skyblendtype>
          <soft>3</soft>
          <spotblend>0.15</spotblend>
          <spotsize>45</spotsize>
          <spread>1</spread>
          <sun_brightness>1</sun_brightness>
          <sun_effect_type>0</sun_effect_type>
          <sun_intensity>1</sun_intensity>
          <sun_size>1</sun_size>
          <type>3</type>
        </technique>
      </extra>
    </light>
  </library_lights>
  <library_images/>
  <library_effects>
    <effect id="misc_groundshrubs_01-effect">
      <profile_COMMON>
        <technique sid="common">
          <phong>
            <emission>
              <color sid="emission">0 0 0 1</color>
            </emission>
            <ambient>
              <color sid="ambient">0 0 0 1</color>
            </ambient>
            <diffuse>
              <color sid="diffuse">0.64 0.64 0.64 1</color>
            </diffuse>
            <specular>
              <color sid="specular">0.5 0.5 0.5 1</color>
            </specular>
            <shininess>
              <float sid="shininess">50</float>
            </shininess>
            <transparency>
              <float sid="transparency">0</float>
            </transparency>
            <index_of_refraction>
              <float sid="index_of_refraction">1</float>
            </index_of_refraction>
          </phong>
        </technique>
        <extra>
          <technique profile="GOOGLEEARTH">
            <double_sided>1</double_sided>
          </technique>
        </extra>
      </profile_COMMON>
      <extra><technique profile="MAX3D"><double_sided>1</double_sided></technique></extra>
    </effect>
  </library_effects>
  <library_materials>
    <material id="misc_groundshrubs_01-material" name="misc_groundshrubs_01">
      <instance_effect url="#misc_groundshrubs_01-effect"/>
    </material>
  </library_materials>
  <library_geometries>
    <geometry id="shrubsa-mesh" name="shrubsa">
      <mesh>
        <source id="shrubsa-mesh-positions">
          <float_array id="shrubsa-mesh-positions-array" count="114">1.82165 -1.542805 4.274694 0.1138828 -0.01274096 -0.1155257 0.4029476 0.5248146 3.069956 2.357567 -2.046884 3.073562 1.571783 -2.358839 1.417584 0.2893754 -1.345781 0.1051319 1.273932 -0.8949896 1.630139 0.03381121 0.01675635 -0.1415827 1.226933 -2.051633 3.500189 -0.2342408 -1.678556 2.664238 1.97317 -1.358651 3.023651 2.819611 -1.020987 2.725856 2.079421 0.5364282 1.398073 -2.308886 -2.284115 3.919641 -0.2833828 0.1067177 -0.1544762 -3.71507 -1.782394 2.668614 -4.12696 -2.167238 1.450833 0.3927143 -0.9302086 2.610806 -1.005695 1.256913 1.046964 -0.178097 0.08465486 -0.1177175 -1.956675 -1.58926 2.626421 -1.937971 0.6309268 2.16613 -1.780353 -3.176483 1.071917 -1.078955 -2.326831 -0.05774909 -0.2058219 -0.8262426 -0.3433433 -0.04312109 0.2422546 -0.1446276 -0.1126151 1.578534 3.534549 0.7422884 2.686116 2.362191 -0.09397608 0.6855624 3.735671 -0.523571 -0.9049958 3.262056 -0.3954178 -1.292901 1.897618 -2.215746 -0.05174052 0.7417476 -0.00566858 0.04727566 -0.1402707 -0.2836657 1.346946 4.40346 -2.438144 0.2743545 2.746334 2.482406 0.6501163 4.069362 2.412907 0.03746545 2.131594 1.13412 0.1096194 0.2606464</float_array>
          <technique_common>
            <accessor source="#shrubsa-mesh-positions-array" count="38" stride="3">
              <param name="X" type="float"/>
              <param name="Y" type="float"/>
              <param name="Z" type="float"/>
            </accessor>
          </technique_common>
        </source>
        <source id="shrubsa-mesh-normals">
          <float_array id="shrubsa-mesh-normals-array" count="114">0.8035829 0.5877865 -0.0934782 0.7759331 0.630726 -0.006195247 0.840144 0.4398022 -0.3173009 0.856563 0.3099765 -0.4125492 0.7965026 0.5912961 -0.1260719 0.8270211 0.2419507 -0.5074008 0.8232979 0.09491252 -0.5595874 0.3043001 -0.706412 -0.6390271 0.2437513 -0.8068178 -0.5381024 0.4117558 -0.6998504 -0.5836055 0.07336646 -0.8566546 -0.5105746 0.4952849 -0.5814082 -0.6454359 -0.007476985 -0.6508072 -0.7591785 0.2771081 -0.9045686 -0.323954 0.2525101 -0.8840602 -0.393231 0.150853 -0.8834803 -0.4434645 0.3254799 -0.9196448 -0.2197332 0.5334941 -0.8414564 0.08545178 -0.8635517 0.1307107 -0.4870144 -0.7979675 -0.06662189 -0.5989563 -0.8398389 0.05740529 -0.5397503 -0.8539079 0.3580737 -0.3776055 -0.8956878 0.256325 -0.3633229 -0.8612323 0.246498 -0.4444105 -0.7834712 0.06125062 -0.6183661 -0.9947203 0.09143346 -0.04644912 -0.9748528 0.202826 -0.09207433 -0.9654836 0.2473525 -0.0813623 -0.8633076 0.4688559 -0.1865901 -0.9743034 0.2138127 -0.07034516 -0.9362468 0.3048494 -0.1745964 0.02505564 0.9629505 -0.2684103 -0.06744587 0.9642323 -0.2562334 -0.2097842 0.9449141 -0.2511063 0.1984313 0.932432 -0.3019196 0.271218 0.9374065 -0.2183904 0.1444746 0.9605701 -0.237434 -0.1123386 0.9786981 -0.1716666</float_array>
          <technique_common>
            <accessor source="#shrubsa-mesh-normals-array" count="38" stride="3">
              <param name="X" type="float"/>
              <param name="Y" type="float"/>
              <param name="Z" type="float"/>
            </accessor>
          </technique_common>
        </source>
        <source id="shrubsa-mesh-map-0">
          <float_array id="shrubsa-mesh-map-0-array" count="162">0.5253906 0.7958984 0.6523438 1.010742 0.7763672 0.7333984 0.5253906 0.7958984 0.7763672 0.7333984 0.7490234 0.4970703 0.7763672 0.7333984 0.6523438 1.010742 0.8447266 0.9511719 0.7763672 0.7333984 0.8447266 0.9511719 0.9414063 0.7871094 0.7763672 0.7333984 0.9414063 0.7871094 0.8818359 0.5908203 0.7490234 0.4970703 0.7763672 0.7333984 0.8818359 0.5908203 0.8222656 0.5 0.6787109 0.4990234 0.7490234 -0.00390625 0.7490234 -0.00390625 0.6787109 0.4990234 0.5097656 0.3828125 0.9912109 0.2080078 0.8222656 0.5 0.7490234 -0.00390625 0.9863281 0.3916016 0.8222656 0.5 0.9912109 0.2080078 0.2480468 -0.00390625 0.4667969 0.1826171 0.3369141 0.4970703 0.2480468 -0.00390625 0.3369141 0.4970703 0.15625 0.4970703 0.15625 0.4970703 0.04296875 0.4199219 0.2480468 -0.00390625 0.2226562 0.9804688 0.004882812 0.8027344 0.25 0.4960938 0.2226562 0.9804688 0.4980469 0.7382813 0.5039063 0.9443359 0.25 0.4960938 0.3671875 0.5380859 0.2226562 0.9804688 0.25 0.4960938 0.004882812 0.8027344 0.02441406 0.5908203 0.2226562 0.9804688 0.3671875 0.5380859 0.4980469 0.7382813 0.8222656 0.5 0.6787109 0.4990234 0.7490234 -0.00390625 0.7490234 -0.00390625 0.6787109 0.4990234 0.5097656 0.3828125 0.9912109 0.2080078 0.8222656 0.5 0.7490234 -0.00390625 0.9863281 0.3916016 0.8222656 0.5 0.9912109 0.2080078 0.2226562 0.9804688 0.25 0.4960938 0.004882812 0.8027344 0.2226562 0.9804688 0.5039063 0.9443359 0.4980469 0.7382813 0.25 0.4960938 0.2226562 0.9804688 0.3671875 0.5380859 0.25 0.4960938 0.02441406 0.5908203 0.004882812 0.8027344 0.2226562 0.9804688 0.4980469 0.7382813 0.3671875 0.5380859</float_array>
          <technique_common>
            <accessor source="#shrubsa-mesh-map-0-array" count="81" stride="2">
              <param name="S" type="float"/>
              <param name="T" type="float"/>
            </accessor>
          </technique_common>
        </source>
        <source id="shrubsa-mesh-colors">
          <float_array id="shrubsa-mesh-colors-array" count="243">0.4980392 0.2941176 1 0.9960784 0.2941176 0 0.4980392 0.2941176 0 0.4980392 0.2941176 1 0.4980392 0.2941176 0 0 0.2941176 0 0.4980392 0.2941176 0 0.9960784 0.2941176 0 0.9960784 0.2941176 1 0.4980392 0.2941176 0 0.9960784 0.2941176 1 0.9960784 0.2941176 1 0.4980392 0.2941176 0 0.9960784 0.2941176 1 0.4980392 0.2941176 1 0 0.2941176 0 0.4980392 0.2941176 0 0.4980392 0.2941176 1 0.9960784 0.3921568 0 0.9960784 0.3921568 1 0 0.3921568 0 0 0.3921568 0 0.9960784 0.3921568 1 0.4980392 0.3921568 1 0.4980392 0.3921568 1 0.9960784 0.3921568 0 0 0.3921568 0 0.4980392 0.3921568 1 0.9960784 0.3921568 0 0.4980392 0.3921568 1 0 0.4901961 0 0.4980392 0.4901961 1 0.9960784 0.4901961 0 0 0.4901961 0 0.9960784 0.4901961 0 0.9960784 0.4901961 1 0.9960784 0.4901961 1 0.4980392 0.4901961 1 0 0.4901961 0 1 0.5882353 0 0.9960784 0.5882353 1 0 0.5882353 0 1 0.5882353 0 0.4980392 0.5882353 1 1 0.5882353 1 0 0.5882353 0 0 0.5882353 1 1 0.5882353 0 0 0.5882353 0 0.9960784 0.5882353 1 0.4980392 0.5882353 1 1 0.5882353 0 0 0.5882353 1 0.4980392 0.5882353 1 0.9960784 0.1960784 0 0.9960784 0.1960784 1 0 0.1960784 0 0 0.1960784 0 0.9960784 0.1960784 1 0.4980392 0.1960784 1 0.4980392 0.1960784 1 0.9960784 0.1960784 0 0 0.1960784 0 0.4980392 0.1960784 1 0.9960784 0.1960784 0 0.4980392 0.1960784 1 1 0.0980392 0 0 0.0980392 0 0.9960784 0.0980392 1 1 0.0980392 0 1 0.0980392 1 0.4980392 0.0980392 1 0 0.0980392 0 1 0.0980392 0 0 0.0980392 1 0 0.0980392 0 0.4980392 0.0980392 1 0.9960784 0.0980392 1 1 0.0980392 0 0.4980392 0.0980392 1 0 0.0980392 1</float_array>
          <technique_common>
            <accessor source="#shrubsa-mesh-colors-array" count="81" stride="3">
              <param name="R" type="float"/>
              <param name="G" type="float"/>
              <param name="B" type="float"/>
            </accessor>
          </technique_common>
        </source>
        <vertices id="shrubsa-mesh-vertices">
          <input semantic="POSITION" source="#shrubsa-mesh-positions"/>
        </vertices>
        <polylist material="misc_groundshrubs_01-material" count="27">
          <input semantic="VERTEX" source="#shrubsa-mesh-vertices" offset="0"/>
          <input semantic="NORMAL" source="#shrubsa-mesh-normals" offset="1"/>
          <input semantic="TEXCOORD" source="#shrubsa-mesh-map-0" offset="2" set="0"/>
          <input semantic="COLOR" source="#shrubsa-mesh-colors" offset="3"/>
          <vcount>3 3 3 3 3 3 3 3 3 3 3 3 3 3 3 3 3 3 3 3 3 3 3 3 3 3 3 </vcount>
          <p>2 0 0 0 0 1 1 1 6 2 2 2 2 0 3 3 6 2 4 4 1 3 5 5 6 2 6 6 0 1 7 7 3 4 8 8 6 2 9 9 3 4 10 10 4 5 11 11 6 2 12 12 4 5 13 13 5 6 14 14 1 3 15 15 6 2 16 16 5 6 17 17 10 7 18 18 8 8 19 19 7 9 20 20 7 9 21 21 8 8 22 22 9 10 23 23 12 11 24 24 10 7 25 25 7 9 26 26 11 12 27 27 10 7 28 28 12 11 29 29 14 13 30 30 17 14 31 31 13 15 32 32 14 13 33 33 13 15 34 34 15 16 35 35 15 16 36 36 16 17 37 37 14 13 38 38 20 18 39 39 21 19 40 40 19 20 41 41 20 18 42 42 23 21 43 43 22 22 44 44 19 20 45 45 24 23 46 46 20 18 47 47 19 20 48 48 21 19 49 49 18 24 50 50 20 18 51 51 24 23 52 52 23 21 53 53 28 25 54 54 26 26 55 55 25 27 56 56 25 27 57 57 26 26 58 58 27 28 59 59 30 29 60 60 28 25 61 61 25 27 62 62 29 30 63 63 28 25 64 64 30 29 65 65 33 31 66 66 32 32 67 67 34 33 68 68 33 31 69 69 35 34 70 70 36 35 71 71 32 32 72 72 33 31 73 73 37 36 74 74 32 32 75 75 31 37 76 76 34 33 77 77 33 31 78 78 36 35 79 79 37 36 80 80</p>
        </polylist>
      </mesh>
      <extra><technique profile="MAYA"><double_sided>1</double_sided></technique></extra>
    </geometry>
  </library_geometries>
  <library_visual_scenes>
    <visual_scene id="Scene" name="Scene">
      <node id="Hemi" name="Hemi" type="NODE">
        <translate sid="location">13.62831 5.58176 -7.251319</translate>
        <rotate sid="rotationZ">0 0 1 0</rotate>
        <rotate sid="rotationY">0 1 0 0</rotate>
        <rotate sid="rotationX">1 0 0 0</rotate>
        <scale sid="scale">1 1 1</scale>
        <instance_light url="#Hemi-light"/>
      </node>
      <node id="shrubsa" name="shrubsa" type="NODE">
        <translate sid="location">0 0 0</translate>
        <rotate sid="rotationZ">0 0 1 0</rotate>
        <rotate sid="rotationY">0 1 0 0</rotate>
        <rotate sid="rotationX">1 0 0 0</rotate>
        <scale sid="scale">0.1897081 0.1897081 0.1897081</scale>
        <instance_geometry url="#shrubsa-mesh">
          <bind_material>
            <technique_common>
              <instance_material symbol="misc_groundshrubs_01-material" target="#misc_groundshrubs_01-material">
                <bind_vertex_input semantic="UVMap" input_semantic="TEXCOORD" input_set="0"/>
              </instance_material>
            </technique_common>
          </bind_material>
        </instance_geometry>
      </node>
    </visual_scene>
  </library_visual_scenes>
  <scene>
    <instance_visual_scene url="#Scene"/>
  </scene>
</COLLADA>