<?xml version="1.0" encoding="utf-8"?>
<COLLADA xmlns="http://www.collada.org/2005/11/COLLADASchema" version="1.4.1">
  <asset>
    <contributor>
      <author>Blender User</author>
      <authoring_tool>Blender 2.71.0 commit date:2014-06-25, commit time:18:36, hash:9337574</authoring_tool>
    </contributor>
    <created>2014-11-09T18:24:55</created>
    <modified>2014-11-09T18:24:55</modified>
    <unit name="meter" meter="1"/>
    <up_axis>Z_UP</up_axis>
  </asset>
  <library_images>
    <image id="Wood_jpg" name="Wood_jpg">
      <init_from>Wood.jpg</init_from>
    </image>
    <image id="RoofTiles_jpg" name="RoofTiles_jpg">
      <init_from>RoofTiles.jpg</init_from>
    </image>
    <image id="Plaster_jpg" name="Plaster_jpg">
      <init_from>Plaster.jpg</init_from>
    </image>
  </library_images>
  <library_effects>
    <effect id="Wood-effect">
      <profile_COMMON>
        <newparam sid="Wood_jpg-surface">
          <surface type="2D">
            <init_from>Wood_jpg</init_from>
          </surface>
        </newparam>
        <newparam sid="Wood_jpg-sampler">
          <sampler2D>
            <source>Wood_jpg-surface</source>
          </sampler2D>
        </newparam>
        <technique sid="common">
          <phong>
            <emission>
              <color sid="emission">0 0 0 1</color>
            </emission>
            <ambient>
              <color sid="ambient">0 0 0 1</color>
            </ambient>
            <diffuse>
              <texture texture="Wood_jpg-sampler" texcoord="UVMap"/>
            </diffuse>
            <specular>
              <color sid="specular">2.74542e-4 1.05055e-4 6.99105e-5 1</color>
            </specular>
            <shininess>
              <float sid="shininess">50</float>
            </shininess>
            <index_of_refraction>
              <float sid="index_of_refraction">1</float>
            </index_of_refraction>
          </phong>
        </technique>
      </profile_COMMON>
    </effect>
    <effect id="RoofTiles-effect">
      <profile_COMMON>
        <newparam sid="RoofTiles_jpg-surface">
          <surface type="2D">
            <init_from>RoofTiles_jpg</init_from>
          </surface>
        </newparam>
        <newparam sid="RoofTiles_jpg-sampler">
          <sampler2D>
            <source>RoofTiles_jpg-surface</source>
          </sampler2D>
        </newparam>
        <technique sid="common">
          <phong>
            <emission>
              <color sid="emission">0 0 0 1</color>
            </emission>
            <ambient>
              <color sid="ambient">0 0 0 1</color>
            </ambient>
            <diffuse>
              <texture texture="RoofTiles_jpg-sampler" texcoord="UVMap"/>
            </diffuse>
            <specular>
              <color sid="specular">0.00203893 0.00203893 0.00203893 1</color>
            </specular>
            <shininess>
              <float sid="shininess">50</float>
            </shininess>
            <index_of_refraction>
              <float sid="index_of_refraction">1</float>
            </index_of_refraction>
          </phong>
        </technique>
      </profile_COMMON>
    </effect>
    <effect id="Plaster-effect">
      <profile_COMMON>
        <newparam sid="Plaster_jpg-surface">
          <surface type="2D">
            <init_from>Plaster_jpg</init_from>
          </surface>
        </newparam>
        <newparam sid="Plaster_jpg-sampler">
          <sampler2D>
            <source>Plaster_jpg-surface</source>
          </sampler2D>
        </newparam>
        <technique sid="common">
          <phong>
            <emission>
              <color sid="emission">0 0 0 1</color>
            </emission>
            <ambient>
              <color sid="ambient">0 0 0 1</color>
            </ambient>
            <diffuse>
              <texture texture="Plaster_jpg-sampler" texcoord="UVMap"/>
            </diffuse>
            <specular>
              <color sid="specular">0.02631579 0.02631579 0.02631579 1</color>
            </specular>
            <shininess>
              <float sid="shininess">50</float>
            </shininess>
            <index_of_refraction>
              <float sid="index_of_refraction">1</float>
            </index_of_refraction>
          </phong>
        </technique>
      </profile_COMMON>
    </effect>
  </library_effects>
  <library_materials>
    <material id="Wood-material" name="Wood">
      <instance_effect url="#Wood-effect"/>
    </material>
    <material id="RoofTiles-material" name="RoofTiles">
      <instance_effect url="#RoofTiles-effect"/>
    </material>
    <material id="Plaster-material" name="Plaster">
      <instance_effect url="#Plaster-effect"/>
    </material>
  </library_materials>
  <library_geometries>
    <geometry id="Cube_002-mesh" name="Cube.002">
      <mesh>
        <source id="Cube_002-mesh-positions">
          <float_array id="Cube_002-mesh-positions-array" count="180">1.084412 0.006486058 -0.06179088 0.9608301 0.006486058 -0.06179088 0.9608287 1.575637 -0.06179088 1.084411 1.575637 -0.06179088 1.084412 0.006486058 0.06179088 0.9608301 0.006486058 0.06179088 0.9608287 1.575637 0.06179088 1.084411 1.575637 0.06179088 -1.084412 0.006486058 -0.06179088 -0.9608301 0.006486058 -0.06179088 -0.9608287 1.575637 -0.06179088 -1.084411 1.575637 -0.06179088 -1.084412 0.006486058 0.06179088 -0.9608301 0.006486058 0.06179088 -0.9608287 1.575637 0.06179088 -1.084411 1.575637 0.06179088 -1.079267 -0.06179088 -0.06179088 -1.079267 0.06179088 -0.06179088 1.079267 0.06179088 -0.06179088 1.079267 -0.06179088 -0.06179088 -1.079267 -0.06179088 0.06179088 -1.079267 0.06179088 0.06179088 1.079267 0.06179088 0.06179088 1.079267 -0.06179088 0.06179088 0.9513109 -0.08859455 -0.7442066 0.9513109 0.0625624 -0.7442066 1.102468 0.0625624 -0.7442066 1.102468 -0.08859455 -0.7442066 0.9513109 -0.08859455 1.279902 0.9513109 0.0625624 1.364994 1.102468 0.0625624 1.364994 1.102468 -0.08859455 1.279902 -0.9513109 -0.08859455 -0.7442066 -0.9513109 0.0625624 -0.7442066 -1.102468 0.0625624 -0.7442066 -1.102468 -0.08859455 -0.7442066 -0.951311 -0.08859455 1.279902 -0.951311 0.0625624 1.364994 -1.102468 0.0625624 1.364994 -1.102468 -0.08859455 1.279902 1.084412 0.006486058 1.258181 0.9608301 0.006486058 1.258181 0.9608287 1.575637 1.258181 1.084411 1.575637 1.258181 1.084412 0.006486058 1.381762 0.9608301 0.006486058 1.381762 0.9608287 1.575637 1.381762 1.084411 1.575637 1.381762 -0.9608287 1.575637 1.258181 -1.084411 1.575637 1.258181 -0.9608287 1.575637 1.381762 -1.084411 1.575637 1.381762 -0.9500409 0.006486058 1.258181 -1.073623 0.006486058 1.258181 -1.073624 1.575637 1.258181 -0.9500424 1.575637 1.258181 -0.9500409 0.006486058 1.381762 -1.073623 0.006486058 1.381762 -1.073624 1.575637 1.381762 -0.9500424 1.575637 1.381762</float_array>
          <technique_common>
            <accessor source="#Cube_002-mesh-positions-array" count="60" stride="3">
              <param name="X" type="float"/>
              <param name="Y" type="float"/>
              <param name="Z" type="float"/>
            </accessor>
          </technique_common>
        </source>
        <source id="Cube_002-mesh-normals">
          <float_array id="Cube_002-mesh-normals-array" count="138">1 9.11647e-7 0 0 0 -1 0 0 1 -1 9.11647e-7 0 0 0 -1 0 0 1 0 -1 0 0 0 -1 0 0 1 -1 0 0 0 1 0 1 0 0 0 -1 0 1 0 0 0 1 0 -1 0 0 0 -1 0 1 9.11647e-7 0 0 0 -1 0 0 1 -1 -8.35676e-7 0 0 0 -1 0 0 1 1 9.11647e-7 0 0 0 -1 0 0 1 -1 9.11647e-7 0 0 0 -1 0 0 1 0 -1 0 0 0 -1 0 0 1 -1 0 0 0 1 0 1 0 0 0 -1 0 1 0 0 0 1 0 -1 0 0 0 -1 0 1 9.11647e-7 0 0 0 -1 0 0 1 -1 -8.35676e-7 0 0 0 -1 0 0 1</float_array>
          <technique_common>
            <accessor source="#Cube_002-mesh-normals-array" count="46" stride="3">
              <param name="X" type="float"/>
              <param name="Y" type="float"/>
              <param name="Z" type="float"/>
            </accessor>
          </technique_common>
        </source>
        <source id="Cube_002-mesh-map-0">
          <float_array id="Cube_002-mesh-map-0-array" count="276">0.6291377 0.2228752 0.6291397 0.7001604 0.5933932 0.7001606 0.5576464 0.7001606 0.5576456 0.2228755 0.5933918 0.2228755 0.6291377 0.2228752 0.6648843 0.2228751 0.6648867 0.7001602 0.8946887 0.1449481 0.9304353 0.1449481 0.9304358 0.6222331 0.9304353 0.1449481 0.9661821 0.1449482 0.9661821 0.622233 0.8946887 0.1449481 0.89469 0.6222332 0.8589432 0.6222333 0.4689217 -0.008346199 0.4689227 0.6482093 0.4331761 0.6482094 0.4331761 0.6482094 0.3974295 0.6482095 0.3974289 -0.00834608 0.4689217 -0.008346199 0.5046684 -0.008346259 0.504669 0.6482093 0.03978079 0.5709286 -4.35026e-4 0.5935676 -4.35063e-4 0.03240847 0.1604282 0.5935673 0.1202124 0.5935673 0.1202119 0.03240847 0.07999658 0.5709286 0.07999628 0.03240847 0.1202119 0.03240847 0.07999658 0.5709286 0.03978079 0.5709286 0.03978055 0.03240847 0.2805891 0.7209512 0.280589 0.1584516 0.3225954 0.1584516 0.1545693 0.7445981 0.1545694 0.1584516 0.1965759 0.1584515 0.1965759 0.1584515 0.2385825 0.1584516 0.2385826 0.7209512 0.2385826 0.7209512 0.2385825 0.1584516 0.280589 0.1584516 0.7766901 0.4104771 0.776691 0.8877624 0.7409444 0.8877624 0.7051976 0.8877623 0.705198 0.4104771 0.7409443 0.4104772 0.7766901 0.4104771 0.8124368 0.410477 0.8124379 0.8877622 0.8124379 0.8877622 0.8124368 0.410477 0.8481834 0.4104769 0.7051976 0.8877623 0.705198 0.4104771 0.7409443 0.4104772 0.7766901 0.4104771 0.8124368 0.410477 0.8124379 0.8877622 0.5933918 0.2228755 0.6291377 0.2228752 0.5933932 0.7001606 0.5933932 0.7001606 0.5576464 0.7001606 0.5933918 0.2228755 0.6291397 0.7001604 0.6291377 0.2228752 0.6648867 0.7001602 0.89469 0.6222332 0.8946887 0.1449481 0.9304358 0.6222331 0.9304358 0.6222331 0.9304353 0.1449481 0.9661821 0.622233 0.8589417 0.1449482 0.8946887 0.1449481 0.8589432 0.6222333 0.4331753 -0.00834614 0.4689217 -0.008346199 0.4331761 0.6482094 0.4331753 -0.00834614 0.4331761 0.6482094 0.3974289 -0.00834608 0.4689227 0.6482093 0.4689217 -0.008346199 0.504669 0.6482093 0.03978055 0.03240847 0.03978079 0.5709286 -4.35063e-4 0.03240847 0.1604281 0.03240841 0.1604282 0.5935673 0.1202119 0.03240847 0.1202124 0.5935673 0.07999658 0.5709286 0.1202119 0.03240847 0.07999628 0.03240847 0.07999658 0.5709286 0.03978055 0.03240847 0.3225955 0.7445979 0.2805891 0.7209512 0.3225954 0.1584516 0.1965762 0.7445982 0.1545693 0.7445981 0.1965759 0.1584515 0.1965762 0.7445982 0.1965759 0.1584515 0.2385826 0.7209512 0.2805891 0.7209512 0.2385826 0.7209512 0.280589 0.1584516 0.7409443 0.4104772 0.7766901 0.4104771 0.7409444 0.8877624 0.7409444 0.8877624 0.7051976 0.8877623 0.7409443 0.4104772 0.776691 0.8877624 0.7766901 0.4104771 0.8124379 0.8877622 0.8481838 0.8877622 0.8124379 0.8877622 0.8481834 0.4104769 0.7409444 0.8877624 0.7051976 0.8877623 0.7409443 0.4104772 0.776691 0.8877624 0.7766901 0.4104771 0.8124379 0.8877622</float_array>
          <technique_common>
            <accessor source="#Cube_002-mesh-map-0-array" count="138" stride="2">
              <param name="S" type="float"/>
              <param name="T" type="float"/>
            </accessor>
          </technique_common>
        </source>
        <vertices id="Cube_002-mesh-vertices">
          <input semantic="POSITION" source="#Cube_002-mesh-positions"/>
        </vertices>
        <lines count="4">
          <input semantic="VERTEX" source="#Cube_002-mesh-vertices" offset="0"/>
          <p>48 50 51 50 49 51 48 49</p>
        </lines>
        <polylist material="Wood-material" count="46">
          <input semantic="VERTEX" source="#Cube_002-mesh-vertices" offset="0"/>
          <input semantic="NORMAL" source="#Cube_002-mesh-normals" offset="1"/>
          <input semantic="TEXCOORD" source="#Cube_002-mesh-map-0" offset="2" set="0"/>
          <vcount>3 3 3 3 3 3 3 3 3 3 3 3 3 3 3 3 3 3 3 3 3 3 3 3 3 3 3 3 3 3 3 3 3 3 3 3 3 3 3 3 3 3 3 3 3 3 </vcount>
          <p>7 0 0 4 0 1 0 0 2 1 1 3 2 1 4 3 1 5 7 2 6 6 2 7 5 2 8 15 3 9 11 3 10 8 3 11 11 4 12 10 4 13 9 4 14 15 5 15 12 5 16 13 5 17 23 6 18 20 6 19 16 6 20 16 7 21 17 7 22 18 7 23 23 8 24 22 8 25 21 8 26 28 9 27 29 9 28 25 9 29 29 10 30 30 10 31 26 10 32 31 11 33 27 11 34 26 11 35 31 12 36 28 12 37 24 12 38 36 13 39 32 13 40 33 13 41 37 14 42 33 14 43 34 14 44 34 15 45 35 15 46 39 15 47 39 16 48 35 16 49 32 16 50 47 17 51 44 17 52 40 17 53 41 18 54 42 18 55 43 18 56 47 19 57 46 19 58 45 19 59 57 20 60 58 20 61 54 20 62 53 21 63 54 21 64 55 21 65 59 22 66 58 22 67 57 22 68 3 23 69 7 23 70 0 23 71 0 24 72 1 24 73 3 24 74 4 25 75 7 25 76 5 25 77 12 26 78 15 26 79 8 26 80 8 27 81 11 27 82 9 27 83 14 28 84 15 28 85 13 28 86 19 29 87 23 29 88 16 29 89 19 30 90 16 30 91 18 30 92 20 31 93 23 31 94 21 31 95 24 32 96 28 32 97 25 32 98 25 33 99 29 33 100 26 33 101 30 34 102 31 34 103 26 34 104 27 35 105 31 35 106 24 35 107 37 36 108 36 36 109 33 36 110 38 37 111 37 37 112 34 37 113 38 38 114 34 38 115 39 38 116 36 39 117 39 39 118 32 39 119 43 40 120 47 40 121 40 40 122 40 41 123 41 41 124 43 41 125 44 42 126 47 42 127 45 42 128 53 43 129 57 43 130 54 43 131 52 44 132 53 44 133 55 44 134 56 45 135 59 45 136 57 45 137</p>
        </polylist>
      </mesh>
    </geometry>
    <geometry id="HouseExtention1Frame_000-mesh" name="HouseExtention1Frame.000">
      <mesh>
        <source id="HouseExtention1Frame_000-mesh-positions">
          <float_array id="HouseExtention1Frame_000-mesh-positions-array" count="84">1.168355 -1.155061 0.9792189 -1.19086 -1.15569 0.9803542 -1.19608 -1.229334 1.078434 1.168343 -1.22889 1.077299 1.168355 -1.215522 1.084944 -1.195125 -1.216 1.086079 -1.191815 -1.169024 0.9727094 1.168343 -1.168429 0.9715742 -1.19236 -1.179599 0.9636514 -1.196462 -1.237589 1.072192 -1.213263 -1.1792 0.9622014 -1.217365 -1.23719 1.070742 -1.1912 0.5195317 1.872232 -1.203137 0.5203759 2.029876 -1.212027 0.5210046 1.870442 -1.223964 0.521849 2.028086 1.164266 -1.162334 0.9875504 -1.200566 -1.163816 0.989555 1.164267 0.5164999 1.916026 -1.200566 0.5195322 1.911721 1.187735 -1.179599 0.9636514 1.183634 -1.237589 1.072192 1.166832 -1.1792 0.9622014 1.162731 -1.23719 1.070742 1.188895 0.5195317 1.872232 1.176958 0.5203759 2.029876 1.168069 0.5210046 1.870442 1.156131 0.521849 2.028086</float_array>
          <technique_common>
            <accessor source="#HouseExtention1Frame_000-mesh-positions-array" count="28" stride="3">
              <param name="X" type="float"/>
              <param name="Y" type="float"/>
              <param name="Z" type="float"/>
            </accessor>
          </technique_common>
        </source>
        <source id="HouseExtention1Frame_000-mesh-normals">
          <float_array id="HouseExtention1Frame_000-mesh-normals-array" count="102">-1.99005e-5 -0.8680797 -0.4964247 6.21129e-5 0.8686122 0.4954924 5.09918e-4 -0.4974078 0.8675166 -5.50148e-4 0.4964193 -0.8680827 0.9964313 -0.03743028 0.07565468 -0.9994448 0.01626074 -0.02907937 0.01581513 -0.8821492 -0.4707044 -0.1086633 -0.4755156 0.8729703 0.07000577 0.4703546 -0.8796964 -0.07054716 -0.9975085 6.27586e-7 0.002212524 0.4804468 -0.8770211 0.9964313 -0.03743028 0.07565468 -0.9994448 0.01626074 -0.02907937 0.01581513 -0.8821492 -0.4707044 -0.1086633 -0.4755156 0.8729703 0.07000577 0.4703546 -0.8796964 -0.07054716 -0.9975085 6.27586e-7 -7.47005e-5 -0.868612 -0.4954928 7.38742e-6 0.8680808 0.4964228 5.17419e-4 -0.4964184 0.8680831 -5.4269e-4 0.4974097 -0.8675156 0.9994449 -0.01623839 0.02909123 -0.9964312 0.037436 -0.07565474 0.01580983 -0.8821488 -0.4707054 -0.06988745 -0.4774228 0.87589 0.1084876 0.4683374 -0.876864 -0.0705527 -0.9975081 -5.51265e-7 -0.001045048 0.483965 -0.8750867 0.9994449 -0.01623839 0.02909123 -0.9964312 0.037436 -0.07565474 0.01580983 -0.8821488 -0.4707054 -0.06988745 -0.4774228 0.87589 0.1084876 0.4683374 -0.876864 -0.0705527 -0.9975081 -5.51265e-7</float_array>
          <technique_common>
            <accessor source="#HouseExtention1Frame_000-mesh-normals-array" count="34" stride="3">
              <param name="X" type="float"/>
              <param name="Y" type="float"/>
              <param name="Z" type="float"/>
            </accessor>
          </technique_common>
        </source>
        <source id="HouseExtention1Frame_000-mesh-map-0">
          <float_array id="HouseExtention1Frame_000-mesh-map-0-array" count="204">0.7425333 0.8643186 0.742532 0.09458595 0.7803056 0.09460759 0.8308041 0.8634865 0.7930754 0.8648966 0.7930917 0.09450316 0.7930754 0.8648966 0.7802822 0.8657311 0.7803056 0.09460759 0.7297631 0.8639055 0.7297627 0.09442907 0.742532 0.09458595 0.7230104 0.30007 0.7678982 0.2741 0.7679662 0.956286 0.8241295 0.299754 0.8191923 0.95664 0.7792903 0.9563116 0.6254128 0.1256214 0.6670315 0.1256214 0.6667713 0.1330654 0.7678982 0.2741 0.779223 0.2738108 0.7792903 0.9563116 0.8350283 0.3000565 0.8300944 0.9566177 0.8191923 0.95664 0.6785911 0.1486368 0.6251525 0.1486368 0.6252216 0.1411888 0.6248322 0.9202767 -0.02394253 0.9202772 -0.02374339 0.07972365 0.8743563 0.2400702 0.919244 0.2141004 0.9193117 0.8962859 0.9754756 0.2397541 0.9705378 0.89664 0.9306358 0.8963117 0.6792415 0.1411927 0.7208604 0.1411927 0.7206 0.1486367 0.919244 0.2141004 0.9305689 0.213811 0.9306358 0.8963117 0.9863742 0.2400568 0.98144 0.8966177 0.9705378 0.89664 0.6785911 0.1408511 0.6251525 0.140851 0.6252216 0.133403 0.7802822 0.8657311 0.7425333 0.8643186 0.7803056 0.09460759 0.8308454 0.09448343 0.8308041 0.8634865 0.7930917 0.09450316 0.7930917 0.09450316 0.7930754 0.8648966 0.7803056 0.09460759 0.7425333 0.8643186 0.7297631 0.8639055 0.742532 0.09458595 0.7280657 0.9566401 0.7230104 0.30007 0.7679662 0.956286 0.779223 0.2738108 0.8241295 0.299754 0.7792903 0.9563116 0.6251525 0.1330654 0.6254128 0.1256214 0.6667713 0.1330654 0.7679662 0.956286 0.7678982 0.2741 0.7792903 0.9563116 0.8241295 0.299754 0.8350283 0.3000565 0.8191923 0.95664 0.6786603 0.1411887 0.6785911 0.1486368 0.6252216 0.1411888 0.624723 0.07972484 0.6248322 0.9202767 -0.02374339 0.07972365 0.8794112 0.8966401 0.8743563 0.2400702 0.9193117 0.8962859 0.9305689 0.213811 0.9754756 0.2397541 0.9306358 0.8963117 0.6789813 0.1486366 0.6792415 0.1411927 0.7206 0.1486367 0.9193117 0.8962859 0.919244 0.2141004 0.9306358 0.8963117 0.9754756 0.2397541 0.9863742 0.2400568 0.9705378 0.89664 0.6786603 0.133403 0.6785911 0.1408511 0.6252216 0.133403</float_array>
          <technique_common>
            <accessor source="#HouseExtention1Frame_000-mesh-map-0-array" count="102" stride="2">
              <param name="S" type="float"/>
              <param name="T" type="float"/>
            </accessor>
          </technique_common>
        </source>
        <vertices id="HouseExtention1Frame_000-mesh-vertices">
          <input semantic="POSITION" source="#HouseExtention1Frame_000-mesh-positions"/>
        </vertices>
        <polylist material="Wood-material" count="34">
          <input semantic="VERTEX" source="#HouseExtention1Frame_000-mesh-vertices" offset="0"/>
          <input semantic="NORMAL" source="#HouseExtention1Frame_000-mesh-normals" offset="1"/>
          <input semantic="TEXCOORD" source="#HouseExtention1Frame_000-mesh-map-0" offset="2" set="0"/>
          <vcount>3 3 3 3 3 3 3 3 3 3 3 3 3 3 3 3 3 3 3 3 3 3 3 3 3 3 3 3 3 3 3 3 3 3 </vcount>
          <p>6 0 0 7 0 1 3 0 2 1 1 3 5 1 4 4 1 5 5 2 6 2 2 7 3 2 8 1 3 9 0 3 10 7 3 11 12 4 12 13 4 13 9 4 14 14 5 15 10 5 16 11 5 17 8 6 18 9 6 19 11 6 20 13 7 21 15 7 22 11 7 23 12 8 24 8 8 25 10 8 26 15 9 27 14 9 28 12 9 29 17 10 30 19 10 31 18 10 32 24 11 33 25 11 34 21 11 35 26 12 36 22 12 37 23 12 38 20 13 39 21 13 40 23 13 41 25 14 42 27 14 43 23 14 44 24 15 45 20 15 46 22 15 47 27 16 48 26 16 49 24 16 50 2 17 51 6 17 52 3 17 53 0 18 54 1 18 55 4 18 56 4 19 57 5 19 58 3 19 59 6 20 60 1 20 61 7 20 62 8 21 63 12 21 64 9 21 65 15 22 66 14 22 67 11 22 68 10 23 69 8 23 70 11 23 71 9 24 72 13 24 73 11 24 74 14 25 75 12 25 76 10 25 77 13 26 78 15 26 79 12 26 80 16 27 81 17 27 82 18 27 83 20 28 84 24 28 85 21 28 86 27 29 87 26 29 88 23 29 89 22 30 90 20 30 91 23 30 92 21 31 93 25 31 94 23 31 95 26 32 96 24 32 97 22 32 98 25 33 99 27 33 100 24 33 101</p>
        </polylist>
      </mesh>
    </geometry>
    <geometry id="HosueExtension1Roof_001-mesh" name="HosueExtension1Roof.001">
      <mesh>
        <source id="HosueExtension1Roof_001-mesh-positions">
          <float_array id="HosueExtension1Roof_001-mesh-positions-array" count="12">1.164266 -1.22555 1.066627 -1.200566 -1.225544 1.068921 1.164267 0.5165249 2.010648 -1.200566 0.5165291 2.005779</float_array>
          <technique_common>
            <accessor source="#HosueExtension1Roof_001-mesh-positions-array" count="4" stride="3">
              <param name="X" type="float"/>
              <param name="Y" type="float"/>
              <param name="Z" type="float"/>
            </accessor>
          </technique_common>
        </source>
        <source id="HosueExtension1Roof_001-mesh-normals">
          <float_array id="HosueExtension1Roof_001-mesh-normals-array" count="6">-0.001811385 -0.4764374 0.8792065 8.53157e-4 -0.4736363 0.8807201</float_array>
          <technique_common>
            <accessor source="#HosueExtension1Roof_001-mesh-normals-array" count="2" stride="3">
              <param name="X" type="float"/>
              <param name="Y" type="float"/>
              <param name="Z" type="float"/>
            </accessor>
          </technique_common>
        </source>
        <source id="HosueExtension1Roof_001-mesh-map-0">
          <float_array id="HosueExtension1Roof_001-mesh-map-0-array" count="12">0.9065342 0.07832658 0.9065338 0.7595677 0.09346592 0.7587703 0.09346765 0.07869958 0.9065342 0.07832658 0.09346592 0.7587703</float_array>
          <technique_common>
            <accessor source="#HosueExtension1Roof_001-mesh-map-0-array" count="6" stride="2">
              <param name="S" type="float"/>
              <param name="T" type="float"/>
            </accessor>
          </technique_common>
        </source>
        <vertices id="HosueExtension1Roof_001-mesh-vertices">
          <input semantic="POSITION" source="#HosueExtension1Roof_001-mesh-positions"/>
        </vertices>
        <polylist material="RoofTiles-material" count="2">
          <input semantic="VERTEX" source="#HosueExtension1Roof_001-mesh-vertices" offset="0"/>
          <input semantic="NORMAL" source="#HosueExtension1Roof_001-mesh-normals" offset="1"/>
          <input semantic="TEXCOORD" source="#HosueExtension1Roof_001-mesh-map-0" offset="2" set="0"/>
          <vcount>3 3 </vcount>
          <p>0 0 0 2 0 1 3 0 2 1 1 3 0 1 4 3 1 5</p>
        </polylist>
      </mesh>
    </geometry>
    <geometry id="HouseExtension1_001-mesh" name="HouseExtension1.001">
      <mesh>
        <source id="HouseExtension1_001-mesh-positions">
          <float_array id="HouseExtension1_001-mesh-positions-array" count="24">1.04949 0.5157346 -0.9578748 1.04949 -1.04949 -0.9578748 -1.04949 -1.04949 -0.9578748 -1.049489 0.5157348 -0.9578748 1.04949 0.5157337 1.959318 1.049489 -1.049491 1.141105 -1.04949 -1.049489 1.141105 -1.04949 0.5157346 1.959318</float_array>
          <technique_common>
            <accessor source="#HouseExtension1_001-mesh-positions-array" count="8" stride="3">
              <param name="X" type="float"/>
              <param name="Y" type="float"/>
              <param name="Z" type="float"/>
            </accessor>
          </technique_common>
        </source>
        <source id="HouseExtension1_001-mesh-normals">
          <float_array id="HouseExtension1_001-mesh-normals-array" count="18">1 -6.76165e-7 -1.63458e-7 -1 3.90091e-7 -1.63458e-7 -6.24733e-7 -1 0 1 0 3.40763e-7 -1 4.56967e-7 0 0 -1 -3.97557e-7</float_array>
          <technique_common>
            <accessor source="#HouseExtension1_001-mesh-normals-array" count="6" stride="3">
              <param name="X" type="float"/>
              <param name="Y" type="float"/>
              <param name="Z" type="float"/>
            </accessor>
          </technique_common>
        </source>
        <source id="HouseExtension1_001-mesh-map-0">
          <float_array id="HouseExtension1_001-mesh-map-0-array" count="36">1.102011 0.09080374 1.102011 0.8057487 0.7184062 0.6052215 0.2039879 0.6052218 -0.1796174 0.8057494 -0.1796173 0.09080374 0.7184062 0.6052215 0.2039879 0.6052218 0.2039878 0.09080368 0.7184062 0.09080368 1.102011 0.09080374 0.7184062 0.6052215 0.2039878 0.09080368 0.2039879 0.6052218 -0.1796173 0.09080374 0.7184062 0.09080368 0.7184062 0.6052215 0.2039878 0.09080368</float_array>
          <technique_common>
            <accessor source="#HouseExtension1_001-mesh-map-0-array" count="18" stride="2">
              <param name="S" type="float"/>
              <param name="T" type="float"/>
            </accessor>
          </technique_common>
        </source>
        <vertices id="HouseExtension1_001-mesh-vertices">
          <input semantic="POSITION" source="#HouseExtension1_001-mesh-positions"/>
        </vertices>
        <polylist material="Plaster-material" count="6">
          <input semantic="VERTEX" source="#HouseExtension1_001-mesh-vertices" offset="0"/>
          <input semantic="NORMAL" source="#HouseExtension1_001-mesh-normals" offset="1"/>
          <input semantic="TEXCOORD" source="#HouseExtension1_001-mesh-map-0" offset="2" set="0"/>
          <vcount>3 3 3 3 3 3 </vcount>
          <p>0 0 0 4 0 1 5 0 2 6 1 3 7 1 4 3 1 5 5 2 6 6 2 7 2 2 8 1 3 9 0 3 10 5 3 11 2 4 12 6 4 13 3 4 14 1 5 15 5 5 16 2 5 17</p>
        </polylist>
      </mesh>
    </geometry>
  </library_geometries>
  <library_controllers/>
  <library_visual_scenes>
    <visual_scene id="Scene" name="Scene">
      <node id="BuildingExtensions4Beams" name="BuildingExtensions4Beams" type="NODE">
        <matrix sid="transform">1 0 0 -2.653013 0 1 0 -0.9010453 0 0 1 0.294746 0 0 0 1</matrix>
        <instance_geometry url="#Cube_002-mesh">
          <bind_material>
            <technique_common>
              <instance_material symbol="Wood-material" target="#Wood-material">
                <bind_vertex_input semantic="UVMap" input_semantic="TEXCOORD" input_set="0"/>
              </instance_material>
            </technique_common>
          </bind_material>
        </instance_geometry>
      </node>
      <node id="BuildingExtensions4RoofFrame" name="BuildingExtensions4RoofFrame" type="NODE">
        <matrix sid="transform">1 0 0 -2.653013 0 1 0 0.1204913 0 0 1 0.5201687 0 0 0 1</matrix>
        <instance_geometry url="#HouseExtention1Frame_000-mesh">
          <bind_material>
            <technique_common>
              <instance_material symbol="Wood-material" target="#Wood-material">
                <bind_vertex_input semantic="UVMap" input_semantic="TEXCOORD" input_set="0"/>
              </instance_material>
            </technique_common>
          </bind_material>
        </instance_geometry>
      </node>
      <node id="BuildingExtensions4Roof" name="BuildingExtensions4Roof" type="NODE">
        <matrix sid="transform">1 0 0 -2.653013 0 1 0 0.1204913 0 0 1 0.5201687 0 0 0 1</matrix>
        <instance_geometry url="#HosueExtension1Roof_001-mesh">
          <bind_material>
            <technique_common>
              <instance_material symbol="RoofTiles-material" target="#RoofTiles-material">
                <bind_vertex_input semantic="UVMap" input_semantic="TEXCOORD" input_set="0"/>
              </instance_material>
            </technique_common>
          </bind_material>
        </instance_geometry>
      </node>
      <node id="BuildingExtensions4" name="BuildingExtensions4" type="NODE">
        <matrix sid="transform">1 0 0 -2.653013 0 1 0 0.1204913 0 0 1 0.5201687 0 0 0 1</matrix>
        <instance_geometry url="#HouseExtension1_001-mesh">
          <bind_material>
            <technique_common>
              <instance_material symbol="Plaster-material" target="#Plaster-material">
                <bind_vertex_input semantic="UVMap" input_semantic="TEXCOORD" input_set="0"/>
              </instance_material>
            </technique_common>
          </bind_material>
        </instance_geometry>
      </node>
    </visual_scene>
  </library_visual_scenes>
  <scene>
    <instance_visual_scene url="#Scene"/>
  </scene>
</COLLADA>