<?xml version="1.0" encoding="utf-8"?>
<COLLADA xmlns="http://www.collada.org/2005/11/COLLADASchema" version="1.4.1">
  <asset>
    <contributor>
      <author>Duion</author>
      <authoring_tool>Blender 2.65.0 r53189</authoring_tool>
    </contributor>
    <created>2013-06-11T18:58:18</created>
    <modified>2013-06-11T18:58:18</modified>
    <unit name="meter" meter="1"/>
    <up_axis>Z_UP</up_axis>
  </asset>
  <library_lights>
    <light id="Hemi-light" name="Hemi">
      <technique_common>
        <ambient>
          <color>1 1 1</color>
        </ambient>
      </technique_common>
      <extra>
        <technique profile="blender">
          <adapt_thresh>0.000999987</adapt_thresh>
          <area_shape>0</area_shape>
          <area_size>0.1</area_size>
          <area_sizey>0.1</area_sizey>
          <area_sizez>0.1</area_sizez>
          <atm_distance_factor>1</atm_distance_factor>
          <atm_extinction_factor>1</atm_extinction_factor>
          <atm_turbidity>2</atm_turbidity>
          <att1>0</att1>
          <att2>1</att2>
          <backscattered_light>1</backscattered_light>
          <bias>1</bias>
          <blue>1</blue>
          <buffers>1</buffers>
          <bufflag>0</bufflag>
          <bufsize>512</bufsize>
          <buftype>2</buftype>
          <clipend>40</clipend>
          <clipsta>0.5</clipsta>
          <compressthresh>0.04999995</compressthresh>
          <dist sid="blender_dist">25</dist>
          <energy sid="blender_energy">1</energy>
          <falloff_type>2</falloff_type>
          <filtertype>0</filtertype>
          <flag>0</flag>
          <gamma sid="blender_gamma">1</gamma>
          <green>1</green>
          <halo_intensity sid="blnder_halo_intensity">1</halo_intensity>
          <horizon_brightness>1</horizon_brightness>
          <mode>1</mode>
          <ray_samp>1</ray_samp>
          <ray_samp_method>1</ray_samp_method>
          <ray_samp_type>0</ray_samp_type>
          <ray_sampy>1</ray_sampy>
          <ray_sampz>1</ray_sampz>
          <red>1</red>
          <samp>3</samp>
          <shadhalostep>0</shadhalostep>
          <shadow_b sid="blender_shadow_b">0</shadow_b>
          <shadow_g sid="blender_shadow_g">0</shadow_g>
          <shadow_r sid="blender_shadow_r">0</shadow_r>
          <shadspotsize>45</shadspotsize>
          <sky_colorspace>2</sky_colorspace>
          <sky_exposure>1</sky_exposure>
          <skyblendfac>1</skyblendfac>
          <skyblendtype>1</skyblendtype>
          <soft>3</soft>
          <spotblend>0.15</spotblend>
          <spotsize>45</spotsize>
          <spread>1</spread>
          <sun_brightness>1</sun_brightness>
          <sun_effect_type>0</sun_effect_type>
          <sun_intensity>1</sun_intensity>
          <sun_size>1</sun_size>
          <type>3</type>
        </technique>
      </extra>
    </light>
  </library_lights>
  <library_images/>
  <library_effects>
    <effect id="reed_sf-effect">
      <profile_COMMON>
        <technique sid="common">
          <phong>
            <emission>
              <color sid="emission">0 0 0 1</color>
            </emission>
            <ambient>
              <color sid="ambient">0 0 0 1</color>
            </ambient>
            <diffuse>
              <color sid="diffuse">0.64 0.64 0.64 1</color>
            </diffuse>
            <specular>
              <color sid="specular">0.5 0.5 0.5 1</color>
            </specular>
            <shininess>
              <float sid="shininess">50</float>
            </shininess>
            <transparency>
              <float sid="transparency">0</float>
            </transparency>
            <index_of_refraction>
              <float sid="index_of_refraction">1</float>
            </index_of_refraction>
          </phong>
        </technique>
        <extra>
          <technique profile="GOOGLEEARTH">
            <double_sided>1</double_sided>
          </technique>
        </extra>
      </profile_COMMON>
      <extra><technique profile="MAX3D"><double_sided>1</double_sided></technique></extra>
    </effect>
  </library_effects>
  <library_materials>
    <material id="reed_sf-material" name="reed_sf">
      <instance_effect url="#reed_sf-effect"/>
    </material>
  </library_materials>
  <library_geometries>
    <geometry id="reed_sf8-mesh" name="reed_sf8">
      <mesh>
        <source id="reed_sf8-mesh-positions">
          <float_array id="reed_sf8-mesh-positions-array" count="60">-0.6069561 -0.8105524 -0.2689601 0.7758589 0.6340528 -0.2383239 -0.9742243 -0.6259573 2.774607 0.5094788 0.9240438 2.807479 0.492337 -0.8312235 -0.3027642 -0.7325139 0.7465422 -0.2008088 1.258624 -0.5118701 2.370615 -0.04100376 1.162218 2.478794 0.9976435 0.1057045 -0.2523193 -1.000769 0.02604484 -0.2532996 1.216932 -0.4870921 2.569824 -1.185167 -0.5828434 2.568646 -1.125009 -0.05779379 -0.26896 0.9943304 -0.008421182 -0.2383238 -0.8286736 -0.02568203 3.744658 0.9535562 0.01372307 3.76911 -0.2751072 0.9062177 -0.2689598 0.09439307 -0.9704262 -0.2383236 0.05413073 0.9997977 3.342861 0.4505891 -1.013763 3.375733</float_array>
          <technique_common>
            <accessor source="#reed_sf8-mesh-positions-array" count="20" stride="3">
              <param name="X" type="float"/>
              <param name="Y" type="float"/>
              <param name="Z" type="float"/>
            </accessor>
          </technique_common>
        </source>
        <source id="reed_sf8-mesh-normals">
          <float_array id="reed_sf8-mesh-normals-array" count="60">-0.7150792 0.6872158 -0.1279641 -0.7150792 0.6872158 -0.1279641 -0.7150792 0.6872158 -0.1279641 -0.7150792 0.6872158 -0.1279641 -0.7478866 -0.5990784 0.2859279 -0.7478866 -0.5990784 0.2859279 -0.7478866 -0.5990784 0.2859279 -0.7478866 -0.5990784 0.2859279 0.03903317 -0.9772637 -0.2082888 0.03903317 -0.9772637 -0.2082888 0.03903317 -0.9772637 -0.2082888 0.03903317 -0.9772637 -0.2082888 -0.02264469 0.9996948 -0.006012141 -0.02264469 0.9996948 -0.006012141 -0.02264469 0.9996948 -0.006012141 -0.02264469 0.9996948 -0.006012141 0.9770806 0.1908322 -0.093997 0.9770806 0.1908322 -0.093997 0.9770806 0.1908322 -0.093997 0.9770806 0.1908322 -0.093997</float_array>
          <technique_common>
            <accessor source="#reed_sf8-mesh-normals-array" count="20" stride="3">
              <param name="X" type="float"/>
              <param name="Y" type="float"/>
              <param name="Z" type="float"/>
            </accessor>
          </technique_common>
        </source>
        <source id="reed_sf8-mesh-map-0">
          <float_array id="reed_sf8-mesh-map-0-array" count="40">0.9980266 0 0.00197339 0 0.00197339 1 0.9980266 1 0.9980266 1 0.00197339 1 0.00197339 0 0.9980266 0 0.9980266 1 0.00197339 1 0.00197339 0 0.9980266 0 0.00197339 1 0.9980266 1 0.9980266 0 0.00197339 0 0.00197339 1 0.9980266 1 0.9980266 0 0.00197339 0</float_array>
          <technique_common>
            <accessor source="#reed_sf8-mesh-map-0-array" count="20" stride="2">
              <param name="S" type="float"/>
              <param name="T" type="float"/>
            </accessor>
          </technique_common>
        </source>
        <source id="reed_sf8-mesh-colors">
          <float_array id="reed_sf8-mesh-colors-array" count="60">0 0.5725491 0 0 0.6588236 0 1 0.7843137 1 1 0.7215687 1 1 0.4313725 1 1 0.4313725 1 0 0.2980392 0 0 0.4117647 0 1 0.2235294 1 1 0.2392157 1 0 0.2941176 0 0 0.2823529 0 1 0.7843137 1 1 0.7215687 1 0 0.5725491 0 0 0.6588236 0 1 0.7843137 1 1 0.7215687 1 0 0.5725491 0 0 0.6588236 0</float_array>
          <technique_common>
            <accessor source="#reed_sf8-mesh-colors-array" count="20" stride="3">
              <param name="R" type="float"/>
              <param name="G" type="float"/>
              <param name="B" type="float"/>
            </accessor>
          </technique_common>
        </source>
        <vertices id="reed_sf8-mesh-vertices">
          <input semantic="POSITION" source="#reed_sf8-mesh-positions"/>
        </vertices>
        <polylist material="reed_sf-material" count="5">
          <input semantic="VERTEX" source="#reed_sf8-mesh-vertices" offset="0"/>
          <input semantic="NORMAL" source="#reed_sf8-mesh-normals" offset="1"/>
          <input semantic="TEXCOORD" source="#reed_sf8-mesh-map-0" offset="2" set="0"/>
          <input semantic="COLOR" source="#reed_sf8-mesh-colors" offset="3"/>
          <vcount>4 4 4 4 4 </vcount>
          <p>1 0 0 0 0 1 1 1 2 2 2 2 3 3 3 3 6 4 4 4 7 5 5 5 5 6 6 6 4 7 7 7 10 8 8 8 11 9 9 9 9 10 10 10 8 11 11 11 14 12 12 12 15 13 13 13 13 14 14 14 12 15 15 15 18 16 16 16 19 17 17 17 17 18 18 18 16 19 19 19</p>
        </polylist>
      </mesh>
      <extra><technique profile="MAYA"><double_sided>1</double_sided></technique></extra>
    </geometry>
  </library_geometries>
  <library_visual_scenes>
    <visual_scene id="Scene" name="Scene">
      <node id="base01" name="base01" type="NODE">
        <translate sid="location">0 0 0</translate>
        <rotate sid="rotationZ">0 0 1 0</rotate>
        <rotate sid="rotationY">0 1 0 0</rotate>
        <rotate sid="rotationX">1 0 0 0</rotate>
        <scale sid="scale">1 1 1</scale>
        <node id="detail8" name="detail8" type="NODE">
          <translate sid="location">0 0 0</translate>
          <rotate sid="rotationZ">0 0 1 0</rotate>
          <rotate sid="rotationY">0 1 0 0</rotate>
          <rotate sid="rotationX">1 0 0 0</rotate>
          <scale sid="scale">1 1 1</scale>
        </node>
        <node id="start01" name="start01" type="NODE">
          <translate sid="location">0 0 0</translate>
          <rotate sid="rotationZ">0 0 1 0</rotate>
          <rotate sid="rotationY">0 1 0 0</rotate>
          <rotate sid="rotationX">1 0 0 0</rotate>
          <scale sid="scale">1 1 1</scale>
          <node id="reed_sf8" name="reed_sf8" type="NODE">
            <translate sid="location">0 0 -0.2242563</translate>
            <rotate sid="rotationZ">0 0 1 0</rotate>
            <rotate sid="rotationY">0 1 0 0</rotate>
            <rotate sid="rotationX">1 0 0 0</rotate>
            <scale sid="scale">0.5115774 0.5690854 0.447519</scale>
            <instance_geometry url="#reed_sf8-mesh">
              <bind_material>
                <technique_common>
                  <instance_material symbol="reed_sf-material" target="#reed_sf-material">
                    <bind_vertex_input semantic="UVMap" input_semantic="TEXCOORD" input_set="0"/>
                  </instance_material>
                </technique_common>
              </bind_material>
            </instance_geometry>
          </node>
        </node>
        <node id="nulldetail0" name="nulldetail0" type="NODE">
          <translate sid="location">0 0 0</translate>
          <rotate sid="rotationZ">0 0 1 0</rotate>
          <rotate sid="rotationY">0 1 0 0</rotate>
          <rotate sid="rotationX">1 0 0 0</rotate>
          <scale sid="scale">1 1 1</scale>
        </node>
      </node>
      <node id="Hemi" name="Hemi" type="NODE">
        <translate sid="location">-4.722846 -2.243675 -1.201029</translate>
        <rotate sid="rotationZ">0 0 1 0</rotate>
        <rotate sid="rotationY">0 1 0 0</rotate>
        <rotate sid="rotationX">1 0 0 0</rotate>
        <scale sid="scale">1 1 1</scale>
        <instance_light url="#Hemi-light"/>
      </node>
    </visual_scene>
  </library_visual_scenes>
  <scene>
    <instance_visual_scene url="#Scene"/>
  </scene>
</COLLADA>