<?xml version="1.0" encoding="utf-8"?>
<COLLADA xmlns="http://www.collada.org/2005/11/COLLADASchema" version="1.4.1">
  <asset>
    <contributor>
      <author>Duion</author>
      <authoring_tool>Blender 2.65.0 r53189</authoring_tool>
    </contributor>
    <created>2013-06-11T18:09:51</created>
    <modified>2013-06-11T18:09:51</modified>
    <unit name="meter" meter="1"/>
    <up_axis>Z_UP</up_axis>
  </asset>
  <library_lights>
    <light id="Hemi-light" name="Hemi">
      <technique_common>
        <ambient>
          <color>1 1 1</color>
        </ambient>
      </technique_common>
      <extra>
        <technique profile="blender">
          <adapt_thresh>0.000999987</adapt_thresh>
          <area_shape>0</area_shape>
          <area_size>0.1</area_size>
          <area_sizey>0.1</area_sizey>
          <area_sizez>0.1</area_sizez>
          <atm_distance_factor>1</atm_distance_factor>
          <atm_extinction_factor>1</atm_extinction_factor>
          <atm_turbidity>2</atm_turbidity>
          <att1>0</att1>
          <att2>1</att2>
          <backscattered_light>1</backscattered_light>
          <bias>1</bias>
          <blue>1</blue>
          <buffers>1</buffers>
          <bufflag>0</bufflag>
          <bufsize>512</bufsize>
          <buftype>2</buftype>
          <clipend>40</clipend>
          <clipsta>0.5</clipsta>
          <compressthresh>0.04999995</compressthresh>
          <dist sid="blender_dist">25</dist>
          <energy sid="blender_energy">1</energy>
          <falloff_type>2</falloff_type>
          <filtertype>0</filtertype>
          <flag>0</flag>
          <gamma sid="blender_gamma">1</gamma>
          <green>1</green>
          <halo_intensity sid="blnder_halo_intensity">1</halo_intensity>
          <horizon_brightness>1</horizon_brightness>
          <mode>1</mode>
          <ray_samp>1</ray_samp>
          <ray_samp_method>1</ray_samp_method>
          <ray_samp_type>0</ray_samp_type>
          <ray_sampy>1</ray_sampy>
          <ray_sampz>1</ray_sampz>
          <red>1</red>
          <samp>3</samp>
          <shadhalostep>0</shadhalostep>
          <shadow_b sid="blender_shadow_b">0</shadow_b>
          <shadow_g sid="blender_shadow_g">0</shadow_g>
          <shadow_r sid="blender_shadow_r">0</shadow_r>
          <shadspotsize>45</shadspotsize>
          <sky_colorspace>2</sky_colorspace>
          <sky_exposure>1</sky_exposure>
          <skyblendfac>1</skyblendfac>
          <skyblendtype>1</skyblendtype>
          <soft>3</soft>
          <spotblend>0.15</spotblend>
          <spotsize>45</spotsize>
          <spread>1</spread>
          <sun_brightness>1</sun_brightness>
          <sun_effect_type>0</sun_effect_type>
          <sun_intensity>1</sun_intensity>
          <sun_size>1</sun_size>
          <type>3</type>
        </technique>
      </extra>
    </light>
  </library_lights>
  <library_images/>
  <library_effects>
    <effect id="ekasia_tumula_01_bark-effect">
      <profile_COMMON>
        <technique sid="common">
          <phong>
            <emission>
              <color sid="emission">0 0 0 1</color>
            </emission>
            <ambient>
              <color sid="ambient">0 0 0 1</color>
            </ambient>
            <diffuse>
              <color sid="diffuse">0.8 0.8 0.8 1</color>
            </diffuse>
            <specular>
              <color sid="specular">0 0 0 1</color>
            </specular>
            <shininess>
              <float sid="shininess">50</float>
            </shininess>
            <index_of_refraction>
              <float sid="index_of_refraction">1</float>
            </index_of_refraction>
          </phong>
        </technique>
        <extra>
          <technique profile="GOOGLEEARTH">
            <double_sided>1</double_sided>
          </technique>
        </extra>
      </profile_COMMON>
      <extra><technique profile="MAX3D"><double_sided>1</double_sided></technique></extra>
    </effect>
    <effect id="ekasia_tumula_01_branch-effect">
      <profile_COMMON>
        <technique sid="common">
          <phong>
            <emission>
              <color sid="emission">0 0 0 1</color>
            </emission>
            <ambient>
              <color sid="ambient">0 0 0 1</color>
            </ambient>
            <diffuse>
              <color sid="diffuse">0.8 0.8 0.8 1</color>
            </diffuse>
            <specular>
              <color sid="specular">0 0 0 1</color>
            </specular>
            <shininess>
              <float sid="shininess">50</float>
            </shininess>
            <transparency>
              <float sid="transparency">0</float>
            </transparency>
            <index_of_refraction>
              <float sid="index_of_refraction">1</float>
            </index_of_refraction>
          </phong>
        </technique>
        <extra>
          <technique profile="GOOGLEEARTH">
            <double_sided>1</double_sided>
          </technique>
        </extra>
      </profile_COMMON>
      <extra><technique profile="MAX3D"><double_sided>1</double_sided></technique></extra>
    </effect>
  </library_effects>
  <library_materials>
    <material id="ekasia_tumula_01_bark-material" name="ekasia_tumula_01_bark">
      <instance_effect url="#ekasia_tumula_01_bark-effect"/>
    </material>
    <material id="ekasia_tumula_01_branch-material" name="ekasia_tumula_01_branch">
      <instance_effect url="#ekasia_tumula_01_branch-effect"/>
    </material>
  </library_materials>
  <library_geometries>
    <geometry id="ekasia160-mesh" name="ekasia160">
      <mesh>
        <source id="ekasia160-mesh-positions">
          <float_array id="ekasia160-mesh-positions-array" count="495">0.2462108 0.2000323 -1.002498 0.2060289 -0.03077614 2.335722 0.1397804 0.1003365 2.337559 0.06828099 0.3543638 -1.002586 0.02185434 0.1968821 2.338441 -0.1518101 0.2728245 -1.004675 -0.1190022 0.1401092 2.336512 -0.2808019 0.1072769 -1.006756 -0.1993909 0.03067684 2.334081 -0.3084868 -0.1067698 -1.008501 -0.2133597 -0.1082621 2.331578 -0.187902 -0.3138736 -1.009186 -0.1315533 -0.2399899 2.329844 0.04783421 -0.2988512 -1.007474 0.02064669 -0.2259482 2.331106 0.2299317 -0.1992279 -1.005511 0.1365962 -0.1581763 2.333055 0.3427898 -0.005439579 -1.003334 0.1310443 0.04543638 4.659126 0.02720659 0.1253045 4.658484 -0.09232622 0.07282894 4.657574 -0.1585333 -0.02331155 4.657 -0.166905 -0.1430654 4.656798 -0.09318095 -0.254112 4.65718 0.03721523 -0.2380559 4.658125 0.1350623 -0.1767824 4.658889 0.1913868 -0.06548953 4.659418 0.04866129 0.06871062 7.000391 -0.03427773 0.1289228 6.997843 -0.1266663 0.08530741 6.998257 -0.1764041 0.008699536 7.000058 -0.1803929 -0.08512413 7.002793 -0.1203454 -0.1703662 7.005874 -0.01868069 -0.1549956 7.006381 0.05655467 -0.1049693 7.005608 0.09823805 -0.01672637 7.003393 -0.07735472 0.05116707 9.241546 1.933075 0.6177955 7.512669 -2.624138 -0.8487477 7.689907 -2.321742 -0.7756978 6.155663 2.235471 0.6908468 5.978425 0.9108837 0.3434261 8.719464 -3.646331 -1.123117 8.896701 -0.4624235 -0.1443611 9.132503 -5.003654 -1.661355 9.745111 0.3901596 -2.394207 7.662532 -1.081225 2.163246 7.54003 -0.7788317 2.236297 6.005786 0.6925526 -2.321156 6.128302 -0.6320295 -2.668576 8.86934 -2.103416 1.888878 8.746825 -2.005339 -3.15636 9.28238 -3.476724 1.401093 9.159864 -1.094333 -1.718339 7.770588 1.367984 2.36519 7.755514 1.186464 2.002497 6.253754 -1.275849 -2.081046 6.268828 -0.4590671 -0.6514782 8.763179 2.003245 3.432059 8.748106 0.2688238 0.635343 8.950716 2.598168 4.798926 9.660882 -1.904874 1.554453 7.737958 2.178522 -0.9076033 7.788157 1.997015 -1.2703 6.286396 -2.086394 1.191753 6.236185 -1.269614 2.621308 8.730536 2.813796 0.1592605 8.780749 -0.541723 3.908131 8.918073 3.541691 1.446076 8.968286 -1.341464 -1.365838 9.595035 1.612804 1.99101 9.377576 1.413848 1.688321 7.954363 -1.54042 -1.668527 8.171821 -0.718418 -0.5822429 10.71037 2.235858 2.7746 10.49291 0.2268161 0.4222682 11.24578 3.18109 3.779111 11.02832 -1.546276 1.786505 9.388916 1.817602 -1.161336 9.583695 1.61866 -1.464022 8.160482 -1.745219 1.483816 7.965715 -0.9232207 2.570095 10.50425 2.440657 -0.3777443 10.69902 0.002336382 3.577694 10.81981 3.366213 0.6298412 11.01458 -0.4618352 -0.3867644 7.288967 2.404305 1.945548 4.075045 1.400321 1.102653 3.161161 -1.465821 -1.229657 6.375082 0.7445487 0.7162783 7.453412 3.610686 3.048582 4.23949 1.924544 1.810633 7.076179 4.790686 4.142941 3.862258 -0.5734339 2.679379 5.683287 2.515909 -1.12059 5.680725 1.511912 -1.963479 4.766854 -1.577425 1.836478 4.769403 0.6329499 3.782413 5.847732 3.72229 -0.01754772 5.845183 1.720739 4.763799 5.306293 4.81009 0.9638328 5.303744 2.380866 -0.65852 5.569041 -1.803595 0.4619553 7.804752 -2.127882 0.5026271 6.249044 1.761563 -0.5396514 4.105883 1.963558 -0.4923987 7.143078 -2.22089 0.6280779 9.378776 0.8996179 -0.2442258 8.235374 -3.284838 0.8762508 10.47109 -0.3309971 -2.455492 6.708534 0.9082731 2.258935 6.665259 0.5839767 2.29961 5.109565 -0.6552921 -2.414831 5.152826 -0.7483013 -2.28938 8.282559 0.4909688 2.425061 8.239296 -1.81224 -2.041199 9.374868 -0.5729764 2.673228 9.331593 -0.2444485 -1.985249 3.621811 0.2973865 2.877028 3.702094 0.2562053 2.399915 2.197959 -0.2856298 -2.462362 2.117663 -0.06253153 -0.6614867 4.56978 0.4793041 4.200802 4.650075 0.07277107 0.8768801 4.697646 0.4417771 5.759433 5.274837 -2.404998 0.7167765 3.666168 2.457946 0.1750068 3.657737 2.416764 -0.3021093 2.153602 -2.44618 0.2396617 2.16202 -2.223091 2.040543 4.614136 2.639853 1.498771 4.605719 -2.087782 3.578909 4.742002 2.775162 3.037137 4.733585 -2.155083 -0.6871612 3.985332 2.553542 0.5889679 4.610441 2.335803 0.5992081 3.025038 -2.372822 -0.676921 2.399929 -1.128871 -0.4204453 5.249343 3.57975 0.8556837 5.874465 0.2697682 -0.03865218 5.806803 4.97839 1.237476 6.431912 -0.4497302 2.322462 4.344717 0.8481768 -2.420647 4.251069 0.630438 -2.410415 2.665666 -0.6674677 2.332694 2.759315 0.5764889 2.589172 5.608728 1.874392 -2.153937 5.515079 1.975124 2.970969 6.166176 3.273032 -1.77214 6.072527 -2.251493 0.3363497 4.895801 2.57606 -0.5210185 5.425474 2.389417 -0.4789593 3.827678 -2.438135 0.378409 3.298018 -1.167624 0.3556795 6.144124 3.659938 -0.5016874 6.673796 0.2189127 0.288977 6.863881 5.046465 -0.5683913 7.393554 0.5890634 2.335922 5.201412 -0.2645015 -2.520592 5.119863 -0.4511417 -2.47853 3.52208 0.4024219 2.377984 3.603616 1.672941 2.355252 6.449735 0.8193712 -2.501262 6.368185 3.059469 2.288551 7.169492 2.205909 -2.567964 7.087943</float_array>
          <technique_common>
            <accessor source="#ekasia160-mesh-positions-array" count="165" stride="3">
              <param name="X" type="float"/>
              <param name="Y" type="float"/>
              <param name="Z" type="float"/>
            </accessor>
          </technique_common>
        </source>
        <source id="ekasia160-mesh-normals">
          <float_array id="ekasia160-mesh-normals-array" count="495">0.6092715 0.4631794 -0.6436049 0.7791986 0.6259957 0.03070157 0.9996033 -0.01495403 0.0235908 0.147618 0.7962279 -0.5866573 0.148503 0.9880978 0.03952145 -0.4505142 0.6267892 -0.6357005 -0.6138493 0.7886899 0.0336619 -0.7050997 0.3006989 -0.6421705 -0.933134 0.3583483 0.02792441 -0.758446 -0.1496933 -0.6342662 -0.9741508 -0.2247688 0.02200382 -0.3765069 -0.7060152 -0.5997803 -0.4470351 -0.8943755 0.01486247 0.2153386 -0.7243263 -0.6549272 0.3049715 -0.9522996 0.008117914 0.5401777 -0.5449995 -0.6411939 0.7170934 -0.6968291 0.01187169 0.8008057 -0.02996915 -0.5981323 0.7623524 0.6468398 0.01944029 0.1258888 0.9918821 0.01629686 -0.6371349 0.770684 0.008270502 -0.9446089 0.328074 0.006500422 -0.9656667 -0.2595599 0.008392572 -0.4115116 -0.9112522 0.01461833 0.3351848 -0.9419843 0.0170598 0.7378155 -0.6746422 0.0203253 0.7414167 0.6701865 0.03347879 0.09143346 0.9956054 0.01870781 -0.6585589 0.7524644 0.006317317 -0.9528489 0.3031098 0.01266515 -0.9587695 -0.2823572 0.03155612 -0.3936887 -0.9170507 0.06317329 0.3580431 -0.9311808 0.06851404 0.7546922 -0.6524857 0.06814783 0.9996643 0.009369134 0.02310246 0.997406 0.0419324 0.0579546 -0.01208531 0.03430277 0.9993286 -0.3070772 0.9513535 -0.02426218 -0.3068331 0.9516282 -0.01513713 -0.3073214 0.9509873 -0.03375345 -0.3068331 0.9516282 -0.01513713 -0.3071993 0.9511704 -0.02896201 -0.3024079 0.9496139 0.08200323 -0.2998138 0.946318 0.1206396 -0.2998138 0.946318 0.1206396 0.8496658 0.2862026 0.4428235 0.9311808 0.305948 0.1980956 0.8494217 0.2861415 0.4433729 0.9311808 0.305948 0.1980956 0.5001984 0.1842402 0.8460646 0.5034334 0.1852168 0.8439283 0.2512894 0.1069979 0.9619435 0.2512894 0.1069979 0.9619435 0.8562578 -0.5162206 0.01730394 0.8561968 -0.5161901 0.02114927 0.8563188 -0.5162816 0.01184117 0.8561968 -0.5161901 0.02117979 0.8562578 -0.5162511 0.01721239 0.8445082 -0.5085909 0.1676687 0.8377331 -0.5043489 0.2092959 0.8377331 -0.5043489 0.2092654 -0.4366893 -0.7130955 0.5484176 -0.5009308 -0.8255257 0.2598956 -0.4371472 -0.713889 0.5470138 -0.5009308 -0.8255257 0.2598956 -0.2085635 -0.3271279 0.921659 -0.2106082 -0.3305155 0.9199805 -0.07406842 -0.1026337 0.9919431 -0.07406842 -0.1026337 0.9919431 -0.7513352 0.6588031 -0.03769034 -0.7513657 0.6586505 -0.03991818 -0.7513352 0.6589556 -0.03509628 -0.7513352 0.6589556 -0.03509628 -0.7512437 0.6595661 -0.02420115 -0.7483444 0.6616413 0.04678487 -0.7460555 0.6614887 0.07602161 -0.7460555 0.6614887 0.07599109 -0.5974914 -0.6508682 0.4683371 -0.6470839 -0.7222816 0.2440565 -0.5970947 -0.6503494 0.4695578 -0.6470839 -0.7222816 0.2440565 -0.3648793 -0.3596301 0.8587604 -0.3611866 -0.3552049 0.8621479 -0.1792657 -0.140263 0.9737236 -0.1792962 -0.140263 0.9737236 0.6477859 -0.7613758 0.02511668 0.6377148 -0.7701956 0.009765923 0.6580706 -0.751793 0.04129153 0.6377148 -0.7701956 0.009765923 0.6736046 -0.7360759 0.06653034 0.6881008 -0.7198096 0.09128081 0.6936857 -0.713126 0.1011078 0.6936857 -0.713126 0.1011078 -0.2649006 -0.2159795 0.9397565 -0.443495 -0.361095 0.8202765 -0.2734459 -0.2229377 0.935667 -0.443495 -0.361095 0.8202765 0.1046174 0.08438366 0.9909055 0.09262365 0.07461774 0.9928892 0.2696005 0.218543 0.9378338 0.2696005 0.218543 0.9378338 0.2434461 0.9694204 -0.02993863 0.2456434 0.9689932 -0.02575761 0.2413403 0.9698172 -0.03430277 0.245735 0.9689932 -0.02526932 0.2452772 0.9690847 -0.02658158 0.2798547 0.9590442 0.04318368 0.2912687 0.9542833 0.06686604 0.2912687 0.9542833 0.06686604 0.9667043 -0.2538225 0.03192234 0.9463485 -0.250618 -0.2038026 0.9664907 -0.2537004 0.0386669 0.9463485 -0.250618 -0.2038026 0.8352001 -0.2148808 0.50618 0.8352916 -0.2149113 0.5059969 0.6854152 -0.1736808 0.7070834 0.6854152 -0.1736808 0.7070834 0.9938353 -0.1106906 -0.002838194 0.9937742 -0.1108737 0.007934808 0.9936217 -0.1103549 -0.02212589 0.9937742 -0.1108737 0.007934808 0.9935301 -0.1102634 -0.02706986 0.957152 -0.1110568 0.2674032 0.937376 -0.1098971 0.3304849 0.937376 -0.1098971 0.3305155 -0.08847314 -0.8033387 0.5888852 -0.1049836 -0.9470809 0.3032929 -0.08832055 -0.8019959 0.5907468 -0.1049836 -0.9470809 0.3032624 -0.03631699 -0.3405866 0.9394818 -0.03637802 -0.3411359 0.9392987 -0.00741595 -0.08215582 0.9965819 -0.00741595 -0.08215582 0.9965819 0.2655416 -0.9634999 -0.03323465 0.2666097 -0.9628285 -0.04281747 0.2641682 -0.9642323 -0.02145451 0.2666097 -0.9628285 -0.04281747 0.2625812 -0.9648427 -0.008209466 0.2611163 -0.9652699 0.003631651 0.2606891 -0.965392 0.007080256 0.2606891 -0.965392 0.007080256 -0.8816492 -0.2491531 0.400708 -0.9557482 -0.2640767 0.1295511 -0.8804285 -0.2488784 0.4035767 -0.9557482 -0.2640767 0.1295511 -0.5554674 -0.1680654 0.8143559 -0.5570849 -0.1684927 0.8131352 -0.3414106 -0.1118503 0.9332255 -0.3414106 -0.1118503 0.9332255 -0.1799677 -0.9823603 0.05032497 -0.1742607 -0.9846797 -0.005554318 -0.1858272 -0.9759209 0.1140171 -0.1742607 -0.9846797 -0.005554318 -0.1923581 -0.961272 0.1972716 -0.197058 -0.9421979 0.2709433 -0.1983703 -0.9344767 0.2955718 -0.1983703 -0.9344767 0.2955718 -0.897641 0.150792 0.4140446 -0.9782708 0.169927 0.1187475 -0.9089022 0.1532334 0.3877376 -0.9782708 0.169927 0.1187475 -0.6027406 0.09262365 0.7925047 -0.6272164 0.09726244 0.7727287 -0.4572283 0.06546217 0.8868984 -0.4572283 0.06546217 0.8868984</float_array>
          <technique_common>
            <accessor source="#ekasia160-mesh-normals-array" count="165" stride="3">
              <param name="X" type="float"/>
              <param name="Y" type="float"/>
              <param name="Z" type="float"/>
            </accessor>
          </technique_common>
        </source>
        <source id="ekasia160-mesh-map-0">
          <float_array id="ekasia160-mesh-map-0-array" count="996">0.8828125 0 0.8828125 1 0.9960938 1 0.8828125 1 0.8828125 0 0.78125 0 0.78125 0 0.78125 1 0.8828125 1 0.6640625 0 0.78125 1 0.78125 0 0.6640625 0 0.6640625 1 0.78125 1 0.5507813 0 0.6640625 1 0.6640625 0 0.5507813 0 0.5507813 1 0.6640625 1 0.4492188 0 0.5507813 1 0.5507813 0 0.4492188 0 0.4492188 1 0.5507813 1 0.3359375 0 0.4492188 1 0.4492188 0 0.3359375 0 0.3359375 1 0.4492188 1 0.21875 0 0.3359375 1 0.3359375 0 0.21875 0 0.21875 1 0.3359375 1 0.1171875 0 0.21875 1 0.21875 0 0.1171875 0 0.1171875 1 0.21875 1 0.00390625 0 0.1171875 1 0.1171875 0 0.78125 1 0.8828125 2 0.8828125 1 0.78125 1 0.78125 2 0.8828125 2 0.6640625 1 0.78125 2 0.78125 1 0.6640625 1 0.6640625 2 0.78125 2 0.5507813 1 0.6640625 2 0.6640625 1 0.5507813 1 0.5507813 2 0.6640625 2 0.4492188 1 0.5507813 2 0.5507813 1 0.4492188 1 0.4492188 2 0.5507813 2 0.3359375 1 0.4492188 2 0.4492188 1 0.3359375 1 0.3359375 2 0.4492188 2 0.21875 1 0.3359375 2 0.3359375 1 0.21875 1 0.21875 2 0.3359375 2 0.1171875 1 0.21875 2 0.21875 1 0.1171875 1 0.1171875 2 0.21875 2 0.78125 2 0.8828125 3 0.8828125 2 0.78125 2 0.78125 3 0.8828125 3 0.6640625 2 0.78125 3 0.78125 2 0.6640625 2 0.6640625 3 0.78125 3 0.5507813 2 0.6640625 3 0.6640625 2 0.5507813 2 0.5507813 3 0.6640625 3 0.4492188 2 0.5507813 3 0.5507813 2 0.4492188 2 0.4492188 3 0.5507813 3 0.3359375 2 0.4492188 3 0.4492188 2 0.3359375 2 0.3359375 3 0.4492188 3 0.21875 2 0.3359375 3 0.3359375 2 0.21875 2 0.21875 3 0.3359375 3 0.1171875 2 0.21875 3 0.21875 2 0.1171875 2 0.1171875 3 0.21875 3 0.00390625 2 0.1171875 3 0.1171875 2 0.00390625 2 0.00390625 3 0.1171875 3 0.5507813 3 0.6640625 4 0.6640625 3 0.8828125 0 0.9960938 1 0.9960938 0 0.00390625 0 0.00390625 1 0.1171875 1 0.8828125 1 0.9960938 2 0.9960938 1 0.8828125 1 0.8828125 2 0.9960938 2 0.00390625 1 0.1171875 2 0.1171875 1 0.00390625 1 0.00390625 2 0.1171875 2 0.8828125 2 0.9960938 3 0.9960938 2 0.8828125 2 0.8828125 3 0.9960938 3 0.8828125 3 0.9960938 4 0.9960938 3 0.78125 3 0.8828125 4 0.8828125 3 0.6640625 3 0.78125 4 0.78125 3 0.4492188 3 0.5507813 4 0.5507813 3 0.3359375 3 0.4492188 4 0.4492188 3 0.21875 3 0.3359375 4 0.3359375 3 0.1171875 3 0.21875 4 0.21875 3 0.00390625 3 0.1171875 4 0.1171875 3 1.46875 -0.53125 1.355469 -0.4921875 1.484375 -0.6523438 1.484375 -0.6523438 1.355469 -0.4921875 1.441406 -0.75 1.441406 -0.75 1.355469 -0.4921875 1.238281 -0.4960938 1.441406 -0.75 1.238281 -0.4960938 1.351562 -0.8125 1.238281 -0.4960938 1.175781 -0.59375 1.351562 -0.8125 1.175781 -0.59375 1.226562 -0.8125 1.351562 -0.8125 1.175781 -0.59375 1.175781 -0.703125 1.226562 -0.8125 0 -0.666667 1 -1 1 -0.666667 0 -0.666667 0 -1 1 -1 0 -0.333333 1 -0.666667 1 -0.333333 0 -0.333333 0 -0.666667 1 -0.666667 0 0 1 -0.333333 1 0 0 0 0 -0.333333 1 -0.333333 0 -0.666667 1 -1 1 -0.666667 0 -0.666667 0 -1 1 -1 0 -0.333333 1 -0.666667 1 -0.333333 0 -0.333333 0 -0.666667 1 -0.666667 0 0 1 -0.333333 1 0 0 0 0 -0.333333 1 -0.333333 0 -0.666667 1 -1 1 -0.666667 0 -0.666667 0 -1 1 -1 0 -0.333333 1 -0.666667 1 -0.333333 0 -0.333333 0 -0.666667 1 -0.666667 0 0 1 -0.333333 1 0 0 0 0 -0.333333 1 -0.333333 0 -0.666667 1 -1 1 -0.666667 0 -0.666667 0 -1 1 -1 0 -0.333333 1 -0.666667 1 -0.333333 0 -0.333333 0 -0.666667 1 -0.666667 0 0 1 -0.333333 1 0 0 0 0 -0.333333 1 -0.333333 0 -0.666667 1 -0.666667 1 -1 0 -0.666667 1 -1 0 -1 0 -0.333333 1 -0.333333 1 -0.666667 0 -0.333333 1 -0.666667 0 -0.666667 0 0 1 0 1 -0.333333 0 0 1 -0.333333 0 -0.333333 0 -0.666667 1 -1 1 -0.666667 0 -0.666667 0 -1 1 -1 0 -0.333333 1 -0.666667 1 -0.333333 0 -0.333333 0 -0.666667 1 -0.666667 0 0 1 -0.333333 1 0 0 0 0 -0.333333 1 -0.333333 0 -0.666667 1 -1 1 -0.666667 0 -0.666667 0 -1 1 -1 0 -0.333333 1 -0.666667 1 -0.333333 0 -0.333333 0 -0.666667 1 -0.666667 0 0 1 -0.333333 1 0 0 0 0 -0.333333 1 -0.333333 0 -0.666667 1 -1 1 -0.666667 0 -0.666667 0 -1 1 -1 0 -0.333333 1 -0.666667 1 -0.333333 0 -0.333333 0 -0.666667 1 -0.666667 0 0 1 -0.333333 1 0 0 0 0 -0.333333 1 -0.333333 0 -0.666667 1 -1 1 -0.666667 0 -0.666667 0 -1 1 -1 0 -0.333333 1 -0.666667 1 -0.333333 0 -0.333333 0 -0.666667 1 -0.666667 0 0 1 -0.333333 1 0 0 0 0 -0.333333 1 -0.333333 0 -0.666667 1 -1 1 -0.666667 0 -0.666667 0 -1 1 -1 0 -0.333333 1 -0.666667 1 -0.333333 0 -0.333333 0 -0.666667 1 -0.666667 0 0 1 -0.333333 1 0 0 0 0 -0.333333 1 -0.333333 0 -0.666667 1 -1 1 -0.666667 0 -0.666667 0 -1 1 -1 0 -0.333333 1 -0.666667 1 -0.333333 0 -0.333333 0 -0.666667 1 -0.666667 0 0 1 -0.333333 1 0 0 0 0 -0.333333 1 -0.333333 0 -0.666667 1 -1 1 -0.666667 0 -0.666667 0 -1 1 -1 0 -0.333333 1 -0.666667 1 -0.333333 0 -0.333333 0 -0.666667 1 -0.666667 0 0 1 -0.333333 1 0 0 0 0 -0.333333 1 -0.333333 0 -0.666667 1 -1 1 -0.666667 0 -0.666667 0 -1 1 -1 0 -0.333333 1 -0.666667 1 -0.333333 0 -0.333333 0 -0.666667 1 -0.666667 0 0 1 -0.333333 1 0 0 0 0 -0.333333 1 -0.333333 0 -0.666667 1 -1 1 -0.666667 0 -0.666667 0 -1 1 -1 0 -0.333333 1 -0.666667 1 -0.333333 0 -0.333333 0 -0.666667 1 -0.666667 0 0 1 -0.333333 1 0 0 0 0 -0.333333 1 -0.333333 0 -0.666667 1 -1 1 -0.666667 0 -0.666667 0 -1 1 -1 0 -0.333333 1 -0.666667 1 -0.333333 0 -0.333333 0 -0.666667 1 -0.666667 0 0 1 -0.333333 1 0 0 0 0 -0.333333 1 -0.333333 0 -0.666667 1 -1 1 -0.666667 0 -0.666667 0 -1 1 -1 0 -0.333333 1 -0.666667 1 -0.333333 0 -0.333333 0 -0.666667 1 -0.666667 0 0 1 -0.333333 1 0 0 0 0 -0.333333 1 -0.333333</float_array>
          <technique_common>
            <accessor source="#ekasia160-mesh-map-0-array" count="498" stride="2">
              <param name="S" type="float"/>
              <param name="T" type="float"/>
            </accessor>
          </technique_common>
        </source>
        <source id="ekasia160-mesh-colors">
          <float_array id="ekasia160-mesh-colors-array" count="1494">0 0 0 0 0 0 0 0 0 0 0 0 0 0 0 0 0 0 0 0 0 0 0 0 0 0 0 0 0 0 0 0 0 0 0 0 0 0 0 0 0 0 0 0 0 0 0 0 0 0 0 0 0 0 0 0 0 0 0 0 0 0 0 0 0 0 0 0 0 0 0 0 0 0 0 0 0 0 0 0 0 0 0 0 0 0 0 0 0 0 0 0 0 0 0 0 0 0 0 0 0 0 0 0 0 0 0 0 0 0 0 0 0 0 0 0 0 0 0 0 0 0 0 0 0 0 0 0 0 0 0 0 0 0 0 0 0 0 0 0 0 0 0 0 0 0 0 0 0 0 0 0 0 0 0 0 0 0 0 0 0 0 0 0 0 0 0 0 0 0 0 0 0 0 0 0 0 0 0 0 0 0 0 0 0 0 0 0 0 0 0 0 0 0 0 0 0 0 0 0 0 0 0 0 0 0 0 0 0 0 0 0 0 0 0 0 0 0 0 0 0 0 0 0 0 0 0 0 0 0 0 0 0 0 0 0 0 0 0 0 0 0 0 0 0 0 0 0 0 0 0 0 0 0 0 0 0 0 0 0 0 0 0 0 0 0 0 0 0 0 0 0 0 0 0 0 0 0 0 0 0 0 0 0 0 0 0 0 0 0 0 0 0 0 0 0 0 0 0 0 0 0 0 0 0 0 0 0 0 0 0 0 0 0 0 0 0 0 0 0 0 0 0 0 0 0 0 0 0 0 0 0 0 0 0 0 0 0 0 0 0 0 0 0 0 0 0 0 0 0 0 0 0 0 0 0 0 0 0 0 0 0 0 0 0 0 0 0 0 0 0 0 0 0 0 0 0 0 0 0 0 0 0 0 0 0 0 0 0 0 0 0 0 0 0 0 0 0 0 0 0 0 0 0 0 0 0 0 0 0 0 0 0 0 0 0 0 0 0 0 0 0 0 0 0 0 0 0 0 0 0 0 0 0 0 0 0 0 0 0 0 0 0 0 0 0 0 0 0 0 0 0 0 0 0 0 0 0 0 0 0 0 0 0 0 0 0 0 0 0 0 0 0 0 0 0 0 0 0 0 0 0 0 0 0 0 0 0 0 0 0 0 0 0 0 0 0 0 0 0 0 0 0 0 0 0 0 0 0 0 0 0 0 0 0 0 0 0 0 0 0 0 0 0 0 0 0 0 0 0 0 0 0 0 0 0 0 0 0 0 0 0 0 0 0 0 0 0 0 0 0 0 0 0 0 0 0 0 0 0 0 0 0 0 0 0 0 0 0 0 0 0 0 0 0 0 0 0 0 0 0 0 0 0 0 0 0 0 0 0 0 0 0 0 0 0 0 0 0 0 0 0 0 0 0 0 0 0 0 0 0 0 0 0 0 0 0 0 0 0 0 0 0 0 0 0 0 0 0 0 1 0.2823529 1 1 0.5019608 1 1 1 1 1 0.2823529 1 0.5882353 0.1098039 1 1 0.5019608 1 0.4509804 0.0980392 1 1 1 1 1 1 1 0.4509804 0.0980392 1 1 0.2823529 1 1 1 1 0.6588236 1 1 1 1 1 1 0.4627451 1 0.8 1 1 0.4509804 1 1 1 1 1 1 0.9294118 1 1 0.7960785 1 1 0.4941176 1 1 0.1607843 1 1 0.7647059 1 1 0.7960785 1 1 0.03529411 1 1 0.6745098 1 1 0.7254902 1 1 0.03529411 1 1 0.9294118 1 1 0.4941176 1 1 0 1 1 0.7254902 1 1 0.4901961 1 1 0 1 1 0.4509804 1 1 0.7254902 1 1 0.4235294 1 0.9764706 0.254902 1 1 0.6901961 1 1 0.4588235 1 1 1 1 0 0.1568627 1 0.5019608 1 1 1 0.4313725 1 1 1 1 0.5019608 1 1 1 0.8705883 1 1 0.6039216 1 0 1 1 1 1 1 1 1 1 0 1 1 0.5019608 1 1 1 1 1 1 1 1 1 0.172549 1 1 0.2980392 1 1 1 1 1 1 1 1 0.1176471 1 1 0.7254902 1 1 0.6431373 1 1 0.1137255 1 1 0.7254902 1 1 1 1 1 0.4666666 1 1 0.07450979 1 1 1 1 1 0.3098039 1 1 0.07450979 1 1 0.7254902 1 1 1 1 1 0.1490196 1 1 1 1 1 1 1 1 0.1490196 1 1 0.317647 1 1 0.3019608 1 1 0.682353 1 1 1 1 1 1 1 1 0.682353 1 1 1 1 1 0.1490196 1 1 1 1 1 0.2392157 1 1 1 1 1 1 1 1 1 1 1 0.682353 1 1 0.9058824 1 1 0.7058824 1 1 0.2901961 1 1 0.9058824 1 1 1 1 1 0.7215687 1 1 1 1 1 1 1 1 1 1 1 1 1 1 0.9058824 1 1 1 1 1 1 1 1 1 1 1 0.172549 1 1 1 1 1 1 1 1 1 1 0.09411764 0.2901961 1 0 0.05882352 1 1 0.6784314 1 0.09411764 0.2 1 0.7882353 0.8941177 1 0 0.05882352 1 0 0.07450979 1 1 1 1 1 1 1 0 0.1764706 1 0.09411764 0.2 1 1 0.6784314 1 1 0.7803922 1 1 1 1 1 0.8117647 1 1 0.7803922 1 0 0.1254902 1 1 1 1 1 0.7803922 1 1 0.5333334 1 1 0.2627451 1 1 0.7803922 1 1 0.682353 1 1 0.06666666 1 1 0.8039216 1 1 1 1 1 1 1 1 0.8196079 1 1 0.7803922 1 0 0.2627451 1 1 1 1 1 1 1 1 1 1 1 1 1 1 0.7372549 1 1 1 1 1 0.1764706 1 1 1 1 1 1 1 0.4901961 0.372549 1 1 0.6745098 1 1 1 1 1 0.4627451 1 1 0.7960785 1 1 0.145098 1 1 0.4627451 1 1 0.08235293 1 1 0.3764706 1 0 1 1 1 0.145098 1 1 0.09411764 1 0 1 1 1 0.345098 1 1 0.145098 1 1 1 1 0.854902 0.654902 1 0.3490196 0 1 1 0.9529412 1 1 1 1 0 0.3803921 1 1 0.03137254 1 0.3607843 0 1 0.8745098 0.1411765 1 1 0.03137254 1 1 1 1 0.3490196 0 1 1 0.1176471 1 1 0.4313725 1 1 0.9372549 1 1 0.1176471 1 1 0.3333333 1 0.8745098 0.4313725 1 1 1 1 1 0.7647059 1 1 0.7529412 1 1 1 1 1 0.1333333 1 1 0.7647059 1 0.09019607 1 1 1 0.7529412 1 1 1 1 0.09019607 1 1 0.5725491 1 1 1 0.7529412 1 0 0.6627451 1 1 1 1 1 1 1 0 0.1058824 1 0.09019607 0.9450981 1 1 0 1 1 1 1 1 0.1529412 1 0.2117647 0.5019608 1 1 1 1 1 1 1 1 0.1529412 1 1 1 1 0.2117647 0.2509804 1 1 0.7333334 1 1 1 1 1 1 1 0.2117647 0.2509804 1 1 0.7843137 1 1 0.882353 1 1 1 1 1 0.7843137 1 1 1 1 1 0.7333334 1 1 1 1 0.4352941 0.1568627 1 1 1 1 1 1 1 1 1 1 0 0.1568627 1 0 0.1607843 1 1 1 1 1 1 1 0 0.7529412 1 1 1 1 0.3294118 1 1 0 0 1 1 1 1 1 0.5568628 1 0 0.04313725 1 0 0.1607843 1 1 1 1 0.7921569 0.09019607 1 0.9882353 0.1568627 1 1 1 1 1 0.2431373 1 1 0.7960785 1 0 0.3333333 1 1 0 1 1 1 1 1 1 1 1 0.6431373 1 1 0.6039216 1 1 1 1 1 0 1 1 1 1 1 1 1 1 0 1 1 0.6313726 1 1 1 1 1 1 1 1 0.5411765 1 1 1 1 1 1 1 1 1 1 1 0.5411765 1 0 0.7960785 1 1 1 1 1 0.7764706 1 0 0.7960785 1 1 1 1 0.5490196 0.7686275 1 0 0.02745097 1 1 0.7764706 1 1 0.1176471 1 0 0.02745097 1 0 0.2627451 1 1 0.7764706 1 0 0.06666666 1 1 1 1 1 1 1 0.5843138 0.7058824 1 1 0.5647059 1 1 1 1 1 0.05098038 1 1 1 1 1 0.2862745 1 1 0.0117647 1 1 0.654902 1 1 1 1 1 1 1 1 0.5882353 1 1 0.4627451 1 1 1 1 1 0.05098038 1 1 0.5058824 1</float_array>
          <technique_common>
            <accessor source="#ekasia160-mesh-colors-array" count="498" stride="3">
              <param name="R" type="float"/>
              <param name="G" type="float"/>
              <param name="B" type="float"/>
            </accessor>
          </technique_common>
        </source>
        <vertices id="ekasia160-mesh-vertices">
          <input semantic="POSITION" source="#ekasia160-mesh-positions"/>
        </vertices>
        <polylist material="ekasia_tumula_01_bark-material" count="70">
          <input semantic="VERTEX" source="#ekasia160-mesh-vertices" offset="0"/>
          <input semantic="NORMAL" source="#ekasia160-mesh-normals" offset="1"/>
          <input semantic="TEXCOORD" source="#ekasia160-mesh-map-0" offset="2" set="0"/>
          <input semantic="COLOR" source="#ekasia160-mesh-colors" offset="3"/>
          <vcount>3 3 3 3 3 3 3 3 3 3 3 3 3 3 3 3 3 3 3 3 3 3 3 3 3 3 3 3 3 3 3 3 3 3 3 3 3 3 3 3 3 3 3 3 3 3 3 3 3 3 3 3 3 3 3 3 3 3 3 3 3 3 3 3 3 3 3 3 3 3 </vcount>
          <p>0 0 0 0 2 1 1 1 1 2 2 2 2 1 3 3 0 0 4 4 3 3 5 5 3 3 6 6 4 4 7 7 2 1 8 8 5 5 9 9 4 4 10 10 3 3 11 11 5 5 12 12 6 6 13 13 4 4 14 14 7 7 15 15 6 6 16 16 5 5 17 17 7 7 18 18 8 8 19 19 6 6 20 20 9 9 21 21 8 8 22 22 7 7 23 23 9 9 24 24 10 10 25 25 8 8 26 26 11 11 27 27 10 10 28 28 9 9 29 29 11 11 30 30 12 12 31 31 10 10 32 32 13 13 33 33 12 12 34 34 11 11 35 35 13 13 36 36 14 14 37 37 12 12 38 38 15 15 39 39 14 14 40 40 13 13 41 41 15 15 42 42 16 16 43 43 14 14 44 44 17 17 45 45 16 16 46 46 15 15 47 47 4 4 48 48 18 18 49 49 2 1 50 50 4 4 51 51 19 19 52 52 18 18 53 53 6 6 54 54 19 19 55 55 4 4 56 56 6 6 57 57 20 20 58 58 19 19 59 59 8 8 60 60 20 20 61 61 6 6 62 62 8 8 63 63 21 21 64 64 20 20 65 65 10 10 66 66 21 21 67 67 8 8 68 68 10 10 69 69 22 22 70 70 21 21 71 71 12 12 72 72 22 22 73 73 10 10 74 74 12 12 75 75 23 23 76 76 22 22 77 77 14 14 78 78 23 23 79 79 12 12 80 80 14 14 81 81 24 24 82 82 23 23 83 83 16 16 84 84 24 24 85 85 14 14 86 86 16 16 87 87 25 25 88 88 24 24 89 89 19 19 90 90 27 26 91 91 18 18 92 92 19 19 93 93 28 27 94 94 27 26 95 95 20 20 96 96 28 27 97 97 19 19 98 98 20 20 99 99 29 28 100 100 28 27 101 101 21 21 102 102 29 28 103 103 20 20 104 104 21 21 105 105 30 29 106 106 29 28 107 107 22 22 108 108 30 29 109 109 21 21 110 110 22 22 111 111 31 30 112 112 30 29 113 113 23 23 114 114 31 30 115 115 22 22 116 116 23 23 117 117 32 31 118 118 31 30 119 119 24 24 120 120 32 31 121 121 23 23 122 122 24 24 123 123 33 32 124 124 32 31 125 125 25 25 126 126 33 32 127 127 24 24 128 128 25 25 129 129 34 33 130 130 33 32 131 131 26 34 132 132 34 33 133 133 25 25 134 134 26 34 135 135 35 35 136 136 34 33 137 137 30 29 138 138 36 36 139 139 29 28 140 140 0 0 141 141 1 2 142 142 17 17 143 143 17 17 144 144 1 2 145 145 16 16 146 146 2 1 147 147 26 34 148 148 1 2 149 149 2 1 150 150 18 18 151 151 26 34 152 152 1 2 153 153 25 25 154 154 16 16 155 155 1 2 156 156 26 34 157 157 25 25 158 158 18 18 159 159 35 35 160 160 26 34 161 161 18 18 162 162 27 26 163 163 35 35 164 164 27 26 165 165 36 36 166 166 35 35 167 167 28 27 168 168 36 36 169 169 27 26 170 170 29 28 171 171 36 36 172 172 28 27 173 173 31 30 174 174 36 36 175 175 30 29 176 176 32 31 177 177 36 36 178 178 31 30 179 179 33 32 180 180 36 36 181 181 32 31 182 182 34 33 183 183 36 36 184 184 33 32 185 185 35 35 186 186 36 36 187 187 34 33 188 188 3 3 189 189 0 0 190 190 5 5 191 191 5 5 192 192 0 0 193 193 7 7 194 194 7 7 195 195 0 0 196 196 17 17 197 197 7 7 198 198 17 17 199 199 9 9 200 200 17 17 201 201 15 15 202 202 9 9 203 203 15 15 204 204 11 11 205 205 9 9 206 206 15 15 207 207 13 13 208 208 11 11 209 209</p>
        </polylist>
        <polylist material="ekasia_tumula_01_branch-material" count="96">
          <input semantic="VERTEX" source="#ekasia160-mesh-vertices" offset="0"/>
          <input semantic="NORMAL" source="#ekasia160-mesh-normals" offset="1"/>
          <input semantic="TEXCOORD" source="#ekasia160-mesh-map-0" offset="2" set="0"/>
          <input semantic="COLOR" source="#ekasia160-mesh-colors" offset="3"/>
          <vcount>3 3 3 3 3 3 3 3 3 3 3 3 3 3 3 3 3 3 3 3 3 3 3 3 3 3 3 3 3 3 3 3 3 3 3 3 3 3 3 3 3 3 3 3 3 3 3 3 3 3 3 3 3 3 3 3 3 3 3 3 3 3 3 3 3 3 3 3 3 3 3 3 3 3 3 3 3 3 3 3 3 3 3 3 3 3 3 3 3 3 3 3 3 3 3 3 </vcount>
          <p>37 37 210 210 39 38 211 211 38 39 212 212 37 37 213 213 40 40 214 214 39 38 215 215 41 41 216 216 38 39 217 217 42 42 218 218 41 41 219 219 37 37 220 220 38 39 221 221 43 43 222 222 42 42 223 223 44 44 224 224 43 43 225 225 41 41 226 226 42 42 227 227 45 45 228 228 47 46 229 229 46 47 230 230 45 45 231 231 48 48 232 232 47 46 233 233 49 49 234 234 46 47 235 235 50 50 236 236 49 49 237 237 45 45 238 238 46 47 239 239 51 51 240 240 50 50 241 241 52 52 242 242 51 51 243 243 49 49 244 244 50 50 245 245 53 53 246 246 55 54 247 247 54 55 248 248 53 53 249 249 56 56 250 250 55 54 251 251 57 57 252 252 54 55 253 253 58 58 254 254 57 57 255 255 53 53 256 256 54 55 257 257 59 59 258 258 58 58 259 259 60 60 260 260 59 59 261 261 57 57 262 262 58 58 263 263 61 61 264 264 63 62 265 265 62 63 266 266 61 61 267 267 64 64 268 268 63 62 269 269 65 65 270 270 62 63 271 271 66 66 272 272 65 65 273 273 61 61 274 274 62 63 275 275 67 67 276 276 66 66 277 277 68 68 278 278 67 67 279 279 65 65 280 280 66 66 281 281 69 69 282 282 70 70 283 283 71 71 284 284 69 69 285 285 71 71 286 286 72 72 287 287 73 73 288 288 74 74 289 289 70 70 290 290 73 73 291 291 70 70 292 292 69 69 293 293 75 75 294 294 76 76 295 295 74 74 296 296 75 75 297 297 74 74 298 298 73 73 299 299 77 77 300 300 79 78 301 301 78 79 302 302 77 77 303 303 80 80 304 304 79 78 305 305 81 81 306 306 78 79 307 307 82 82 308 308 81 81 309 309 77 77 310 310 78 79 311 311 83 83 312 312 82 82 313 313 84 84 314 314 83 83 315 315 81 81 316 316 82 82 317 317 85 85 318 318 87 86 319 319 86 87 320 320 85 85 321 321 88 88 322 322 87 86 323 323 89 89 324 324 86 87 325 325 90 90 326 326 89 89 327 327 85 85 328 328 86 87 329 329 91 91 330 330 90 90 331 331 92 92 332 332 91 91 333 333 89 89 334 334 90 90 335 335 93 93 336 336 95 94 337 337 94 95 338 338 93 93 339 339 96 96 340 340 95 94 341 341 97 97 342 342 94 95 343 343 98 98 344 344 97 97 345 345 93 93 346 346 94 95 347 347 99 99 348 348 98 98 349 349 100 100 350 350 99 99 351 351 97 97 352 352 98 98 353 353 101 101 354 354 103 102 355 355 102 103 356 356 101 101 357 357 104 104 358 358 103 102 359 359 105 105 360 360 102 103 361 361 106 106 362 362 105 105 363 363 101 101 364 364 102 103 365 365 107 107 366 366 106 106 367 367 108 108 368 368 107 107 369 369 105 105 370 370 106 106 371 371 109 109 372 372 111 110 373 373 110 111 374 374 109 109 375 375 112 112 376 376 111 110 377 377 113 113 378 378 110 111 379 379 114 114 380 380 113 113 381 381 109 109 382 382 110 111 383 383 115 115 384 384 114 114 385 385 116 116 386 386 115 115 387 387 113 113 388 388 114 114 389 389 117 117 390 390 119 118 391 391 118 119 392 392 117 117 393 393 120 120 394 394 119 118 395 395 121 121 396 396 118 119 397 397 122 122 398 398 121 121 399 399 117 117 400 400 118 119 401 401 123 123 402 402 122 122 403 403 124 124 404 404 123 123 405 405 121 121 406 406 122 122 407 407 125 125 408 408 127 126 409 409 126 127 410 410 125 125 411 411 128 128 412 412 127 126 413 413 129 129 414 414 126 127 415 415 130 130 416 416 129 129 417 417 125 125 418 418 126 127 419 419 131 131 420 420 130 130 421 421 132 132 422 422 131 131 423 423 129 129 424 424 130 130 425 425 133 133 426 426 135 134 427 427 134 135 428 428 133 133 429 429 136 136 430 430 135 134 431 431 137 137 432 432 134 135 433 433 138 138 434 434 137 137 435 435 133 133 436 436 134 135 437 437 139 139 438 438 138 138 439 439 140 140 440 440 139 139 441 441 137 137 442 442 138 138 443 443 141 141 444 444 143 142 445 445 142 143 446 446 141 141 447 447 144 144 448 448 143 142 449 449 145 145 450 450 142 143 451 451 146 146 452 452 145 145 453 453 141 141 454 454 142 143 455 455 147 147 456 456 146 146 457 457 148 148 458 458 147 147 459 459 145 145 460 460 146 146 461 461 149 149 462 462 151 150 463 463 150 151 464 464 149 149 465 465 152 152 466 466 151 150 467 467 153 153 468 468 150 151 469 469 154 154 470 470 153 153 471 471 149 149 472 472 150 151 473 473 155 155 474 474 154 154 475 475 156 156 476 476 155 155 477 477 153 153 478 478 154 154 479 479 157 157 480 480 159 158 481 481 158 159 482 482 157 157 483 483 160 160 484 484 159 158 485 485 161 161 486 486 158 159 487 487 162 162 488 488 161 161 489 489 157 157 490 490 158 159 491 491 163 163 492 492 162 162 493 493 164 164 494 494 163 163 495 495 161 161 496 496 162 162 497 497</p>
        </polylist>
      </mesh>
      <extra><technique profile="MAYA"><double_sided>1</double_sided></technique></extra>
    </geometry>
    <geometry id="collisionmesh-1-mesh" name="collisionmesh-1">
      <mesh>
        <source id="collisionmesh-1-mesh-positions">
          <float_array id="collisionmesh-1-mesh-positions-array" count="111">0.2462108 0.2000323 -1.002498 0.2060289 -0.03077614 2.335722 0.1397804 0.1003365 2.337559 0.06828099 0.3543638 -1.002586 0.02185434 0.1968821 2.338441 -0.1518101 0.2728245 -1.004675 -0.1190022 0.1401092 2.336512 -0.2808019 0.1072769 -1.006756 -0.1993909 0.03067684 2.334081 -0.3084868 -0.1067698 -1.008501 -0.2133597 -0.1082621 2.331578 -0.187902 -0.3138736 -1.009186 -0.1315533 -0.2399899 2.329844 0.04783421 -0.2988512 -1.007474 0.02064669 -0.2259482 2.331106 0.2299317 -0.1992279 -1.005511 0.1365962 -0.1581763 2.333055 0.3427898 -0.005439579 -1.003334 0.1310443 0.04543638 4.659126 0.02720659 0.1253045 4.658484 -0.09232622 0.07282894 4.657574 -0.1585333 -0.02331155 4.657 -0.166905 -0.1430654 4.656798 -0.09318095 -0.254112 4.65718 0.03721523 -0.2380559 4.658125 0.1350623 -0.1767824 4.658889 0.1913868 -0.06548953 4.659418 0.04866129 0.06871062 7.000391 -0.03427773 0.1289228 6.997843 -0.1266663 0.08530741 6.998257 -0.1764041 0.008699536 7.000058 -0.1803929 -0.08512413 7.002793 -0.1203454 -0.1703662 7.005874 -0.01868069 -0.1549956 7.006381 0.05655467 -0.1049693 7.005608 0.09823805 -0.01672637 7.003393 -0.07735472 0.05116707 9.241546</float_array>
          <technique_common>
            <accessor source="#collisionmesh-1-mesh-positions-array" count="37" stride="3">
              <param name="X" type="float"/>
              <param name="Y" type="float"/>
              <param name="Z" type="float"/>
            </accessor>
          </technique_common>
        </source>
        <source id="collisionmesh-1-mesh-normals">
          <float_array id="collisionmesh-1-mesh-normals-array" count="210">0.8919882 0.4501168 0.04185837 0.6546059 0.7547243 0.04338628 0.6330304 0.7728049 0.04522323 -0.347464 0.9368681 0.03933161 -0.374002 0.9265441 0.04047566 -0.7886033 0.614062 0.03213459 -0.8058267 0.5912203 0.03319245 -0.991403 0.1280078 0.02709394 -0.9946341 0.09948843 0.0283721 -0.8638968 -0.5030785 0.02437943 -0.8490715 -0.5276377 0.02600389 0.06343036 -0.9977651 0.02100735 0.09165948 -0.9955365 0.02248543 0.479637 -0.877164 0.02306008 0.5041555 -0.8632593 0.02470928 0.863592 -0.503278 0.03033161 0.6334332 0.7735211 0.02067571 0.6094259 0.7925082 0.02304434 -0.3740164 0.926954 0.02946102 -0.4019796 0.9151188 0.03114634 -0.8059179 0.5914381 0.02640634 -0.8233617 0.5668427 0.02765631 -0.9948241 0.0996617 0.01981413 -0.9973486 0.06968617 0.02096867 -0.8494237 -0.5276334 0.00907278 -0.8330835 -0.5530499 0.01037973 0.09192705 -0.995737 -0.00755769 0.1222512 -0.9924808 -0.006034374 0.5047039 -0.8632546 -0.008085072 0.530765 -0.8474946 -0.006429672 0.6095684 0.7926174 0.01356977 0.5871434 0.8093588 0.01417982 -0.4018703 0.9156183 -0.01197832 -0.4269205 0.9042212 -0.01108384 -0.8234636 0.567168 -0.01510465 -0.8387982 0.5442669 -0.01383346 -0.9975279 0.06974858 -0.008561134 -0.9990829 0.04227596 -0.006788134 -0.8330932 -0.5530616 0.008869707 -0.8176631 -0.5755904 0.01106649 0.1218651 -0.9918652 0.0367757 0.1491914 -0.9880585 0.03849989 0.5300198 -0.846916 0.04257243 0.5534767 -0.8317033 0.04396748 0.8913092 -0.4512921 0.04362827 0.9037237 -0.4257685 0.04477119 -0.8381434 0.5447953 0.02671504 0.9043406 0.4249081 0.04026407 0.877322 -0.4788141 0.03230005 0.892536 0.4508068 0.01235854 0.8783264 0.4778384 0.01460498 0.8780883 -0.4784875 -0.003248631 0.8922438 -0.4515525 -0.001123428 0.878135 0.4777615 0.02495759 0.8642618 0.5023997 0.02541679 0.8629373 0.5025808 0.05245554 0.586243 0.8091816 0.03929758 -0.4267072 0.9040938 0.02313905 -0.9981072 0.04369372 0.04327762 -0.8166079 -0.5726285 0.07244479 0.1483567 -0.9843901 0.09469068 0.5520525 -0.8288353 0.09094005 0.9018397 -0.4239035 0.08361214 0.00680077 0.007269084 -0.9999504 0.006800711 0.007268786 -0.9999505 0.006800651 0.007269144 -0.9999504 0.006800711 0.007269501 -0.9999505 0.006800711 0.00726962 -0.9999504 0.006800591 0.007269144 -0.9999505 0.006800591 0.007269203 -0.9999504</float_array>
          <technique_common>
            <accessor source="#collisionmesh-1-mesh-normals-array" count="70" stride="3">
              <param name="X" type="float"/>
              <param name="Y" type="float"/>
              <param name="Z" type="float"/>
            </accessor>
          </technique_common>
        </source>
        <source id="collisionmesh-1-mesh-map-0">
          <float_array id="collisionmesh-1-mesh-map-0-array" count="420">0.8828125 0 0.8828125 1 0.9960938 1 0.8828125 1 0.8828125 0 0.78125 0 0.78125 0 0.78125 1 0.8828125 1 0.6640625 0 0.78125 1 0.78125 0 0.6640625 0 0.6640625 1 0.78125 1 0.5507813 0 0.6640625 1 0.6640625 0 0.5507813 0 0.5507813 1 0.6640625 1 0.4492188 0 0.5507813 1 0.5507813 0 0.4492188 0 0.4492188 1 0.5507813 1 0.3359375 0 0.4492188 1 0.4492188 0 0.3359375 0 0.3359375 1 0.4492188 1 0.21875 0 0.3359375 1 0.3359375 0 0.21875 0 0.21875 1 0.3359375 1 0.1171875 0 0.21875 1 0.21875 0 0.1171875 0 0.1171875 1 0.21875 1 0.00390625 0 0.1171875 1 0.1171875 0 0.78125 1 0.8828125 2 0.8828125 1 0.78125 1 0.78125 2 0.8828125 2 0.6640625 1 0.78125 2 0.78125 1 0.6640625 1 0.6640625 2 0.78125 2 0.5507813 1 0.6640625 2 0.6640625 1 0.5507813 1 0.5507813 2 0.6640625 2 0.4492188 1 0.5507813 2 0.5507813 1 0.4492188 1 0.4492188 2 0.5507813 2 0.3359375 1 0.4492188 2 0.4492188 1 0.3359375 1 0.3359375 2 0.4492188 2 0.21875 1 0.3359375 2 0.3359375 1 0.21875 1 0.21875 2 0.3359375 2 0.1171875 1 0.21875 2 0.21875 1 0.1171875 1 0.1171875 2 0.21875 2 0.78125 2 0.8828125 3 0.8828125 2 0.78125 2 0.78125 3 0.8828125 3 0.6640625 2 0.78125 3 0.78125 2 0.6640625 2 0.6640625 3 0.78125 3 0.5507813 2 0.6640625 3 0.6640625 2 0.5507813 2 0.5507813 3 0.6640625 3 0.4492188 2 0.5507813 3 0.5507813 2 0.4492188 2 0.4492188 3 0.5507813 3 0.3359375 2 0.4492188 3 0.4492188 2 0.3359375 2 0.3359375 3 0.4492188 3 0.21875 2 0.3359375 3 0.3359375 2 0.21875 2 0.21875 3 0.3359375 3 0.1171875 2 0.21875 3 0.21875 2 0.1171875 2 0.1171875 3 0.21875 3 0.00390625 2 0.1171875 3 0.1171875 2 0.00390625 2 0.00390625 3 0.1171875 3 0.5507813 3 0.6640625 4 0.6640625 3 0.8828125 0 0.9960938 1 0.9960938 0 0.00390625 0 0.00390625 1 0.1171875 1 0.8828125 1 0.9960938 2 0.9960938 1 0.8828125 1 0.8828125 2 0.9960938 2 0.00390625 1 0.1171875 2 0.1171875 1 0.00390625 1 0.00390625 2 0.1171875 2 0.8828125 2 0.9960938 3 0.9960938 2 0.8828125 2 0.8828125 3 0.9960938 3 0.8828125 3 0.9960938 4 0.9960938 3 0.78125 3 0.8828125 4 0.8828125 3 0.6640625 3 0.78125 4 0.78125 3 0.4492188 3 0.5507813 4 0.5507813 3 0.3359375 3 0.4492188 4 0.4492188 3 0.21875 3 0.3359375 4 0.3359375 3 0.1171875 3 0.21875 4 0.21875 3 0.00390625 3 0.1171875 4 0.1171875 3 1.46875 -0.53125 1.355469 -0.4921875 1.484375 -0.6523438 1.484375 -0.6523438 1.355469 -0.4921875 1.441406 -0.75 1.441406 -0.75 1.355469 -0.4921875 1.238281 -0.4960938 1.441406 -0.75 1.238281 -0.4960938 1.351562 -0.8125 1.238281 -0.4960938 1.175781 -0.59375 1.351562 -0.8125 1.175781 -0.59375 1.226562 -0.8125 1.351562 -0.8125 1.175781 -0.59375 1.175781 -0.703125 1.226562 -0.8125</float_array>
          <technique_common>
            <accessor source="#collisionmesh-1-mesh-map-0-array" count="210" stride="2">
              <param name="S" type="float"/>
              <param name="T" type="float"/>
            </accessor>
          </technique_common>
        </source>
        <source id="collisionmesh-1-mesh-colors">
          <float_array id="collisionmesh-1-mesh-colors-array" count="630">0 0 0 0 0 0 0 0 0 0 0 0 0 0 0 0 0 0 0 0 0 0 0 0 0 0 0 0 0 0 0 0 0 0 0 0 0 0 0 0 0 0 0 0 0 0 0 0 0 0 0 0 0 0 0 0 0 0 0 0 0 0 0 0 0 0 0 0 0 0 0 0 0 0 0 0 0 0 0 0 0 0 0 0 0 0 0 0 0 0 0 0 0 0 0 0 0 0 0 0 0 0 0 0 0 0 0 0 0 0 0 0 0 0 0 0 0 0 0 0 0 0 0 0 0 0 0 0 0 0 0 0 0 0 0 0 0 0 0 0 0 0 0 0 0 0 0 0 0 0 0 0 0 0 0 0 0 0 0 0 0 0 0 0 0 0 0 0 0 0 0 0 0 0 0 0 0 0 0 0 0 0 0 0 0 0 0 0 0 0 0 0 0 0 0 0 0 0 0 0 0 0 0 0 0 0 0 0 0 0 0 0 0 0 0 0 0 0 0 0 0 0 0 0 0 0 0 0 0 0 0 0 0 0 0 0 0 0 0 0 0 0 0 0 0 0 0 0 0 0 0 0 0 0 0 0 0 0 0 0 0 0 0 0 0 0 0 0 0 0 0 0 0 0 0 0 0 0 0 0 0 0 0 0 0 0 0 0 0 0 0 0 0 0 0 0 0 0 0 0 0 0 0 0 0 0 0 0 0 0 0 0 0 0 0 0 0 0 0 0 0 0 0 0 0 0 0 0 0 0 0 0 0 0 0 0 0 0 0 0 0 0 0 0 0 0 0 0 0 0 0 0 0 0 0 0 0 0 0 0 0 0 0 0 0 0 0 0 0 0 0 0 0 0 0 0 0 0 0 0 0 0 0 0 0 0 0 0 0 0 0 0 0 0 0 0 0 0 0 0 0 0 0 0 0 0 0 0 0 0 0 0 0 0 0 0 0 0 0 0 0 0 0 0 0 0 0 0 0 0 0 0 0 0 0 0 0 0 0 0 0 0 0 0 0 0 0 0 0 0 0 0 0 0 0 0 0 0 0 0 0 0 0 0 0 0 0 0 0 0 0 0 0 0 0 0 0 0 0 0 0 0 0 0 0 0 0 0 0 0 0 0 0 0 0 0 0 0 0 0 0 0 0 0 0 0 0 0 0 0 0 0 0 0 0 0 0 0 0 0 0 0 0 0 0 0 0 0 0 0 0 0 0 0 0 0 0 0 0 0 0 0 0 0 0 0 0 0 0 0 0 0 0 0 0 0 0 0 0 0 0 0 0 0 0 0 0 0 0 0 0 0 0 0 0 0 0 0 0 0 0 0 0 0 0 0 0 0 0 0 0 0 0 0 0 0 0 0 0 0 0 0 0 0 0 0 0 0 0 0 0 0 0 0 0 0 0 0 0 0 0 0 0 0 0 0 0 0 0 0</float_array>
          <technique_common>
            <accessor source="#collisionmesh-1-mesh-colors-array" count="210" stride="3">
              <param name="R" type="float"/>
              <param name="G" type="float"/>
              <param name="B" type="float"/>
            </accessor>
          </technique_common>
        </source>
        <vertices id="collisionmesh-1-mesh-vertices">
          <input semantic="POSITION" source="#collisionmesh-1-mesh-positions"/>
        </vertices>
        <polylist count="70">
          <input semantic="VERTEX" source="#collisionmesh-1-mesh-vertices" offset="0"/>
          <input semantic="NORMAL" source="#collisionmesh-1-mesh-normals" offset="1"/>
          <input semantic="TEXCOORD" source="#collisionmesh-1-mesh-map-0" offset="2" set="0"/>
          <input semantic="COLOR" source="#collisionmesh-1-mesh-colors" offset="3"/>
          <vcount>3 3 3 3 3 3 3 3 3 3 3 3 3 3 3 3 3 3 3 3 3 3 3 3 3 3 3 3 3 3 3 3 3 3 3 3 3 3 3 3 3 3 3 3 3 3 3 3 3 3 3 3 3 3 3 3 3 3 3 3 3 3 3 3 3 3 3 3 3 3 </vcount>
          <p>0 0 0 0 2 0 1 1 1 0 2 2 2 1 3 3 0 1 4 4 3 1 5 5 3 2 6 6 4 2 7 7 2 2 8 8 5 3 9 9 4 3 10 10 3 3 11 11 5 4 12 12 6 4 13 13 4 4 14 14 7 5 15 15 6 5 16 16 5 5 17 17 7 6 18 18 8 6 19 19 6 6 20 20 9 7 21 21 8 7 22 22 7 7 23 23 9 8 24 24 10 8 25 25 8 8 26 26 11 9 27 27 10 9 28 28 9 9 29 29 11 10 30 30 12 10 31 31 10 10 32 32 13 11 33 33 12 11 34 34 11 11 35 35 13 12 36 36 14 12 37 37 12 12 38 38 15 13 39 39 14 13 40 40 13 13 41 41 15 14 42 42 16 14 43 43 14 14 44 44 17 15 45 45 16 15 46 46 15 15 47 47 4 16 48 48 18 16 49 49 2 16 50 50 4 17 51 51 19 17 52 52 18 17 53 53 6 18 54 54 19 18 55 55 4 18 56 56 6 19 57 57 20 19 58 58 19 19 59 59 8 20 60 60 20 20 61 61 6 20 62 62 8 21 63 63 21 21 64 64 20 21 65 65 10 22 66 66 21 22 67 67 8 22 68 68 10 23 69 69 22 23 70 70 21 23 71 71 12 24 72 72 22 24 73 73 10 24 74 74 12 25 75 75 23 25 76 76 22 25 77 77 14 26 78 78 23 26 79 79 12 26 80 80 14 27 81 81 24 27 82 82 23 27 83 83 16 28 84 84 24 28 85 85 14 28 86 86 16 29 87 87 25 29 88 88 24 29 89 89 19 30 90 90 27 30 91 91 18 30 92 92 19 31 93 93 28 31 94 94 27 31 95 95 20 32 96 96 28 32 97 97 19 32 98 98 20 33 99 99 29 33 100 100 28 33 101 101 21 34 102 102 29 34 103 103 20 34 104 104 21 35 105 105 30 35 106 106 29 35 107 107 22 36 108 108 30 36 109 109 21 36 110 110 22 37 111 111 31 37 112 112 30 37 113 113 23 38 114 114 31 38 115 115 22 38 116 116 23 39 117 117 32 39 118 118 31 39 119 119 24 40 120 120 32 40 121 121 23 40 122 122 24 41 123 123 33 41 124 124 32 41 125 125 25 42 126 126 33 42 127 127 24 42 128 128 25 43 129 129 34 43 130 130 33 43 131 131 26 44 132 132 34 44 133 133 25 44 134 134 26 45 135 135 35 45 136 136 34 45 137 137 30 46 138 138 36 46 139 139 29 46 140 140 0 47 141 141 1 47 142 142 17 47 143 143 17 48 144 144 1 48 145 145 16 48 146 146 2 49 147 147 26 49 148 148 1 49 149 149 2 50 150 150 18 50 151 151 26 50 152 152 1 51 153 153 25 51 154 154 16 51 155 155 1 52 156 156 26 52 157 157 25 52 158 158 18 53 159 159 35 53 160 160 26 53 161 161 18 54 162 162 27 54 163 163 35 54 164 164 27 55 165 165 36 55 166 166 35 55 167 167 28 56 168 168 36 56 169 169 27 56 170 170 29 57 171 171 36 57 172 172 28 57 173 173 31 58 174 174 36 58 175 175 30 58 176 176 32 59 177 177 36 59 178 178 31 59 179 179 33 60 180 180 36 60 181 181 32 60 182 182 34 61 183 183 36 61 184 184 33 61 185 185 35 62 186 186 36 62 187 187 34 62 188 188 3 63 189 189 0 63 190 190 5 63 191 191 5 64 192 192 0 64 193 193 7 64 194 194 7 65 195 195 0 65 196 196 17 65 197 197 7 66 198 198 17 66 199 199 9 66 200 200 17 67 201 201 15 67 202 202 9 67 203 203 15 68 204 204 11 68 205 205 9 68 206 206 15 69 207 207 13 69 208 208 11 69 209 209</p>
        </polylist>
      </mesh>
      <extra><technique profile="MAYA"><double_sided>1</double_sided></technique></extra>
    </geometry>
    <geometry id="ekasia80-mesh" name="ekasia80">
      <mesh>
        <source id="ekasia80-mesh-positions">
          <float_array id="ekasia80-mesh-positions-array" count="267">1.562147 -0.02293455 8.526337 -2.624138 -0.8487477 7.689907 -2.321742 -0.7756978 6.155663 2.235471 0.6908468 5.978425 -4.562716 -1.002702 9.594744 1.143438 -2.168698 6.250243 -3.324709 1.496716 9.680575 -0.7788317 2.236297 6.005786 -2.005339 -3.15636 9.28238 -1.486239 -0.985657 8.388013 1.246371 2.484924 7.843321 1.186464 2.002497 6.253754 -1.275849 -2.081046 6.268828 2.598168 4.798926 9.660882 -2.367231 0.724658 6.411017 3.506428 1.360218 9.488578 1.997015 -1.2703 6.286396 -0.541723 3.908131 8.918073 -1.668737 -1.724319 8.386707 1.294803 1.624391 8.169703 -0.497094 0.01698911 11.12553 2.422388 3.410521 10.9126 -2.052157 1.154323 8.100831 3.236728 0.5524803 11.53784 1.61866 -1.464022 8.160482 0.002336382 3.577694 10.81981 -1.755052 -0.7804611 6.638689 1.187659 1.460393 3.427951 1.64193 1.346508 7.372759 4.530962 3.656903 4.161415 -1.779149 1.629564 5.218305 4.943896 1.046412 5.789321 1.511912 -1.963479 4.766854 1.720739 4.763799 5.306293 2.380866 -0.65852 5.569041 -1.893509 0.5433006 6.395695 1.761563 -0.5396514 4.105883 1.760091 -0.2522422 7.616326 -2.416106 0.907559 9.857386 -0.184341 -2.514642 5.076522 -0.1845048 2.617837 9.689178 0.5839767 2.29961 5.109565 -1.81224 -2.041199 9.374868 -1.079818 -1.580662 4.055163 0.2973865 2.877028 3.702094 0.2562053 2.399915 2.197959 -0.2856298 -2.462362 2.117663 0.973122 5.298238 5.366417 -2.506755 -0.2792438 2.359658 2.791624 2.964093 5.248903 2.416764 -0.3021093 2.153602 -2.087782 3.578909 4.742002 -2.155083 -0.6871612 3.985332 2.553542 0.5889679 4.610441 2.335803 0.5992081 3.025038 -2.372822 -0.676921 2.399929 -0.8231157 -0.3585557 5.493704 3.886744 0.9131909 6.118864 -1.221174 2.150185 2.858968 3.079323 -1.851046 6.549031 0.630438 -2.410415 2.665666 1.975124 2.970969 6.166176 -2.318674 1.781953 3.532301 2.57606 -0.5210185 5.425474 2.389417 -0.4789593 3.827678 -0.5438008 0.103226 6.729002 4.278696 -0.8056828 7.27644 0.05306261 2.345907 3.686405 -0.5865456 -2.514038 3.557213 2.14967 -2.553387 7.195267 3.059469 2.288551 7.169492 0.2462108 0.2000323 -1.002498 0.1789318 -0.05384081 4.953145 0.06828099 0.3543638 -1.002586 0.02627533 0.1369282 3.937252 -0.1518101 0.2728245 -1.004675 -0.1327376 0.03703302 4.551365 -0.2808019 0.1072769 -1.006756 -0.3084868 -0.1067698 -1.008501 -0.1410699 -0.217545 4.083852 -0.187902 -0.3138736 -1.009186 0.04783421 -0.2988512 -1.007474 0.09398311 -0.1997635 2.442615 0.2299317 -0.1992279 -1.005511 0.3427898 -0.005439579 -1.003334 0.0876258 -0.1967929 5.741587 -0.0732879 0.08064514 9.279215 -0.1625502 0.05040103 7.085099 -0.1468375 -0.1503912 7.150104</float_array>
          <technique_common>
            <accessor source="#ekasia80-mesh-positions-array" count="89" stride="3">
              <param name="X" type="float"/>
              <param name="Y" type="float"/>
              <param name="Z" type="float"/>
            </accessor>
          </technique_common>
        </source>
        <source id="ekasia80-mesh-normals">
          <float_array id="ekasia80-mesh-normals-array" count="267">-0.2583087 0.9602649 0.1054719 -0.2283089 0.9713431 0.06561475 -0.182989 0.9816584 -0.05331581 -0.2945342 0.9375897 0.1848201 -0.1737723 0.9799188 -0.09765923 0.706412 0.2369762 0.6668905 0.7344585 0.3526719 0.5797907 0.7094027 0.2470168 0.6600543 0.6672262 0.1263466 0.7340312 0.8053835 -0.5240333 0.2769555 0.7973876 -0.5683462 0.2027955 0.7874386 -0.5944395 0.1628468 0.8084353 -0.4862514 0.3315836 0.7870419 -0.5930662 0.1696829 -0.3413801 -0.5468001 0.7644581 -0.2865383 -0.6696372 0.6851711 -0.336314 -0.5595874 0.7574389 -0.383404 -0.4256111 0.8196356 -0.7517625 0.6515397 -0.101413 -0.7569506 0.6443983 -0.1084322 -0.7536546 0.6489761 -0.103946 -0.7484359 0.6560564 -0.09692674 -0.5067293 -0.5181127 0.6890164 -0.4677877 -0.6419874 0.6074404 -0.5040742 -0.5283059 0.6831874 -0.5323649 -0.3910031 0.7507553 0.5496994 -0.8307443 -0.08728289 0.5527818 -0.8286691 -0.08755761 0.5603809 -0.823481 -0.08829003 0.5420393 -0.835841 -0.08655047 -0.09067046 -0.07290869 0.9931944 -0.1011078 -0.2146672 0.9714041 -0.09134185 -0.08139282 0.9924619 -0.07925653 0.06054872 0.9949949 0.2574847 0.963744 -0.06970423 0.2644734 0.9637745 -0.03363138 0.241676 0.9676504 -0.0723899 0.243263 0.9648427 -0.09933775 0.2335276 0.9700309 -0.066805 0.9284341 -0.2482986 0.2763146 0.9722282 -0.1563463 0.173986 0.9320963 -0.2420423 0.2693564 0.870571 -0.3288369 0.3659169 0.9338054 -0.1635792 0.3180944 0.9560839 -0.2482986 0.1555833 0.9554125 -0.2914212 0.04724264 0.901822 -0.1073946 0.4185308 0.9555956 -0.2922757 0.03720206 -0.06823939 -0.5991089 0.7977233 0.02706986 -0.68923 0.7239906 -0.05865657 -0.6088748 0.7910703 -0.1520127 -0.5072482 0.848262 0.2659993 -0.9632252 -0.03741568 0.2666097 -0.9628285 -0.04281747 0.2648396 -0.963744 -0.03158664 0.2666097 -0.9628285 -0.04281747 0.2642903 -0.9641408 -0.02380442 0.2637715 -0.9642018 -0.02587968 -0.7444075 -0.2180547 0.6310923 -0.7737358 -0.3368633 0.5364544 -0.7472152 -0.2271187 0.6245308 -0.7019562 -0.1048005 0.7044283 -0.3508713 -0.9138157 -0.2044435 -0.4340953 -0.9004486 0.02697831 -0.2881252 -0.9566332 -0.04251223 -0.283639 -0.9300516 -0.2334666 -0.1875057 -0.9820246 0.02145451 -0.7712638 0.117893 0.6254768 -0.7955565 0.08874779 0.599292 -0.7735221 0.1152989 0.623188 -0.7479171 0.1439863 0.6479385 0.9947203 0.1008942 0.01803642 0.6060671 0.4632099 -0.6465957 0.146794 0.795587 -0.587756 0.1524704 0.9873043 0.04416024 -0.4496292 0.6265755 -0.6365551 -0.8622699 0.5063936 -0.00112915 -0.7051302 0.2996002 -0.6426283 -0.7578967 -0.147618 -0.6353954 -0.6666158 -0.7450789 0.02081358 -0.3748283 -0.7050997 -0.601886 0.2146977 -0.7233192 -0.6562395 0.5103 -0.8597369 0.02002012 0.5414899 -0.5435957 -0.6412854 0.7991882 -0.03378397 -0.600116 0.579455 -0.8132572 0.05316323 -0.004608273 0.04852437 0.9988098 -0.7886899 0.6147344 0.006378352 -0.5451827 -0.833369 0.09057891</float_array>
          <technique_common>
            <accessor source="#ekasia80-mesh-normals-array" count="89" stride="3">
              <param name="X" type="float"/>
              <param name="Y" type="float"/>
              <param name="Z" type="float"/>
            </accessor>
          </technique_common>
        </source>
        <source id="ekasia80-mesh-map-0">
          <float_array id="ekasia80-mesh-map-0-array" count="426">0 -0.4427387 1 -1 1 -0.666667 0 -0.4427387 0 -1 1 -1 0 -0.4427387 1 -0.666667 1 -0.1263028 0 -1.005088 1 -1 1 0.002158999 0 0 0 -1.005088 1 0.002158999 0 -0.5158242 1 -1 1 -0.6485111 0 -0.5158242 0 -1 1 -1 0 -0.5158242 1 -0.6485111 1 0 0 -1.005136 1 -1 1 0.004257261 0 0 0 -1.005136 1 0.004257261 0 -0.1759805 1 -0.1750066 1 -0.9592845 0 -0.1759805 1 -0.9592845 0 -0.9592888 0 -1.004829 1 -1 1 0.002758681 0 0 0 -1.004829 1 0.002758681 0 -0.1162972 1 -0.9566837 1 -0.1160457 0 -0.1162972 0 -0.9570357 1 -0.9566837 0 -1.000378 1 -1 1 0.004511892 0 0 0 -1.000378 1 0.004511892 0 -0.666667 0 -1 1 -0.9600989 0 -0.2225783 1 -0.9600989 1 -0.2216245 0 -0.2225783 0 -0.666667 1 -0.9600989 0 -1.004909 1 -1 1 1.91608e-4 0 0 0 -1.004909 1 1.91608e-4 0 -0.5703139 1 -1 1 -0.666667 0 -0.5703139 0 -1 1 -1 0 -0.5703139 1 -0.666667 1 -0.08053171 0 -1.00519 1 -1 1 0.003302276 0 0 0 -1.00519 1 0.003302276 0 -0.666667 1 -1 1 -0.666667 0 -0.666667 0 -1 1 -1 0 -0.2521672 1 -0.666667 1 -0.252156 0 -0.2521672 0 -0.666667 1 -0.666667 0 -1.002805 1 -1 1 0.005015492 0 0 0 -1.002805 1 0.005015492 0 -0.956543 1 -1 1 -0.666667 0 -0.1557227 1 -0.666667 1 -0.1544672 0 -0.1557227 0 -0.956543 1 -0.666667 0 -0.9900069 1 -0.9958348 1 -2.3208e-4 0 0 0 -0.9900069 1 -2.3208e-4 0.9889498 2.087344 0.8828125 0 0.78125 0 0.78125 0 0.78125 1.689271 0.9889498 2.087344 0.6640625 0 0.78125 1.689271 0.78125 0 0.6640625 0 0.6050305 1.928302 0.78125 1.689271 0.5507813 0 0.6050305 1.928302 0.6640625 0 0.4492188 0 0.6050305 1.928302 0.5507813 0 0.4492188 0 0.4598289 1.737488 0.6050305 1.928302 0.3359375 0 0.4598289 1.737488 0.4492188 0 0.21875 0 0.4598289 1.737488 0.3359375 0 0.21875 0 0.159667 1 0.4598289 1.737488 0.1171875 0 0.159667 1 0.21875 0 0.00390625 0 0.159667 1 0.1171875 0 0.159667 1 0.1572157 2.440874 0.4598289 1.737488 0.78125 1.689271 0.7809403 4.0183 0.9889498 2.087344 0.6050305 1.928302 0.7809403 4.0183 0.78125 1.689271 0.6050305 1.928302 0.601417 3 0.7809403 4.0183 0.4598289 1.737488 0.601417 3 0.6050305 1.928302 0.4598289 1.737488 0.3655979 3 0.601417 3 0.1572157 2.440874 0.3655978 3 0.4598289 1.737488 0.8828125 0 0.9889498 2.087344 0.9960938 0 0.00390625 0 0.00390625 2.087947 0.159667 1 0.00390625 2.087947 0.1572157 2.440874 0.159667 1 0.3655979 3 0.5507813 4 0.601417 3 0.1572157 2.440874 0.3359375 4 0.3655978 3 0.00390625 2.087947 0.1171875 4 0.1572157 2.440874 1.484375 -0.6523438 1.46875 -0.53125 1.355469 -0.4921875 1.441406 -0.75 1.484375 -0.6523438 1.355469 -0.4921875 1.441406 -0.75 1.355469 -0.4921875 1.238281 -0.4960938 1.441406 -0.75 1.238281 -0.4960938 1.351562 -0.8125 1.238281 -0.4960938 1.175781 -0.59375 1.351562 -0.8125 1.175781 -0.59375 1.226562 -0.8125 1.351562 -0.8125 1.175781 -0.59375 1.175781 -0.703125 1.226562 -0.8125</float_array>
          <technique_common>
            <accessor source="#ekasia80-mesh-map-0-array" count="213" stride="2">
              <param name="S" type="float"/>
              <param name="T" type="float"/>
            </accessor>
          </technique_common>
        </source>
        <source id="ekasia80-mesh-colors">
          <float_array id="ekasia80-mesh-colors-array" count="639">0.6705883 0.172549 1 1 0.5019608 1 1 1 1 0.6705883 0.172549 1 0.5882353 0.1098039 1 1 0.5019608 1 0.6705883 0.172549 1 1 1 1 1 0.6627451 1 1 0.4745098 1 1 0.7960785 1 1 0.4941176 1 1 0 1 1 0.4509804 1 1 0.4862745 1 1 0.4235294 1 0.9764706 0.254902 1 1 0.6901961 1 1 0.4588235 1 1 1 1 0 0.1568627 1 0.772549 0.9294118 1 1 0.4588235 1 1 1 1 1 1 1 1 0.172549 1 1 0.2980392 1 1 0.07450979 1 1 1 1 1 0.3019608 1 1 0.8313726 1 1 0.6352941 1 1 1 1 1 0.8313726 1 1 1 1 1 0.2823529 1 1 1 1 1 0.7058824 1 1 0.2901961 1 1 1 1 1 1 1 1 0.1647059 1 0 0.07450979 1 1 1 1 1 0.8745098 1 0 0.1764706 1 0.6980392 0.8039216 1 0.1294118 0.1372549 1 1 0.6784314 1 1 0.5333334 1 1 0.2627451 1 1 1 1 1 0.7372549 1 1 1 1 0.4901961 0.372549 1 1 0.6745098 1 1 1 1 1 0.4627451 1 1 0.7960785 1 1 0.1254902 1 1 0.4627451 1 1 0.08235293 1 1 0.3764706 1 1 0.4705882 1 0.854902 0.654902 1 0.3490196 0 1 1 0.1176471 1 1 0.3333333 1 0.8745098 0.4313725 1 1 1 1 1 0.7647059 1 1 0.7529412 1 1 1 1 1 0.1333333 1 1 0.7647059 1 0.4313725 1 1 1 0.7529412 1 1 1 1 1 1 1 1 0.1529412 1 0.2117647 0.5019608 1 1 0.7843137 1 1 1 1 0.654902 0.5215687 1 1 1 1 0.4352941 0.1568627 1 1 1 1 1 1 1 1 1 1 0 0.1568627 1 0 0.1294118 1 1 1 1 1 0.8901961 1 0 0.7529412 1 1 1 1 0.3294118 1 1 0.7921569 0.09019607 1 0.9882353 0.1568627 1 1 1 1 1 0 1 1 0.6313726 1 1 1 1 1 1 1 1 0.5411765 1 1 1 1 0 0.7960785 1 1 1 1 1 0.4196078 1 0 0.7960785 1 1 1 1 0.5490196 0.7686275 1 1 0.05098038 1 1 1 1 1 0.2862745 1 1 1 1 1 0.05098038 1 1 0.5058824 1 0 0 0 0 0 0 0 0 0 0 0 0 0 0 0 0 0 0 0 0 0 0 0 0 0 0 0 0 0 0 0 0 0 0 0 0 0 0 0 0 0 0 0 0 0 0 0 0 0 0 0 0 0 0 0 0 0 0 0 0 0 0 0 0 0 0 0 0 0 0 0 0 0 0 0 0 0 0 0 0 0 0 0 0 0 0 0 0 0 0 0 0 0 0 0 0 0 0 0 0 0 0 0 0 0 0 0 0 0 0 0 0 0 0 0 0 0 0 0 0 0 0 0 0 0 0 0 0 0 0 0 0 0 0 0 0 0 0 0 0 0 0 0 0 0 0 0 0 0 0 0 0 0 0 0 0 0 0 0 0 0 0 0 0 0 0 0 0 0 0 0 0 0 0 0 0 0 0 0 0 0 0 0 0 0 0 0 0 0 0 0 0 0 0 0 0 0 0 0 0 0 0 0 0 0 0 0 0 0 0 0 0 0 0 0 0 0 0 0 0 0 0 0 0 0 0 0 0 0 0 0 0 0 0 0 0 0 0 0 0 0 0 0 0 0 0 0 0 0 0 0 0 0 0 0 0 0 0 0 0 0 0 0 0 0 0 0 0 0 0 0 0 0 0 0 0 0 0 0 0 0 0 0 0 0 0 0 0</float_array>
          <technique_common>
            <accessor source="#ekasia80-mesh-colors-array" count="213" stride="3">
              <param name="R" type="float"/>
              <param name="G" type="float"/>
              <param name="B" type="float"/>
            </accessor>
          </technique_common>
        </source>
        <vertices id="ekasia80-mesh-vertices">
          <input semantic="POSITION" source="#ekasia80-mesh-positions"/>
        </vertices>
        <polylist material="ekasia_tumula_01_bark-material" count="32">
          <input semantic="VERTEX" source="#ekasia80-mesh-vertices" offset="0"/>
          <input semantic="NORMAL" source="#ekasia80-mesh-normals" offset="1"/>
          <input semantic="TEXCOORD" source="#ekasia80-mesh-map-0" offset="2" set="0"/>
          <input semantic="COLOR" source="#ekasia80-mesh-colors" offset="3"/>
          <vcount>3 3 3 3 3 3 3 3 3 3 3 3 3 3 3 3 3 3 3 3 3 3 3 3 3 3 3 3 3 3 3 3 </vcount>
          <p>72 71 117 117 71 72 118 118 73 73 119 119 73 73 120 120 74 74 121 121 72 71 122 122 75 75 123 123 74 74 124 124 73 73 125 125 75 75 126 126 76 76 127 127 74 74 128 128 77 77 129 129 76 76 130 130 75 75 131 131 78 78 132 132 76 76 133 133 77 77 134 134 78 78 135 135 79 79 136 136 76 76 137 137 80 80 138 138 79 79 139 139 78 78 140 140 81 81 141 141 79 79 142 142 80 80 143 143 81 81 144 144 82 82 145 145 79 79 146 146 83 83 147 147 82 82 148 148 81 81 149 149 84 84 150 150 82 82 151 151 83 83 152 152 82 82 153 153 85 85 154 154 79 79 155 155 74 74 156 156 86 86 157 157 72 71 158 158 76 76 159 159 86 86 160 160 74 74 161 161 76 76 162 162 87 87 163 163 86 86 164 164 79 79 165 165 87 87 166 166 76 76 167 167 79 79 168 168 88 88 169 169 87 87 170 170 85 85 171 171 88 88 172 172 79 79 173 173 71 72 174 174 72 71 175 175 84 84 176 176 84 84 177 177 72 71 178 178 82 82 179 179 72 71 180 180 85 85 181 181 82 82 182 182 88 88 183 183 86 86 184 184 87 87 185 185 85 85 186 186 86 86 187 187 88 88 188 188 72 71 189 189 86 86 190 190 85 85 191 191 75 75 192 192 73 73 193 193 71 72 194 194 77 77 195 195 75 75 196 196 71 72 197 197 77 77 198 198 71 72 199 199 84 84 200 200 77 77 201 201 84 84 202 202 78 78 203 203 84 84 204 204 83 83 205 205 78 78 206 206 83 83 207 207 80 80 208 208 78 78 209 209 83 83 210 210 81 81 211 211 80 80 212 212</p>
        </polylist>
        <polylist material="ekasia_tumula_01_branch-material" count="39">
          <input semantic="VERTEX" source="#ekasia80-mesh-vertices" offset="0"/>
          <input semantic="NORMAL" source="#ekasia80-mesh-normals" offset="1"/>
          <input semantic="TEXCOORD" source="#ekasia80-mesh-map-0" offset="2" set="0"/>
          <input semantic="COLOR" source="#ekasia80-mesh-colors" offset="3"/>
          <vcount>3 3 3 3 3 3 3 3 3 3 3 3 3 3 3 3 3 3 3 3 3 3 3 3 3 3 3 3 3 3 3 3 3 3 3 3 3 3 3 </vcount>
          <p>0 0 0 0 2 1 1 1 1 2 2 2 0 0 3 3 3 3 4 4 2 1 5 5 0 0 6 6 1 2 7 7 4 4 8 8 5 5 9 9 7 6 10 10 6 7 11 11 8 8 12 12 5 5 13 13 6 7 14 14 9 9 15 15 11 10 16 16 10 11 17 17 9 9 18 18 12 12 19 19 11 10 20 20 9 9 21 21 10 11 22 22 13 13 23 23 14 14 24 24 16 15 25 25 15 16 26 26 17 17 27 27 14 14 28 28 15 16 29 29 20 18 30 30 21 19 31 31 19 20 32 32 20 18 33 33 19 20 34 34 18 21 35 35 22 22 36 36 24 23 37 37 23 24 38 38 25 25 39 39 22 22 40 40 23 24 41 41 28 26 42 42 27 27 43 43 29 28 44 44 28 26 45 45 26 29 46 46 27 27 47 47 30 30 48 48 32 31 49 49 31 32 50 50 33 33 51 51 30 30 52 52 31 32 53 53 34 34 54 54 36 35 55 55 35 36 56 56 37 37 57 57 35 36 58 58 38 38 59 59 37 37 60 60 34 34 61 61 35 36 62 62 39 39 63 63 41 40 64 64 40 41 65 65 42 42 66 66 39 39 67 67 40 41 68 68 43 43 69 69 45 44 70 70 44 45 71 71 43 43 72 72 46 46 73 73 45 44 74 74 43 43 75 75 44 45 76 76 47 47 77 77 48 48 78 78 50 49 79 79 49 50 80 80 51 51 81 81 48 48 82 82 49 50 83 83 52 52 84 84 54 53 85 85 53 54 86 86 52 52 87 87 55 55 88 88 54 53 89 89 56 56 90 90 53 54 91 91 57 57 92 92 56 56 93 93 52 52 94 94 53 54 95 95 58 58 96 96 60 59 97 97 59 60 98 98 61 61 99 99 58 58 100 100 59 60 101 101 62 62 102 102 64 63 103 103 63 64 104 104 65 65 105 105 63 64 106 106 66 66 107 107 65 65 108 108 62 62 109 109 63 64 110 110 67 67 111 111 68 68 112 112 69 69 113 113 70 70 114 114 67 67 115 115 69 69 116 116</p>
        </polylist>
      </mesh>
      <extra><technique profile="MAYA"><double_sided>1</double_sided></technique></extra>
    </geometry>
  </library_geometries>
  <library_visual_scenes>
    <visual_scene id="Scene" name="Scene">
      <node id="Hemi" name="Hemi" type="NODE">
        <translate sid="location">13.62831 5.58176 -7.251319</translate>
        <rotate sid="rotationZ">0 0 1 0</rotate>
        <rotate sid="rotationY">0 1 0 0</rotate>
        <rotate sid="rotationX">1 0 0 0</rotate>
        <scale sid="scale">1 1 1</scale>
        <instance_light url="#Hemi-light"/>
      </node>
      <node id="base" name="base" type="NODE">
        <translate sid="location">0 0 0</translate>
        <rotate sid="rotationZ">0 0 1 0</rotate>
        <rotate sid="rotationY">0 1 0 0</rotate>
        <rotate sid="rotationX">1 0 0 0</rotate>
        <scale sid="scale">1 1 1</scale>
        <node id="collision-1" name="collision-1" type="NODE">
          <translate sid="location">0 0 0</translate>
          <rotate sid="rotationZ">0 0 1 0</rotate>
          <rotate sid="rotationY">0 1 0 0</rotate>
          <rotate sid="rotationX">1 0 0 0</rotate>
          <scale sid="scale">1 1 1</scale>
        </node>
        <node id="detail160" name="detail160" type="NODE">
          <translate sid="location">0 0 0</translate>
          <rotate sid="rotationZ">0 0 1 0</rotate>
          <rotate sid="rotationY">0 1 0 0</rotate>
          <rotate sid="rotationX">1 0 0 0</rotate>
          <scale sid="scale">1 1 1</scale>
        </node>
        <node id="start" name="start" type="NODE">
          <translate sid="location">0 0 0</translate>
          <rotate sid="rotationZ">0 0 1 0</rotate>
          <rotate sid="rotationY">0 1 0 0</rotate>
          <rotate sid="rotationX">1 0 0 0</rotate>
          <scale sid="scale">1 1 1</scale>
          <node id="ekasia160" name="ekasia160" type="NODE">
            <translate sid="location">0 0 0</translate>
            <rotate sid="rotationZ">0 0 1 0</rotate>
            <rotate sid="rotationY">0 1 0 0</rotate>
            <rotate sid="rotationX">1 0 0 0</rotate>
            <scale sid="scale">1 1 1</scale>
            <instance_geometry url="#ekasia160-mesh">
              <bind_material>
                <technique_common>
                  <instance_material symbol="ekasia_tumula_01_bark-material" target="#ekasia_tumula_01_bark-material">
                    <bind_vertex_input semantic="UVMap" input_semantic="TEXCOORD" input_set="0"/>
                  </instance_material>
                  <instance_material symbol="ekasia_tumula_01_branch-material" target="#ekasia_tumula_01_branch-material">
                    <bind_vertex_input semantic="UVMap" input_semantic="TEXCOORD" input_set="0"/>
                  </instance_material>
                </technique_common>
              </bind_material>
            </instance_geometry>
          </node>
          <node id="collisionmesh-1" name="collisionmesh-1" type="NODE">
            <translate sid="location">0 0 0</translate>
            <rotate sid="rotationZ">0 0 1 0</rotate>
            <rotate sid="rotationY">0 1 0 0</rotate>
            <rotate sid="rotationX">1 0 0 0</rotate>
            <scale sid="scale">1 1 1</scale>
            <instance_geometry url="#collisionmesh-1-mesh"/>
          </node>
          <node id="ekasia80" name="ekasia80" type="NODE">
            <translate sid="location">0 0 0</translate>
            <rotate sid="rotationZ">0 0 1 0</rotate>
            <rotate sid="rotationY">0 1 0 0</rotate>
            <rotate sid="rotationX">1 0 0 0</rotate>
            <scale sid="scale">1 1 1</scale>
            <instance_geometry url="#ekasia80-mesh">
              <bind_material>
                <technique_common>
                  <instance_material symbol="ekasia_tumula_01_bark-material" target="#ekasia_tumula_01_bark-material">
                    <bind_vertex_input semantic="UVMap" input_semantic="TEXCOORD" input_set="0"/>
                  </instance_material>
                  <instance_material symbol="ekasia_tumula_01_branch-material" target="#ekasia_tumula_01_branch-material">
                    <bind_vertex_input semantic="UVMap" input_semantic="TEXCOORD" input_set="0"/>
                  </instance_material>
                </technique_common>
              </bind_material>
            </instance_geometry>
          </node>
        </node>
        <node id="detail80" name="detail80" type="NODE">
          <translate sid="location">0 0 0</translate>
          <rotate sid="rotationZ">0 0 1 0</rotate>
          <rotate sid="rotationY">0 1 0 0</rotate>
          <rotate sid="rotationX">1 0 0 0</rotate>
          <scale sid="scale">1 1 1</scale>
        </node>
      </node>
    </visual_scene>
  </library_visual_scenes>
  <scene>
    <instance_visual_scene url="#Scene"/>
  </scene>
</COLLADA>