<?xml version="1.0" encoding="utf-8"?>
<COLLADA xmlns="http://www.collada.org/2005/11/COLLADASchema" version="1.4.1">
  <asset>
    <contributor>
      <author>Russell</author>
      <authoring_tool>OpenCOLLADA for 3ds Max;  Version: 1.2.5;  Revision: 673;  Platform: x64;  Configuration: Release Max2010</authoring_tool>
      <source_data>file:///E:/Russell/Desktop/Homeless%20Max%20Files/lavaflow.max</source_data>
    </contributor>
    <created>2011-05-18T17:07:53</created>
    <modified>2011-05-18T17:07:53</modified>
    <unit name="meter" meter="1"/>
    <up_axis>Z_UP</up_axis>
  </asset>
  <library_effects>
    <effect id="lavaflow_material">
      <profile_COMMON>
        <technique sid="common">
          <blinn>
            <emission>
              <color>0 0 0 1</color>
            </emission>
            <ambient>
              <color>0.5882353 0.5882353 0.5882353 1</color>
            </ambient>
            <diffuse>
              <color>0.5882353 0.5882353 0.5882353 1</color>
            </diffuse>
            <specular>
              <color>0.9 0.9 0.9 1</color>
            </specular>
            <shininess>
              <float>9.999999</float>
            </shininess>
            <reflective>
              <color>0 0 0 1</color>
            </reflective>
            <transparent opaque="A_ONE">
              <color>1 1 1 1</color>
            </transparent>
            <transparency>
              <float>1</float>
            </transparency>
          </blinn>
        </technique>
      </profile_COMMON>
      <extra>
        <technique profile="OpenCOLLADA3dsMax">
          <extended_shader>
            <apply_reflection_dimming>0</apply_reflection_dimming>
            <dim_level>0</dim_level>
            <falloff_type>0</falloff_type>
            <index_of_refraction>1.5</index_of_refraction>
            <opacity_type>0</opacity_type>
            <reflection_level>3</reflection_level>
            <wire_size>1</wire_size>
            <wire_units>0</wire_units>
          </extended_shader>
          <shader>
            <ambient_diffuse_lock>1</ambient_diffuse_lock>
            <ambient_diffuse_texture_lock>1</ambient_diffuse_texture_lock>
            <diffuse_specular_lock>0</diffuse_specular_lock>
            <soften>0.1</soften>
            <use_self_illum_color>0</use_self_illum_color>
          </shader>
        </technique>
      </extra>
    </effect>
    <effect id="ColorEffectR113G135B6">
      <profile_COMMON>
        <technique sid="common">
          <phong>
            <ambient>
              <color>0.4431373 0.5294118 0.02352941 1</color>
            </ambient>
            <diffuse>
              <color>0.4431373 0.5294118 0.02352941 1</color>
            </diffuse>
            <specular>
              <color>1 1 1 1</color>
            </specular>
            <shininess>
              <float>10</float>
            </shininess>
            <reflective>
              <color>0 0 0 1</color>
            </reflective>
            <transparent>
              <color>1 1 1 1</color>
            </transparent>
            <transparency>
              <float>1</float>
            </transparency>
          </phong>
        </technique>
      </profile_COMMON>
      <extra>
        <technique profile="OpenCOLLADA3dsMax">
          <extended_shader>
            <apply_reflection_dimming>0</apply_reflection_dimming>
            <dim_level>0</dim_level>
            <falloff_type>0</falloff_type>
            <index_of_refraction>1.5</index_of_refraction>
            <opacity_type>0</opacity_type>
            <reflection_level>3</reflection_level>
            <wire_size>1</wire_size>
            <wire_units>0</wire_units>
          </extended_shader>
          <shader>
            <ambient_diffuse_lock>1</ambient_diffuse_lock>
            <ambient_diffuse_texture_lock>1</ambient_diffuse_texture_lock>
            <diffuse_specular_lock>0</diffuse_specular_lock>
            <soften>0.1</soften>
            <use_self_illum_color>0</use_self_illum_color>
          </shader>
        </technique>
      </extra>
    </effect>
  </library_effects>
  <library_materials>
    <material id="ColorEffectR113G135B6-material" name="ColorEffectR113G135B6-material">
      <instance_effect url="#ColorEffectR113G135B6"/>
    </material>
    <material id="lavaflow_material-material" name="lavaflow_material">
      <instance_effect url="#lavaflow_material"/>
    </material>
  </library_materials>
  <library_geometries>
    <geometry id="geom-lavaflow400" name="lavaflow400">
      <mesh>
        <source id="geom-lavaflow400-positions">
          <float_array id="geom-lavaflow400-positions-array" count="1575">7.497003 -2.020787 0 6.822067 -1.14774 0 6.442866 -3.124321 0 5.664167 -1.87396 0 5.5229 -3.864249 0 4.936995 -2.688747 0 4.538747 -4.293878 0 4.263925 -3.234736 0 3.520605 -4.500158 0 3.329449 -3.326375 0 2.276186 -5.446378 0 1.401223 -3.737208 0 1.515086 -6.117147 0 0.7530994 -4.220935 0 0.2438119 -6.724155 0 0.1343931 -4.436717 0 -1.311628 -6.331393 0 -0.5159342 -4.218908 0 -3.471587 -4.314447 0 -1.541156 -3.245998 0 -4.029317 -3.281801 0 -1.942775 -2.719488 0 -3.797977 -2.185557 0 -2.144788 -2.050682 0 -3.708059 -1.218201 0 -2.211227 -1.207455 0 -3.920681 -0.210444 0 -2.037585 -0.210444 0 -3.928746 0.8950291 0 -1.683509 0.8950291 0 -3.661231 2.028726 0 -1.260989 1.977364 0 -3.937659 3.212309 0 -1.375439 2.863675 0 -3.904733 4.371961 0 -1.183635 3.632081 0 -3.176544 5.35196 0 -0.8635674 4.402877 0 -2.641942 6.309923 0 -0.7919199 5.103484 0 -2.248029 7.47767 0 -0.6304821 5.670005 0 -1.21014 8.028707 0 -0.3120551 6.11511 0 0.02276115 8.174487 0 0.2557814 6.242174 0 1.24493 8.171727 0 1.207206 6.159649 0 2.570573 7.446236 0 2.163811 6.137564 0 -2.530436 -5.303292 0 -1.083868 -3.701004 0 2.84429 -4.929197 0 2.309356 -3.356548 0 6.580211 -2.050163 0 5.618223 -2.914058 0 4.834433 -3.567315 0 3.915105 -3.857491 0 2.196016 -4.342726 0 1.500074 -4.875556 0 0.6959209 -5.435743 0 -0.3677296 -5.517246 0 -2.175322 -4.134093 0 -2.798768 -3.405111 0 -3.014446 -2.566128 0 -2.952303 -1.671395 0 -2.978118 -0.726781 0 -2.931932 0.3347782 0 -2.597764 1.454992 0 -2.529909 2.53004 0 -2.670406 3.529749 0 -2.290689 4.45115 0 -1.837051 5.285924 0 -1.609289 6.159152 0 -1.144372 6.87842 0 -0.3343377 7.169116 0 0.6664768 7.220164 0 1.795001 7.008 0 -1.39172 -4.907807 0 2.981504 -4.002142 0 7.159535 -1.584263 0 6.956152 -2.601866 0 6.053516 -2.499141 0 6.204269 -1.498461 0 5.976074 -3.540067 0 5.229947 -3.276498 0 5.260372 -2.28805 0 5.046569 -4.117872 0 4.401336 -3.764307 0 4.622296 -3.016758 0 4.006474 -4.393935 0 3.425027 -3.913267 0 3.823738 -3.321046 0 2.5653 -5.176551 0 1.838705 -4.591793 0 2.81735 -3.314616 0 1.944068 -5.759522 0 1.134092 -5.169041 0 1.056081 -3.99159 0 0.9425542 -6.493813 0 0.1891025 -5.580436 0 0.4492876 -4.377673 0 -0.5422686 -6.653512 0 -0.9137809 -5.27515 0 -0.1931906 -4.380982 0 -3.030225 -4.799972 0 -2.506371 -3.780222 0 -0.8151028 -3.970637 0 -3.839037 -3.81146 0 -2.986046 -3.000644 0 -1.758499 -2.998764 0 -3.963656 -2.72686 0 -2.971383 -2.11812 0 -2.065234 -2.405397 0 -3.703453 -1.692431 0 -2.959643 -1.212828 0 -2.201153 -1.650359 0 -3.804862 -0.7273183 0 -2.979133 -0.210444 0 -2.151375 -0.7262436 0 -3.976922 0.3347782 0 -2.806127 0.8950292 0 -1.886942 0.3347782 0 -3.766835 1.45756 0 -2.461109 2.003045 0 -1.428693 1.452424 0 -3.763763 2.615783 0 -2.656549 3.037992 0 -1.296055 2.444297 0 -4.012509 3.806898 0 -2.544184 4.00202 0 -1.328304 3.2526 0 -3.576387 4.883169 0 -2.020056 4.877419 0 -1.004991 4.01913 0 -2.861305 5.803535 0 -1.716931 5.706704 0 -0.8127965 4.768312 0 -2.486452 6.918077 0 -1.439256 6.573837 0 -0.7321262 5.400226 0 -1.795886 7.836529 0 -0.7610976 7.071908 0 -0.4928566 5.920311 0 -0.5938916 8.119402 0 0.1392713 7.208331 0 -0.07478371 6.21883 0 0.6278248 8.232943 0 1.226068 7.165688 0 0.7051289 6.207386 0 1.897349 7.87641 0 2.367192 6.7919 0 1.692654 6.139591 0 -1.968337 -5.844978 0 -1.320418 -3.468215 0 -1.807152 -4.502148 0 3.145658 -4.689669 0 1.826732 -3.508902 0 2.576823 -4.142872 0 6.500668 -2.575955 0 7.045719 -2.066631 0 6.687448 -1.569911 0 6.113323 -1.979695 0 5.586113 -3.407501 0 6.015763 -3.02862 0 5.636942 -2.39537 0 5.257583 -2.798505 0 4.710525 -3.947635 0 5.161843 -3.716122 0 4.908638 -3.148308 0 4.537934 -3.410283 0 3.709718 -4.162707 0 4.21718 -4.084813 0 4.107735 -3.556228 0 3.623865 -3.60751 0 2.21907 -4.884527 0 2.543918 -4.643711 0 2.223304 -3.827988 0 1.80952 -4.039286 0 1.534539 -5.47783 0 1.894076 -5.164024 0 1.444928 -4.297555 0 1.113078 -4.567677 0 0.528788 -6.084486 0 1.08533 -5.811529 0 0.763296 -4.810631 0 0.3719463 -4.975322 0 -0.7912813 -5.967111 0 -0.1152791 -6.14985 0 -0.0575656 -4.998574 0 -0.501402 -4.863999 0 -2.801585 -4.257671 0 -2.392019 -4.680391 0 -1.600896 -3.947308 0 -1.888227 -3.658095 0 -3.437034 -3.378519 0 -3.165485 -3.831048 0 -2.156273 -3.361179 0 -2.383721 -3.035021 0 -3.438021 -2.397138 0 -3.518646 -2.895868 0 -2.513579 -2.676707 0 -2.551804 -2.288055 0 -3.323298 -1.450076 0 -3.348153 -1.914632 0 -2.567295 -1.875621 0 -2.583677 -1.43933 0 -3.424196 -0.4724406 0 -3.358979 -0.9746235 0 -2.579296 -0.9724742 0 -2.541272 -0.4724406 0 -3.424544 0.6140208 0 -3.461433 0.05929279 0 -2.465492 0.05929279 0 -2.336957 0.6140208 0 -3.101841 1.736331 0 -3.27876 1.175812 0 -2.129784 1.175812 0 -1.916525 1.726059 0 -3.225751 2.849781 0 -3.084072 2.294846 0 -1.868173 2.243484 0 -1.970561 2.722528 0 -3.305394 3.931802 0 -3.337184 3.398719 0 -2.024365 3.173354 0 -1.944643 3.605379 0 -2.761878 4.894431 0 -3.094119 4.431728 0 -1.760833 4.027275 0 -1.537358 4.439734 0 -2.256235 5.768765 0 -2.461966 5.32908 0 -1.373628 4.835468 0 -1.287817 5.216519 0 -1.962492 6.795937 0 -2.115083 6.270502 0 -1.216866 5.594265 0 -1.111519 5.957022 0 -1.236492 7.468877 0 -1.676017 7.21135 0 -0.9363261 6.270044 0 -0.6844563 6.507862 0 -0.1942987 7.670303 0 -0.7280239 7.606514 0 -0.3776976 6.654284 0 -0.0139059 6.716367 0 0.9384328 7.715522 0 0.3614224 7.714338 0 0.4329955 6.724421 0 0.9492497 6.693223 0 2.156777 7.286676 0 1.538581 7.573575 0 1.481267 6.622018 0 2.005009 6.520526 0 -1.93257 -5.138995 0 -1.407846 -5.602092 0 -0.9152929 -4.602004 0 -1.279916 -4.26898 0 2.882284 -4.435901 0 3.258931 -4.268644 0 3.135715 -3.635068 0 2.668508 -3.694883 0 6.694341 -2.874085 0 6.768181 -2.326015 0 6.306995 -2.277825 0 6.248191 -2.811731 0 7.224854 -2.314991 0 7.328269 -1.802525 0 6.866584 -1.818271 0 6.508312 -1.321551 0 6.39224 -1.774312 0 6.990801 -1.366001 0 5.91965 -1.681564 0 5.858842 -2.18655 0 5.750379 -3.711998 0 5.797149 -3.227063 0 5.421848 -3.103003 0 5.376423 -3.570374 0 6.205173 -3.345245 0 5.826352 -2.711995 0 5.447531 -2.078744 0 5.439298 -2.601054 0 5.093317 -2.494007 0 5.083471 -2.982622 0 4.79682 -4.216311 0 4.940501 -3.842594 0 4.624229 -3.678959 0 4.470041 -4.029092 0 5.288446 -4.00003 0 5.03524 -3.432215 0 4.782034 -2.864401 0 4.728364 -3.292037 0 4.451639 -3.141607 0 4.33263 -3.499522 0 3.752645 -4.440306 0 3.960789 -4.125713 0 3.666791 -3.885109 0 3.472816 -4.206713 0 4.271903 -4.349106 0 4.162457 -3.82052 0 4.053012 -3.291935 0 3.869422 -3.589268 0 3.580938 -3.329912 0 3.377238 -3.619821 0 2.423845 -5.307148 0 2.380658 -4.759639 0 2.014295 -4.461906 0 2.057446 -5.019086 0 2.704224 -5.051572 0 2.710557 -4.536035 0 2.383611 -4.235849 0 2.062998 -3.420127 0 2.011374 -3.925814 0 2.44309 -3.74971 0 1.604745 -3.616666 0 1.619964 -4.164501 0 1.74527 -5.932907 0 1.722071 -5.317539 0 1.323809 -5.022753 0 1.324589 -5.643094 0 2.11865 -5.597258 0 1.669502 -4.73079 0 1.220354 -3.864321 0 1.278078 -4.433573 0 0.902348 -4.112599 0 0.9435959 -4.694988 0 0.6072089 -6.639068 0 0.8192376 -5.964778 0 0.4503672 -5.529904 0 0.2164572 -6.152296 0 1.246347 -6.311977 0 0.9243129 -5.31108 0 0.6022791 -4.310182 0 0.5726043 -4.906708 0 0.2935255 -4.420741 0 0.1617478 -5.008576 0 -0.936221 -6.518666 0 -0.4549991 -6.085379 0 -0.6463417 -5.415555 0 -1.112704 -5.803272 0 -0.1441358 -6.725489 0 -0.08642233 -5.574212 0 -0.02870886 -4.422935 0 -0.2804601 -4.949115 0 -0.3564624 -4.312444 0 -0.7148575 -4.747029 0 -3.258263 -4.55746 0 -2.602774 -4.467032 0 -2.344906 -3.957883 0 -2.988979 -4.047335 0 -2.787581 -5.046932 0 -2.168794 -4.90272 0 -1.996458 -4.313849 0 -1.205334 -3.580766 0 -1.74787 -3.801154 0 -1.44551 -4.101576 0 -1.431549 -3.358306 0 -2.023763 -3.51311 0 -3.963691 -3.550268 0 -3.318902 -3.608285 0 -2.910378 -3.20677 0 -3.507682 -3.141222 0 -3.67009 -4.065983 0 -2.660879 -3.596114 0 -1.651668 -3.126245 0 -2.278634 -3.201938 0 -1.857064 -2.863272 0 -2.46441 -2.860066 0 -3.881129 -2.45168 0 -3.489051 -2.646494 0 -2.994913 -2.342597 0 -3.38468 -2.151838 0 -4.021179 -3.005449 0 -3.016112 -2.786287 0 -2.011046 -2.567126 0 -2.53984 -2.485763 0 -2.108696 -2.233513 0 -2.558085 -2.084401 0 -3.693108 -1.455449 0 -3.327878 -1.681913 0 -2.953487 -1.444703 0 -3.333851 -1.215515 0 -3.738581 -1.934137 0 -2.957724 -1.895126 0 -2.176867 -1.856116 0 -2.576728 -1.660877 0 -2.213866 -1.433957 0 -2.585435 -1.210142 0 -3.865658 -0.4724406 0 -3.39149 -0.7270496 0 -2.982734 -0.4724407 0 -3.449907 -0.210444 0 -3.74882 -0.9756981 0 -2.969137 -0.9735489 0 -2.189456 -0.9713995 0 -2.564747 -0.7265123 0 -2.099811 -0.4724406 0 -2.508359 -0.210444 0 -3.968337 0.6140208 0 -3.454427 0.3347782 0 -2.880751 0.6140208 0 -3.367437 0.8950291 0 -3.959403 0.05929279 0 -2.963462 0.05929278 0 -1.967522 0.05929279 0 -2.409437 0.3347782 0 -1.793164 0.6140208 0 -2.244818 0.8950291 0 -3.694499 1.741468 0 -3.1823 1.456276 0 -2.509183 1.731195 0 -3.06117 2.015885 0 -3.853248 1.175812 0 -2.704272 1.175812 0 -1.555296 1.175812 0 -2.013228 1.453708 0 -1.323868 1.720923 0 -1.861049 1.990204 0 -3.853346 2.913407 0 -3.146837 2.572912 0 -2.598156 2.786155 0 -3.297104 3.12515 0 -3.692022 2.320527 0 -2.476123 2.269165 0 -1.260224 2.217803 0 -1.912982 2.487169 0 -1.342966 2.658902 0 -2.015994 2.950834 0 -3.985769 4.095013 0 -3.341458 3.668324 0 -2.625018 3.76859 0 -3.224458 4.186991 0 -3.993593 3.511401 0 -2.680774 3.286036 0 -1.367956 3.060672 0 -1.999355 3.391174 0 -1.264268 3.442167 0 -1.863909 3.81705 0 -3.374137 5.121779 0 -2.933538 4.667159 0 -2.149618 4.667083 0 -2.5983 5.114689 0 -3.760762 4.633955 0 -2.427476 4.229501 0 -1.09419 3.825048 0 -1.64784 4.23514 0 -0.9250978 4.212386 0 -1.441811 4.640147 0 -2.740443 6.044888 0 -2.349178 5.544729 0 -1.772026 5.492642 0 -2.179436 6.008314 0 -3.006135 5.575886 0 -1.917797 5.082273 0 -0.8294582 4.588662 0 -1.324924 5.027118 0 -0.8036084 4.940396 0 -1.254425 5.405094 0 -2.387978 7.215394 0 -2.04787 6.538614 0 -1.537005 6.376479 0 -1.843642 7.025754 0 -2.564192 6.60862 0 -1.665975 5.932384 0 -0.7677572 5.256146 0 -1.170708 5.779689 0 -0.6860325 5.537564 0 -1.034869 6.121922 0 -1.512509 7.949385 0 -1.470129 7.357475 0 -0.960474 6.98837 0 -0.9856189 7.550307 0 -2.045862 7.682003 0 -1.306172 6.740697 0 -0.5664806 5.799391 0 -0.8186141 6.399365 0 -0.4084386 6.027354 0 -0.5365764 6.59351 0 -0.2844951 8.147272 0 -0.4641147 7.644259 0 -0.1041023 7.193336 0 0.0810162 7.691409 0 -0.9031871 8.08263 0 -0.5528609 7.130399 0 -0.2025345 6.178168 0 -0.2045607 6.693974 0 0.0762905 6.239398 0 0.1975263 6.725253 0 0.9330243 8.226671 0 0.6471509 7.726553 0 0.9438412 7.204372 0 1.235499 7.668707 0 0.3256358 8.209296 0 0.3972089 7.219379 0 0.4687821 6.229462 0 0.6858029 6.713775 0 0.9546582 6.182073 0 1.216637 6.662668 0 2.232661 7.669751 0 1.846175 7.442205 0 2.080893 6.903601 0 2.468883 7.119068 0 1.567239 8.049355 0 1.509924 7.097796 0 1.452609 6.146239 0 1.743828 6.573796 0 1.929125 6.137451 0 2.265501 6.464732 0 -2.258898 -5.574002 0 -1.680028 -5.376392 0 -1.606243 -4.703987 0 -1.654123 -6.102136 0 -1.16157 -5.102048 0 -0.6690162 -4.10196 0 -1.103411 -4.439222 0 -0.9535885 -3.833973 0 2.989172 -4.80641 0 3.063581 -4.345905 0 2.775396 -4.065392 0 3.320539 -4.585432 0 3.197323 -3.951856 0 3.074107 -3.31828 0 2.899427 -3.658379 0 2.56162 -3.324375 0</float_array>
          <technique_common>
            <accessor source="#geom-lavaflow400-positions-array" count="525" stride="3">
              <param name="X" type="float"/>
              <param name="Y" type="float"/>
              <param name="Z" type="float"/>
            </accessor>
          </technique_common>
        </source>
        <source id="geom-lavaflow400-normals">
          <float_array id="geom-lavaflow400-normals-array" count="1575">0 0 1 0 0 1 0 0 1 0 0 0.9999999 0 0 1 0 0 1 0 0 0.9999999 0 0 1 0 0 1 0 0 1 0 0 1 0 0 1 0 0 1 0 0 1 0 0 1 0 0 1 0 0 1 0 0 1 0 0 1 0 0 1 0 0 1 0 0 1 0 0 1 0 0 1 0 0 1 0 0 1 0 0 1 0 0 0.9999999 0 0 1 0 0 1 0 0 1 0 0 1 0 0 1 0 0 1 0 0 1 0 0 1 0 0 1 0 0 0.9999999 0 0 1 0 0 1 0 0 1 0 0 1 0 0 1 0 0 1 0 0 1 0 0 1 0 0 0.9999999 0 0 1 0 0 1 0 0 1 0 0 1 0 0 1 0 0 1 0 0 1 0 0 1 0 0 1 0 0 1 0 0 1 0 0 0.9999999 0 0 1 0 0 1 0 0 1 0 0 1 0 0 1 0 0 1 0 0 1 0 0 0.9999999 0 0 0.9999999 0 0 1 0 0 1 0 0 1 0 0 1 0 0 0.9999999 0 0 1 0 0 1 0 0 1 0 0 1 0 0 1 0 0 1 0 0 1 0 0 1 0 0 1 0 0 1 0 0 1 0 0 1 0 0 1 0 0 1 0 0 1 0 0 1 0 0 1 0 0 1 0 0 1 0 0 0.9999999 0 0 0.9999999 0 0 1 0 0 1 0 0 1 0 0 1 0 0 1 0 0 1 0 0 1 0 0 1 0 0 1 0 0 1 0 0 1 0 0 1 0 0 1 0 0 1 0 0 1 0 0 1 0 0 0.9999999 0 0 1 0 0 1 0 0 1 0 0 0.9999999 0 0 1 0 0 0.9999999 0 0 1 0 0 1 0 0 1 0 0 1 0 0 1 0 0 1 0 0 1 0 0 1 0 0 0.9999999 0 0 1 0 0 1 0 0 1 0 0 1 0 0 1 0 0 1 0 0 1 0 0 0.9999999 0 0 1 0 0 1 0 0 1 0 0 1 0 0 1 0 0 1 0 0 1 0 0 1 0 0 1 0 0 1 0 0 0.9999999 0 0 1 0 0 1 0 0 1 0 0 1 0 0 1 0 0 1 0 0 0.9999999 0 0 1 0 0 1 0 0 1 0 0 1 0 0 1 0 0 1 0 0 0.9999999 0 0 0.9999999 0 0 1 0 0 1 0 0 1 0 0 1 0 0 1 0 0 1 0 0 0.9999999 0 0 1 0 0 1 0 0 1 0 0 1 0 0 1 0 0 1 0 0 1 0 0 1 0 0 0.9999999 0 0 1 0 0 0.9999999 0 0 1 0 0 1 0 0 0.9999999 0 0 1 0 0 1 0 0 1 0 0 1 0 0 1 0 0 1 0 0 1 0 0 0.9999999 0 0 1 0 0 1 0 0 1 0 0 1 0 0 1 0 0 1 0 0 1 0 0 1 0 0 1 0 0 1 0 0 1 0 0 1 0 0 1 0 0 1 0 0 1 0 0 1 0 0 0.9999999 0 0 1 0 0 1 0 0 1 0 0 1 0 0 1 0 0 1 0 0 1 0 0 1 0 0 1 0 0 1 0 0 1 0 0 1 0 0 1 0 0 1 0 0 1 0 0 1 0 0 1 0 0 1 0 0 1 0 0 1 0 0 1 0 0 1 0 0 1 0 0 1 0 0 1 0 0 1 0 0 0.9999999 0 0 1 0 0 1 0 0 1 0 0 1 0 0 1 0 0 1 0 0 1 0 0 1 0 0 1 0 0 0.9999999 0 0 1 0 0 1 0 0 1 0 0 1 0 0 1 0 0 0.9999999 0 0 1 0 0 1 0 0 1 0 0 1 0 0 1 0 0 1 0 0 1 0 0 1 0 0 1 0 0 0.9999999 0 0 1 0 0 1 0 0 1 0 0 1 0 0 1 0 0 0.9999999 0 0 1 0 0 1 0 0 1 0 0 0.9999999 0 0 1 0 0 1 0 0 1 0 0 1 0 0 1 0 0 1 0 0 1 0 0 1 0 0 0.9999999 0 0 1 0 0 1 0 0 1 0 0 1 0 0 0.9999999 0 0 1 0 0 1 0 0 1 0 0 1 0 0 1 0 0 1 0 0 1 0 0 1 0 0 1 0 0 1 0 0 1 0 0 1 0 0 1 0 0 1 0 0 1 0 0 1 0 0 1 0 0 1 0 0 1 0 0 1 0 0 1 0 0 1 0 0 0.9999999 0 0 1 0 0 1 0 0 1 0 0 1 0 0 1 0 0 1 0 0 1 0 0 0.9999999 0 0 0.9999999 0 0 1 0 0 1 0 0 1 0 0 1 0 0 0.9999999 0 0 0.9999999 0 0 1 0 0 1 0 0 1 0 0 1 0 0 1 0 0 1 0 0 1 0 0 1 0 0 1 0 0 1 0 0 1 0 0 1 0 0 1 0 0 1 0 0 1 0 0 1 0 0 0.9999999 0 0 1 0 0 1 0 0 1 0 0 0.9999999 0 0 1 0 0 0.9999999 0 0 1 0 0 1 0 0 1 0 0 1 0 0 1 0 0 1 0 0 1 0 0 1 0 0 0.9999999 0 0 1 0 0 1 0 0 0.9999999 0 0 0.9999999 0 0 1 0 0 1 0 0 1 0 0 1 0 0 0.9999999 0 0 1 0 0 0.9999999 0 0 1 0 0 1 0 0 0.9999999 0 0 1 0 0 1 0 0 1 0 0 1 0 0 1 0 0 1 0 0 1 0 0 1 0 0 1 0 0 1 0 0 0.9999999 0 0 1 0 0 1 0 0 1 0 0 1 0 0 1 0 0 1 0 0 1 0 0 1 0 0 1 0 0 1 0 0 0.9999999 0 0 0.9999999 0 0 0.9999999 0 0 1 0 0 1 0 0 1 0 0 1 0 0 1 0 0 1 0 0 1 0 0 1 0 0 1 0 0 1 0 0 1 0 0 1 0 0 1 0 0 1 0 0 1 0 0 1 0 0 0.9999999 0 0 1 0 0 1 0 0 1 0 0 1 0 0 1 0 0 1 0 0 1 0 0 1 0 0 1 0 0 1 0 0 1 0 0 1 0 0 1 0 0 1 0 0 1 0 0 1 0 0 1 0 0 1 0 0 1 0 0 1 0 0 1 0 0 1 0 0 1 0 0 1 0 0 1 0 0 0.9999999 0 0 1 0 0 0.9999999 0 0 1 0 0 1 0 0 1 0 0 1 0 0 1 0 0 1 0 0 1 0 0 0.9999999 0 0 1 0 0 1 0 0 0.9999999 0 0 1 0 0 1 0 0 1 0 0 1 0 0 1 0 0 1 0 0 1 0 0 1 0 0 0.9999999 0 0 1 0 0 1 0 0 1 0 0 1 0 0 1 0 0 1 0 0 1 0 0 1 0 0 1 0 0 1 0 0 0.9999999 0 0 1 0 0 1 0 0 1 0 0 1 0 0 1 0 0 1 0 0 1 0 0 1 0 0 0.9999999 0 0 1 0 0 1 0 0 1 0 0 1 0 0 1 0 0 1 0 0 1 0 0 1 0 0 0.9999999 0 0 1 0 0 1 0 0 0.9999999 0 0 1 0 0 1 0 0 0.9999999 0 0 1 0 0 1 0 0 1 0 0 1 0 0 0.9999999 0 0 1 0 0 1 0 0 1 0 0 0.9999999 0 0 1 0 0 1 0 0 1 0 0 1 0 0 1 0 0 1 0 0 1 0 0 0.9999999 0 0 1 0 0 1 0 0 1 0 0 1 0 0 0.9999999 0 0 0.9999999 0 0 1 0 0 1 0 0 0.9999999 0 0 1 0 0 1 0 0 1 0 0 1 0 0 1 0 0 1 0 0 1 0 0 0.9999999</float_array>
          <technique_common>
            <accessor source="#geom-lavaflow400-normals-array" count="525" stride="3">
              <param name="X" type="float"/>
              <param name="Y" type="float"/>
              <param name="Z" type="float"/>
            </accessor>
          </technique_common>
        </source>
        <source id="geom-lavaflow400-map1">
          <float_array id="geom-lavaflow400-map1-array" count="1575">12.92853 0.001515854 0 12.92853 0.9967236 0 12.42778 0.001515854 0 12.42778 0.9967236 0 11.92703 0.001515854 0 11.92704 0.9967236 0 11.42629 0.001515854 0 11.42629 0.9967237 0 10.92927 0.001515854 0 10.93068 0.9967237 0 9.997924 0.001515854 0 9.999325 0.9967237 0 9.506433 0.001515854 0 9.506434 0.9967237 0 9.005686 0.001515854 0 9.005688 0.9967237 0 8.504957 0.001515854 0 8.506785 0.9967237 0 7.508797 0.001515854 0 7.510624 0.9967237 0 7.009018 0.001515854 0 7.00902 0.9967237 0 6.508271 0.001515854 0 6.508274 0.9967237 0 6.007523 0.001515854 0 6.007526 0.9967237 0 5.506775 0.001515854 0 5.506779 0.9967237 0 5.006027 0.001515854 0 5.006031 0.9967237 0 4.505281 0.001515854 0 4.505284 0.9967237 0 4.004534 0.001515854 0 4.004537 0.9967237 0 3.503787 0.001515854 0 3.50379 0.9967237 0 3.003039 0.001515854 0 3.003043 0.9967237 0 2.502293 0.001515854 0 2.502296 0.9967237 0 2.001545 0.001515854 0 2.001548 0.9967237 0 1.500798 0.001515854 0 1.500801 0.9967237 0 1.000051 0.001515854 0 1.000054 0.9967237 0 0.4993039 0.001515854 0 0.499307 0.9967237 0 -0.001443781 0.001515854 0 -0.001439378 0.9967237 0 8.005268 0.001515854 0 8.013296 0.9967237 0 10.4542 0.001515855 0 10.46037 0.9967237 0 12.67816 0.4991197 0 12.17741 0.4991197 0 11.67666 0.4991198 0 11.17636 0.4991198 0 10.22973 0.4991198 0 9.755952 0.4991198 0 9.256062 0.4991198 0 8.755407 0.4991198 0 7.759869 0.4991198 0 7.259386 0.4991198 0 6.758646 0.4991198 0 6.257899 0.4991198 0 5.757151 0.4991198 0 5.256403 0.4991198 0 4.755656 0.4991198 0 4.254909 0.4991198 0 3.754162 0.4991198 0 3.253414 0.4991198 0 2.752667 0.4991198 0 2.25192 0.4991198 0 1.751173 0.4991198 0 1.250426 0.4991198 0 0.7496792 0.4991198 0 0.2489319 0.4991198 0 8.257555 0.4991198 0 10.69021 0.4991198 0 12.92853 0.4991197 0 12.67816 0.001515854 0 12.42778 0.4991197 0 12.67816 0.9967236 0 12.17741 0.001515854 0 11.92704 0.4991198 0 12.17741 0.9967236 0 11.67666 0.001515854 0 11.42629 0.4991198 0 11.67666 0.9967237 0 11.17629 0.001515854 0 10.92997 0.4991198 0 11.17643 0.9967237 0 10.22756 0.001515855 0 9.998625 0.4991198 0 10.69238 0.9967237 0 9.755881 0.001515854 0 9.506433 0.4991198 0 9.756022 0.9967237 0 9.25606 0.001515854 0 9.005687 0.4991198 0 9.256062 0.9967237 0 8.755314 0.001515854 0 8.505872 0.4991198 0 8.755499 0.9967237 0 7.757041 0.001515854 0 7.50971 0.4991198 0 8.260384 0.9967237 0 7.259295 0.001515854 0 7.009018 0.4991198 0 7.259479 0.9967237 0 6.758645 0.001515854 0 6.508272 0.4991198 0 6.758647 0.9967237 0 6.257896 0.001515854 0 6.007524 0.4991198 0 6.2579 0.9967237 0 5.757149 0.001515854 0 5.506777 0.4991198 0 5.757153 0.9967237 0 5.256401 0.001515854 0 5.00603 0.4991198 0 5.256405 0.9967237 0 4.755654 0.001515854 0 4.505283 0.4991198 0 4.755658 0.9967237 0 4.254908 0.001515854 0 4.004536 0.4991198 0 4.25491 0.9967237 0 3.75416 0.001515854 0 3.503788 0.4991198 0 3.754164 0.9967237 0 3.253413 0.001515854 0 3.003041 0.4991198 0 3.253416 0.9967237 0 2.752666 0.001515854 0 2.502294 0.4991198 0 2.752669 0.9967237 0 2.251919 0.001515854 0 2.001547 0.4991198 0 2.251922 0.9967237 0 1.751171 0.001515854 0 1.500799 0.4991198 0 1.751174 0.9967237 0 1.250425 0.001515854 0 1.000053 0.4991198 0 1.250427 0.9967237 0 0.7496778 0.001515854 0 0.4993055 0.4991198 0 0.7496805 0.9967237 0 0.2489301 0.001515854 0 -0.00144158 0.4991198 0 0.2489337 0.9967237 0 8.254726 0.001515854 0 7.762698 0.9967237 0 8.009281 0.4991198 0 10.68804 0.001515855 0 10.2319 0.9967237 0 10.45729 0.4991198 0 12.55297 0.2503178 0 12.80334 0.2503178 0 12.80334 0.7479216 0 12.55297 0.7479216 0 12.05222 0.2503178 0 12.3026 0.2503178 0 12.3026 0.7479216 0 12.05222 0.7479217 0 11.55147 0.2503178 0 11.80185 0.2503178 0 11.80185 0.7479217 0 11.55148 0.7479217 0 11.05236 0.2503178 0 11.3011 0.2503178 0 11.3011 0.7479217 0 11.05264 0.7479218 0 10.11455 0.2503178 0 10.34192 0.2503178 0 10.34472 0.7479218 0 10.11595 0.7479218 0 9.63162 0.2503178 0 9.878431 0.2503178 0 9.878713 0.7479218 0 9.631621 0.7479218 0 9.130874 0.2503178 0 9.381247 0.2503178 0 9.381248 0.7479218 0 9.130875 0.7479218 0 8.630316 0.2503178 0 8.8805 0.2503178 0 8.880501 0.7479218 0 8.630682 0.7479218 0 7.633929 0.2503178 0 7.882885 0.2503178 0 7.886534 0.7479218 0 7.635755 0.7479218 0 7.134205 0.2503178 0 7.384374 0.2503178 0 7.38474 0.7479218 0 7.134206 0.7479218 0 6.633459 0.2503178 0 6.883832 0.2503178 0 6.883833 0.7479218 0 6.63346 0.7479218 0 6.13271 0.2503178 0 6.383084 0.2503178 0 6.383086 0.7479218 0 6.132712 0.7479218 0 5.631963 0.2503178 0 5.882337 0.2503178 0 5.882339 0.7479218 0 5.631965 0.7479218 0 5.131215 0.2503178 0 5.381589 0.2503178 0 5.381591 0.7479218 0 5.131217 0.7479218 0 4.630469 0.2503178 0 4.880842 0.2503178 0 4.880843 0.7479218 0 4.63047 0.7479218 0 4.129722 0.2503178 0 4.380095 0.2503178 0 4.380097 0.7479218 0 4.129723 0.7479218 0 3.628974 0.2503178 0 3.879348 0.2503178 0 3.87935 0.7479218 0 3.628976 0.7479218 0 3.128227 0.2503178 0 3.3786 0.2503178 0 3.378602 0.7479218 0 3.128229 0.7479218 0 2.62748 0.2503178 0 2.877853 0.2503178 0 2.877855 0.7479218 0 2.627482 0.7479218 0 2.126733 0.2503178 0 2.377107 0.2503178 0 2.377108 0.7479218 0 2.126734 0.7479218 0 1.625985 0.2503178 0 1.876359 0.2503178 0 1.87636 0.7479218 0 1.625987 0.7479218 0 1.125239 0.2503178 0 1.375612 0.2503178 0 1.375613 0.7479218 0 1.12524 0.7479218 0 0.6244916 0.2503178 0 0.8748654 0.2503178 0 0.8748667 0.7479218 0 0.624493 0.7479218 0 0.1237441 0.2503178 0 0.3741179 0.2503178 0 0.3741195 0.7479218 0 0.1237461 0.7479218 0 8.131679 0.2503178 0 8.380705 0.2503178 0 8.38253 0.7479218 0 8.135328 0.7479218 0 10.57151 0.2503178 0 10.80852 0.2503178 0 10.80992 0.7479218 0 10.57431 0.7479218 0 12.55297 0.001515854 0 12.67816 0.2503178 0 12.55297 0.4991197 0 12.42778 0.2503178 0 12.80334 0.001515854 0 12.92853 0.2503178 0 12.80334 0.4991197 0 12.80334 0.9967236 0 12.67816 0.7479216 0 12.92853 0.7479216 0 12.55297 0.9967236 0 12.42778 0.7479216 0 12.05222 0.001515854 0 12.17741 0.2503178 0 12.05222 0.4991198 0 11.92704 0.2503178 0 12.3026 0.001515854 0 12.3026 0.4991197 0 12.3026 0.9967236 0 12.17741 0.7479217 0 12.05222 0.9967236 0 11.92704 0.7479217 0 11.55147 0.001515854 0 11.67666 0.2503178 0 11.55148 0.4991198 0 11.42629 0.2503178 0 11.80185 0.001515854 0 11.80185 0.4991198 0 11.80185 0.9967237 0 11.67666 0.7479217 0 11.55148 0.9967237 0 11.42629 0.7479217 0 11.05222 0.001515854 0 11.17632 0.2503178 0 11.0525 0.4991198 0 10.92962 0.2503178 0 11.3011 0.001515854 0 11.3011 0.4991198 0 11.3011 0.9967237 0 11.17639 0.7479217 0 11.05278 0.9967237 0 10.93032 0.7479218 0 10.11385 0.001515855 0 10.22864 0.2503178 0 10.11525 0.4991198 0 9.998274 0.2503178 0 10.34052 0.001515855 0 10.45575 0.2503178 0 10.34332 0.4991198 0 10.34612 0.9967237 0 10.23081 0.7479218 0 10.45883 0.7479218 0 10.11666 0.9967237 0 9.998975 0.7479218 0 9.63162 0.001515854 0 9.755917 0.2503178 0 9.63162 0.4991198 0 9.506433 0.2503178 0 9.878291 0.001515854 0 9.878572 0.4991198 0 9.878853 0.9967237 0 9.755987 0.7479218 0 9.631621 0.9967237 0 9.506434 0.7479218 0 9.130873 0.001515854 0 9.25606 0.2503178 0 9.130875 0.4991198 0 9.005686 0.2503178 0 9.381247 0.001515854 0 9.381247 0.4991198 0 9.381248 0.9967237 0 9.256062 0.7479218 0 9.130875 0.9967237 0 9.005688 0.7479218 0 8.630133 0.001515854 0 8.75536 0.2503178 0 8.630499 0.4991198 0 8.505415 0.2503178 0 8.880499 0.001515854 0 8.880501 0.4991198 0 8.880501 0.9967237 0 8.755453 0.7479218 0 8.630865 0.9967237 0 8.506329 0.7479218 0 7.633017 0.001515854 0 7.758455 0.2503178 0 7.634842 0.4991198 0 7.509254 0.2503178 0 7.881061 0.001515854 0 8.007275 0.2503178 0 7.884709 0.4991198 0 7.888359 0.9967237 0 7.761283 0.7479218 0 8.011289 0.7479218 0 7.636667 0.9967237 0 7.510167 0.7479218 0 7.134205 0.001515854 0 7.25934 0.2503178 0 7.134206 0.4991198 0 7.009018 0.2503178 0 7.384191 0.001515854 0 7.384557 0.4991198 0 7.384923 0.9967237 0 7.259433 0.7479218 0 7.134207 0.9967237 0 7.009019 0.7479218 0 6.633458 0.001515854 0 6.758645 0.2503178 0 6.633459 0.4991198 0 6.508271 0.2503178 0 6.883831 0.001515854 0 6.883832 0.4991198 0 6.883833 0.9967237 0 6.758646 0.7479218 0 6.633461 0.9967237 0 6.508273 0.7479218 0 6.13271 0.001515854 0 6.257897 0.2503178 0 6.132711 0.4991198 0 6.007524 0.2503178 0 6.383083 0.001515854 0 6.383085 0.4991198 0 6.383087 0.9967237 0 6.257899 0.7479218 0 6.132713 0.9967237 0 6.007525 0.7479218 0 5.631962 0.001515854 0 5.75715 0.2503178 0 5.631964 0.4991198 0 5.506776 0.2503178 0 5.882336 0.001515854 0 5.882338 0.4991198 0 5.882339 0.9967237 0 5.757152 0.7479218 0 5.631966 0.9967237 0 5.506778 0.7479218 0 5.131214 0.001515854 0 5.256402 0.2503178 0 5.131216 0.4991198 0 5.006028 0.2503178 0 5.381588 0.001515854 0 5.38159 0.4991198 0 5.381592 0.9967237 0 5.256404 0.7479218 0 5.131218 0.9967237 0 5.00603 0.7479218 0 4.630468 0.001515854 0 4.755655 0.2503178 0 4.630469 0.4991198 0 4.505282 0.2503178 0 4.880841 0.001515854 0 4.880842 0.4991198 0 4.880844 0.9967237 0 4.755657 0.7479218 0 4.630471 0.9967237 0 4.505283 0.7479218 0 4.129721 0.001515854 0 4.254909 0.2503178 0 4.129723 0.4991198 0 4.004535 0.2503178 0 4.380095 0.001515854 0 4.380096 0.4991198 0 4.380097 0.9967237 0 4.25491 0.7479218 0 4.129724 0.9967237 0 4.004537 0.7479218 0 3.628973 0.001515854 0 3.754161 0.2503178 0 3.628975 0.4991198 0 3.503787 0.2503178 0 3.879347 0.001515854 0 3.879349 0.4991198 0 3.87935 0.9967237 0 3.754163 0.7479218 0 3.628977 0.9967237 0 3.503789 0.7479218 0 3.128226 0.001515854 0 3.253414 0.2503178 0 3.128228 0.4991198 0 3.00304 0.2503178 0 3.3786 0.001515854 0 3.378601 0.4991198 0 3.378603 0.9967237 0 3.253415 0.7479218 0 3.12823 0.9967237 0 3.003042 0.7479218 0 2.627479 0.001515854 0 2.752667 0.2503178 0 2.627481 0.4991198 0 2.502294 0.2503178 0 2.877853 0.001515854 0 2.877854 0.4991198 0 2.877856 0.9967237 0 2.752668 0.7479218 0 2.627483 0.9967237 0 2.502295 0.7479218 0 2.126732 0.001515854 0 2.25192 0.2503178 0 2.126734 0.4991198 0 2.001546 0.2503178 0 2.377106 0.001515854 0 2.377108 0.4991198 0 2.377109 0.9967237 0 2.251921 0.7479218 0 2.126735 0.9967237 0 2.001547 0.7479218 0 1.625985 0.001515854 0 1.751172 0.2503178 0 1.625986 0.4991198 0 1.500799 0.2503178 0 1.876358 0.001515854 0 1.87636 0.4991198 0 1.876361 0.9967237 0 1.751173 0.7479218 0 1.625987 0.9967237 0 1.5008 0.7479218 0 1.125238 0.001515854 0 1.250425 0.2503178 0 1.125239 0.4991198 0 1.000052 0.2503178 0 1.375611 0.001515854 0 1.375613 0.4991198 0 1.375614 0.9967237 0 1.250427 0.7479218 0 1.125241 0.9967237 0 1.000054 0.7479218 0 0.6244909 0.001515854 0 0.7496785 0.2503178 0 0.6244923 0.4991198 0 0.4993047 0.2503178 0 0.8748647 0.001515854 0 0.8748661 0.4991198 0 0.8748674 0.9967237 0 0.7496799 0.7479218 0 0.6244937 0.9967237 0 0.4993062 0.7479218 0 0.1237431 0.001515854 0 0.248931 0.2503178 0 0.1237451 0.4991198 0 -0.00144268 0.2503178 0 0.374117 0.001515854 0 0.3741187 0.4991198 0 0.3741203 0.9967237 0 0.2489328 0.7479218 0 0.1237471 0.9967237 0 -0.001440479 0.7479218 0 8.129854 0.001515854 0 8.25614 0.2503178 0 8.133503 0.4991198 0 8.379791 0.001515854 0 8.381618 0.4991198 0 8.383443 0.9967237 0 8.258969 0.7479218 0 8.137153 0.9967237 0 10.5701 0.001515855 0 10.68912 0.2503178 0 10.57291 0.4991198 0 10.80782 0.001515855 0 10.80922 0.4991198 0 10.81062 0.9967237 0 10.69129 0.7479218 0 10.57571 0.9967237 0</float_array>
          <technique_common>
            <accessor source="#geom-lavaflow400-map1-array" count="525" stride="3">
              <param name="S" type="float"/>
              <param name="T" type="float"/>
              <param name="P" type="float"/>
            </accessor>
          </technique_common>
        </source>
        <vertices id="geom-lavaflow400-vertices">
          <input semantic="POSITION" source="#geom-lavaflow400-positions"/>
        </vertices>
        <triangles material="lavaflow_material_1" count="832">
          <input semantic="VERTEX" source="#geom-lavaflow400-vertices" offset="0"/>
          <input semantic="NORMAL" source="#geom-lavaflow400-normals" offset="1"/>
          <input semantic="TEXCOORD" source="#geom-lavaflow400-map1" offset="2" set="1"/>
          <p>2 0 2 263 263 263 159 159 159 159 159 159 266 266 266 2 0 2 263 263 263 81 1 81 264 264 264 264 264 264 159 159 159 263 263 263 54 2 54 265 265 265 159 159 159 159 159 159 264 264 264 54 2 54 265 265 265 82 3 82 266 266 266 266 266 266 159 159 159 265 265 265 81 1 81 267 267 267 160 160 160 160 160 160 264 264 264 81 1 81 267 267 267 0 4 0 268 268 268 268 268 268 160 160 160 267 267 267 80 5 80 269 269 269 160 160 160 160 160 160 268 268 268 80 5 80 269 269 269 54 2 54 264 264 264 264 264 264 160 160 160 269 269 269 1 6 1 270 270 270 161 161 161 161 161 161 272 272 272 1 6 1 270 270 270 83 7 83 271 271 271 271 271 271 161 161 161 270 270 270 54 2 54 269 269 269 161 161 161 161 161 161 271 271 271 54 2 54 269 269 269 80 5 80 272 272 272 272 272 272 161 161 161 269 269 269 83 7 83 273 273 273 162 162 162 162 162 162 271 271 271 83 7 83 273 273 273 3 8 3 274 274 274 274 274 274 162 162 162 273 273 273 82 3 82 265 265 265 162 162 162 162 162 162 274 274 274 82 3 82 265 265 265 54 2 54 271 271 271 271 271 271 162 162 162 265 265 265 4 9 4 275 275 275 163 163 163 163 163 163 278 278 278 4 9 4 275 275 275 84 10 84 276 276 276 276 276 276 163 163 163 275 275 275 55 11 55 277 277 277 163 163 163 163 163 163 276 276 276 55 11 55 277 277 277 85 12 85 278 278 278 278 278 278 163 163 163 277 277 277 84 10 84 279 279 279 164 164 164 164 164 164 276 276 276 84 10 84 279 279 279 2 0 2 266 266 266 266 266 266 164 164 164 279 279 279 82 3 82 280 280 280 164 164 164 164 164 164 266 266 266 82 3 82 280 280 280 55 11 55 276 276 276 276 276 276 164 164 164 280 280 280 3 8 3 281 281 281 165 165 165 165 165 165 274 274 274 3 8 3 281 281 281 86 13 86 282 282 282 282 282 282 165 165 165 281 281 281 55 11 55 280 280 280 165 165 165 165 165 165 282 282 282 55 11 55 280 280 280 82 3 82 274 274 274 274 274 274 165 165 165 280 280 280 86 13 86 283 283 283 166 166 166 166 166 166 282 282 282 86 13 86 283 283 283 5 14 5 284 284 284 284 284 284 166 166 166 283 283 283 85 12 85 277 277 277 166 166 166 166 166 166 284 284 284 85 12 85 277 277 277 55 11 55 282 282 282 282 282 282 166 166 166 277 277 277 6 15 6 285 285 285 167 167 167 167 167 167 288 288 288 6 15 6 285 285 285 87 16 87 286 286 286 286 286 286 167 167 167 285 285 285 56 17 56 287 287 287 167 167 167 167 167 167 286 286 286 56 17 56 287 287 287 88 18 88 288 288 288 288 288 288 167 167 167 287 287 287 87 16 87 289 289 289 168 168 168 168 168 168 286 286 286 87 16 87 289 289 289 4 9 4 278 278 278 278 278 278 168 168 168 289 289 289 85 12 85 290 290 290 168 168 168 168 168 168 278 278 278 85 12 85 290 290 290 56 17 56 286 286 286 286 286 286 168 168 168 290 290 290 5 14 5 291 291 291 169 169 169 169 169 169 284 284 284 5 14 5 291 291 291 89 19 89 292 292 292 292 292 292 169 169 169 291 291 291 56 17 56 290 290 290 169 169 169 169 169 169 292 292 292 56 17 56 290 290 290 85 12 85 284 284 284 284 284 284 169 169 169 290 290 290 89 19 89 293 293 293 170 170 170 170 170 170 292 292 292 89 19 89 293 293 293 7 20 7 294 294 294 294 294 294 170 170 170 293 293 293 88 18 88 287 287 287 170 170 170 170 170 170 294 294 294 88 18 88 287 287 287 56 17 56 292 292 292 292 292 292 170 170 170 287 287 287 8 21 8 295 295 295 171 171 171 171 171 171 298 298 298 8 21 8 295 295 295 90 22 90 296 296 296 296 296 296 171 171 171 295 295 295 57 23 57 297 297 297 171 171 171 171 171 171 296 296 296 57 23 57 297 297 297 91 24 91 298 298 298 298 298 298 171 171 171 297 297 297 90 22 90 299 299 299 172 172 172 172 172 172 296 296 296 90 22 90 299 299 299 6 15 6 288 288 288 288 288 288 172 172 172 299 299 299 88 18 88 300 300 300 172 172 172 172 172 172 288 288 288 88 18 88 300 300 300 57 23 57 296 296 296 296 296 296 172 172 172 300 300 300 7 20 7 301 301 301 173 173 173 173 173 173 294 294 294 7 20 7 301 301 301 92 25 92 302 302 302 302 302 302 173 173 173 301 301 301 57 23 57 300 300 300 173 173 173 173 173 173 302 302 302 57 23 57 300 300 300 88 18 88 294 294 294 294 294 294 173 173 173 300 300 300 92 25 92 303 303 303 174 174 174 174 174 174 302 302 302 92 25 92 303 303 303 9 26 9 304 304 304 304 304 304 174 174 174 303 303 303 91 24 91 297 297 297 174 174 174 174 174 174 304 304 304 91 24 91 297 297 297 57 23 57 302 302 302 302 302 302 174 174 174 297 297 297 10 27 10 305 305 305 175 175 175 175 175 175 308 308 308 10 27 10 305 305 305 93 28 93 306 306 306 306 306 306 175 175 175 305 305 305 58 29 58 307 307 307 175 175 175 175 175 175 306 306 306 58 29 58 307 307 307 94 30 94 308 308 308 308 308 308 175 175 175 307 307 307 93 28 93 309 309 309 176 176 176 176 176 176 306 306 306 93 28 93 309 309 309 52 31 52 310 310 310 310 310 310 176 176 176 309 309 309 158 32 158 311 311 311 176 176 176 176 176 176 310 310 310 158 32 158 311 311 311 58 29 58 306 306 306 306 306 306 176 176 176 311 311 311 53 33 53 312 312 312 177 177 177 177 177 177 314 314 314 53 33 53 312 312 312 157 34 157 313 313 313 313 313 313 177 177 177 312 312 312 58 29 58 311 311 311 177 177 177 177 177 177 313 313 313 58 29 58 311 311 311 158 32 158 314 314 314 314 314 314 177 177 177 311 311 311 157 34 157 315 315 315 178 178 178 178 178 178 313 313 313 157 34 157 315 315 315 11 35 11 316 316 316 316 316 316 178 178 178 315 315 315 94 30 94 307 307 307 178 178 178 178 178 178 316 316 316 94 30 94 307 307 307 58 29 58 313 313 313 313 313 313 178 178 178 307 307 307 12 36 12 317 317 317 179 179 179 179 179 179 320 320 320 12 36 12 317 317 317 96 37 96 318 318 318 318 318 318 179 179 179 317 317 317 59 38 59 319 319 319 179 179 179 179 179 179 318 318 318 59 38 59 319 319 319 97 39 97 320 320 320 320 320 320 179 179 179 319 319 319 96 37 96 321 321 321 180 180 180 180 180 180 318 318 318 96 37 96 321 321 321 10 27 10 308 308 308 308 308 308 180 180 180 321 321 321 94 30 94 322 322 322 180 180 180 180 180 180 308 308 308 94 30 94 322 322 322 59 38 59 318 318 318 318 318 318 180 180 180 322 322 322 11 35 11 323 323 323 181 181 181 181 181 181 316 316 316 11 35 11 323 323 323 98 40 98 324 324 324 324 324 324 181 181 181 323 323 323 59 38 59 322 322 322 181 181 181 181 181 181 324 324 324 59 38 59 322 322 322 94 30 94 316 316 316 316 316 316 181 181 181 322 322 322 98 40 98 325 325 325 182 182 182 182 182 182 324 324 324 98 40 98 325 325 325 13 41 13 326 326 326 326 326 326 182 182 182 325 325 325 97 39 97 319 319 319 182 182 182 182 182 182 326 326 326 97 39 97 319 319 319 59 38 59 324 324 324 324 324 324 182 182 182 319 319 319 14 42 14 327 327 327 183 183 183 183 183 183 330 330 330 14 42 14 327 327 327 99 43 99 328 328 328 328 328 328 183 183 183 327 327 327 60 44 60 329 329 329 183 183 183 183 183 183 328 328 328 60 44 60 329 329 329 100 45 100 330 330 330 330 330 330 183 183 183 329 329 329 99 43 99 331 331 331 184 184 184 184 184 184 328 328 328 99 43 99 331 331 331 12 36 12 320 320 320 320 320 320 184 184 184 331 331 331 97 39 97 332 332 332 184 184 184 184 184 184 320 320 320 97 39 97 332 332 332 60 44 60 328 328 328 328 328 328 184 184 184 332 332 332 13 41 13 333 333 333 185 185 185 185 185 185 326 326 326 13 41 13 333 333 333 101 46 101 334 334 334 334 334 334 185 185 185 333 333 333 60 44 60 332 332 332 185 185 185 185 185 185 334 334 334 60 44 60 332 332 332 97 39 97 326 326 326 326 326 326 185 185 185 332 332 332 101 46 101 335 335 335 186 186 186 186 186 186 334 334 334 101 46 101 335 335 335 15 47 15 336 336 336 336 336 336 186 186 186 335 335 335 100 45 100 329 329 329 186 186 186 186 186 186 336 336 336 100 45 100 329 329 329 60 44 60 334 334 334 334 334 334 186 186 186 329 329 329 16 48 16 337 337 337 187 187 187 187 187 187 340 340 340 16 48 16 337 337 337 102 49 102 338 338 338 338 338 338 187 187 187 337 337 337 61 50 61 339 339 339 187 187 187 187 187 187 338 338 338 61 50 61 339 339 339 103 51 103 340 340 340 340 340 340 187 187 187 339 339 339 102 49 102 341 341 341 188 188 188 188 188 188 338 338 338 102 49 102 341 341 341 14 42 14 330 330 330 330 330 330 188 188 188 341 341 341 100 45 100 342 342 342 188 188 188 188 188 188 330 330 330 100 45 100 342 342 342 61 50 61 338 338 338 338 338 338 188 188 188 342 342 342 15 47 15 343 343 343 189 189 189 189 189 189 336 336 336 15 47 15 343 343 343 104 52 104 344 344 344 344 344 344 189 189 189 343 343 343 61 50 61 342 342 342 189 189 189 189 189 189 344 344 344 61 50 61 342 342 342 100 45 100 336 336 336 336 336 336 189 189 189 342 342 342 104 52 104 345 345 345 190 190 190 190 190 190 344 344 344 104 52 104 345 345 345 17 53 17 346 346 346 346 346 346 190 190 190 345 345 345 103 51 103 339 339 339 190 190 190 190 190 190 346 346 346 103 51 103 339 339 339 61 50 61 344 344 344 344 344 344 190 190 190 339 339 339 18 54 18 347 347 347 191 191 191 191 191 191 350 350 350 18 54 18 347 347 347 105 55 105 348 348 348 348 348 348 191 191 191 347 347 347 62 56 62 349 349 349 191 191 191 191 191 191 348 348 348 62 56 62 349 349 349 106 57 106 350 350 350 350 350 350 191 191 191 349 349 349 105 55 105 351 351 351 192 192 192 192 192 192 348 348 348 105 55 105 351 351 351 50 58 50 352 352 352 352 352 352 192 192 192 351 351 351 155 59 155 353 353 353 192 192 192 192 192 192 352 352 352 155 59 155 353 353 353 62 56 62 348 348 348 348 348 348 192 192 192 353 353 353 51 60 51 354 354 354 193 193 193 193 193 193 356 356 356 51 60 51 354 354 354 154 61 154 355 355 355 355 355 355 193 193 193 354 354 354 62 56 62 353 353 353 193 193 193 193 193 193 355 355 355 62 56 62 353 353 353 155 59 155 356 356 356 356 356 356 193 193 193 353 353 353 154 61 154 357 357 357 194 194 194 194 194 194 355 355 355 154 61 154 357 357 357 19 62 19 358 358 358 358 358 358 194 194 194 357 357 357 106 57 106 349 349 349 194 194 194 194 194 194 358 358 358 106 57 106 349 349 349 62 56 62 355 355 355 355 355 355 194 194 194 349 349 349 20 63 20 359 359 359 195 195 195 195 195 195 362 362 362 20 63 20 359 359 359 108 64 108 360 360 360 360 360 360 195 195 195 359 359 359 63 65 63 361 361 361 195 195 195 195 195 195 360 360 360 63 65 63 361 361 361 109 66 109 362 362 362 362 362 362 195 195 195 361 361 361 108 64 108 363 363 363 196 196 196 196 196 196 360 360 360 108 64 108 363 363 363 18 54 18 350 350 350 350 350 350 196 196 196 363 363 363 106 57 106 364 364 364 196 196 196 196 196 196 350 350 350 106 57 106 364 364 364 63 65 63 360 360 360 360 360 360 196 196 196 364 364 364 19 62 19 365 365 365 197 197 197 197 197 197 358 358 358 19 62 19 365 365 365 110 67 110 366 366 366 366 366 366 197 197 197 365 365 365 63 65 63 364 364 364 197 197 197 197 197 197 366 366 366 63 65 63 364 364 364 106 57 106 358 358 358 358 358 358 197 197 197 364 364 364 110 67 110 367 367 367 198 198 198 198 198 198 366 366 366 110 67 110 367 367 367 21 68 21 368 368 368 368 368 368 198 198 198 367 367 367 109 66 109 361 361 361 198 198 198 198 198 198 368 368 368 109 66 109 361 361 361 63 65 63 366 366 366 366 366 366 198 198 198 361 361 361 22 69 22 369 369 369 199 199 199 199 199 199 372 372 372 22 69 22 369 369 369 111 70 111 370 370 370 370 370 370 199 199 199 369 369 369 64 71 64 371 371 371 199 199 199 199 199 199 370 370 370 64 71 64 371 371 371 112 72 112 372 372 372 372 372 372 199 199 199 371 371 371 111 70 111 373 373 373 200 200 200 200 200 200 370 370 370 111 70 111 373 373 373 20 63 20 362 362 362 362 362 362 200 200 200 373 373 373 109 66 109 374 374 374 200 200 200 200 200 200 362 362 362 109 66 109 374 374 374 64 71 64 370 370 370 370 370 370 200 200 200 374 374 374 21 68 21 375 375 375 201 201 201 201 201 201 368 368 368 21 68 21 375 375 375 113 73 113 376 376 376 376 376 376 201 201 201 375 375 375 64 71 64 374 374 374 201 201 201 201 201 201 376 376 376 64 71 64 374 374 374 109 66 109 368 368 368 368 368 368 201 201 201 374 374 374 113 73 113 377 377 377 202 202 202 202 202 202 376 376 376 113 73 113 377 377 377 23 74 23 378 378 378 378 378 378 202 202 202 377 377 377 112 72 112 371 371 371 202 202 202 202 202 202 378 378 378 112 72 112 371 371 371 64 71 64 376 376 376 376 376 376 202 202 202 371 371 371 24 75 24 379 379 379 203 203 203 203 203 203 382 382 382 24 75 24 379 379 379 114 76 114 380 380 380 380 380 380 203 203 203 379 379 379 65 77 65 381 381 381 203 203 203 203 203 203 380 380 380 65 77 65 381 381 381 115 78 115 382 382 382 382 382 382 203 203 203 381 381 381 114 76 114 383 383 383 204 204 204 204 204 204 380 380 380 114 76 114 383 383 383 22 69 22 372 372 372 372 372 372 204 204 204 383 383 383 112 72 112 384 384 384 204 204 204 204 204 204 372 372 372 112 72 112 384 384 384 65 77 65 380 380 380 380 380 380 204 204 204 384 384 384 23 74 23 385 385 385 205 205 205 205 205 205 378 378 378 23 74 23 385 385 385 116 79 116 386 386 386 386 386 386 205 205 205 385 385 385 65 77 65 384 384 384 205 205 205 205 205 205 386 386 386 65 77 65 384 384 384 112 72 112 378 378 378 378 378 378 205 205 205 384 384 384 116 79 116 387 387 387 206 206 206 206 206 206 386 386 386 116 79 116 387 387 387 25 80 25 388 388 388 388 388 388 206 206 206 387 387 387 115 78 115 381 381 381 206 206 206 206 206 206 388 388 388 115 78 115 381 381 381 65 77 65 386 386 386 386 386 386 206 206 206 381 381 381 26 81 26 389 389 389 207 207 207 207 207 207 392 392 392 26 81 26 389 389 389 117 82 117 390 390 390 390 390 390 207 207 207 389 389 389 66 83 66 391 391 391 207 207 207 207 207 207 390 390 390 66 83 66 391 391 391 118 84 118 392 392 392 392 392 392 207 207 207 391 391 391 117 82 117 393 393 393 208 208 208 208 208 208 390 390 390 117 82 117 393 393 393 24 75 24 382 382 382 382 382 382 208 208 208 393 393 393 115 78 115 394 394 394 208 208 208 208 208 208 382 382 382 115 78 115 394 394 394 66 83 66 390 390 390 390 390 390 208 208 208 394 394 394 25 80 25 395 395 395 209 209 209 209 209 209 388 388 388 25 80 25 395 395 395 119 85 119 396 396 396 396 396 396 209 209 209 395 395 395 66 83 66 394 394 394 209 209 209 209 209 209 396 396 396 66 83 66 394 394 394 115 78 115 388 388 388 388 388 388 209 209 209 394 394 394 119 85 119 397 397 397 210 210 210 210 210 210 396 396 396 119 85 119 397 397 397 27 86 27 398 398 398 398 398 398 210 210 210 397 397 397 118 84 118 391 391 391 210 210 210 210 210 210 398 398 398 118 84 118 391 391 391 66 83 66 396 396 396 396 396 396 210 210 210 391 391 391 28 87 28 399 399 399 211 211 211 211 211 211 402 402 402 28 87 28 399 399 399 120 88 120 400 400 400 400 400 400 211 211 211 399 399 399 67 89 67 401 401 401 211 211 211 211 211 211 400 400 400 67 89 67 401 401 401 121 90 121 402 402 402 402 402 402 211 211 211 401 401 401 120 88 120 403 403 403 212 212 212 212 212 212 400 400 400 120 88 120 403 403 403 26 81 26 392 392 392 392 392 392 212 212 212 403 403 403 118 84 118 404 404 404 212 212 212 212 212 212 392 392 392 118 84 118 404 404 404 67 89 67 400 400 400 400 400 400 212 212 212 404 404 404 27 86 27 405 405 405 213 213 213 213 213 213 398 398 398 27 86 27 405 405 405 122 91 122 406 406 406 406 406 406 213 213 213 405 405 405 67 89 67 404 404 404 213 213 213 213 213 213 406 406 406 67 89 67 404 404 404 118 84 118 398 398 398 398 398 398 213 213 213 404 404 404 122 91 122 407 407 407 214 214 214 214 214 214 406 406 406 122 91 122 407 407 407 29 92 29 408 408 408 408 408 408 214 214 214 407 407 407 121 90 121 401 401 401 214 214 214 214 214 214 408 408 408 121 90 121 401 401 401 67 89 67 406 406 406 406 406 406 214 214 214 401 401 401 30 93 30 409 409 409 215 215 215 215 215 215 412 412 412 30 93 30 409 409 409 123 94 123 410 410 410 410 410 410 215 215 215 409 409 409 68 95 68 411 411 411 215 215 215 215 215 215 410 410 410 68 95 68 411 411 411 124 96 124 412 412 412 412 412 412 215 215 215 411 411 411 123 94 123 413 413 413 216 216 216 216 216 216 410 410 410 123 94 123 413 413 413 28 87 28 402 402 402 402 402 402 216 216 216 413 413 413 121 90 121 414 414 414 216 216 216 216 216 216 402 402 402 121 90 121 414 414 414 68 95 68 410 410 410 410 410 410 216 216 216 414 414 414 29 92 29 415 415 415 217 217 217 217 217 217 408 408 408 29 92 29 415 415 415 125 97 125 416 416 416 416 416 416 217 217 217 415 415 415 68 95 68 414 414 414 217 217 217 217 217 217 416 416 416 68 95 68 414 414 414 121 90 121 408 408 408 408 408 408 217 217 217 414 414 414 125 97 125 417 417 417 218 218 218 218 218 218 416 416 416 125 97 125 417 417 417 31 98 31 418 418 418 418 418 418 218 218 218 417 417 417 124 96 124 411 411 411 218 218 218 218 218 218 418 418 418 124 96 124 411 411 411 68 95 68 416 416 416 416 416 416 218 218 218 411 411 411 32 99 32 419 419 419 219 219 219 219 219 219 422 422 422 32 99 32 419 419 419 126 100 126 420 420 420 420 420 420 219 219 219 419 419 419 69 101 69 421 421 421 219 219 219 219 219 219 420 420 420 69 101 69 421 421 421 127 102 127 422 422 422 422 422 422 219 219 219 421 421 421 126 100 126 423 423 423 220 220 220 220 220 220 420 420 420 126 100 126 423 423 423 30 93 30 412 412 412 412 412 412 220 220 220 423 423 423 124 96 124 424 424 424 220 220 220 220 220 220 412 412 412 124 96 124 424 424 424 69 101 69 420 420 420 420 420 420 220 220 220 424 424 424 31 98 31 425 425 425 221 221 221 221 221 221 418 418 418 31 98 31 425 425 425 128 103 128 426 426 426 426 426 426 221 221 221 425 425 425 69 101 69 424 424 424 221 221 221 221 221 221 426 426 426 69 101 69 424 424 424 124 96 124 418 418 418 418 418 418 221 221 221 424 424 424 128 103 128 427 427 427 222 222 222 222 222 222 426 426 426 128 103 128 427 427 427 33 104 33 428 428 428 428 428 428 222 222 222 427 427 427 127 102 127 421 421 421 222 222 222 222 222 222 428 428 428 127 102 127 421 421 421 69 101 69 426 426 426 426 426 426 222 222 222 421 421 421 34 105 34 429 429 429 223 223 223 223 223 223 432 432 432 34 105 34 429 429 429 129 106 129 430 430 430 430 430 430 223 223 223 429 429 429 70 107 70 431 431 431 223 223 223 223 223 223 430 430 430 70 107 70 431 431 431 130 108 130 432 432 432 432 432 432 223 223 223 431 431 431 129 106 129 433 433 433 224 224 224 224 224 224 430 430 430 129 106 129 433 433 433 32 99 32 422 422 422 422 422 422 224 224 224 433 433 433 127 102 127 434 434 434 224 224 224 224 224 224 422 422 422 127 102 127 434 434 434 70 107 70 430 430 430 430 430 430 224 224 224 434 434 434 33 104 33 435 435 435 225 225 225 225 225 225 428 428 428 33 104 33 435 435 435 131 109 131 436 436 436 436 436 436 225 225 225 435 435 435 70 107 70 434 434 434 225 225 225 225 225 225 436 436 436 70 107 70 434 434 434 127 102 127 428 428 428 428 428 428 225 225 225 434 434 434 131 109 131 437 437 437 226 226 226 226 226 226 436 436 436 131 109 131 437 437 437 35 110 35 438 438 438 438 438 438 226 226 226 437 437 437 130 108 130 431 431 431 226 226 226 226 226 226 438 438 438 130 108 130 431 431 431 70 107 70 436 436 436 436 436 436 226 226 226 431 431 431 36 111 36 439 439 439 227 227 227 227 227 227 442 442 442 36 111 36 439 439 439 132 112 132 440 440 440 440 440 440 227 227 227 439 439 439 71 113 71 441 441 441 227 227 227 227 227 227 440 440 440 71 113 71 441 441 441 133 114 133 442 442 442 442 442 442 227 227 227 441 441 441 132 112 132 443 443 443 228 228 228 228 228 228 440 440 440 132 112 132 443 443 443 34 105 34 432 432 432 432 432 432 228 228 228 443 443 443 130 108 130 444 444 444 228 228 228 228 228 228 432 432 432 130 108 130 444 444 444 71 113 71 440 440 440 440 440 440 228 228 228 444 444 444 35 110 35 445 445 445 229 229 229 229 229 229 438 438 438 35 110 35 445 445 445 134 115 134 446 446 446 446 446 446 229 229 229 445 445 445 71 113 71 444 444 444 229 229 229 229 229 229 446 446 446 71 113 71 444 444 444 130 108 130 438 438 438 438 438 438 229 229 229 444 444 444 134 115 134 447 447 447 230 230 230 230 230 230 446 446 446 134 115 134 447 447 447 37 116 37 448 448 448 448 448 448 230 230 230 447 447 447 133 114 133 441 441 441 230 230 230 230 230 230 448 448 448 133 114 133 441 441 441 71 113 71 446 446 446 446 446 446 230 230 230 441 441 441 38 117 38 449 449 449 231 231 231 231 231 231 452 452 452 38 117 38 449 449 449 135 118 135 450 450 450 450 450 450 231 231 231 449 449 449 72 119 72 451 451 451 231 231 231 231 231 231 450 450 450 72 119 72 451 451 451 136 120 136 452 452 452 452 452 452 231 231 231 451 451 451 135 118 135 453 453 453 232 232 232 232 232 232 450 450 450 135 118 135 453 453 453 36 111 36 442 442 442 442 442 442 232 232 232 453 453 453 133 114 133 454 454 454 232 232 232 232 232 232 442 442 442 133 114 133 454 454 454 72 119 72 450 450 450 450 450 450 232 232 232 454 454 454 37 116 37 455 455 455 233 233 233 233 233 233 448 448 448 37 116 37 455 455 455 137 121 137 456 456 456 456 456 456 233 233 233 455 455 455 72 119 72 454 454 454 233 233 233 233 233 233 456 456 456 72 119 72 454 454 454 133 114 133 448 448 448 448 448 448 233 233 233 454 454 454 137 121 137 457 457 457 234 234 234 234 234 234 456 456 456 137 121 137 457 457 457 39 122 39 458 458 458 458 458 458 234 234 234 457 457 457 136 120 136 451 451 451 234 234 234 234 234 234 458 458 458 136 120 136 451 451 451 72 119 72 456 456 456 456 456 456 234 234 234 451 451 451 40 123 40 459 459 459 235 235 235 235 235 235 462 462 462 40 123 40 459 459 459 138 124 138 460 460 460 460 460 460 235 235 235 459 459 459 73 125 73 461 461 461 235 235 235 235 235 235 460 460 460 73 125 73 461 461 461 139 126 139 462 462 462 462 462 462 235 235 235 461 461 461 138 124 138 463 463 463 236 236 236 236 236 236 460 460 460 138 124 138 463 463 463 38 117 38 452 452 452 452 452 452 236 236 236 463 463 463 136 120 136 464 464 464 236 236 236 236 236 236 452 452 452 136 120 136 464 464 464 73 125 73 460 460 460 460 460 460 236 236 236 464 464 464 39 122 39 465 465 465 237 237 237 237 237 237 458 458 458 39 122 39 465 465 465 140 127 140 466 466 466 466 466 466 237 237 237 465 465 465 73 125 73 464 464 464 237 237 237 237 237 237 466 466 466 73 125 73 464 464 464 136 120 136 458 458 458 458 458 458 237 237 237 464 464 464 140 127 140 467 467 467 238 238 238 238 238 238 466 466 466 140 127 140 467 467 467 41 128 41 468 468 468 468 468 468 238 238 238 467 467 467 139 126 139 461 461 461 238 238 238 238 238 238 468 468 468 139 126 139 461 461 461 73 125 73 466 466 466 466 466 466 238 238 238 461 461 461 42 129 42 469 469 469 239 239 239 239 239 239 472 472 472 42 129 42 469 469 469 141 130 141 470 470 470 470 470 470 239 239 239 469 469 469 74 131 74 471 471 471 239 239 239 239 239 239 470 470 470 74 131 74 471 471 471 142 132 142 472 472 472 472 472 472 239 239 239 471 471 471 141 130 141 473 473 473 240 240 240 240 240 240 470 470 470 141 130 141 473 473 473 40 123 40 462 462 462 462 462 462 240 240 240 473 473 473 139 126 139 474 474 474 240 240 240 240 240 240 462 462 462 139 126 139 474 474 474 74 131 74 470 470 470 470 470 470 240 240 240 474 474 474 41 128 41 475 475 475 241 241 241 241 241 241 468 468 468 41 128 41 475 475 475 143 133 143 476 476 476 476 476 476 241 241 241 475 475 475 74 131 74 474 474 474 241 241 241 241 241 241 476 476 476 74 131 74 474 474 474 139 126 139 468 468 468 468 468 468 241 241 241 474 474 474 143 133 143 477 477 477 242 242 242 242 242 242 476 476 476 143 133 143 477 477 477 43 134 43 478 478 478 478 478 478 242 242 242 477 477 477 142 132 142 471 471 471 242 242 242 242 242 242 478 478 478 142 132 142 471 471 471 74 131 74 476 476 476 476 476 476 242 242 242 471 471 471 44 135 44 479 479 479 243 243 243 243 243 243 482 482 482 44 135 44 479 479 479 144 136 144 480 480 480 480 480 480 243 243 243 479 479 479 75 137 75 481 481 481 243 243 243 243 243 243 480 480 480 75 137 75 481 481 481 145 138 145 482 482 482 482 482 482 243 243 243 481 481 481 144 136 144 483 483 483 244 244 244 244 244 244 480 480 480 144 136 144 483 483 483 42 129 42 472 472 472 472 472 472 244 244 244 483 483 483 142 132 142 484 484 484 244 244 244 244 244 244 472 472 472 142 132 142 484 484 484 75 137 75 480 480 480 480 480 480 244 244 244 484 484 484 43 134 43 485 485 485 245 245 245 245 245 245 478 478 478 43 134 43 485 485 485 146 139 146 486 486 486 486 486 486 245 245 245 485 485 485 75 137 75 484 484 484 245 245 245 245 245 245 486 486 486 75 137 75 484 484 484 142 132 142 478 478 478 478 478 478 245 245 245 484 484 484 146 139 146 487 487 487 246 246 246 246 246 246 486 486 486 146 139 146 487 487 487 45 140 45 488 488 488 488 488 488 246 246 246 487 487 487 145 138 145 481 481 481 246 246 246 246 246 246 488 488 488 145 138 145 481 481 481 75 137 75 486 486 486 486 486 486 246 246 246 481 481 481 46 141 46 489 489 489 247 247 247 247 247 247 492 492 492 46 141 46 489 489 489 147 142 147 490 490 490 490 490 490 247 247 247 489 489 489 76 143 76 491 491 491 247 247 247 247 247 247 490 490 490 76 143 76 491 491 491 148 144 148 492 492 492 492 492 492 247 247 247 491 491 491 147 142 147 493 493 493 248 248 248 248 248 248 490 490 490 147 142 147 493 493 493 44 135 44 482 482 482 482 482 482 248 248 248 493 493 493 145 138 145 494 494 494 248 248 248 248 248 248 482 482 482 145 138 145 494 494 494 76 143 76 490 490 490 490 490 490 248 248 248 494 494 494 45 140 45 495 495 495 249 249 249 249 249 249 488 488 488 45 140 45 495 495 495 149 145 149 496 496 496 496 496 496 249 249 249 495 495 495 76 143 76 494 494 494 249 249 249 249 249 249 496 496 496 76 143 76 494 494 494 145 138 145 488 488 488 488 488 488 249 249 249 494 494 494 149 145 149 497 497 497 250 250 250 250 250 250 496 496 496 149 145 149 497 497 497 47 146 47 498 498 498 498 498 498 250 250 250 497 497 497 148 144 148 491 491 491 250 250 250 250 250 250 498 498 498 148 144 148 491 491 491 76 143 76 496 496 496 496 496 496 250 250 250 491 491 491 48 147 48 499 499 499 251 251 251 251 251 251 502 502 502 48 147 48 499 499 499 150 148 150 500 500 500 500 500 500 251 251 251 499 499 499 77 149 77 501 501 501 251 251 251 251 251 251 500 500 500 77 149 77 501 501 501 151 150 151 502 502 502 502 502 502 251 251 251 501 501 501 150 148 150 503 503 503 252 252 252 252 252 252 500 500 500 150 148 150 503 503 503 46 141 46 492 492 492 492 492 492 252 252 252 503 503 503 148 144 148 504 504 504 252 252 252 252 252 252 492 492 492 148 144 148 504 504 504 77 149 77 500 500 500 500 500 500 252 252 252 504 504 504 47 146 47 505 505 505 253 253 253 253 253 253 498 498 498 47 146 47 505 505 505 152 151 152 506 506 506 506 506 506 253 253 253 505 505 505 77 149 77 504 504 504 253 253 253 253 253 253 506 506 506 77 149 77 504 504 504 148 144 148 498 498 498 498 498 498 253 253 253 504 504 504 152 151 152 507 507 507 254 254 254 254 254 254 506 506 506 152 151 152 507 507 507 49 152 49 508 508 508 508 508 508 254 254 254 507 507 507 151 150 151 501 501 501 254 254 254 254 254 254 508 508 508 151 150 151 501 501 501 77 149 77 506 506 506 506 506 506 254 254 254 501 501 501 50 58 50 509 509 509 255 255 255 255 255 255 352 352 352 50 58 50 509 509 509 153 153 153 510 510 510 510 510 510 255 255 255 509 509 509 78 154 78 511 511 511 255 255 255 255 255 255 510 510 510 78 154 78 511 511 511 155 59 155 352 352 352 352 352 352 255 255 255 511 511 511 153 153 153 512 512 512 256 256 256 256 256 256 510 510 510 153 153 153 512 512 512 16 48 16 340 340 340 340 340 340 256 256 256 512 512 512 103 51 103 513 513 513 256 256 256 256 256 256 340 340 340 103 51 103 513 513 513 78 154 78 510 510 510 510 510 510 256 256 256 513 513 513 17 53 17 514 514 514 257 257 257 257 257 257 346 346 346 17 53 17 514 514 514 107 155 107 515 515 515 515 515 515 257 257 257 514 514 514 78 154 78 513 513 513 257 257 257 257 257 257 515 515 515 78 154 78 513 513 513 103 51 103 346 346 346 346 346 346 257 257 257 513 513 513 107 155 107 516 516 516 258 258 258 258 258 258 515 515 515 107 155 107 516 516 516 51 60 51 356 356 356 356 356 356 258 258 258 516 516 516 155 59 155 511 511 511 258 258 258 258 258 258 356 356 356 155 59 155 511 511 511 78 154 78 515 515 515 515 515 515 258 258 258 511 511 511 52 31 52 517 517 517 259 259 259 259 259 259 310 310 310 52 31 52 517 517 517 156 156 156 518 518 518 518 518 518 259 259 259 517 517 517 79 157 79 519 519 519 259 259 259 259 259 259 518 518 518 79 157 79 519 519 519 158 32 158 310 310 310 310 310 310 259 259 259 519 519 519 156 156 156 520 520 520 260 260 260 260 260 260 518 518 518 156 156 156 520 520 520 8 21 8 298 298 298 298 298 298 260 260 260 520 520 520 91 24 91 521 521 521 260 260 260 260 260 260 298 298 298 91 24 91 521 521 521 79 157 79 518 518 518 518 518 518 260 260 260 521 521 521 9 26 9 522 522 522 261 261 261 261 261 261 304 304 304 9 26 9 522 522 522 95 158 95 523 523 523 523 523 523 261 261 261 522 522 522 79 157 79 521 521 521 261 261 261 261 261 261 523 523 523 79 157 79 521 521 521 91 24 91 304 304 304 304 304 304 261 261 261 521 521 521 95 158 95 524 524 524 262 262 262 262 262 262 523 523 523 95 158 95 524 524 524 53 33 53 314 314 314 314 314 314 262 262 262 524 524 524 158 32 158 519 519 519 262 262 262 262 262 262 314 314 314 158 32 158 519 519 519 79 157 79 523 523 523 523 523 523 262 262 262 519 519 519</p>
        </triangles>
      </mesh>
    </geometry>
    <geometry id="geom-colbox-1" name="colbox-1">
      <mesh>
        <source id="geom-colbox-1-positions">
          <float_array id="geom-colbox-1-positions-array" count="24">-23.28668 -26.67197 0 23.28668 -26.67197 0 -23.28668 26.67197 0 23.28668 26.67197 0 -23.28668 -26.67197 -0.8206749 23.28668 -26.67197 -0.8206749 -23.28668 26.67197 -0.8206749 23.28668 26.67197 -0.8206749</float_array>
          <technique_common>
            <accessor source="#geom-colbox-1-positions-array" count="8" stride="3">
              <param name="X" type="float"/>
              <param name="Y" type="float"/>
              <param name="Z" type="float"/>
            </accessor>
          </technique_common>
        </source>
        <source id="geom-colbox-1-normals">
          <float_array id="geom-colbox-1-normals-array" count="72">0 0 1 0 0 1 0 0 1 0 0 1 0 0 -1 0 0 -1 0 0 -1 0 0 -1 0 -1 0 0 -1 0 0 -1 0 0 -1 0 1 0 0 1 0 0 1 0 0 1 0 0 0 1 0 0 1 0 0 1 0 0 1 0 -1 0 0 -1 0 0 -1 0 0 -1 0 0</float_array>
          <technique_common>
            <accessor source="#geom-colbox-1-normals-array" count="24" stride="3">
              <param name="X" type="float"/>
              <param name="Y" type="float"/>
              <param name="Z" type="float"/>
            </accessor>
          </technique_common>
        </source>
        <source id="geom-colbox-1-map1">
          <float_array id="geom-colbox-1-map1-array" count="36">0 0 0 1 0 0 0 1 0 1 1 0 0 0 0 1 0 0 0 1 0 1 1 0 0 0 0 1 0 0 0 1 0 1 1 0</float_array>
          <technique_common>
            <accessor source="#geom-colbox-1-map1-array" count="12" stride="3">
              <param name="S" type="float"/>
              <param name="T" type="float"/>
              <param name="P" type="float"/>
            </accessor>
          </technique_common>
        </source>
        <vertices id="geom-colbox-1-vertices">
          <input semantic="POSITION" source="#geom-colbox-1-positions"/>
        </vertices>
        <triangles material="ColorMaterial" count="12">
          <input semantic="VERTEX" source="#geom-colbox-1-vertices" offset="0"/>
          <input semantic="NORMAL" source="#geom-colbox-1-normals" offset="1"/>
          <input semantic="TEXCOORD" source="#geom-colbox-1-map1" offset="2" set="1"/>
          <p>2 0 10 0 1 8 3 2 11 1 3 9 3 2 11 0 1 8 5 4 8 4 5 9 7 6 10 6 7 11 7 6 10 4 5 9 1 8 5 0 9 4 5 10 7 4 11 6 5 10 7 0 9 4 3 12 1 1 13 0 7 14 3 5 15 2 7 14 3 1 13 0 2 16 5 3 17 4 6 18 7 7 19 6 6 18 7 3 17 4 0 20 1 2 21 0 4 22 3 6 23 2 4 22 3 2 21 0</p>
        </triangles>
      </mesh>
      <extra>
        <technique profile="OpenCOLLADA3dsMax">
          <box>
            <generateuvs>1</generateuvs>
            <height>-0.8206749</height>
            <heightsegments>1</heightsegments>
            <length>53.34393</length>
            <lengthsegments>1</lengthsegments>
            <width>46.57336</width>
            <widthsegments>1</widthsegments>
          </box>
        </technique>
      </extra>
    </geometry>
    <geometry id="geom-bounds" name="bounds">
      <mesh>
        <source id="geom-bounds-positions">
          <float_array id="geom-bounds-positions-array" count="24">-23.28668 -26.67197 0 23.28668 -26.67197 0 -23.28668 26.67197 0 23.28668 26.67197 0 -23.28668 -26.67197 -0.8206749 23.28668 -26.67197 -0.8206749 -23.28668 26.67197 -0.8206749 23.28668 26.67197 -0.8206749</float_array>
          <technique_common>
            <accessor source="#geom-bounds-positions-array" count="8" stride="3">
              <param name="X" type="float"/>
              <param name="Y" type="float"/>
              <param name="Z" type="float"/>
            </accessor>
          </technique_common>
        </source>
        <source id="geom-bounds-normals">
          <float_array id="geom-bounds-normals-array" count="72">0 0 1 0 0 1 0 0 1 0 0 1 0 0 -1 0 0 -1 0 0 -1 0 0 -1 0 -1 0 0 -1 0 0 -1 0 0 -1 0 1 0 0 1 0 0 1 0 0 1 0 0 0 1 0 0 1 0 0 1 0 0 1 0 -1 0 0 -1 0 0 -1 0 0 -1 0 0</float_array>
          <technique_common>
            <accessor source="#geom-bounds-normals-array" count="24" stride="3">
              <param name="X" type="float"/>
              <param name="Y" type="float"/>
              <param name="Z" type="float"/>
            </accessor>
          </technique_common>
        </source>
        <source id="geom-bounds-map1">
          <float_array id="geom-bounds-map1-array" count="36">0 0 0 1 0 0 0 1 0 1 1 0 0 0 0 1 0 0 0 1 0 1 1 0 0 0 0 1 0 0 0 1 0 1 1 0</float_array>
          <technique_common>
            <accessor source="#geom-bounds-map1-array" count="12" stride="3">
              <param name="S" type="float"/>
              <param name="T" type="float"/>
              <param name="P" type="float"/>
            </accessor>
          </technique_common>
        </source>
        <vertices id="geom-bounds-vertices">
          <input semantic="POSITION" source="#geom-bounds-positions"/>
        </vertices>
        <triangles material="ColorMaterial" count="12">
          <input semantic="VERTEX" source="#geom-bounds-vertices" offset="0"/>
          <input semantic="NORMAL" source="#geom-bounds-normals" offset="1"/>
          <input semantic="TEXCOORD" source="#geom-bounds-map1" offset="2" set="1"/>
          <p>2 0 10 0 1 8 3 2 11 1 3 9 3 2 11 0 1 8 5 4 8 4 5 9 7 6 10 6 7 11 7 6 10 4 5 9 1 8 5 0 9 4 5 10 7 4 11 6 5 10 7 0 9 4 3 12 1 1 13 0 7 14 3 5 15 2 7 14 3 1 13 0 2 16 5 3 17 4 6 18 7 7 19 6 6 18 7 3 17 4 0 20 1 2 21 0 4 22 3 6 23 2 4 22 3 2 21 0</p>
        </triangles>
      </mesh>
      <extra>
        <technique profile="OpenCOLLADA3dsMax">
          <box>
            <generateuvs>1</generateuvs>
            <height>-0.8206749</height>
            <heightsegments>1</heightsegments>
            <length>53.34393</length>
            <lengthsegments>1</lengthsegments>
            <width>46.57336</width>
            <widthsegments>1</widthsegments>
          </box>
        </technique>
      </extra>
    </geometry>
  </library_geometries>
  <library_lights>
    <light id="EnvironmentAmbientLight" name="EnvironmentAmbientLight">
      <technique_common>
        <ambient>
          <color>0 0 0</color>
        </ambient>
      </technique_common>
    </light>
  </library_lights>
  <library_visual_scenes>
    <visual_scene id="MaxScene">
      <node name="EnvironmentAmbientLight">
        <instance_light url="#EnvironmentAmbientLight"/>
      </node>
      <node id="node-base00" name="base00">
        <matrix>1 0 0 0 0 1 0 0 0 0 1 0 0 0 0 1</matrix>
        <node id="node-start00" name="start00">
          <matrix>1 0 0 0 0 1 0 0 0 0 1 0 0 0 0 1</matrix>
          <node id="node-lavaflow400" name="lavaflow400">
            <matrix>3.157525 0 0 0 0 3.157525 0 0 0 0 3.157525 0 0 0 0 1</matrix>
            <node>
              <matrix>1 0 0 -1.715398 0 1 0 -0.740931 0 0 1 -5.79902e-5 0 0 0 1</matrix>
              <instance_geometry url="#geom-lavaflow400">
                <bind_material>
                  <technique_common>
                    <instance_material symbol="lavaflow_material_1" target="#lavaflow_material-material"/>
                  </technique_common>
                </bind_material>
              </instance_geometry>
            </node>
          </node>
          <node id="node-colbox-1" name="colbox-1">
            <matrix>1 0 0 -0.05344772 0 1 0 -0.7518654 0 0 1 -0.3554974 0 0 0 1</matrix>
            <instance_geometry url="#geom-colbox-1">
              <bind_material>
                <technique_common>
                  <instance_material symbol="ColorMaterial" target="#ColorEffectR113G135B6-material"/>
                </technique_common>
              </bind_material>
            </instance_geometry>
          </node>
          <node id="node-bounds" name="bounds">
            <matrix>1.040791 0 0 -0.05344772 0 1.040791 0 -0.7518654 0 0 2.289114 0.2938786 0 0 0 1</matrix>
            <instance_geometry url="#geom-bounds">
              <bind_material>
                <technique_common>
                  <instance_material symbol="ColorMaterial" target="#ColorEffectR113G135B6-material"/>
                </technique_common>
              </bind_material>
            </instance_geometry>
          </node>
        </node>
        <node id="node-detail400" name="detail400">
          <matrix>1 0 0 0 0 1 0 0 0 0 1 0 0 0 0 1</matrix>
        </node>
        <node id="node-collision-1" name="collision-1">
          <matrix>1 0 0 0 0 1 0 0 0 0 1 0 0 0 0 1</matrix>
        </node>
      </node>
    </visual_scene>
  </library_visual_scenes>
  <scene>
    <instance_visual_scene url="#MaxScene"/>
  </scene>
</COLLADA>