<?xml version="1.0" encoding="utf-8"?>
<COLLADA xmlns="http://www.collada.org/2005/11/COLLADASchema" version="1.4.1">
  <asset>
    <contributor>
      <author>Duion</author>
      <authoring_tool>Blender 2.65.0 r53189</authoring_tool>
    </contributor>
    <created>2013-06-11T20:38:05</created>
    <modified>2013-06-11T20:38:05</modified>
    <unit name="meter" meter="1"/>
    <up_axis>Z_UP</up_axis>
  </asset>
  <library_lights>
    <light id="Hemi-light" name="Hemi">
      <technique_common>
        <ambient>
          <color>1 1 1</color>
        </ambient>
      </technique_common>
      <extra>
        <technique profile="blender">
          <adapt_thresh>0.000999987</adapt_thresh>
          <area_shape>0</area_shape>
          <area_size>0.1</area_size>
          <area_sizey>0.1</area_sizey>
          <area_sizez>0.1</area_sizez>
          <atm_distance_factor>1</atm_distance_factor>
          <atm_extinction_factor>1</atm_extinction_factor>
          <atm_turbidity>2</atm_turbidity>
          <att1>0</att1>
          <att2>1</att2>
          <backscattered_light>1</backscattered_light>
          <bias>1</bias>
          <blue>1</blue>
          <buffers>1</buffers>
          <bufflag>0</bufflag>
          <bufsize>512</bufsize>
          <buftype>2</buftype>
          <clipend>40</clipend>
          <clipsta>0.5</clipsta>
          <compressthresh>0.04999995</compressthresh>
          <dist sid="blender_dist">25</dist>
          <energy sid="blender_energy">1</energy>
          <falloff_type>2</falloff_type>
          <filtertype>0</filtertype>
          <flag>0</flag>
          <gamma sid="blender_gamma">1</gamma>
          <green>1</green>
          <halo_intensity sid="blnder_halo_intensity">1</halo_intensity>
          <horizon_brightness>1</horizon_brightness>
          <mode>1</mode>
          <ray_samp>1</ray_samp>
          <ray_samp_method>1</ray_samp_method>
          <ray_samp_type>0</ray_samp_type>
          <ray_sampy>1</ray_sampy>
          <ray_sampz>1</ray_sampz>
          <red>1</red>
          <samp>3</samp>
          <shadhalostep>0</shadhalostep>
          <shadow_b sid="blender_shadow_b">0</shadow_b>
          <shadow_g sid="blender_shadow_g">0</shadow_g>
          <shadow_r sid="blender_shadow_r">0</shadow_r>
          <shadspotsize>45</shadspotsize>
          <sky_colorspace>2</sky_colorspace>
          <sky_exposure>1</sky_exposure>
          <skyblendfac>1</skyblendfac>
          <skyblendtype>1</skyblendtype>
          <soft>3</soft>
          <spotblend>0.15</spotblend>
          <spotsize>45</spotsize>
          <spread>1</spread>
          <sun_brightness>1</sun_brightness>
          <sun_effect_type>0</sun_effect_type>
          <sun_intensity>1</sun_intensity>
          <sun_size>1</sun_size>
          <type>3</type>
        </technique>
      </extra>
    </light>
  </library_lights>
  <library_images/>
  <library_effects>
    <effect id="thuja_bark_01-effect">
      <profile_COMMON>
        <technique sid="common">
          <phong>
            <emission>
              <color sid="emission">0 0 0 1</color>
            </emission>
            <ambient>
              <color sid="ambient">0 0 0 1</color>
            </ambient>
            <diffuse>
              <color sid="diffuse">0.8 0.8 0.8 1</color>
            </diffuse>
            <specular>
              <color sid="specular">0 0 0 1</color>
            </specular>
            <shininess>
              <float sid="shininess">50</float>
            </shininess>
            <index_of_refraction>
              <float sid="index_of_refraction">1</float>
            </index_of_refraction>
          </phong>
        </technique>
        <extra>
          <technique profile="GOOGLEEARTH">
            <double_sided>1</double_sided>
          </technique>
        </extra>
      </profile_COMMON>
      <extra><technique profile="MAX3D"><double_sided>1</double_sided></technique></extra>
    </effect>
    <effect id="thuja_branch_01-effect">
      <profile_COMMON>
        <technique sid="common">
          <phong>
            <emission>
              <color sid="emission">0 0 0 1</color>
            </emission>
            <ambient>
              <color sid="ambient">0 0 0 1</color>
            </ambient>
            <diffuse>
              <color sid="diffuse">0.8 0.8 0.8 1</color>
            </diffuse>
            <specular>
              <color sid="specular">0 0 0 1</color>
            </specular>
            <shininess>
              <float sid="shininess">50</float>
            </shininess>
            <transparency>
              <float sid="transparency">0</float>
            </transparency>
            <index_of_refraction>
              <float sid="index_of_refraction">1</float>
            </index_of_refraction>
          </phong>
        </technique>
        <extra>
          <technique profile="GOOGLEEARTH">
            <double_sided>1</double_sided>
          </technique>
        </extra>
      </profile_COMMON>
      <extra><technique profile="MAX3D"><double_sided>1</double_sided></technique></extra>
    </effect>
  </library_effects>
  <library_materials>
    <material id="thuja_bark_01-material" name="thuja_bark_01">
      <instance_effect url="#thuja_bark_01-effect"/>
    </material>
    <material id="thuja_branch_01-material" name="thuja_branch_01">
      <instance_effect url="#thuja_branch_01-effect"/>
    </material>
  </library_materials>
  <library_geometries>
    <geometry id="thujahigh80-mesh" name="thujahigh80">
      <mesh>
        <source id="thujahigh80-mesh-positions">
          <float_array id="thujahigh80-mesh-positions-array" count="1263">3.05883 -1.181432 15.1955 -1.80333 -0.9542335 15.2256 -2.39948 -0.08484864 11.5307 2.46268 -0.3120459 11.5006 1.76729 3.687328 10.5353 -4.72758 1.009228 10.5224 -3.23157 -1.438671 5.77432 3.2633 1.239429 5.78726 -0.963132 3.381328 11.5147 -0.603331 -3.618572 11.4117 0.195867 -3.600221 5.76697 -0.163934 3.399679 5.86997 -3.60707 -1.816892 11.423 2.25129 -3.835572 11.3883 2.95076 -1.144831 7.84502 -2.9076 0.8738467 7.87971 0.741708 2.176259 8.77582 -1.58357 -6.094552 8.661029 -1.15672 -4.17259 2.099979 1.16856 4.098229 2.214771 0.477363 -1.472813 20.7335 0.0278933 1.139797 20.7861 -0.1730999 0.9820519 18.8424 0.276369 -1.630563 18.7898 -1.89293 0.8928648 13.7753 -0.354251 -4.308242 13.6923 0.796589 -2.771682 9.888851 -0.742088 2.429428 9.971791 -1.97426 -0.3731001 18.9385 1.31282 -0.8433421 18.9293 1.68858 -0.5179717 16.4089 -1.5985 -0.04772955 16.418 -1.32818 1.893417 15.9667 -2.01277 -2.494063 15.9022 -0.30719 -2.414182 12.7597 0.377396 1.973298 12.8242 4.38504 -2.544261 8.713391 0.935936 4.718749 8.865911 -1.71525 3.5731 3.4656 1.73385 -3.68991 3.313069 1.96149 -2.456943 17.081 2.47852 1.195147 17.1495 0.300209 1.564227 15.2275 -0.2168239 -2.087872 15.159 2.33325 -1.001933 15.7522 0.04632878 2.898327 15.8348 -1.10903 1.733948 12.5862 1.17788 -2.166322 12.5037 -1.22475 -2.339793 16.4995 1.75793 0.7693353 16.5562 1.52756 1.327088 13.2282 -1.45512 -1.782032 13.1714 -4.2912 -3.673531 5.82692 -0.008784413 4.147419 5.97211 2.14518 3.88553 1.519781 -2.13724 -3.93541 1.374599 3.22582 0.5050708 13.6821 -0.842538 3.777728 13.7614 -2.00537 1.455428 10.5369 2.06298 -1.817232 10.4577 -1.61887 -3.841582 13.3085 3.41649 -2.309882 13.3324 2.54617 0.5869643 10.3927 -2.48919 -0.9447447 10.3688 -2.36212 6.012598 7.468871 -5.6127 -2.017591 7.357319 -1.6198 -4.049561 1.944199 1.63078 3.98063 2.055751 -3.57904 2.647239 6.88514 0.518103 -5.919481 6.745189 2.04916 -4.28706 0.1449633 -2.04798 4.27965 0.2849187 0.744859 1.095887 20.2529 -1.61299 -0.4769453 20.2393 -1.12917 -1.098883 18.1253 1.22868 0.473949 18.1389 0.985654 -0.6811708 16.8449 -2.07423 1.949857 16.9065 -1.49135 1.073188 14.093 1.56853 -1.557842 14.0313 -3.08129 1.242348 9.66369 2.00123 -4.689611 9.563699 2.552 -3.033461 3.86575 -2.53051 2.898499 3.96575 -2.6885 -1.208802 15.1038 0.284023 2.474398 15.1704 1.51895 1.636348 11.9437 -1.45358 -2.046852 11.8771 2.66357 -3.635671 7.925799 3.98536 4.981948 8.086682 0.66605 4.27646 1.957811 -0.655746 -4.34116 1.796919 2.42431 -3.921552 11.5427 -0.948467 1.927768 11.6663 -1.66869 2.813509 6.5119 1.70409 -3.035811 6.388309 1.49494 2.149717 15.4198 -2.86931 1.893047 15.4388 -2.14644 -0.3524431 13.0142 2.21781 -0.09577298 12.9952 0.468051 -1.424863 18.1868 -0.752589 1.810477 18.2525 -0.566554 1.342817 15.9818 0.654087 -1.892513 15.9162 2.88357 -0.5823489 17.7003 -0.644264 -0.5713618 17.7193 -1.72078 -0.2653926 15.7287 1.80705 -0.2763795 15.7097 -1.34313 -4.295091 5.726349 5.32366 2.296479 5.843161 3.33468 3.2877 0.5278565 -3.33211 -3.30388 0.4110425 -1.02697 3.455058 13.7446 -0.376392 -2.093792 13.6605 0.351312 -2.937831 9.44011 -0.299271 2.611018 9.52423 1.7198 -0.5494192 13.4373 -2.9159 2.486918 13.5166 -2.29149 1.352628 9.645911 2.34421 -1.683712 9.56656 -0.312526 1.365777 19.5169 -1.49925 -1.462813 19.4792 -0.545916 -1.712253 17.2715 0.640811 1.116337 17.3092 3.25391 -0.8840535 9.62124 -4.39926 1.349408 9.700031 -3.81685 1.055609 3.58613 3.83632 -1.177851 3.50735 1.60966 0.7768936 14.7577 -2.82463 -1.649412 14.7402 -2.18703 -1.402252 10.9646 2.24726 1.024058 10.982 0.127183 1.913907 17.6925 -0.167439 -1.930083 17.6369 -0.107115 -2.174422 14.6202 0.187508 1.669568 14.6758 0.880475 -3.375642 12.8722 2.9975 1.953698 12.9717 1.08344 2.508168 9.13104 -1.03359 -2.821161 9.03152 0.954788 -1.910053 19.5319 -0.08803868 0.9615438 19.5909 -0.47385 1.137107 17.3624 0.568978 -1.734493 17.3034 4.78294 -0.3821344 8.51689 -3.9763 1.301769 8.59351 -4.37566 0.8170928 1.48086 4.38358 -0.8668112 1.40424 -0.1576409 -4.972121 8.897 4.43559 1.963189 9.02487 2.3042 3.420039 2.82685 -2.28904 -3.51527 2.69899 -0.595429 -3.484351 8.04493 6.21457 0.8102137 8.11739 3.41424 2.08925 3.40383 -3.39576 -2.20532 3.33137 -2.84632 2.566428 9.6282 0.04313176 -4.860332 9.512129 1.45448 -3.77461 3.495369 -1.43498 3.652139 3.61145 1.37126 0.5469266 20.7487 -1.16235 -0.3575044 20.7471 -1.21557 -0.7739431 18.6687 1.31804 0.1304869 18.6702 1.00154 -0.8275817 10.2541 -5.44283 1.818798 10.3341 -3.20593 1.221119 5.96309 3.23844 -1.425261 5.88314 -4.61022 0.3636137 8.270871 3.56951 1.457509 8.28788 4.09786 0.4967515 2.92129 -4.08187 -0.5971425 2.90428 1.81835 -2.412222 11.6372 1.97296 3.796638 11.7571 0.09876847 2.969629 7.88232 -0.05583709 -3.239231 7.76241 -0.351424 -5.558141 9.68412 4.50703 -0.04310786 9.78022 2.44294 2.671379 5.04618 -2.41551 -2.843651 4.950089 -3.6721 0.5932469 12.6862 0.672553 -3.503842 12.6178 2.19551 -2.194151 8.41517 -2.14914 1.902939 8.48354 3.26802 0.344448 12.0174 -3.13627 0.639526 12.0569 -3.18208 0.02155947 7.33017 3.22221 -0.2735192 7.29072 0.459774 1.899847 17.5398 -1.10112 -1.633033 17.4916 -0.740314 -2.018472 14.601 0.820581 1.514408 14.6492 1.86432 1.729229 8.17221 -6.40062 0.2693647 8.190711 -4.12534 -0.7747184 2.6081 4.1396 0.6851476 2.58961 3.87689 -1.569532 13.2324 1.15933 3.175358 13.3313 -1.33186 2.203438 9.85716 1.38569 -2.541462 9.75824 -1.57624 1.247398 14.1944 3.28123 -0.08199077 14.1706 2.459 -0.8547118 11.0147 -2.39848 0.4746722 11.0385 -0.878674 0.9728108 7.77444 -3.55963 -6.761271 7.668229 -1.33208 -3.919811 3.008969 1.34888 3.81427 3.115171 -5.14537 0.7993908 7.43466 4.23979 -1.105401 7.4001 4.69271 -0.953236 0.03156262 -4.69244 0.951553 0.06612455 1.88234 -4.410211 6.112399 -5.12689 2.080969 6.264901 -3.50436 3.24396 0.1711805 3.50488 -3.24723 0.01868563 -0.703741 -5.067442 10.6203 4.33243 -0.7364087 10.6935 2.53654 2.049619 6.762061 -2.49963 -2.281411 6.68891 1.35626 1.453117 16.5552 -2.63169 -0.1203927 16.5496 -1.95757 -1.015392 13.2646 2.03039 0.5581209 13.2701 -3.14541 0.3042666 14.5643 0.660645 -2.941832 14.507 1.93355 -1.814732 11.0945 -1.87251 1.431368 11.1518 -4.10209 3.479469 8.701711 0.5319 -3.667071 8.582859 2.32336 -3.61326 2.261149 -2.31063 3.533279 2.380001 -2.4409 1.722578 9.729591 2.02702 -4.852292 9.62357 2.24384 -3.349451 3.545909 -2.22409 3.225409 3.651931 -2.15623 0.2625312 10.9598 4.72929 -0.7209038 10.9423 3.45909 -0.5942789 5.94274 -3.42643 0.389156 5.96031 1.18275 -3.267232 14.5945 2.62098 1.346148 14.6804 0.750991 2.106508 11.6595 -0.687236 -2.506882 11.5735 3.92426 0.5833284 9.521471 -2.19147 5.054849 9.630552 -3.04562 2.158849 4.51786 3.07011 -2.312681 4.40878 -0.08534246 -0.8935119 17.8002 2.67663 1.129827 17.836 1.42507 0.7348324 16.0824 -1.33691 -1.288503 16.0466 -2.24673 -0.6976129 17.7382 1.43502 -1.534703 17.723 1.8818 -0.6755204 14.9044 -1.79995 0.1615656 14.9197 -3.76708 -1.395602 12.1625 2.60654 -0.918852 12.1666 3.20701 0.1115278 7.36295 -3.16661 -0.3652262 7.35882 1.79317 1.038937 19.6103 -1.14702 0.8832998 19.623 -1.42144 -0.3833759 17.7375 1.51875 -0.2277389 17.7247 3.46822 -1.268322 10.0179 -3.08346 -2.170312 10.0334 -3.25718 -0.5681571 6.80659 3.2945 0.3338309 6.79105 -5.00901 -1.669762 10.5687 -0.07935786 -5.173682 10.5066 2.48746 -1.894101 8.2177 -2.44219 1.609809 8.27983 3.63628 3.189708 9.507182 -4.02743 0.6077384 9.503991 -3.82284 -1.34762 3.28513 3.84087 1.234349 3.28832 -4.72589 2.354999 6.82822 2.85341 -2.372651 6.74721 3.79353 -2.38819 1.37335 -3.78577 2.33946 1.45436 0.05468475 0.6469107 19.977 -0.81766 -2.085733 19.9388 -0.386761 -1.676613 17.9867 0.485582 1.056037 18.0249 0.931759 2.256407 14.3389 1.99479 -2.709512 14.263 0.561438 -2.670862 10.8657 -0.501595 2.295058 10.9417 -4.45434 -4.502012 10.7827 1.06673 -1.050412 10.8393 2.77989 1.604209 7.08423 -2.74117 -1.847391 7.027639 -0.04371625 1.271357 17.3028 1.88827 -2.191283 17.2484 1.00521 -1.977572 14.2622 -0.926783 1.485078 14.3166 -1.68693 -1.115522 13.9835 2.66474 1.231228 14.0217 2.20682 0.9787802 11.3112 -2.14484 -1.367972 11.273 1.01821 -1.780013 17.8315 -1.97092 -0.3962969 17.8705 -1.44928 0.4074563 16.5231 1.53985 -0.9762647 16.4842 2.85591 0.7240125 15.5427 -1.28559 2.558607 15.5962 -2.03639 0.701526 12.5477 2.10511 -1.133072 12.4941 -2.66174 1.257287 15.8751 -2.13648 -2.742943 15.812 0.301228 -2.242492 14.0335 -0.224034 1.757738 14.0966 -3.81243 0.7391564 9.75838 1.91808 -4.544672 9.667449 2.87611 -2.710071 3.90942 -2.8544 2.573759 4.00035 2.67825 0.4479733 16.2873 -0.350391 3.035137 16.3496 -1.47527 1.048348 14.2617 1.55337 -1.538812 14.1994 -0.305387 2.346748 15.0032 -1.73693 -2.435562 14.9369 -0.685166 -2.583342 11.1196 0.746375 2.198958 11.1859 -0.294542 -1.724252 11.9598 1.29911 4.049708 12.0686 0.819875 2.742228 8.454501 -0.773773 -3.031741 8.345649 -0.710367 -1.652623 20.146 0.520348 0.9650057 20.1953 0.664526 1.000037 17.9422 -0.566189 -1.617583 17.8929 -4.13761 -1.150462 10.4212 3.3097 -1.238832 10.4185 3.73674 -0.1263347 4.76573 -3.71057 -0.03796696 4.76848 1.89987 -0.9828239 17.3787 -1.80135 -0.5479199 17.4036 -1.80925 -0.04228442 15.0846 1.89197 -0.4771884 15.0597 0.57502 1.661239 7.156991 0.71492 -6.263561 7.035509 0.07997119 -4.025331 3.590929 -0.05992966 3.899469 3.712411 2.62901 3.369118 11.8294 -1.23738 -2.076492 11.7636 -1.91499 -2.837141 6.602149 1.9514 2.608469 6.667941 -2.66122 1.372808 12.9221 -0.430789 -3.918862 12.8378 1.14008 -2.801971 9.01796 -1.09035 2.489709 9.102271 2.73416 -3.727682 12.5937 1.18942 1.817788 12.7053 -0.747611 2.617279 9.07679 0.797121 -2.928191 8.965189 0.09711545 0.6085667 8.155751 2.7714 -6.014001 8.05313 1.35223 -3.405991 5.44453 -1.32206 3.216569 5.547151 -3.26344 1.165588 13.7037 -0.887849 -3.595952 13.6261 1.21583 -2.556832 10.1776 -1.15976 2.204708 10.2552 -0.281217 1.311399 8.440481 6.03731 -3.385121 8.362919 3.16962 -2.413321 3.73638 -3.1489 2.283209 3.813941 4.18794 -0.7732875 9.00694 -2.29914 -5.274761 8.967949 -3.23333 -2.314891 3.7032 3.25376 2.186579 3.74219 -2.18944 -3.281642 12.3935 2.92033 0.285844 12.4557 2.57621 1.649849 7.801011 -2.53356 -1.917641 7.73878 -1.17125 1.163907 17.2763 -0.929734 -2.745213 17.217 0.1604059 -2.203522 14.4174 -0.0811156 1.705598 14.4768 -0.730437 2.902429 7.40164 -2.90394 -6.215381 7.273689 -1.08545 -4.56706 0.4092422 1.08805 4.55075 0.5371927 2.69773 2.744908 10.4264 3.10611 -3.696982 10.3314 0.2239429 -3.344981 7.150169 -0.18444 3.096909 7.245201 0.3525876 0.2966063 -0.5881271 0.155681 0.1452711 0.8746379 -0.005048692 0.4412408 -0.5896315 -0.0344333 0.2221562 0.7696422 -0.3766 0.3175359 -0.5935536 -0.231944 0.1563972 0.8717578 -0.5210547 -0.0499497 -0.597829 -0.308733 -0.03895258 0.9069884 -0.4169874 -0.4499931 -0.6004739 -0.253413 -0.2516088 0.8138964 -0.02101564 -0.6150431 -0.5988508 -0.04292106 -0.3393468 0.9540188 0.333323 -0.4142211 -0.5943967 0.145439 -0.2325928 0.8902671 0.4980532 -0.06542187 -0.5901264 0.233008 -0.04717731 0.761081 0.09675264 0.08277022 4.840835 -0.07229793 0.1511371 4.840257 -0.2479267 0.09266328 4.838333 -0.3162079 -0.08104276 4.836307 -0.2670159 -0.2701383 4.835062 -0.07984536 -0.3481556 4.835829 0.08764618 -0.2532289 4.837942 0.1655124 -0.08835619 4.839966 0.02623814 0.01135379 11.52284 -0.1131926 0.06774204 11.5223 -0.2580485 0.01951342 11.52093 -0.3143655 -0.1237576 11.51901 -0.2737949 -0.2797223 11.51819 -0.1194171 -0.3440701 11.51873 0.01872736 -0.265774 11.52038 0.08295041 -0.1297903 11.52202 0.05202209 -0.2429791 18.5358</float_array>
          <technique_common>
            <accessor source="#thujahigh80-mesh-positions-array" count="421" stride="3">
              <param name="X" type="float"/>
              <param name="Y" type="float"/>
              <param name="Z" type="float"/>
            </accessor>
          </technique_common>
        </source>
        <source id="thujahigh80-mesh-normals">
          <float_array id="thujahigh80-mesh-normals-array" count="1263">0.04687643 0.9739983 0.2215949 0.04687643 0.9739983 0.2215949 0.04687643 0.9739983 0.2215949 0.04687643 0.9739983 0.2215949 -0.326487 0.7942748 -0.5123447 -0.326487 0.7942748 -0.5123447 -0.326487 0.7942748 -0.5123447 -0.326487 0.7942748 -0.5123447 -0.9889218 -0.04876857 -0.1401715 -0.9889218 -0.04876857 -0.1401715 -0.9889218 -0.04876857 -0.1401715 -0.9889218 -0.04876857 -0.1401715 -0.2598651 -0.743614 -0.6159856 -0.2598651 -0.743614 -0.6159856 -0.2598651 -0.743614 -0.6159856 -0.2598651 -0.743614 -0.6159856 -0.9625843 0.270394 0.01657152 -0.9625843 0.270394 0.01657152 -0.9625843 0.270394 0.01657152 -0.9625843 0.270394 0.01657152 0.978576 0.1706595 -0.1150242 0.978576 0.1706595 -0.1150242 0.978576 0.1706595 -0.1150242 0.978576 0.1706595 -0.1150242 -0.8910489 -0.2576373 -0.3736686 -0.8910489 -0.2576373 -0.3736686 -0.8910489 -0.2576373 -0.3736686 -0.8910489 -0.2576373 -0.3736686 -0.1404461 -0.9790338 -0.1473128 -0.1404461 -0.9790338 -0.1473128 -0.1404461 -0.9790338 -0.1473128 -0.1404461 -0.9790338 -0.1473128 -0.871395 0.1428571 -0.4693136 -0.871395 0.1428571 -0.4693136 -0.871395 0.1428571 -0.4693136 -0.871395 0.1428571 -0.4693136 0.7928404 0.3863949 -0.4712058 0.7928404 0.3863949 -0.4712058 0.7928404 0.3863949 -0.4712058 0.7928404 0.3863949 -0.4712058 0.652089 -0.0781579 -0.7540819 0.652089 -0.0781579 -0.7540819 0.652089 -0.0781579 -0.7540819 0.652089 -0.0781579 -0.7540819 0.7707755 0.4612262 -0.439436 0.7707755 0.4612262 -0.439436 0.7707755 0.4612568 -0.439436 0.7707755 0.4612262 -0.4394665 0.7133702 -0.6813868 -0.1635487 0.7133702 -0.6813868 -0.1635792 0.7133702 -0.6813868 -0.1635792 0.7133702 -0.6813868 -0.1635487 0.7962279 -0.4436171 0.4112979 0.7962279 -0.4436171 0.4112979 0.7962279 -0.4436171 0.4112979 0.7962279 -0.4436171 0.4112979 0.4846339 0.617481 -0.6194952 0.4846339 0.617481 -0.6194952 0.4846339 0.617481 -0.6194952 0.4846339 0.617481 -0.6194952 0.2059389 -0.6658223 -0.7170934 0.2059389 -0.6658223 -0.7170934 0.2059389 -0.6658223 -0.7170934 0.2059389 -0.6658223 -0.7170934 -0.7117832 0.2969451 -0.6364941 -0.7117832 0.2969451 -0.6364941 -0.7117832 0.2969451 -0.6364941 -0.7117832 0.2969451 -0.6364941 -0.8622394 -0.4074526 -0.3007904 -0.8622394 -0.4074526 -0.3007904 -0.8622394 -0.4074526 -0.3007904 -0.8622394 -0.4074526 -0.3007904 -0.5187537 0.780694 -0.3483993 -0.5187537 0.780694 -0.3483993 -0.5187537 0.780694 -0.3483993 -0.5187537 0.780694 -0.3483993 0.6474196 0.7553331 -0.1011993 0.6474196 0.7553331 -0.1011993 0.6474502 0.7553331 -0.1012299 0.6474196 0.7553331 -0.1011993 -0.7366863 -0.6269112 -0.2534257 -0.7366863 -0.6269112 -0.2534257 -0.7366863 -0.6269112 -0.2534257 -0.7366863 -0.6269112 -0.2534257 0.7030549 -0.5749687 0.4184088 0.7030549 -0.5749687 0.4184088 0.7030549 -0.5749687 0.4184088 0.7030549 -0.5749687 0.4184088 0.8782922 -0.1261025 -0.4611347 0.8782922 -0.1261025 -0.4611347 0.8782922 -0.1261025 -0.4611347 0.8782922 -0.1261025 -0.4611347 0.8654439 0.4997406 -0.03503525 0.8654439 0.4997406 -0.03503525 0.8654439 0.4997406 -0.03503525 0.8654439 0.4997406 -0.03503525 -0.04568618 0.7260659 -0.6860561 -0.04568618 0.7260659 -0.6860561 -0.04568618 0.7260659 -0.6860561 -0.04568618 0.7260659 -0.6860561 0.9356365 0.352916 0.003967404 0.9356365 0.352916 0.003967404 0.9356365 0.352916 0.003967404 0.9356365 0.352916 0.003967404 0.003875792 0.9886776 0.1498458 0.003875792 0.9886776 0.1498458 0.003875792 0.9886776 0.1498458 0.003875792 0.9886776 0.1498458 0.6568499 -0.6578265 -0.3684499 0.6568499 -0.6578265 -0.3684499 0.6568499 -0.6578265 -0.3684499 0.6568499 -0.6578265 -0.3684499 -0.9826655 -0.1129795 -0.1468245 -0.9826655 -0.1129795 -0.1468245 -0.9826655 -0.1129795 -0.1468245 -0.9826655 -0.1129795 -0.1468245 0.5393841 0.8275704 -0.1554918 0.5393841 0.8275704 -0.1554918 0.5393841 0.8275704 -0.1554918 0.5393841 0.8275704 -0.1554918 -0.841609 0.3584704 -0.4039125 -0.841609 0.3584704 -0.4039125 -0.841609 0.3584704 -0.4039125 -0.841609 0.3584704 -0.4039125 0.2798852 0.9598071 -0.01944029 0.2798852 0.9598071 -0.01944029 0.2798852 0.9598071 -0.01944029 0.2798852 0.9598071 -0.01944029 -0.4797815 0.8770409 -0.0235908 -0.4797815 0.8770409 -0.0235908 -0.4797815 0.8770409 -0.0235908 -0.4797815 0.8770409 -0.0235908 -0.996704 0.07675403 -0.02612382 -0.996704 0.07675403 -0.02612382 -0.996704 0.07675403 -0.02612382 -0.996704 0.07675403 -0.02612382 0.828486 -0.3205359 -0.459151 0.828486 -0.3205359 -0.459151 0.828486 -0.3205359 -0.459151 0.828486 -0.3205359 -0.459151 0.9305399 0.3406781 -0.1342509 0.9305399 0.3406781 -0.1342509 0.9305399 0.3406781 -0.1342509 0.9305399 0.3406781 -0.1342509 0.1875667 0.9791864 -0.07724231 0.1875667 0.9791864 -0.07724231 0.1875667 0.9791864 -0.07724231 0.1875667 0.9791864 -0.07724231 0.7728813 -0.5047761 -0.3844417 0.7728813 -0.5047761 -0.3844417 0.7728813 -0.5047761 -0.3844417 0.7728813 -0.5047761 -0.3844417 0.4713889 -0.739372 -0.4806665 0.4713889 -0.739372 -0.4806665 0.4713889 -0.739372 -0.480697 0.4713889 -0.739372 -0.4806665 -0.8979766 -0.3451033 -0.2728965 -0.8979766 -0.3451033 -0.2728965 -0.8979766 -0.3451033 -0.2728965 -0.8979766 -0.3451033 -0.2728965 -0.3307596 0.9269082 -0.177221 -0.3307596 0.9269082 -0.177221 -0.3307596 0.9269082 -0.177221 -0.3307596 0.9269082 -0.177221 0.3796808 0.9225745 0.06814783 0.3796808 0.9225745 0.06814783 0.3796808 0.9225745 0.06814783 0.3796808 0.9225745 0.06814783 0.1298257 -0.9736931 0.1870784 0.1298257 -0.9736931 0.1870784 0.1298257 -0.9736931 0.1870784 0.1298257 -0.9736931 0.1870784 0.9013031 -0.01406902 -0.4329355 0.9013031 -0.01406902 -0.4329355 0.9013031 -0.01406902 -0.4329355 0.9013031 -0.01406902 -0.4329355 0.618244 -0.5346233 -0.5760979 0.618244 -0.5346233 -0.5760979 0.618244 -0.5346233 -0.5760979 0.618244 -0.5346233 -0.5760979 -0.6231269 -0.6536149 -0.429487 -0.6231269 -0.6536149 -0.429487 -0.6231269 -0.6536149 -0.429487 -0.6231269 -0.6536149 -0.429487 0.04483169 0.9904782 -0.1299173 0.04483169 0.9904782 -0.1299173 0.04483169 0.9904782 -0.1299173 0.04483169 0.9904782 -0.1299173 -0.9011811 0.4004029 -0.1658681 -0.9011811 0.4004029 -0.1658681 -0.9011811 0.4004029 -0.1658681 -0.9011811 0.4004029 -0.1658681 -0.1690725 0.9540391 -0.247322 -0.1690725 0.9540391 -0.247322 -0.1690725 0.9540391 -0.247322 -0.1690725 0.9540391 -0.247322 0.6854763 0.4051942 -0.6048769 0.6854763 0.4051942 -0.6048769 0.6854763 0.4051942 -0.6048769 0.6854763 0.4051942 -0.6048769 -0.2511673 -0.9230018 0.2914212 -0.2511673 -0.9230018 0.2914212 -0.2511673 -0.9230018 0.2914212 -0.2511673 -0.9230018 0.2914212 -0.9156774 0.320719 -0.2421643 -0.9156774 0.320719 -0.2421643 -0.9156774 0.320719 -0.2421643 -0.9156774 0.320719 -0.2421643 -0.1988891 -0.979461 -0.03244113 -0.1988891 -0.979461 -0.03244113 -0.1988891 -0.979461 -0.03244113 -0.1988891 -0.979461 -0.03244113 0.6504715 0.6951811 0.3058565 0.6504715 0.6951811 0.3058565 0.6504715 0.6951811 0.3058565 0.6504715 0.6951811 0.3058565 0.5060274 -0.5776239 -0.640492 0.5060274 -0.5776239 -0.640492 0.5060579 -0.5776239 -0.640492 0.5060274 -0.5776239 -0.640492 -0.3482772 0.8838161 -0.3122654 -0.3482772 0.8838161 -0.3122654 -0.3482772 0.8838161 -0.3122654 -0.3482772 0.8838161 -0.3122654 -0.5856807 -0.6789148 -0.4427015 -0.5856807 -0.6789148 -0.4427015 -0.5856807 -0.6789148 -0.4427015 -0.5856807 -0.6789148 -0.4427015 -0.8171026 -0.5258949 -0.2360301 -0.8171026 -0.5258949 -0.2360301 -0.8171026 -0.5258949 -0.2360301 -0.8171026 -0.5258949 -0.2360301 -0.8168889 -0.5524461 -0.165746 -0.8168889 -0.5524461 -0.165746 -0.8168889 -0.5524461 -0.165746 -0.8168889 -0.5524461 -0.165746 -0.1413312 -0.9898984 0.01083403 -0.1413312 -0.9898984 0.01083403 -0.1413312 -0.9898984 0.01083403 -0.1413312 -0.9898984 0.01083403 0.7977538 -0.23838 -0.5538194 0.7977538 -0.23838 -0.5538194 0.7977538 -0.23838 -0.5538194 0.7977538 -0.23838 -0.5538194 0.5098422 0.7091891 -0.4868923 0.5098422 0.7091891 -0.4868923 0.5098422 0.7091891 -0.4868923 0.5098422 0.7091891 -0.4868923 0.5763726 -0.7826167 -0.2350841 0.5763726 -0.7826167 -0.2350535 0.5763726 -0.7826167 -0.2350535 0.5763726 -0.7826167 -0.2350841 -0.2116153 -0.9250161 -0.3155003 -0.2116153 -0.9250161 -0.3155003 -0.2116153 -0.9250161 -0.3155003 -0.2116153 -0.9250161 -0.3155003 0.07318335 -0.9769585 -0.2003845 0.07318335 -0.9769585 -0.2003845 0.07318335 -0.9769585 -0.2003845 0.07318335 -0.9769585 -0.2003845 -0.04644912 0.8323008 -0.5523545 -0.04644912 0.8323008 -0.5523545 -0.0464186 0.8322703 -0.5523545 -0.04644912 0.8323008 -0.5523545 -0.1209753 0.8864712 0.4466384 -0.1209753 0.8864712 0.4466384 -0.1209753 0.8864712 0.4466384 -0.1209753 0.8864712 0.4466384 -0.2863857 -0.3874019 -0.876278 -0.2863857 -0.3874019 -0.876278 -0.2863857 -0.3874019 -0.876278 -0.2863857 -0.3874019 -0.876278 -0.3049715 0.9055758 -0.2947478 -0.3049715 0.9055758 -0.2947478 -0.3049715 0.9055758 -0.2947478 -0.3049715 0.9055758 -0.2947478 -0.5277871 -0.8445997 -0.089877 -0.5277871 -0.8445997 -0.089877 -0.5277871 -0.8445997 -0.089877 -0.5277871 -0.8445997 -0.089877 -0.9420453 0.3027436 -0.1444746 -0.9420453 0.3027436 -0.1444746 -0.9420453 0.3027436 -0.1444746 -0.9420453 0.3027436 -0.1444746 -0.9036836 -0.1992248 0.3790094 -0.9036836 -0.1992248 0.3790094 -0.9036836 -0.1992248 0.3789789 -0.9036836 -0.1992248 0.3790094 0.5019685 -0.7974486 -0.334727 0.5019685 -0.7974486 -0.334727 0.5019685 -0.7974486 -0.334727 0.5019685 -0.7974486 -0.334727 -0.8509171 -0.478164 0.2173833 -0.8509171 -0.478164 0.2173833 -0.8509171 -0.478164 0.2173833 -0.8509171 -0.478164 0.2173833 0.4746239 -0.8801538 0.001770019 0.4746239 -0.8801538 0.001770019 0.4746239 -0.8801538 0.001770019 0.4746239 -0.8801538 0.001770019 0.3495285 0.7388531 0.5760979 0.3495285 0.7388531 0.5760674 0.3495285 0.7388531 0.5760674 0.3495285 0.7388531 0.5760979 0.3325602 0.7667776 -0.5489975 0.3325602 0.7667776 -0.5489975 0.3325602 0.7667776 -0.5489975 0.3325602 0.7667776 -0.5489975 -0.5796686 -0.06329536 -0.8123417 -0.5796686 -0.06329536 -0.8123417 -0.5796686 -0.06329536 -0.8123417 -0.5796686 -0.06329536 -0.8123417 -0.6432691 -0.6920072 -0.3274941 -0.6432691 -0.6920072 -0.3274941 -0.6432691 -0.6920072 -0.3274941 -0.6432691 -0.6920072 -0.3274941 0.4331797 0.5247658 -0.7327494 0.4331797 0.5247658 -0.7327494 0.4331797 0.5247658 -0.7327494 0.4331797 0.5247658 -0.7327494 -0.9226966 0.2798547 -0.2650532 -0.9226966 0.2798547 -0.2650532 -0.9226966 0.2798547 -0.2650532 -0.9226966 0.2798547 -0.2650532 0.9636219 -0.2653585 -0.03176975 0.9636219 -0.2653585 -0.03176975 0.9636219 -0.2653585 -0.03176975 0.9636219 -0.2653585 -0.03176975 0.9033784 -0.4257027 0.05117952 0.9033784 -0.4257027 0.05117952 0.9033784 -0.4257027 0.05117952 0.9033784 -0.4257027 0.05117952 -0.01168859 -0.9809259 -0.1939146 -0.01168859 -0.9809259 -0.1939146 -0.01168859 -0.9809259 -0.1939146 -0.01168859 -0.9809259 -0.1939146 0.1154515 0.9705802 0.2112186 0.1154515 0.9705802 0.2112186 0.1154515 0.9705802 0.2112186 0.1154515 0.9705802 0.2112186 -0.9854427 -0.01995909 0.1686453 -0.9854427 -0.01995909 0.1686453 -0.9854427 -0.01995909 0.1686453 -0.9854427 -0.01995909 0.1686453 -0.815302 0.5786004 0.02175968 -0.815302 0.5786004 0.02175968 -0.815302 0.5786004 0.02175968 -0.815302 0.5786004 0.02175968 -0.8294016 -0.3425397 -0.4412366 -0.8294016 -0.3425397 -0.4412366 -0.8294016 -0.3425397 -0.4412366 -0.8294016 -0.3425397 -0.4412366 0.8756371 0.252205 -0.4118778 0.8756371 0.252205 -0.4118778 0.8756371 0.252205 -0.4118778 0.8756371 0.252205 -0.4118778 -0.9190344 -0.3730888 0.1269875 -0.9190344 -0.3730888 0.1269875 -0.9190344 -0.3730888 0.1269875 -0.9190344 -0.3730888 0.1269875 -0.7434309 -0.3617359 -0.5625172 -0.7434309 -0.3617359 -0.5625172 -0.7434309 -0.3617359 -0.5625172 -0.7434309 -0.3617359 -0.5625172 -0.5833919 -0.7881405 0.1960509 -0.5833919 -0.7881405 0.1960509 -0.5833919 -0.7881405 0.1960509 -0.5833919 -0.7881405 0.1960509 -0.4988555 0.714652 0.4902799 -0.4988555 0.714652 0.4902799 -0.4988555 0.714652 0.4902799 -0.4988555 0.714652 0.4902799 0.5531175 -0.7875301 -0.2716453 0.5531175 -0.7875301 -0.2716453 0.5531175 -0.7875301 -0.2716453 0.5531175 -0.7875301 -0.2716453 -0.9271523 -0.05163729 -0.3710135 -0.9271523 -0.05163729 -0.3710135 -0.9271523 -0.05163729 -0.3710135 -0.9271523 -0.05163729 -0.3710135 -0.9530015 0.2299264 -0.1972411 -0.9530015 0.2299264 -0.1972411 -0.9530015 0.2299264 -0.1972411 -0.9530015 0.2299264 -0.1972411 -0.7430036 -0.05691701 0.6668599 -0.7430036 -0.05691701 0.6668294 -0.7430036 -0.05691701 0.6668294 -0.7429731 -0.05691701 0.6668599 0.7062594 0.7038179 0.07605212 0.7037263 0.6891385 0.1726737 0.02847373 0.987579 0.1543626 0.02099668 0.9941405 0.1059603 -0.6805627 0.7169103 0.1510666 -0.670919 0.7380291 0.0716269 -0.9885556 0.05447548 0.1405987 -0.9964904 0.05850398 0.0595721 -0.7365032 -0.6540422 0.1724906 -0.7572863 -0.6441237 0.1076998 0.05215609 -0.9817805 0.1826838 0.05453658 -0.9962157 0.0675069 0.7205115 -0.6722617 0.169988 0.75338 -0.6514176 0.08957183 0.9822688 -0.02984708 0.1850337 0.9913938 -0.01138335 0.1302224 0.7077547 0.7061678 0.01818901 0.03106784 0.9993897 0.0152592 -0.6886197 0.7250587 0.007873773 -0.9981994 0.05954158 -2.74667e-4 -0.7548448 -0.6558428 -0.003692686 0.0597552 -0.9981994 -3.66222e-4 0.7325053 -0.6806849 0.006622493 0.9994202 -0.03027433 0.01431316 0.7053133 0.7086093 0.01907402 0.02792441 0.9992066 0.028077 -0.6893826 0.7236549 0.03201389 -0.9978027 0.06042665 0.02667313 -0.7571642 -0.6529435 0.01831108 0.05594038 -0.9983825 0.007019221 0.731956 -0.6812952 0.002502501 0.9995422 -0.02838218 0.008056879 0.02426218 -0.0150761 0.9995728</float_array>
          <technique_common>
            <accessor source="#thujahigh80-mesh-normals-array" count="421" stride="3">
              <param name="X" type="float"/>
              <param name="Y" type="float"/>
              <param name="Z" type="float"/>
            </accessor>
          </technique_common>
        </source>
        <source id="thujahigh80-mesh-map-0">
          <float_array id="thujahigh80-mesh-map-0-array" count="1500">0 0 1 -1 1 0 0 0 0 -1 1 -1 0 0 1 -1 1 0 0 0 0 -1 1 -1 0 0 1 -1 1 0 0 0 0 -1 1 -1 0 0 1 -1 1 0 0 0 0 -1 1 -1 0 0 1 -1 1 0 0 0 0 -1 1 -1 0 0 1 -1 1 0 0 0 0 -1 1 -1 0 0 1 -1 1 0 0 0 0 -1 1 -1 0 0 1 -1 1 0 0 0 0 -1 1 -1 0 0 1 -1 1 0 0 0 0 -1 1 -1 0 0 1 -1 1 0 0 0 0 -1 1 -1 0 0 1 -1 1 0 0 0 0 -1 1 -1 0 0 1 -1 1 0 0 0 0 -1 1 -1 0 0 1 -1 1 0 0 0 0 -1 1 -1 0 0 1 -1 1 0 0 0 0 -1 1 -1 0 0 1 -1 1 0 0 0 0 -1 1 -1 0 0 1 -1 1 0 0 0 0 -1 1 -1 0 0 1 -1 1 0 0 0 0 -1 1 -1 0 0 1 -1 1 0 0 0 0 -1 1 -1 0 0 1 -1 1 0 0 0 0 -1 1 -1 0 0 1 -1 1 0 0 0 0 -1 1 -1 0 0 1 -1 1 0 0 0 0 -1 1 -1 0 0 1 -1 1 0 0 0 0 -1 1 -1 0 0 1 -1 1 0 0 0 0 -1 1 -1 0 0 1 -1 1 0 0 0 0 -1 1 -1 0 0 1 -1 1 0 0 0 0 -1 1 -1 0 0 1 -1 1 0 0 0 0 -1 1 -1 0 0 1 -1 1 0 0 0 0 -1 1 -1 0 0 1 -1 1 0 0 0 0 -1 1 -1 0 0 1 -1 1 0 0 0 0 -1 1 -1 0 0 1 -1 1 0 0 0 0 -1 1 -1 0 0 1 -1 1 0 0 0 0 -1 1 -1 0 0 1 -1 1 0 0 0 0 -1 1 -1 0 0 1 -1 1 0 0 0 0 -1 1 -1 0 0 1 -1 1 0 0 0 0 -1 1 -1 0 0 1 -1 1 0 0 0 0 -1 1 -1 0 0 1 -1 1 0 0 0 0 -1 1 -1 0 0 1 -1 1 0 0 0 0 -1 1 -1 0 0 1 -1 1 0 0 0 0 -1 1 -1 0 0 1 -1 1 0 0 0 0 -1 1 -1 0 0 1 -1 1 0 0 0 0 -1 1 -1 0 0 1 -1 1 0 0 0 0 -1 1 -1 0 0 1 -1 1 0 0 0 0 -1 1 -1 0 0 1 -1 1 0 0 0 0 -1 1 -1 0 0 1 -1 1 0 0 0 0 -1 1 -1 0 0 1 -1 1 0 0 0 0 -1 1 -1 0 0 1 -1 1 0 0 0 0 -1 1 -1 0 0 1 -1 1 0 0 0 0 -1 1 -1 0 0 1 -1 1 0 0 0 0 -1 1 -1 0 0 1 -1 1 0 0 0 0 -1 1 -1 0 0 1 -1 1 0 0 0 0 -1 1 -1 0 0 1 -1 1 0 0 0 0 -1 1 -1 0 0 1 -1 1 0 0 0 0 -1 1 -1 0 0 1 -1 1 0 0 0 0 -1 1 -1 0 0 1 -1 1 0 0 0 0 -1 1 -1 0 0 1 -1 1 0 0 0 0 -1 1 -1 0 0 1 -1 1 0 0 0 0 -1 1 -1 0 0 1 -1 1 0 0 0 0 -1 1 -1 0 0 1 -1 1 0 0 0 0 -1 1 -1 0 0 1 -1 1 0 0 0 0 -1 1 -1 0 0 1 -1 1 0 0 0 0 -1 1 -1 0 0 1 -1 1 0 0 0 0 -1 1 -1 0 0 1 -1 1 0 0 0 0 -1 1 -1 0 0 1 -1 1 0 0 0 0 -1 1 -1 0 0 1 -1 1 0 0 0 0 -1 1 -1 0 0 1 -1 1 0 0 0 0 -1 1 -1 0 0 1 -1 1 0 0 0 0 -1 1 -1 0 0 1 -1 1 0 0 0 0 -1 1 -1 0 0 1 -1 1 0 0 0 0 -1 1 -1 0 0 1 -1 1 0 0 0 0 -1 1 -1 0 0 1 -1 1 0 0 0 0 -1 1 -1 0 0 1 -1 1 0 0 0 0 -1 1 -1 0 0 1 -1 1 0 0 0 0 -1 1 -1 0 0 1 -1 1 0 0 0 0 -1 1 -1 0 0 1 -1 1 0 0 0 0 -1 1 -1 0 0 1 -1 1 0 0 0 0 -1 1 -1 0 0 1 -1 1 0 0 0 0 -1 1 -1 0 0 1 -1 1 0 0 0 0 -1 1 -1 0 0 1 -1 1 0 0 0 0 -1 1 -1 0 0 1 -1 1 0 0 0 0 -1 1 -1 0 0 1 -1 1 0 0 0 0 -1 1 -1 0 0 1 -1 1 0 0 0 0 -1 1 -1 0 0 1 -1 1 0 0 0 0 -1 1 -1 0 0 1 -1 1 0 0 0 0 -1 1 -1 0 0 1 -1 1 0 0 0 0 -1 1 -1 0 0 1 -1 1 0 0 0 0 -1 1 -1 0 0 1 -1 1 0 0 0 0 -1 1 -1 0 0 1 -1 1 0 0 0 0 -1 1 -1 0 0 1 -1 1 0 0 0 0 -1 1 -1 0 0 1 -1 1 0 0 0 0 -1 1 -1 0 0 1 -1 1 0 0 0 0 -1 1 -1 0 0 1 -1 1 0 0 0 0 -1 1 -1 0 0 1 -1 1 0 0 0 0 -1 1 -1 0 0 1 -1 1 0 0 0 0 -1 1 -1 0 0 1 -1 1 0 0 0 0 -1 1 -1 0 0 1 -1 1 0 0 0 0 -1 1 -1 0 0 1 -1 1 0 0 0 0 -1 1 -1 0 0 1 -1 1 0 0 0 0 -1 1 -1 0.8861668 1.254942 1.082888 0 0.8808845 0 0.8808845 0 0.7559462 1.254942 0.8861668 1.254942 0.6788816 0 0.7559462 1.254942 0.8808845 0 0.6788816 0 0.6257256 1.254942 0.7559462 1.254942 0.4768785 0 0.6257256 1.254942 0.6788816 0 0.4768785 0 0.4955049 1.254942 0.6257256 1.254942 0.2748754 0 0.4955049 1.254942 0.4768785 0 0.2748754 0 0.3652843 1.254942 0.4955049 1.254942 0.07287222 0 0.3652843 1.254942 0.2748754 0 0.07287222 0 0.2350636 1.254942 0.3652843 1.254942 -0.1291308 0 0.2350636 1.254942 0.07287222 0 -0.1291308 0 0.104843 1.254942 0.2350636 1.254942 -0.3311339 0 0.104843 1.254942 -0.1291308 0 -0.3311339 0 -0.02537763 1.254942 0.104843 1.254942 0.7559462 1.254942 0.8861668 3.254942 0.8861668 1.254942 0.7559462 1.254942 0.7559462 3.254942 0.8861668 3.254942 0.6257256 1.254942 0.7559462 3.254942 0.7559462 1.254942 0.6257256 1.254942 0.6257256 3.254942 0.7559462 3.254942 0.4955049 1.254942 0.6257256 3.254942 0.6257256 1.254942 0.4955049 1.254942 0.4955049 3.254942 0.6257256 3.254942 0.3652843 1.254942 0.4955049 3.254942 0.4955049 1.254942 0.3652843 1.254942 0.3652843 3.254942 0.4955049 3.254942 0.2350636 1.254942 0.3652843 3.254942 0.3652843 1.254942 0.2350636 1.254942 0.2350636 3.254942 0.3652843 3.254942 0.104843 1.254942 0.2350636 3.254942 0.2350636 1.254942 0.104843 1.254942 0.104843 3.254942 0.2350636 3.254942 -0.02537763 1.254942 0.104843 3.254942 0.104843 1.254942 -0.02537763 1.254942 -0.02537763 3.254942 0.104843 3.254942 0.7559462 3.254942 0.8861668 5.254942 0.8861668 3.254942 0.7559462 3.254942 0.7559462 5.254942 0.8861668 5.254942 0.6257256 3.254942 0.7559462 5.254942 0.7559462 3.254942 0.6257256 3.254942 0.6257256 5.254942 0.7559462 5.254942 0.4955049 3.254942 0.6257256 5.254942 0.6257256 3.254942 0.4955049 3.254942 0.4955049 5.254942 0.6257256 5.254942 0.3652843 3.254942 0.4955049 5.254942 0.4955049 3.254942 0.3652843 3.254942 0.3652843 5.254942 0.4955049 5.254942 0.2350636 3.254942 0.3652843 5.254942 0.3652843 3.254942 0.2350636 3.254942 0.2350636 5.254942 0.3652843 5.254942 0.104843 3.254942 0.2350636 5.254942 0.2350636 3.254942 0.104843 3.254942 0.104843 5.254942 0.2350636 5.254942 -0.02537763 3.254942 0.104843 5.254942 0.104843 3.254942 -0.02537763 3.254942 -0.02537763 5.254942 0.104843 5.254942 1.082888 0 1.016387 1.254942 1.284891 0 1.082888 0 0.8861668 1.254942 1.016387 1.254942 0.8861668 1.254942 1.016387 3.254942 1.016387 1.254942 0.8861668 1.254942 0.8861668 3.254942 1.016387 3.254942 0.8861668 3.254942 1.016387 5.254942 1.016387 3.254942 0.8861668 3.254942 0.8861668 5.254942 1.016387 5.254942 0.8861668 5.254942 1.016387 7.254942 1.016387 5.254942 0.7559462 5.254942 0.8861668 7.254942 0.8861668 5.254942 0.6257256 5.254942 0.7559462 7.254942 0.7559462 5.254942 0.4955049 5.254942 0.6257256 7.254942 0.6257256 5.254942 0.3652843 5.254942 0.4955049 7.254942 0.4955049 5.254942 0.2350636 5.254942 0.3652843 7.254942 0.3652843 5.254942 0.104843 5.254942 0.2350636 7.254942 0.2350636 5.254942 -0.02537763 5.254942 0.104843 7.254942 0.104843 5.254942</float_array>
          <technique_common>
            <accessor source="#thujahigh80-mesh-map-0-array" count="750" stride="2">
              <param name="S" type="float"/>
              <param name="T" type="float"/>
            </accessor>
          </technique_common>
        </source>
        <source id="thujahigh80-mesh-colors">
          <float_array id="thujahigh80-mesh-colors-array" count="2250">1 1 1 1 0.145098 1 1 0.5607843 1 1 0.01568627 1 1 1 1 1 0.145098 1 1 0.7647059 1 1 0.8352941 1 1 0.4431372 1 1 0.7647059 1 1 1 1 1 1 1 1 0.2941176 1 1 0.2509804 1 1 0.4549019 1 1 0.2941176 1 1 1 1 1 0.003921568 1 1 1 1 1 1 1 1 0.6039216 1 1 1 1 1 0.7529412 1 1 0.4980392 1 1 0 1 0 1 1 1 0.1568627 1 1 0.6156863 1 0 0.7137255 1 0 1 1 1 0.9450981 1 1 1 1 1 1 1 1 0.9450981 1 1 0.8666667 1 1 1 1 1 0.4862745 1 1 0.6313726 1 1 1 1 1 0.4862745 1 1 0.3333333 1 1 0.3254902 1 1 0.1411765 1 1 1 1 1 0.7803922 1 1 0.1411765 1 1 1 1 1 1 1 1 1 1 1 0.4392157 1 1 0.427451 1 1 1 1 1 0.7686275 1 1 0.04705882 1 1 0.6039216 1 0 0.172549 1 1 1 1 1 0.6039216 1 0.2509804 0.7607843 1 0 0.7450981 1 1 0.1294118 1 1 1 1 1 0.6784314 1 1 0.04313725 1 1 1 1 1 1 1 1 1 1 1 0.9647059 1 1 1 1 1 0.03137254 1 1 0.4980392 1 1 0.3803921 1 1 0.5450981 1 1 0.6431373 1 1 0.3215686 1 1 0.5450981 1 1 0.0862745 1 0.8862745 0.6431373 1 1 1 1 0 0.1333333 1 1 0.7372549 1 1 0.3333333 1 0 1 1 0 0.1529412 1 1 1 1 1 1 1 1 0.1333333 1 1 0.06274509 1 1 1 1 1 0.5254902 1 1 0.2431373 1 1 1 1 1 0.4862745 1 1 0.2431373 1 1 1 1 1 0.8431373 1 1 1 1 0 1 1 1 0.4549019 1 1 1 1 0 0.172549 1 0 1 1 1 0.5882353 1 0 0.8784314 1 1 0.6862745 1 1 0.3843137 1 0 0.4235294 1 0 1 1 1 0.9843137 1 1 0.3019608 1 1 0.6117647 1 1 0.7960785 1 1 1 1 1 0.3019608 1 1 1 1 1 0.772549 1 1 1 1 1 0.6705883 1 1 1 1 1 0.6862745 1 1 0.4392157 1 1 1 1 1 1 1 1 0.4392157 1 0 1 1 1 1 1 1 0.3529412 1 1 0.8156863 1 1 1 1 1 0.3529412 1 1 0.6352941 1 1 0 1 1 0.2156863 1 0 0.6901961 1 1 1 1 1 0.2156863 1 0 1 1 0 1 1 1 0.427451 1 1 1 1 1 0.4431372 1 1 0.427451 1 1 0.1607843 1 1 1 1 1 1 1 1 1 1 1 1 1 1 0.4588235 1 1 1 1 1 1 1 1 0.627451 1 1 1 1 1 1 1 1 0.6117647 1 1 0.4431372 1 1 0.8235294 1 1 0.3333333 1 1 0.8941177 1 1 0.8470588 1 1 0.3333333 1 1 1 1 1 0.6 1 1 1 1 0 0.8235294 1 1 0.5490196 1 1 1 1 0 0.9450981 1 0 0.8235294 1 1 0.1490196 1 1 0.06666666 1 1 0.2980392 1 1 0.1490196 1 1 1 1 1 0.02745097 1 1 0.9333333 1 1 1 1 1 0.03921568 1 1 0.2313725 1 1 1 1 1 0.8196079 1 1 0.9568628 1 1 0.3568627 1 1 0.627451 1 1 0.8901961 1 1 1 1 1 0.3568627 1 1 0.2588235 1 0 1 1 1 0.1529412 1 1 0.682353 1 0 1 1 0 1 1 1 0.9137255 1 1 1 1 1 0.2196078 1 1 0.007843136 1 1 0.9529412 1 1 1 1 1 1 1 1 1 1 1 0.4156863 1 1 1 1 1 1 1 1 1 1 1 0.6313726 1 1 0.8156863 1 1 0.5254902 1 1 0.6117647 1 1 0.882353 1 1 0.7411765 1 1 0.8431373 1 1 1 1 1 1 1 1 0.8431373 1 1 0.4 1 1 1 1 1 0.5254902 1 0 0.8745098 1 1 0.3137255 1 1 0.509804 1 0 1 1 0 0.9019608 1 1 0.4078431 1 0 0.1215686 1 1 1 1 1 0.03137254 1 0 0.8862745 1 0 0.1058824 1 1 0.4627451 1 0 1 1 1 0.6588236 1 1 0.2627451 1 0 1 1 0 0.003921568 1 1 0.6941177 1 0.3137255 0.1019608 1 1 0.06274509 1 1 0.6941177 1 0 0.2784314 1 0.3137255 0.6039216 1 1 0.6901961 1 1 0.3921568 1 1 1 1 1 0.6901961 1 1 0.8392157 1 1 0.3921568 1 1 0.02745097 1 1 1 1 1 0.2392157 1 1 0.0117647 1 1 1 1 0.2862745 0.4941176 1 1 0.4823529 1 0.2509804 1 1 1 0.5176471 1 1 0.4823529 1 0 0.7490196 1 0.2392157 1 1 1 0.3294118 1 1 1 1 1 0.9803922 1 1 0.01568627 1 1 0.3215686 1 1 0.003921568 1 1 0.8352941 1 1 0.5372549 1 1 0.1137255 1 1 0.5607843 1 1 0.8980392 1 1 0.7607843 1 1 0.1764706 1 1 1 1 1 0.5803922 1 1 0.1921569 1 1 1 1 1 1 1 1 0.5294118 1 1 0.4823529 1 1 0.03921568 1 1 0.8901961 1 1 0.2666667 1 1 0.4784314 1 1 1 1 1 1 1 1 0.227451 1 1 1 1 1 1 1 1 1 1 1 0.4313725 1 0 0.8313726 1 1 0.4509804 1 1 0 1 0 1 1 0 0.8313726 1 1 0.7607843 1 1 1 1 1 0.6588236 1 1 0.4352941 1 1 0.8078432 1 1 0.9450981 1 1 0.7176471 1 1 1 1 1 1 1 1 0.7176471 1 1 0.2666667 1 1 0.8431373 1 1 0.5647059 1 0 1 1 1 0.2980392 1 1 0.4823529 1 0 0.9215686 1 0 1 1 1 0.5686275 1 0 0.6039216 1 1 1 1 1 0.5882353 1 0 0.5647059 1 0 0.8392157 1 1 1 1 0 0.2039216 1 1 1 1 1 0.8745098 1 0 0.2901961 1 0 0.8431373 1 1 0.8862745 1 1 1 1 1 0.4313725 1 1 0.2705882 1 1 1 1 1 1 1 1 1 1 1 0.4352941 1 1 0.3372549 1 1 0.08235293 1 1 0.509804 1 1 0.5215687 1 1 0.5254902 1 1 1 1 1 1 1 1 0.5294118 1 1 0.3058823 1 1 0.4666666 1 1 0.2313725 1 0 0.5764706 1 1 0.1764706 1 1 0.2313725 1 0 0.9490196 1 0 0.9215686 1 1 0.882353 1 1 0.8235294 1 1 0.6666667 1 1 0.882353 1 0 1 1 1 0.8117647 1 1 0 1 1 1 1 1 0.3647059 1 1 0 1 0.2313725 0.1372549 1 1 0.07843136 1 1 1 1 1 1 1 1 0.1176471 1 1 0.4117647 1 1 0.4392157 1 1 1 1 1 0.4862745 1 1 1 1 1 1 1 1 0.4862745 1 1 1 1 0 1 1 1 0.4666666 1 1 1 1 1 0.1333333 1 1 0.8039216 1 1 0.8941177 1 1 1 1 1 0.07450979 1 1 1 1 1 0.372549 1 1 0.07450979 1 1 0.7411765 1 1 1 1 1 1 1 1 0.7058824 1 1 1 1 1 1 1 1 0.1176471 1 1 0.7215687 1 1 0.8196079 1 1 0.5058824 1 1 0.6431373 1 1 0.8196079 1 1 0.9607843 1 1 0.5411765 1 1 1 1 1 0.5843138 1 1 1 1 1 1 1 1 1 1 1 0.5843138 1 1 1 1 1 1 1 1 0.254902 1 1 1 1 1 0.8235294 1 1 1 1 1 0.9921569 1 0.4039216 0.7568628 1 1 0.1607843 1 1 0.9921569 1 0 1 1 0.4392157 0.7568628 1 1 0.7333334 1 0 1 1 1 1 1 1 0.6627451 1 0 1 1 0 1 1 1 1 1 1 0.4666666 1 1 1 1 1 0.9529412 1 1 1 1 1 0.4745098 1 1 1 1 1 0.4705882 1 1 0.7058824 1 1 0.4392157 1 1 0.3843137 1 1 0.09019607 1 1 0.3254902 1 1 0.2784314 1 1 0.09019607 1 1 0.3254902 1 1 1 1 1 0.8352941 1 1 1 1 1 1 1 1 0.1137255 1 1 1 1 1 1 1 1 1 1 1 0.02352941 1 1 0.9764706 1 1 0.03921568 1 1 0.02352941 1 1 0.1254902 1 1 0 1 1 0.4901961 1 1 1 1 1 0.2980392 1 1 0.4901961 1 1 1 1 1 1 1 1 1 1 1 0.9098039 1 1 1 1 1 0.0980392 1 1 1 1 1 0.1568627 1 1 1 1 1 1 1 1 0.3490196 1 1 1 1 1 0.8117647 1 1 0.9411765 1 1 0.2901961 1 1 1 1 1 1 1 1 0.2901961 1 0 1 1 1 1 1 1 1 1 1 0.8980392 1 1 1 1 1 0.07058823 1 1 1 1 1 0.827451 1 1 1 1 1 0.9372549 1 1 0.5568628 1 1 1 1 1 0.7568628 1 1 0.3098039 1 1 0.3686274 1 1 1 1 1 1 1 1 0 1 1 0.06666666 1 1 0.0117647 1 1 1 1 1 1 1 1 1 1 1 1 1 1 0.3960784 1 1 0.9686275 1 1 1 1 1 1 1 1 1 1 1 1 1 1 0.2352941 1 1 0.9568628 1 1 0.6196079 1 1 0.6901961 1 1 0.3098039 1 1 0.05098038 1 1 1 1 1 0.5215687 1 1 0.4745098 1 1 1 1 1 0.827451 1 1 1 1 0 1 1 0 1 1 1 0.854902 1 1 0.6941177 1 1 1 1 1 0.854902 1 1 1 1 1 0.9686275 1 1 0.07450979 1 1 1 1 1 0.7843137 1 1 0.2039216 1 1 1 1 1 1 1 1 0.06274509 1 1 1 1 1 0.8666667 1 1 0.06274509 1 1 0.4705882 1 1 1 1 1 0.5960785 1 1 1 1 1 0.3098039 1 1 0 1 1 0 1 0.05490195 0.003921568 1 1 0.3882353 1 1 0.7647059 1 1 1 1 1 0.3882353 1 1 1 1 1 0.6 1 1 0.6509804 1 0.3411765 1 1 1 0.6078432 1 1 0.007843136 1 0 1 1 1 1 1 1 0.5725491 1 0.2941176 1 1 1 0.5333334 1 1 0.5921569 1 0 0 1 1 0.9058824 1 1 0.345098 1 1 1 1 1 0.5843138 1 1 0.0980392 1 1 1 1 1 0.3137255 1 1 1 1 1 1 1 1 0.2745098 1 1 1 1 1 1 1 1 1 1 1 1 1 0 0.6117647 1 1 1 1 1 1 1 0 1 1 0 0.6117647 1 1 1 1 1 1 1 1 0.5254902 1 1 1 1 1 1 1 1 0.3411765 1 0 0 0 0 0 0 0 0 0 0 0 0 0 0 0 0 0 0 0 0 0 0 0 0 0 0 0 0 0 0 0 0 0 0 0 0 0 0 0 0 0 0 0 0 0 0 0 0 0 0 0 0 0 0 0 0 0 0 0 0 0 0 0 0 0 0 0 0 0 0 0 0 0 0 0 0 0 0 0 0 0 0 0 0 0 0 0 0 0 0 0 0 0 0 0 0 0 0 0 0 0 0 0 0 0 0 0 0 0 0 0 0 0 0 0 0 0 0 0 0 0 0 0 0 0 0 0 0 0 0 0 0 0 0 0 0 0 0 0 0 0 0 0 0 0 0 0 0 0 0 0 0 0 0 0 0 0 0 0 0 0 0 0 0 0 0 0 0 0 0 0 0 0 0 0 0 0 0 0 0 0 0 0 0 0 0 0 0 0 0 0 0 0 0 0 0 0 0 0 0 0 0 0 0 0 0 0 0 0 0 0 0 0 0 0 0 0 0 0 0 0 0 0 0 0 0 0 0 0 0 0 0 0 0 0 0 0 0 0 0 0 0 0 0 0 0 0 0 0 0 0 0 0 0 0 0 0 0 0 0 0 0 0 0 0 0 0 0 0 0 0 0 0 0 0 0 0 0 0 0 0 0 0 0 0 0 0 0 0 0 0 0 0 0 0 0 0 0 0 0 0 0 0 0 0 0 0 0 0 0 0 0 0 0 0 0 0 0 0 0 0 0 0 0 0 0 0 0 0 0 0 0 0 0 0 0 0 0 0 0 0 0 0 0 0 0 0 0 0 0 0 0 0 0 0 0 0 0 0 0 0 0 0 0 0 0 0 0 0 0 0 0 0 0 0 0 0 0 0 0 0 0 0 0 0 0 0 0 0 0 0 0 0 0 0 0 0 0 0 0 0 0 0 0 0 0 0 0 0 0 0 0 0 0 0 0 0 0 0 0 0 0 0 0 0 0 0 0 0 0 0 0 0 0 0 0 0 0 0 0 0 0 0 0 0 0 0 0 0 0 0 0 0 0 0 0 0 0 0 0 0 0 0 0 0 0 0 0 0 0 0 0 0 0 0 0 0 0 0 0 0 0 0 0 0 0 0 0 0 0 0 0 0 0 0 0 0 0 0 0 0 0 0 0</float_array>
          <technique_common>
            <accessor source="#thujahigh80-mesh-colors-array" count="750" stride="3">
              <param name="R" type="float"/>
              <param name="G" type="float"/>
              <param name="B" type="float"/>
            </accessor>
          </technique_common>
        </source>
        <vertices id="thujahigh80-mesh-vertices">
          <input semantic="POSITION" source="#thujahigh80-mesh-positions"/>
        </vertices>
        <polylist material="thuja_bark_01-material" count="56">
          <input semantic="VERTEX" source="#thujahigh80-mesh-vertices" offset="0"/>
          <input semantic="NORMAL" source="#thujahigh80-mesh-normals" offset="1"/>
          <input semantic="TEXCOORD" source="#thujahigh80-mesh-map-0" offset="2" set="0"/>
          <input semantic="COLOR" source="#thujahigh80-mesh-colors" offset="3"/>
          <vcount>3 3 3 3 3 3 3 3 3 3 3 3 3 3 3 3 3 3 3 3 3 3 3 3 3 3 3 3 3 3 3 3 3 3 3 3 3 3 3 3 3 3 3 3 3 3 3 3 3 3 3 3 3 3 3 3 </vcount>
          <p>389 388 582 582 388 389 583 583 390 390 584 584 390 390 585 585 391 391 586 586 389 388 587 587 392 392 588 588 391 391 589 589 390 390 590 590 392 392 591 591 393 393 592 592 391 391 593 593 394 394 594 594 393 393 595 595 392 392 596 596 394 394 597 597 395 395 598 598 393 393 599 599 396 396 600 600 395 395 601 601 394 394 602 602 396 396 603 603 397 397 604 604 395 395 605 605 398 398 606 606 397 397 607 607 396 396 608 608 398 398 609 609 399 399 610 610 397 397 611 611 400 400 612 612 399 399 613 613 398 398 614 614 400 400 615 615 401 401 616 616 399 399 617 617 402 402 618 618 401 401 619 619 400 400 620 620 402 402 621 621 403 403 622 622 401 401 623 623 391 391 624 624 404 404 625 625 389 388 626 626 391 391 627 627 405 405 628 628 404 404 629 629 393 393 630 630 405 405 631 631 391 391 632 632 393 393 633 633 406 406 634 634 405 405 635 635 395 395 636 636 406 406 637 637 393 393 638 638 395 395 639 639 407 407 640 640 406 406 641 641 397 397 642 642 407 407 643 643 395 395 644 644 397 397 645 645 408 408 646 646 407 407 647 647 399 399 648 648 408 408 649 649 397 397 650 650 399 399 651 651 409 409 652 652 408 408 653 653 401 401 654 654 409 409 655 655 399 399 656 656 401 401 657 657 410 410 658 658 409 409 659 659 403 403 660 660 410 410 661 661 401 401 662 662 403 403 663 663 411 411 664 664 410 410 665 665 405 405 666 666 412 412 667 667 404 404 668 668 405 405 669 669 413 413 670 670 412 412 671 671 406 406 672 672 413 413 673 673 405 405 674 674 406 406 675 675 414 414 676 676 413 413 677 677 407 407 678 678 414 414 679 679 406 406 680 680 407 407 681 681 415 415 682 682 414 414 683 683 408 408 684 684 415 415 685 685 407 407 686 686 408 408 687 687 416 416 688 688 415 415 689 689 409 409 690 690 416 416 691 691 408 408 692 692 409 409 693 693 417 417 694 694 416 416 695 695 410 410 696 696 417 417 697 697 409 409 698 698 410 410 699 699 418 418 700 700 417 417 701 701 411 411 702 702 418 418 703 703 410 410 704 704 411 411 705 705 419 419 706 706 418 418 707 707 388 389 708 708 403 403 709 709 402 402 710 710 388 389 711 711 389 388 712 712 403 403 713 713 389 388 714 714 411 411 715 715 403 403 716 716 389 388 717 717 404 404 718 718 411 411 719 719 404 404 720 720 419 419 721 721 411 411 722 722 404 404 723 723 412 412 724 724 419 419 725 725 412 412 726 726 420 420 727 727 419 419 728 728 413 413 729 729 420 420 730 730 412 412 731 731 414 414 732 732 420 420 733 733 413 413 734 734 415 415 735 735 420 420 736 736 414 414 737 737 416 416 738 738 420 420 739 739 415 415 740 740 417 417 741 741 420 420 742 742 416 416 743 743 418 418 744 744 420 420 745 745 417 417 746 746 419 419 747 747 420 420 748 748 418 418 749 749</p>
        </polylist>
        <polylist material="thuja_branch_01-material" count="194">
          <input semantic="VERTEX" source="#thujahigh80-mesh-vertices" offset="0"/>
          <input semantic="NORMAL" source="#thujahigh80-mesh-normals" offset="1"/>
          <input semantic="TEXCOORD" source="#thujahigh80-mesh-map-0" offset="2" set="0"/>
          <input semantic="COLOR" source="#thujahigh80-mesh-colors" offset="3"/>
          <vcount>3 3 3 3 3 3 3 3 3 3 3 3 3 3 3 3 3 3 3 3 3 3 3 3 3 3 3 3 3 3 3 3 3 3 3 3 3 3 3 3 3 3 3 3 3 3 3 3 3 3 3 3 3 3 3 3 3 3 3 3 3 3 3 3 3 3 3 3 3 3 3 3 3 3 3 3 3 3 3 3 3 3 3 3 3 3 3 3 3 3 3 3 3 3 3 3 3 3 3 3 3 3 3 3 3 3 3 3 3 3 3 3 3 3 3 3 3 3 3 3 3 3 3 3 3 3 3 3 3 3 3 3 3 3 3 3 3 3 3 3 3 3 3 3 3 3 3 3 3 3 3 3 3 3 3 3 3 3 3 3 3 3 3 3 3 3 3 3 3 3 3 3 3 3 3 3 3 3 3 3 3 3 3 3 3 3 3 3 3 3 3 3 3 3 </vcount>
          <p>0 0 0 0 2 1 1 1 1 2 2 2 0 0 3 3 3 3 4 4 2 1 5 5 4 4 6 6 6 5 7 7 5 6 8 8 4 4 9 9 7 7 10 10 6 5 11 11 8 8 12 12 10 9 13 13 9 10 14 14 8 8 15 15 11 11 16 16 10 9 17 17 12 12 18 18 14 13 19 19 13 14 20 20 12 12 21 21 15 15 22 22 14 13 23 23 16 16 24 24 18 17 25 25 17 18 26 26 16 16 27 27 19 19 28 28 18 17 29 29 20 20 30 30 22 21 31 31 21 22 32 32 20 20 33 33 23 23 34 34 22 21 35 35 24 24 36 36 26 25 37 37 25 26 38 38 24 24 39 39 27 27 40 40 26 25 41 41 28 28 42 42 30 29 43 43 29 30 44 44 28 28 45 45 31 31 46 46 30 29 47 47 32 32 48 48 34 33 49 49 33 34 50 50 32 32 51 51 35 35 52 52 34 33 53 53 36 36 54 54 38 37 55 55 37 38 56 56 36 36 57 57 39 39 58 58 38 37 59 59 40 40 60 60 42 41 61 61 41 42 62 62 40 40 63 63 43 43 64 64 42 41 65 65 44 44 66 66 46 45 67 67 45 46 68 68 44 44 69 69 47 47 70 70 46 45 71 71 48 48 72 72 50 49 73 73 49 50 74 74 48 48 75 75 51 51 76 76 50 49 77 77 52 52 78 78 54 53 79 79 53 54 80 80 52 52 81 81 55 55 82 82 54 53 83 83 56 56 84 84 58 57 85 85 57 58 86 86 56 56 87 87 59 59 88 88 58 57 89 89 60 60 90 90 62 61 91 91 61 62 92 92 60 60 93 93 63 63 94 94 62 61 95 95 64 64 96 96 66 65 97 97 65 66 98 98 64 64 99 99 67 67 100 100 66 65 101 101 68 68 102 102 70 69 103 103 69 70 104 104 68 68 105 105 71 71 106 106 70 69 107 107 72 72 108 108 74 73 109 109 73 74 110 110 72 72 111 111 75 75 112 112 74 73 113 113 76 76 114 114 78 77 115 115 77 78 116 116 76 76 117 117 79 79 118 118 78 77 119 119 80 80 120 120 82 81 121 121 81 82 122 122 80 80 123 123 83 83 124 124 82 81 125 125 84 84 126 126 86 85 127 127 85 86 128 128 84 84 129 129 87 87 130 130 86 85 131 131 88 88 132 132 90 89 133 133 89 90 134 134 88 88 135 135 91 91 136 136 90 89 137 137 92 92 138 138 94 93 139 139 93 94 140 140 92 92 141 141 95 95 142 142 94 93 143 143 96 96 144 144 98 97 145 145 97 98 146 146 96 96 147 147 99 99 148 148 98 97 149 149 100 100 150 150 102 101 151 151 101 102 152 152 100 100 153 153 103 103 154 154 102 101 155 155 104 104 156 156 106 105 157 157 105 106 158 158 104 104 159 159 107 107 160 160 106 105 161 161 108 108 162 162 110 109 163 163 109 110 164 164 108 108 165 165 111 111 166 166 110 109 167 167 112 112 168 168 114 113 169 169 113 114 170 170 112 112 171 171 115 115 172 172 114 113 173 173 116 116 174 174 118 117 175 175 117 118 176 176 116 116 177 177 119 119 178 178 118 117 179 179 120 120 180 180 122 121 181 181 121 122 182 182 120 120 183 183 123 123 184 184 122 121 185 185 124 124 186 186 126 125 187 187 125 126 188 188 124 124 189 189 127 127 190 190 126 125 191 191 128 128 192 192 130 129 193 193 129 130 194 194 128 128 195 195 131 131 196 196 130 129 197 197 132 132 198 198 134 133 199 199 133 134 200 200 132 132 201 201 135 135 202 202 134 133 203 203 136 136 204 204 138 137 205 205 137 138 206 206 136 136 207 207 139 139 208 208 138 137 209 209 140 140 210 210 142 141 211 211 141 142 212 212 140 140 213 213 143 143 214 214 142 141 215 215 144 144 216 216 146 145 217 217 145 146 218 218 144 144 219 219 147 147 220 220 146 145 221 221 148 148 222 222 150 149 223 223 149 150 224 224 148 148 225 225 151 151 226 226 150 149 227 227 152 152 228 228 154 153 229 229 153 154 230 230 152 152 231 231 155 155 232 232 154 153 233 233 156 156 234 234 158 157 235 235 157 158 236 236 156 156 237 237 159 159 238 238 158 157 239 239 160 160 240 240 162 161 241 241 161 162 242 242 160 160 243 243 163 163 244 244 162 161 245 245 164 164 246 246 166 165 247 247 165 166 248 248 164 164 249 249 167 167 250 250 166 165 251 251 168 168 252 252 170 169 253 253 169 170 254 254 168 168 255 255 171 171 256 256 170 169 257 257 172 172 258 258 174 173 259 259 173 174 260 260 172 172 261 261 175 175 262 262 174 173 263 263 176 176 264 264 178 177 265 265 177 178 266 266 176 176 267 267 179 179 268 268 178 177 269 269 180 180 270 270 182 181 271 271 181 182 272 272 180 180 273 273 183 183 274 274 182 181 275 275 184 184 276 276 186 185 277 277 185 186 278 278 184 184 279 279 187 187 280 280 186 185 281 281 188 188 282 282 190 189 283 283 189 190 284 284 188 188 285 285 191 191 286 286 190 189 287 287 192 192 288 288 194 193 289 289 193 194 290 290 192 192 291 291 195 195 292 292 194 193 293 293 196 196 294 294 198 197 295 295 197 198 296 296 196 196 297 297 199 199 298 298 198 197 299 299 200 200 300 300 202 201 301 301 201 202 302 302 200 200 303 303 203 203 304 304 202 201 305 305 204 204 306 306 206 205 307 307 205 206 308 308 204 204 309 309 207 207 310 310 206 205 311 311 208 208 312 312 210 209 313 313 209 210 314 314 208 208 315 315 211 211 316 316 210 209 317 317 212 212 318 318 214 213 319 319 213 214 320 320 212 212 321 321 215 215 322 322 214 213 323 323 216 216 324 324 218 217 325 325 217 218 326 326 216 216 327 327 219 219 328 328 218 217 329 329 220 220 330 330 222 221 331 331 221 222 332 332 220 220 333 333 223 223 334 334 222 221 335 335 224 224 336 336 226 225 337 337 225 226 338 338 224 224 339 339 227 227 340 340 226 225 341 341 228 228 342 342 230 229 343 343 229 230 344 344 228 228 345 345 231 231 346 346 230 229 347 347 232 232 348 348 234 233 349 349 233 234 350 350 232 232 351 351 235 235 352 352 234 233 353 353 236 236 354 354 238 237 355 355 237 238 356 356 236 236 357 357 239 239 358 358 238 237 359 359 240 240 360 360 242 241 361 361 241 242 362 362 240 240 363 363 243 243 364 364 242 241 365 365 244 244 366 366 246 245 367 367 245 246 368 368 244 244 369 369 247 247 370 370 246 245 371 371 248 248 372 372 250 249 373 373 249 250 374 374 248 248 375 375 251 251 376 376 250 249 377 377 252 252 378 378 254 253 379 379 253 254 380 380 252 252 381 381 255 255 382 382 254 253 383 383 256 256 384 384 258 257 385 385 257 258 386 386 256 256 387 387 259 259 388 388 258 257 389 389 260 260 390 390 262 261 391 391 261 262 392 392 260 260 393 393 263 263 394 394 262 261 395 395 264 264 396 396 266 265 397 397 265 266 398 398 264 264 399 399 267 267 400 400 266 265 401 401 268 268 402 402 270 269 403 403 269 270 404 404 268 268 405 405 271 271 406 406 270 269 407 407 272 272 408 408 274 273 409 409 273 274 410 410 272 272 411 411 275 275 412 412 274 273 413 413 276 276 414 414 278 277 415 415 277 278 416 416 276 276 417 417 279 279 418 418 278 277 419 419 280 280 420 420 282 281 421 421 281 282 422 422 280 280 423 423 283 283 424 424 282 281 425 425 284 284 426 426 286 285 427 427 285 286 428 428 284 284 429 429 287 287 430 430 286 285 431 431 288 288 432 432 290 289 433 433 289 290 434 434 288 288 435 435 291 291 436 436 290 289 437 437 292 292 438 438 294 293 439 439 293 294 440 440 292 292 441 441 295 295 442 442 294 293 443 443 296 296 444 444 298 297 445 445 297 298 446 446 296 296 447 447 299 299 448 448 298 297 449 449 300 300 450 450 302 301 451 451 301 302 452 452 300 300 453 453 303 303 454 454 302 301 455 455 304 304 456 456 306 305 457 457 305 306 458 458 304 304 459 459 307 307 460 460 306 305 461 461 308 308 462 462 310 309 463 463 309 310 464 464 308 308 465 465 311 311 466 466 310 309 467 467 312 312 468 468 314 313 469 469 313 314 470 470 312 312 471 471 315 315 472 472 314 313 473 473 316 316 474 474 318 317 475 475 317 318 476 476 316 316 477 477 319 319 478 478 318 317 479 479 320 320 480 480 322 321 481 481 321 322 482 482 320 320 483 483 323 323 484 484 322 321 485 485 324 324 486 486 326 325 487 487 325 326 488 488 324 324 489 489 327 327 490 490 326 325 491 491 328 328 492 492 330 329 493 493 329 330 494 494 328 328 495 495 331 331 496 496 330 329 497 497 332 332 498 498 334 333 499 499 333 334 500 500 332 332 501 501 335 335 502 502 334 333 503 503 336 336 504 504 338 337 505 505 337 338 506 506 336 336 507 507 339 339 508 508 338 337 509 509 340 340 510 510 342 341 511 511 341 342 512 512 340 340 513 513 343 343 514 514 342 341 515 515 344 344 516 516 346 345 517 517 345 346 518 518 344 344 519 519 347 347 520 520 346 345 521 521 348 348 522 522 350 349 523 523 349 350 524 524 348 348 525 525 351 351 526 526 350 349 527 527 352 352 528 528 354 353 529 529 353 354 530 530 352 352 531 531 355 355 532 532 354 353 533 533 356 356 534 534 358 357 535 535 357 358 536 536 356 356 537 537 359 359 538 538 358 357 539 539 360 360 540 540 362 361 541 541 361 362 542 542 360 360 543 543 363 363 544 544 362 361 545 545 364 364 546 546 366 365 547 547 365 366 548 548 364 364 549 549 367 367 550 550 366 365 551 551 368 368 552 552 370 369 553 553 369 370 554 554 368 368 555 555 371 371 556 556 370 369 557 557 372 372 558 558 374 373 559 559 373 374 560 560 372 372 561 561 375 375 562 562 374 373 563 563 376 376 564 564 378 377 565 565 377 378 566 566 376 376 567 567 379 379 568 568 378 377 569 569 380 380 570 570 382 381 571 571 381 382 572 572 380 380 573 573 383 383 574 574 382 381 575 575 384 384 576 576 386 385 577 577 385 386 578 578 384 384 579 579 387 387 580 580 386 385 581 581</p>
        </polylist>
      </mesh>
      <extra><technique profile="MAYA"><double_sided>1</double_sided></technique></extra>
    </geometry>
    <geometry id="collisionmesh-1-mesh" name="collisionmesh-1">
      <mesh>
        <source id="collisionmesh-1-mesh-positions">
          <float_array id="collisionmesh-1-mesh-positions-array" count="57">0.4176505 0.3602412 -0.5870789 0.1295431 0.2586993 0.7557532 -0.002506196 0.53016 -0.5888462 -0.04007166 -0.3809764 0.8774831 -0.4390103 0.3848296 -0.5934539 -0.3502526 -0.04370164 0.8463949 -0.6087179 -0.04689812 -0.5984768 -4.89064e-4 -0.2544254 18.4399 -0.4864581 -0.5168753 -0.601584 -0.2838054 -0.2863342 0.6852407 -0.02126437 -0.7107784 -0.5996772 -0.1734115 -0.2724911 12.83229 0.3950181 -0.4748498 -0.5944445 -0.2469541 -0.07229191 12.26625 0.5885457 -0.06507509 -0.5894277 0.1753848 -0.2500038 0.8278688 -0.009307026 0.06669598 6.504599 0.2674977 -0.03259557 0.7229663 -0.2649076 0.1766777 0.9232752</float_array>
          <technique_common>
            <accessor source="#collisionmesh-1-mesh-positions-array" count="19" stride="3">
              <param name="X" type="float"/>
              <param name="Y" type="float"/>
              <param name="Z" type="float"/>
            </accessor>
          </technique_common>
        </source>
        <source id="collisionmesh-1-mesh-normals">
          <float_array id="collisionmesh-1-mesh-normals-array" count="84">0.3702087 0.916959 0.1487674 -0.9335681 0.3582783 0.009341537 -0.3104079 0.9254294 0.2173189 -0.139661 0.9787186 0.1503481 -0.9200435 0.359856 0.1549959 -0.9376395 0.304836 0.1670548 -0.9532467 -0.2491086 0.1710723 -0.8982085 -0.3858473 0.2105787 -0.3760417 -0.8999948 0.2204586 -0.4793403 -0.8578184 0.18542 0.4815512 -0.8540343 0.1968093 0.5428314 -0.8125711 0.2122789 0.88444 -0.4201868 0.2030001 0.9305706 -0.2810722 0.2345994 -0.05067527 0.998473 0.0219959 -0.3649659 -0.9310107 0.004377841 -0.1920398 0.9809841 0.02812516 0.521671 -0.853039 0.01355952 0.08476066 -0.9964011 5.96271e-4 -0.9630821 -0.2690877 0.008037865 0.9047464 0.4244242 0.03602725 -0.9631048 -0.2673859 0.03056079 0.9222996 -0.3863682 0.009113073 0.6715693 0.7406869 0.01943212 0.06609845 0.9974535 0.02678781 0.9070315 0.3632762 0.2128946 0.8907891 0.3969787 0.2211392 -0.9465748 -0.3223597 0.008969902</float_array>
          <technique_common>
            <accessor source="#collisionmesh-1-mesh-normals-array" count="28" stride="3">
              <param name="X" type="float"/>
              <param name="Y" type="float"/>
              <param name="Z" type="float"/>
            </accessor>
          </technique_common>
        </source>
        <vertices id="collisionmesh-1-mesh-vertices">
          <input semantic="POSITION" source="#collisionmesh-1-mesh-positions"/>
        </vertices>
        <polylist count="28">
          <input semantic="VERTEX" source="#collisionmesh-1-mesh-vertices" offset="0"/>
          <input semantic="NORMAL" source="#collisionmesh-1-mesh-normals" offset="1"/>
          <vcount>3 3 3 3 3 3 3 3 3 3 3 3 3 3 3 3 3 3 3 3 3 3 3 3 3 3 3 3 </vcount>
          <p>1 0 0 0 2 0 5 1 13 1 18 1 4 2 1 2 2 2 4 3 18 3 1 3 6 4 18 4 4 4 6 5 5 5 18 5 8 6 5 6 6 6 8 7 9 7 5 7 10 8 9 8 8 8 10 9 3 9 9 9 12 10 3 10 10 10 12 11 15 11 3 11 14 12 15 12 12 12 14 13 17 13 15 13 18 14 13 14 16 14 3 15 11 15 9 15 18 16 16 16 1 16 15 17 11 17 3 17 15 18 7 18 11 18 9 19 13 19 5 19 1 20 16 20 17 20 11 21 7 21 13 21 17 22 7 22 15 22 16 23 7 23 17 23 13 24 7 24 16 24 0 25 17 25 14 25 0 26 1 26 17 26 9 27 11 27 13 27</p>
        </polylist>
      </mesh>
      <extra><technique profile="MAYA"><double_sided>1</double_sided></technique></extra>
    </geometry>
  </library_geometries>
  <library_visual_scenes>
    <visual_scene id="Scene" name="Scene">
      <node id="Hemi" name="Hemi" type="NODE">
        <translate sid="location">13.49135 8.26255 2.098701</translate>
        <rotate sid="rotationZ">0 0 1 0</rotate>
        <rotate sid="rotationY">0 1 0 0</rotate>
        <rotate sid="rotationX">1 0 0 0</rotate>
        <scale sid="scale">1 1 1</scale>
        <instance_light url="#Hemi-light"/>
      </node>
      <node id="base01" name="base01" type="NODE">
        <translate sid="location">0 0 0</translate>
        <rotate sid="rotationZ">0 0 1 0</rotate>
        <rotate sid="rotationY">0 1 0 0</rotate>
        <rotate sid="rotationX">1 0 0 0</rotate>
        <scale sid="scale">1 1 1</scale>
        <node id="start01" name="start01" type="NODE">
          <translate sid="location">0 0 0</translate>
          <rotate sid="rotationZ">0 0 1 0</rotate>
          <rotate sid="rotationY">0 1 0 0</rotate>
          <rotate sid="rotationX">1 0 0 0</rotate>
          <scale sid="scale">1 1 1</scale>
          <node id="thujahigh80" name="thujahigh80" type="NODE">
            <translate sid="location">0 0 0</translate>
            <rotate sid="rotationZ">0 0 1 0</rotate>
            <rotate sid="rotationY">0 1 0 0</rotate>
            <rotate sid="rotationX">1 0 0 0</rotate>
            <scale sid="scale">0.7265908 0.7265908 0.7265908</scale>
            <instance_geometry url="#thujahigh80-mesh">
              <bind_material>
                <technique_common>
                  <instance_material symbol="thuja_bark_01-material" target="#thuja_bark_01-material">
                    <bind_vertex_input semantic="UVMap" input_semantic="TEXCOORD" input_set="0"/>
                  </instance_material>
                  <instance_material symbol="thuja_branch_01-material" target="#thuja_branch_01-material">
                    <bind_vertex_input semantic="UVMap" input_semantic="TEXCOORD" input_set="0"/>
                  </instance_material>
                </technique_common>
              </bind_material>
            </instance_geometry>
          </node>
          <node id="collisionmesh-1" name="collisionmesh-1" type="NODE">
            <translate sid="location">0 0 0</translate>
            <rotate sid="rotationZ">0 0 1 0</rotate>
            <rotate sid="rotationY">0 1 0 0</rotate>
            <rotate sid="rotationX">1 0 0 0</rotate>
            <scale sid="scale">0.7265908 0.7265908 0.7265908</scale>
            <instance_geometry url="#collisionmesh-1-mesh"/>
          </node>
        </node>
        <node id="detail80" name="detail80" type="NODE">
          <translate sid="location">0 0 0</translate>
          <rotate sid="rotationZ">0 0 1 0</rotate>
          <rotate sid="rotationY">0 1 0 0</rotate>
          <rotate sid="rotationX">1 0 0 0</rotate>
          <scale sid="scale">1 1 1</scale>
        </node>
        <node id="collision-1" name="collision-1" type="NODE">
          <translate sid="location">0 0 0</translate>
          <rotate sid="rotationZ">0 0 1 0</rotate>
          <rotate sid="rotationY">0 1 0 0</rotate>
          <rotate sid="rotationX">1 0 0 0</rotate>
          <scale sid="scale">1 1 1</scale>
        </node>
      </node>
    </visual_scene>
  </library_visual_scenes>
  <scene>
    <instance_visual_scene url="#Scene"/>
  </scene>
</COLLADA>