<?xml version="1.0" encoding="utf-8"?>
<COLLADA xmlns="http://www.collada.org/2005/11/COLLADASchema" version="1.4.1">
  <asset>
    <contributor>
      <author>Blender User</author>
      <authoring_tool>Blender 2.71.0 commit date:2014-06-25, commit time:18:36, hash:9337574</authoring_tool>
    </contributor>
    <created>2014-11-09T18:24:12</created>
    <modified>2014-11-09T18:24:12</modified>
    <unit name="meter" meter="1"/>
    <up_axis>Z_UP</up_axis>
  </asset>
  <library_cameras>
    <camera id="Camera-camera" name="Camera">
      <optics>
        <technique_common>
          <perspective>
            <xfov sid="xfov">49.13434</xfov>
            <aspect_ratio>1</aspect_ratio>
            <znear sid="znear">0.1</znear>
            <zfar sid="zfar">100</zfar>
          </perspective>
        </technique_common>
      </optics>
      <extra>
        <technique profile="blender">
          <YF_dofdist>0</YF_dofdist>
          <shiftx>0</shiftx>
          <shifty>0</shifty>
        </technique>
      </extra>
    </camera>
  </library_cameras>
  <library_lights>
    <light id="Lamp_002-light" name="Lamp.002">
      <technique_common>
        <directional>
          <color sid="color">1 1 1</color>
        </directional>
      </technique_common>
      <extra>
        <technique profile="blender">
          <adapt_thresh>0.000999987</adapt_thresh>
          <area_shape>1</area_shape>
          <area_size>0.1</area_size>
          <area_sizey>0.1</area_sizey>
          <area_sizez>1</area_sizez>
          <atm_distance_factor>1</atm_distance_factor>
          <atm_extinction_factor>1</atm_extinction_factor>
          <atm_turbidity>2</atm_turbidity>
          <att1>0</att1>
          <att2>1</att2>
          <backscattered_light>1</backscattered_light>
          <bias>1</bias>
          <blue>1</blue>
          <buffers>1</buffers>
          <bufflag>0</bufflag>
          <bufsize>2880</bufsize>
          <buftype>2</buftype>
          <clipend>30.002</clipend>
          <clipsta>1.000799</clipsta>
          <compressthresh>0.04999995</compressthresh>
          <dist sid="blender_dist">29.99998</dist>
          <energy sid="blender_energy">1</energy>
          <falloff_type>2</falloff_type>
          <filtertype>0</filtertype>
          <flag>0</flag>
          <gamma sid="blender_gamma">1</gamma>
          <green>1</green>
          <halo_intensity sid="blnder_halo_intensity">1</halo_intensity>
          <horizon_brightness>1</horizon_brightness>
          <mode>8192</mode>
          <ray_samp>1</ray_samp>
          <ray_samp_method>1</ray_samp_method>
          <ray_samp_type>0</ray_samp_type>
          <ray_sampy>1</ray_sampy>
          <ray_sampz>1</ray_sampz>
          <red>1</red>
          <samp>3</samp>
          <shadhalostep>0</shadhalostep>
          <shadow_b sid="blender_shadow_b">0</shadow_b>
          <shadow_g sid="blender_shadow_g">0</shadow_g>
          <shadow_r sid="blender_shadow_r">0</shadow_r>
          <sky_colorspace>0</sky_colorspace>
          <sky_exposure>1</sky_exposure>
          <skyblendfac>1</skyblendfac>
          <skyblendtype>1</skyblendtype>
          <soft>3</soft>
          <spotblend>0.15</spotblend>
          <spotsize>75</spotsize>
          <spread>1</spread>
          <sun_brightness>1</sun_brightness>
          <sun_effect_type>0</sun_effect_type>
          <sun_intensity>1</sun_intensity>
          <sun_size>1</sun_size>
          <type>1</type>
        </technique>
      </extra>
    </light>
  </library_lights>
  <library_images>
    <image id="GreyBricks_jpg" name="GreyBricks_jpg">
      <init_from>GreyBricks.jpg</init_from>
    </image>
    <image id="Rusted_Metal_jpg" name="Rusted_Metal_jpg">
      <init_from>Rusted%20Metal.jpg</init_from>
    </image>
  </library_images>
  <library_effects>
    <effect id="Brick-effect">
      <profile_COMMON>
        <newparam sid="GreyBricks_jpg-surface">
          <surface type="2D">
            <init_from>GreyBricks_jpg</init_from>
          </surface>
        </newparam>
        <newparam sid="GreyBricks_jpg-sampler">
          <sampler2D>
            <source>GreyBricks_jpg-surface</source>
          </sampler2D>
        </newparam>
        <technique sid="common">
          <phong>
            <emission>
              <color sid="emission">0 0 0 1</color>
            </emission>
            <ambient>
              <color sid="ambient">0 0 0 1</color>
            </ambient>
            <diffuse>
              <texture texture="GreyBricks_jpg-sampler" texcoord="UVMap"/>
            </diffuse>
            <specular>
              <color sid="specular">0.00526315 0.00526315 0.00526315 1</color>
            </specular>
            <shininess>
              <float sid="shininess">50</float>
            </shininess>
            <index_of_refraction>
              <float sid="index_of_refraction">1</float>
            </index_of_refraction>
          </phong>
        </technique>
      </profile_COMMON>
    </effect>
    <effect id="RustedMetal-effect">
      <profile_COMMON>
        <newparam sid="Rusted_Metal_jpg-surface">
          <surface type="2D">
            <init_from>Rusted_Metal_jpg</init_from>
          </surface>
        </newparam>
        <newparam sid="Rusted_Metal_jpg-sampler">
          <sampler2D>
            <source>Rusted_Metal_jpg-surface</source>
          </sampler2D>
        </newparam>
        <technique sid="common">
          <phong>
            <emission>
              <color sid="emission">0 0 0 1</color>
            </emission>
            <ambient>
              <color sid="ambient">0 0 0 1</color>
            </ambient>
            <diffuse>
              <texture texture="Rusted_Metal_jpg-sampler" texcoord="UVMap"/>
            </diffuse>
            <specular>
              <color sid="specular">0.04736841 0.04736841 0.04736841 1</color>
            </specular>
            <shininess>
              <float sid="shininess">50</float>
            </shininess>
            <index_of_refraction>
              <float sid="index_of_refraction">1</float>
            </index_of_refraction>
          </phong>
        </technique>
      </profile_COMMON>
    </effect>
  </library_effects>
  <library_materials>
    <material id="Brick-material" name="Brick">
      <instance_effect url="#Brick-effect"/>
    </material>
    <material id="RustedMetal-material" name="RustedMetal">
      <instance_effect url="#RustedMetal-effect"/>
    </material>
  </library_materials>
  <library_geometries>
    <geometry id="Cube_002-mesh" name="Cube.002">
      <mesh>
        <source id="Cube_002-mesh-positions">
          <float_array id="Cube_002-mesh-positions-array" count="588">0.2171992 -0.3248245 1.900859 0.2171992 0.3248245 1.900859 0.2942868 0.3248245 1.900859 0.2942868 -0.3248245 1.900859 0.09772175 0.3248245 2.441643 0.09772175 -0.3248245 2.441643 0.1295538 0.3248245 2.498486 0.1295538 -0.3248245 2.498486 0.08711105 0.3248245 2.544718 0.08711105 -0.3248245 2.544718 0.04694199 0.3248245 2.56594 0.04694199 -0.3248245 2.56594 -0.2171992 -0.3248245 1.900859 -0.2171992 0.3248245 1.900859 -0.2942868 0.3248245 1.900859 -0.2942868 -0.3248245 1.900859 0 -0.3248245 2.498486 0 0.3248245 2.498486 -0.09772175 0.3248245 2.441643 -0.09772175 -0.3248245 2.441643 -0.1295538 0.3248245 2.498486 -0.1295538 -0.3248245 2.498486 -0.08711105 0.3248245 2.544718 -0.08711105 -0.3248245 2.544718 -0.04694199 0.3248245 2.56594 -0.04694199 -0.3248245 2.56594 0 0.3248245 2.572003 0 -0.3248245 2.572003 0.345305 -0.3453051 1.137772 0.345305 -0.3453051 1.860537 0.1151016 -0.3453051 1.137772 0.1151016 -0.3453051 1.860537 0.345305 -0.1151016 1.137772 0.345305 -0.1151016 1.860537 0.2916457 -0.3453051 1.137772 0.2916457 -0.3453051 1.860537 0.2916457 -0.1151016 1.137772 0.2916457 -0.1151016 1.860537 0.1151016 -0.2901193 1.860537 0.345305 -0.2901193 1.137772 0.345305 -0.2901193 1.860537 0.1151016 -0.2901193 1.137772 0.2916457 -0.2901193 1.137772 0.2916457 -0.2901193 1.860537 0.1151016 -0.356287 1.137772 0.1151016 -0.356287 1.860537 0.1151016 -0.2791374 1.860537 0.1151016 -0.2791374 1.137772 0.08838254 -0.356287 1.137772 0.08838254 -0.356287 1.860537 0.08838254 -0.2791374 1.860537 0.08838254 -0.2791374 1.137772 0.3552329 -0.1151016 1.137772 0.3552329 -0.1151016 1.860537 0.2817179 -0.1151016 1.137772 0.2817179 -0.1151016 1.860537 0.3552329 -0.08052396 1.137772 0.3552329 -0.08052396 1.860537 0.2817179 -0.08052396 1.137772 0.2817179 -0.08052396 1.860537 -0.345305 -0.3453051 1.137772 -0.345305 -0.3453051 1.860537 -0.1151016 -0.3453051 1.137772 -0.1151016 -0.3453051 1.860537 -0.345305 -0.1151016 1.137772 -0.345305 -0.1151016 1.860537 -0.2916457 -0.3453051 1.137772 -0.2916457 -0.3453051 1.860537 -0.2916457 -0.1151016 1.137772 -0.2916457 -0.1151016 1.860537 -0.1151016 -0.2901193 1.860537 -0.345305 -0.2901193 1.137772 -0.345305 -0.2901193 1.860537 -0.1151016 -0.2901193 1.137772 -0.2916457 -0.2901193 1.137772 -0.2916457 -0.2901193 1.860537 -0.1151016 -0.356287 1.137772 -0.1151016 -0.356287 1.860537 -0.1151016 -0.2791374 1.860537 -0.1151016 -0.2791374 1.137772 -0.08838254 -0.356287 1.137772 -0.08838254 -0.356287 1.860537 -0.08838254 -0.2791374 1.860537 -0.08838254 -0.2791374 1.137772 -0.3552329 -0.1151016 1.137772 -0.3552329 -0.1151016 1.860537 -0.2817179 -0.1151016 1.137772 -0.2817179 -0.1151016 1.860537 -0.3552329 -0.08052396 1.137772 -0.3552329 -0.08052396 1.860537 -0.2817179 -0.08052396 1.137772 -0.2817179 -0.08052396 1.860537 0.345305 0.3453051 1.137772 0.345305 0.3453051 1.860537 0.1151016 0.3453051 1.137772 0.1151016 0.3453051 1.860537 0.345305 0.1151016 1.137772 0.345305 0.1151016 1.860537 0.2916457 0.3453051 1.137772 0.2916457 0.3453051 1.860537 0.2916457 0.1151016 1.137772 0.2916457 0.1151016 1.860537 0.1151016 0.2901193 1.860537 0.345305 0.2901193 1.137772 0.345305 0.2901193 1.860537 0.1151016 0.2901193 1.137772 0.2916457 0.2901193 1.137772 0.2916457 0.2901193 1.860537 0.1151016 0.356287 1.137772 0.1151016 0.356287 1.860537 0.1151016 0.2791374 1.860537 0.1151016 0.2791374 1.137772 0.08838254 0.356287 1.137772 0.08838254 0.356287 1.860537 0.08838254 0.2791374 1.860537 0.08838254 0.2791374 1.137772 0.3552329 0.1151016 1.137772 0.3552329 0.1151016 1.860537 0.2817179 0.1151016 1.137772 0.2817179 0.1151016 1.860537 0.3552329 0.08052396 1.137772 0.3552329 0.08052396 1.860537 0.2817179 0.08052396 1.137772 0.2817179 0.08052396 1.860537 -0.345305 0.3453051 1.137772 -0.345305 0.3453051 1.860537 -0.1151016 0.3453051 1.137772 -0.1151016 0.3453051 1.860537 -0.345305 0.1151016 1.137772 -0.345305 0.1151016 1.860537 -0.2916457 0.3453051 1.137772 -0.2916457 0.3453051 1.860537 -0.2916457 0.1151016 1.137772 -0.2916457 0.1151016 1.860537 -0.1151016 0.2901193 1.860537 -0.345305 0.2901193 1.137772 -0.345305 0.2901193 1.860537 -0.1151016 0.2901193 1.137772 -0.2916457 0.2901193 1.137772 -0.2916457 0.2901193 1.860537 -0.1151016 0.356287 1.137772 -0.1151016 0.356287 1.860537 -0.1151016 0.2791374 1.860537 -0.1151016 0.2791374 1.137772 -0.08838254 0.356287 1.137772 -0.08838254 0.356287 1.860537 -0.08838254 0.2791374 1.860537 -0.08838254 0.2791374 1.137772 -0.3552329 0.1151016 1.137772 -0.3552329 0.1151016 1.860537 -0.2817179 0.1151016 1.137772 -0.2817179 0.1151016 1.860537 -0.3552329 0.08052396 1.137772 -0.3552329 0.08052396 1.860537 -0.2817179 0.08052396 1.137772 -0.2817179 0.08052396 1.860537 -0.3453051 -0.3453051 -0.3453051 -0.3453051 0.3453051 -0.3453051 0.3453051 0.3453051 -0.3453051 0.3453051 -0.3453051 -0.3453051 -0.3453051 -0.3453051 1.063377 -0.3453051 0.3453051 1.063377 0.3453051 0.3453051 1.063377 0.3453051 -0.3453051 1.063377 -0.3931419 -0.3931419 1.063377 -0.3931419 0.3931419 1.063377 0.3931419 0.3931419 1.063377 0.3931419 -0.3931419 1.063377 -0.3931419 -0.3931419 1.171322 -0.3931419 0.3931419 1.171322 0.3931419 0.3931419 1.171322 0.3931419 -0.3931419 1.171322 -0.2506053 -0.2506053 0.06024241 -0.2506053 0.2506053 0.06024241 0.2506053 0.2506053 0.06024241 0.2506053 -0.2506053 0.06024241 0.2506053 -0.2506053 1.171322 0.2506053 0.2506053 1.171322 -0.2506053 0.2506053 1.171322 -0.2506053 -0.2506053 1.171322 -0.3931419 -0.3931419 1.843513 -0.3931419 0.3931419 1.843513 0.3931419 0.3931419 1.843513 0.3931419 -0.3931419 1.843513 0.1864281 -0.1864281 1.843513 0.1864281 0.1864281 1.843513 -0.1864281 0.1864281 1.843513 -0.1864281 -0.1864281 1.843513 -0.3931419 -0.3931419 1.904621 -0.3931419 0.3931419 1.904621 0.3931419 0.3931419 1.904621 0.3931419 -0.3931419 1.904621 0.1864281 -0.1864281 1.904621 0.1864281 0.1864281 1.904621 -0.1864281 0.1864281 1.904621 -0.1864281 -0.1864281 1.904621</float_array>
          <technique_common>
            <accessor source="#Cube_002-mesh-positions-array" count="196" stride="3">
              <param name="X" type="float"/>
              <param name="Y" type="float"/>
              <param name="Z" type="float"/>
            </accessor>
          </technique_common>
        </source>
        <source id="Cube_002-mesh-normals">
          <float_array id="Cube_002-mesh-normals-array" count="714">-0.9398539 0 -0.3415768 0 1 0 0.9398401 0 0.3416147 0 -1 0 0 -1 0 0.8725064 0 -0.4886028 0 1 0 0.9398539 0 -0.3415768 0 1 0 -0.9398401 0 0.3416147 0 -1 0 0 -1 0 -0.8725064 0 -0.4886028 0 1 0 1 0 0 0 -1 0 0 -1 0 0 -1 0 1 0 0 1 0 0 -1 0 0 0 1 0 0 1 0 1 0 0 -1 0 0 0 -1 0 -1 0 0 0 -1 0 0 1 0 1 0 0 -1 0 0 0 -1 0 0 -1 0 0 -1 0 -1 0 0 -1 0 0 1 0 0 0 1 0 0 1 0 -1 0 0 1 0 0 0 -1 0 1 0 0 0 -1 0 0 1 0 -1 0 0 1 0 0 0 1 0 0 1 0 0 1 0 1 0 0 1 0 0 -1 0 0 0 -1 0 0 -1 0 1 0 0 -1 0 0 0 1 0 -1 0 0 0 1 0 0 -1 0 1 0 0 -1 0 0 0 1 0 0 1 0 0 1 0 -1 0 0 -1 0 0 1 0 0 0 -1 0 0 -1 0 -1 0 0 1 0 0 0 1 0 1 0 0 0 1 0 0 -1 0 -1 0 0 -1 0 0 0 1 0 1 0 0 0 -1 0 0 0 -1 0 -1 0 0 0 -1 0 0 -1 0 0 -1 0 0 1 1 0 0 0 1 0 -1 0 0 0 0 1 -1 0 0 0 0 1 0 0 1 0 0 1 1 0 0 0 -1 0 0 1 0 0 0 -1 0 0 -1 0 0 -1 0 0 -1 0 0 1 0 0 1 0 0 1 0 0 1 -1 0 0 1 0 0 0 -1 0 0 1 0 0 -1 0 1 0 0 0 1 0 -1 0 0 -0.9398539 0 -0.3415768 0 1 0 0.9398401 0 0.3416147 0 -1 0 0 -1 0 0 -1 0 0 -1 0 0.8725064 0 -0.4886028 0 1 0 0 1 0 0.9398539 0 -0.3415768 0 1 0 0 1 0 -0.9398401 0 0.3416147 0 -1 0 -0.8725064 0 -0.4886028 0 -1 0 0 -1 0 0 -1 0 0 1 0 0 1 0 0 1 0 1 0 0 0 -1 0 0 -1 0 0 -1 0 1 0 0 1 0 0 -1 0 0 0 1 0 0 1 0 1 0 0 -1 0 0 0 -1 0 -1 0 0 0 -1 0 0 1 0 1 0 0 -1 0 0 0 -1 0 0 -1 0 0 -1 0 -1 0 0 -1 0 0 1 0 0 0 1 0 0 1 0 -1 0 0 1 0 0 0 -1 0 1 0 0 0 -1 0 0 1 0 -1 0 0 1 0 0 0 1 0 0 1 0 0 1 0 1 0 0 1 0 0 -1 0 0 0 -1 0 0 -1 0 1 0 0 -1 0 0 0 1 0 -1 0 0 0 1 0 0 -1 0 1 0 0 -1 0 0 0 1 0 0 1 0 0 1 0 -1 0 0 -1 0 0 1 0 0 0 -1 0 0 -1 0 -1 0 0 1 0 0 0 1 0 1 0 0 0 1 0 0 -1 0 -1 0 0 -1 0 0 0 1 0 1 0 0 0 -1 0 0 0 -1 0 -1 0 0 0 -1 0 0 -1 0 0 -1 0 0 1 1 0 0 0 1 0 -1 0 0 0 0 1 -1 0 0 0 0 1 0 0 1 0 0 1 1 0 0 0 -1 0 0 1 0 0 0 -1 0 0 -1 0 0 -1 0 0 -1 0 0 1 0 0 1 0 0 1 0 0 1 -1 0 0 1 0 0 0 -1 0 0 1 0 0 -1 0 1 0 0 0 1 0 -1 0 0</float_array>
          <technique_common>
            <accessor source="#Cube_002-mesh-normals-array" count="238" stride="3">
              <param name="X" type="float"/>
              <param name="Y" type="float"/>
              <param name="Z" type="float"/>
            </accessor>
          </technique_common>
        </source>
        <source id="Cube_002-mesh-map-0">
          <float_array id="Cube_002-mesh-map-0-array" count="1428">0.3367176 0.442102 0.8572443 0.4421023 0.8572445 0.9515905 1.017947 1.632313 0.8604398 1.199016 0.9222057 1.199014 0.8572443 1.415821 0.3367176 1.415821 0.3367174 0.9547859 1.649366 1.632313 1.571075 1.677865 1.745043 1.199021 1.571075 1.677865 1.640874 1.714899 1.608692 1.731906 0.8572443 1.415821 0.8572443 1.468021 0.3367176 1.468022 1.026451 1.714902 0.9924426 1.677859 1.017947 1.632313 0.3367176 0.442102 0.3367177 -0.06738615 0.8572445 -0.06738609 1.270268 1.199015 1.332034 1.199014 1.174546 1.63231 1.464265 -0.5316177 1.464266 -0.07058256 0.9437386 -0.07058143 1.492769 1.632326 1.335229 1.199019 1.396998 1.199014 1.571075 1.677865 1.571083 1.736769 1.533468 1.731916 1.464265 -0.5316177 0.9437376 -0.5316169 0.9437374 -0.583817 1.166046 1.714899 1.096248 1.677857 1.174546 1.63231 1.723081 -1.19928 1.723081 -0.6201688 1.678864 -0.6201688 1.63587 -1.19928 1.63587 -0.6201689 1.494415 -0.6201689 1.678864 -1.19928 1.678864 -0.6201688 1.63587 -0.6201689 2.130152 -0.6201743 2.122198 -0.6201743 2.122197 -1.199279 2.150615 -0.01649814 2.159414 -0.01649814 2.159411 0.5626179 1.863312 -1.19928 1.863313 -0.6201688 1.723081 -0.6201688 1.865733 1.144925 1.865733 0.5658141 2.005965 0.5658141 2.147419 1.144925 2.005965 1.144925 2.005965 0.5658141 2.159414 -0.01649814 2.180823 -0.01649814 2.18082 0.5626181 2.272845 0.5626187 2.264045 0.5626187 2.264049 -0.01649796 2.242637 0.5626185 2.18082 0.5626181 2.180823 -0.01649814 2.264045 0.5626187 2.242637 0.5626185 2.242639 -0.01649808 2.122198 -0.6201743 2.094493 -0.6201743 2.094491 -1.19928 1.999928 -1.19928 2.007883 -1.19928 2.007884 -0.6201736 2.03559 -0.6201738 2.035588 -1.19928 2.094491 -1.19928 2.007883 -1.19928 2.035588 -1.19928 2.03559 -0.6201738 1.633871 -0.5987994 1.678089 -0.5987996 1.678089 -0.01968866 1.721083 -0.5987998 1.862537 -0.5987998 1.862537 -0.0196889 1.678089 -0.5987996 1.721083 -0.5987998 1.721083 -0.0196889 1.999155 0.5626137 1.999155 -0.01649212 2.007109 -0.01649218 2.217114 1.199015 2.217113 1.778132 2.208314 1.778132 1.49364 -0.5987996 1.633871 -0.5987994 1.633872 -0.01968824 2.091688 1.778125 1.951456 1.778125 1.951457 1.199014 1.810002 1.778125 1.810002 1.199014 1.951457 1.199014 2.208317 1.199015 2.208314 1.778132 2.186905 1.778132 2.094884 1.77813 2.094884 1.199014 2.103683 1.199014 2.125089 1.778131 2.125092 1.199014 2.186908 1.199014 2.10368 1.778131 2.103683 1.199014 2.125092 1.199014 2.007111 0.5626137 2.007109 -0.01649218 2.034814 -0.01649248 2.129379 -0.01649284 2.129379 0.562613 2.121424 0.562613 2.093719 0.5626132 2.034817 0.5626132 2.034814 -0.01649248 2.121423 -0.01649278 2.121424 0.562613 2.093719 0.5626132 1.633871 0.565814 1.678089 0.565814 1.67809 1.144925 1.721083 0.5658141 1.862538 0.565814 1.862538 1.144924 1.678089 0.565814 1.721083 0.5658141 1.721083 1.144925 1.866508 -0.620173 1.866509 -1.19928 1.874464 -1.199279 2.255578 -1.199279 2.255577 -0.620162 2.246778 -0.620162 1.49364 0.5658141 1.633871 0.565814 1.633872 1.144926 -0.3579584 1.405166 -0.4981902 1.405166 -0.4981904 0.8260554 -0.6396449 1.405166 -0.6396451 0.8260554 -0.4981904 0.8260554 2.246781 -1.199279 2.246778 -0.620162 2.225369 -0.6201626 2.133347 -0.6201636 2.133347 -1.19928 2.142147 -1.19928 2.163553 -0.6201632 2.163556 -1.19928 2.225372 -1.199279 2.142144 -0.6201635 2.142147 -1.19928 2.163556 -1.19928 1.874464 -0.620173 1.874464 -1.199279 1.902169 -1.199279 1.996733 -1.199278 1.996733 -0.6201727 1.988778 -0.6201727 1.961073 -0.620173 1.90217 -0.620173 1.902169 -1.199279 1.988777 -1.199278 1.988778 -0.6201727 1.961073 -0.620173 1.722305 -0.01649266 1.722306 0.5626187 1.678089 0.5626184 1.635095 -0.01649254 1.635095 0.5626184 1.49364 0.5626179 1.678089 -0.01649254 1.678089 0.5626184 1.635095 0.5626184 1.995957 0.562613 1.988003 0.5626132 1.988004 -0.01649284 2.150615 0.565814 2.159415 0.565814 2.159411 1.144931 1.862537 -0.01649284 1.862538 0.5626187 1.722306 0.5626187 1.865733 -0.01968842 1.865733 -0.5987991 2.005964 -0.5987989 2.147419 -0.01968824 2.005964 -0.01968812 2.005964 -0.5987989 2.159415 0.565814 2.180823 0.5658143 2.18082 1.144931 2.272845 1.144932 2.264045 1.144932 2.264049 0.565815 2.242637 1.144932 2.18082 1.144931 2.180823 0.5658143 2.264045 1.144932 2.242637 1.144932 2.242639 0.5658149 1.988003 0.5626132 1.960298 0.562613 1.960298 -0.01649278 1.865735 -0.01649254 1.87369 -0.01649248 1.873689 0.5626132 1.901395 0.562613 1.901395 -0.01649266 1.960298 -0.01649278 1.87369 -0.01649248 1.901395 -0.01649266 1.901395 0.562613 0.9405422 -0.07058256 0.3871956 -0.07058238 0.3871951 -1.199279 0.3871956 -0.07058238 -0.1661508 -0.07058238 -0.1661517 -1.199279 -0.1661508 -0.07058238 -0.7194973 -0.07058197 -0.7194985 -1.199278 -0.7194973 -0.07058197 -1.272844 -0.07058143 -1.272845 -1.199278 0.8987686 1.15749 1.452116 1.15749 1.490444 1.195819 -1.187987 1.739986 -0.5580274 1.739966 -0.5580258 1.826452 1.452116 1.15749 1.452116 0.6041428 1.490444 0.565814 1.452116 0.6041428 0.8987686 0.6041428 0.8604398 0.5658141 0.8987686 0.6041428 0.8987686 1.15749 0.8604398 1.195819 -1.272845 0.8260552 -0.6428406 0.8260552 -0.7570469 0.9402619 -0.5580274 1.739966 0.07197171 1.739958 0.07197177 1.82645 0.07197171 1.739958 0.7019971 1.739959 0.7019963 1.826454 0.7019971 1.739959 1.332034 1.739966 1.332033 1.826461 1.736821 1.739965 1.736821 2.141556 1.335229 2.141556 -0.06806945 0.8228592 -0.4696612 0.8228596 -0.4696616 -0.06738573 -1.272845 1.45606 -1.272845 0.8260552 -1.158638 0.9402619 -0.6428406 0.8260552 -0.6428404 1.45606 -0.7570469 1.341854 -0.6428404 1.45606 -1.272845 1.45606 -1.158638 1.341853 -0.871253 0.8228598 -1.272845 0.8228601 -1.272845 -0.06738543 -0.4696612 0.8228596 -0.871253 0.8228598 -0.8712533 -0.06738555 0.3335222 0.8228588 -0.06806945 0.8228592 -0.06806999 -0.06738597 0.86044 0.5626187 1.026068 0.3969906 1.324816 0.3969904 0.8604398 -0.06738597 1.026068 0.09824204 1.026068 0.3969906 1.490444 0.5626187 1.324816 0.3969904 1.324816 0.09824186 1.490444 -0.06738615 1.324816 0.09824186 1.026068 0.09824204 -0.2964827 1.45606 -0.296483 0.8260552 -0.1308548 0.9916834 0.3335213 1.45606 -0.2964827 1.45606 -0.130855 1.290432 -0.296483 0.8260552 0.3335222 0.8260557 0.1678939 0.9916836 0.3335222 0.8260557 0.3335213 1.45606 0.1678937 1.290432 -0.2640297 1.459436 0.03472983 1.459358 0.0347445 1.508325 -0.8614764 1.459436 -0.5627594 1.459468 -0.5627595 1.508427 -0.5627594 1.459468 -0.2640297 1.459436 -0.264021 1.508399 0.03472983 1.459358 0.3335052 1.459256 0.3335222 1.508223 -1.188007 1.830715 -0.5580951 1.830715 -0.5580858 1.879674 -0.5580951 1.830715 0.07193708 1.830475 0.07196086 1.879441 0.07193708 1.830475 0.7019907 1.830101 0.7020221 1.879065 0.7019907 1.830101 1.332 1.829666 1.332034 1.878629 0.3367174 0.9515905 0.3367176 0.442102 0.8572445 0.9515905 1.096248 1.677857 1.017947 1.632313 0.9222057 1.199014 0.8572443 0.9547859 0.8572443 1.415821 0.3367174 0.9547859 1.806806 1.199014 1.649366 1.632313 1.745043 1.199021 1.649366 1.632313 1.640874 1.714899 1.571075 1.677865 1.649366 1.632313 1.674875 1.677853 1.640874 1.714899 1.571083 1.736769 1.571075 1.677865 1.608692 1.731906 0.3367176 1.415821 0.8572443 1.415821 0.3367176 1.468022 1.096248 1.677857 1.026451 1.714902 1.017947 1.632313 1.096248 1.677857 1.09625 1.736763 1.058637 1.731906 0.8572443 0.4421023 0.3367176 0.442102 0.8572445 -0.06738609 1.096248 1.677857 1.058637 1.731906 1.026451 1.714902 1.096248 1.677857 1.270268 1.199015 1.174546 1.63231 0.9437376 -0.5316169 1.464265 -0.5316177 0.9437386 -0.07058143 1.571075 1.677865 1.492769 1.632326 1.396998 1.199014 1.464265 -0.583817 1.464265 -0.5316177 0.9437374 -0.583817 1.501281 1.714916 1.571075 1.677865 1.533468 1.731916 1.501281 1.714916 1.467268 1.677875 1.492769 1.632326 1.501281 1.714916 1.492769 1.632326 1.571075 1.677865 1.200052 1.677855 1.166046 1.714899 1.174546 1.63231 1.133862 1.731902 1.096248 1.677857 1.166046 1.714899 1.133862 1.731902 1.09625 1.736763 1.096248 1.677857 1.678864 -1.19928 1.723081 -1.19928 1.678864 -0.6201688 1.494415 -1.19928 1.63587 -1.19928 1.494415 -0.6201689 1.63587 -1.19928 1.678864 -1.19928 1.63587 -0.6201689 2.130152 -1.199279 2.130152 -0.6201743 2.122197 -1.199279 2.150615 0.5626181 2.150615 -0.01649814 2.159411 0.5626179 1.723081 -1.19928 1.863312 -1.19928 1.723081 -0.6201688 2.005965 1.144925 1.865733 1.144925 2.005965 0.5658141 2.147419 0.565814 2.147419 1.144925 2.005965 0.5658141 2.159411 0.5626179 2.159414 -0.01649814 2.18082 0.5626181 2.272845 -0.01649779 2.272845 0.5626187 2.264049 -0.01649796 2.242639 -0.01649808 2.242637 0.5626185 2.180823 -0.01649814 2.264049 -0.01649796 2.264045 0.5626187 2.242639 -0.01649808 2.122197 -1.199279 2.122198 -0.6201743 2.094491 -1.19928 1.999928 -0.6201737 1.999928 -1.19928 2.007884 -0.6201736 2.094493 -0.6201743 2.03559 -0.6201738 2.094491 -1.19928 2.007884 -0.6201736 2.007883 -1.19928 2.03559 -0.6201738 1.633872 -0.01968824 1.633871 -0.5987994 1.678089 -0.01968866 1.721083 -0.0196889 1.721083 -0.5987998 1.862537 -0.0196889 1.678089 -0.01968866 1.678089 -0.5987996 1.721083 -0.0196889 2.007111 0.5626137 1.999155 0.5626137 2.007109 -0.01649218 2.208317 1.199015 2.217114 1.199015 2.208314 1.778132 1.49364 -0.01968812 1.49364 -0.5987996 1.633872 -0.01968824 2.091688 1.199014 2.091688 1.778125 1.951457 1.199014 1.951456 1.778125 1.810002 1.778125 1.951457 1.199014 2.186908 1.199014 2.208317 1.199015 2.186905 1.778132 2.10368 1.778131 2.094884 1.77813 2.103683 1.199014 2.186905 1.778132 2.125089 1.778131 2.186908 1.199014 2.125089 1.778131 2.10368 1.778131 2.125092 1.199014 2.034817 0.5626132 2.007111 0.5626137 2.034814 -0.01649248 2.121423 -0.01649278 2.129379 -0.01649284 2.121424 0.562613 2.093717 -0.01649278 2.093719 0.5626132 2.034814 -0.01649248 2.093717 -0.01649278 2.121423 -0.01649278 2.093719 0.5626132 1.633872 1.144926 1.633871 0.565814 1.67809 1.144925 1.721083 1.144925 1.721083 0.5658141 1.862538 1.144924 1.67809 1.144925 1.678089 0.565814 1.721083 1.144925 1.874464 -0.620173 1.866508 -0.620173 1.874464 -1.199279 2.246781 -1.199279 2.255578 -1.199279 2.246778 -0.620162 1.493641 1.144926 1.49364 0.5658141 1.633872 1.144926 -0.3579584 0.8260552 -0.3579584 1.405166 -0.4981904 0.8260554 -0.4981902 1.405166 -0.6396449 1.405166 -0.4981904 0.8260554 2.225372 -1.199279 2.246781 -1.199279 2.225369 -0.6201626 2.142144 -0.6201635 2.133347 -0.6201636 2.142147 -1.19928 2.225369 -0.6201626 2.163553 -0.6201632 2.225372 -1.199279 2.163553 -0.6201632 2.142144 -0.6201635 2.163556 -1.19928 1.90217 -0.620173 1.874464 -0.620173 1.902169 -1.199279 1.988777 -1.199278 1.996733 -1.199278 1.988778 -0.6201727 1.961071 -1.199279 1.961073 -0.620173 1.902169 -1.199279 1.961071 -1.199279 1.988777 -1.199278 1.961073 -0.620173 1.678089 -0.01649254 1.722305 -0.01649266 1.678089 0.5626184 1.49364 -0.01649212 1.635095 -0.01649254 1.49364 0.5626179 1.635095 -0.01649254 1.678089 -0.01649254 1.635095 0.5626184 1.995959 -0.01649284 1.995957 0.562613 1.988004 -0.01649284 2.150615 1.144931 2.150615 0.565814 2.159411 1.144931 1.722305 -0.01649266 1.862537 -0.01649284 1.722306 0.5626187 2.005964 -0.01968812 1.865733 -0.01968842 2.005964 -0.5987989 2.147419 -0.5987991 2.147419 -0.01968824 2.005964 -0.5987989 2.159411 1.144931 2.159415 0.565814 2.18082 1.144931 2.272845 0.5658153 2.272845 1.144932 2.264049 0.565815 2.242639 0.5658149 2.242637 1.144932 2.180823 0.5658143 2.264049 0.565815 2.264045 1.144932 2.242639 0.5658149 1.988004 -0.01649284 1.988003 0.5626132 1.960298 -0.01649278 1.865733 0.5626132 1.865735 -0.01649254 1.873689 0.5626132 1.960298 0.562613 1.901395 0.562613 1.960298 -0.01649278 1.873689 0.5626132 1.87369 -0.01649248 1.901395 0.562613 0.9405422 -1.19928 0.9405422 -0.07058256 0.3871951 -1.199279 0.3871951 -1.199279 0.3871956 -0.07058238 -0.1661517 -1.199279 -0.1661517 -1.199279 -0.1661508 -0.07058238 -0.7194985 -1.199278 -0.7194985 -1.199278 -0.7194973 -0.07058197 -1.272845 -1.199278 0.8604398 1.195819 0.8987686 1.15749 1.490444 1.195819 -1.187984 1.82647 -1.187987 1.739986 -0.5580258 1.826452 1.490444 1.195819 1.452116 1.15749 1.490444 0.565814 1.490444 0.565814 1.452116 0.6041428 0.8604398 0.5658141 0.8604398 0.5658141 0.8987686 0.6041428 0.8604398 1.195819 -1.158638 0.9402619 -1.272845 0.8260552 -0.7570469 0.9402619 -0.5580258 1.826452 -0.5580274 1.739966 0.07197177 1.82645 0.07197177 1.82645 0.07197171 1.739958 0.7019963 1.826454 0.7019963 1.826454 0.7019971 1.739959 1.332033 1.826461 1.335229 1.739965 1.736821 1.739965 1.335229 2.141556 -0.06806999 -0.06738597 -0.06806945 0.8228592 -0.4696616 -0.06738573 -1.158638 1.341853 -1.272845 1.45606 -1.158638 0.9402619 -0.7570469 0.9402619 -0.6428406 0.8260552 -0.7570469 1.341854 -0.7570469 1.341854 -0.6428404 1.45606 -1.158638 1.341853 -0.8712533 -0.06738555 -0.871253 0.8228598 -1.272845 -0.06738543 -0.4696616 -0.06738573 -0.4696612 0.8228596 -0.8712533 -0.06738555 0.3335215 -0.06738615 0.3335222 0.8228588 -0.06806999 -0.06738597 1.490444 0.5626187 0.86044 0.5626187 1.324816 0.3969904 0.86044 0.5626187 0.8604398 -0.06738597 1.026068 0.3969906 1.490444 -0.06738615 1.490444 0.5626187 1.324816 0.09824186 0.8604398 -0.06738597 1.490444 -0.06738615 1.026068 0.09824204 -0.130855 1.290432 -0.2964827 1.45606 -0.1308548 0.9916834 0.1678937 1.290432 0.3335213 1.45606 -0.130855 1.290432 -0.1308548 0.9916834 -0.296483 0.8260552 0.1678939 0.9916836 0.1678939 0.9916836 0.3335222 0.8260557 0.1678937 1.290432 -0.264021 1.508399 -0.2640297 1.459436 0.0347445 1.508325 -0.8614818 1.508394 -0.8614764 1.459436 -0.5627595 1.508427 -0.5627595 1.508427 -0.5627594 1.459468 -0.264021 1.508399 0.0347445 1.508325 0.03472983 1.459358 0.3335222 1.508223 -1.188007 1.879671 -1.188007 1.830715 -0.5580858 1.879674 -0.5580858 1.879674 -0.5580951 1.830715 0.07196086 1.879441 0.07196086 1.879441 0.07193708 1.830475 0.7020221 1.879065 0.7020221 1.879065 0.7019907 1.830101 1.332034 1.878629</float_array>
          <technique_common>
            <accessor source="#Cube_002-mesh-map-0-array" count="714" stride="2">
              <param name="S" type="float"/>
              <param name="T" type="float"/>
            </accessor>
          </technique_common>
        </source>
        <vertices id="Cube_002-mesh-vertices">
          <input semantic="POSITION" source="#Cube_002-mesh-positions"/>
        </vertices>
        <polylist material="Brick-material" count="238">
          <input semantic="VERTEX" source="#Cube_002-mesh-vertices" offset="0"/>
          <input semantic="NORMAL" source="#Cube_002-mesh-normals" offset="1"/>
          <input semantic="TEXCOORD" source="#Cube_002-mesh-map-0" offset="2" set="0"/>
          <vcount>3 3 3 3 3 3 3 3 3 3 3 3 3 3 3 3 3 3 3 3 3 3 3 3 3 3 3 3 3 3 3 3 3 3 3 3 3 3 3 3 3 3 3 3 3 3 3 3 3 3 3 3 3 3 3 3 3 3 3 3 3 3 3 3 3 3 3 3 3 3 3 3 3 3 3 3 3 3 3 3 3 3 3 3 3 3 3 3 3 3 3 3 3 3 3 3 3 3 3 3 3 3 3 3 3 3 3 3 3 3 3 3 3 3 3 3 3 3 3 3 3 3 3 3 3 3 3 3 3 3 3 3 3 3 3 3 3 3 3 3 3 3 3 3 3 3 3 3 3 3 3 3 3 3 3 3 3 3 3 3 3 3 3 3 3 3 3 3 3 3 3 3 3 3 3 3 3 3 3 3 3 3 3 3 3 3 3 3 3 3 3 3 3 3 3 3 3 3 3 3 3 3 3 3 3 3 3 3 3 3 3 3 3 3 3 3 3 3 3 3 3 3 3 3 3 3 3 3 3 3 3 3 3 3 3 3 3 3 </vcount>
          <p>16 0 0 17 0 1 1 0 2 4 1 3 2 1 4 1 1 5 4 2 6 5 2 7 3 2 8 5 3 9 16 3 10 0 3 11 16 4 12 9 4 13 11 4 14 4 5 15 6 5 16 7 5 17 8 6 18 6 6 19 4 6 20 16 7 21 12 7 22 13 7 23 13 8 24 14 8 25 18 8 26 18 9 27 14 9 28 15 9 29 19 10 30 15 10 31 12 10 32 16 11 33 27 11 34 25 11 35 18 12 36 19 12 37 21 12 38 22 13 39 17 13 40 18 13 41 39 14 42 40 14 43 29 14 44 34 15 45 35 15 46 31 15 47 28 16 48 29 16 49 35 16 50 37 17 51 55 17 52 54 17 53 41 18 54 47 18 55 46 18 56 32 19 57 33 19 58 40 19 59 37 20 60 36 20 61 42 20 62 38 21 63 43 21 64 42 21 65 47 22 66 51 22 67 50 22 68 31 23 69 45 23 70 44 23 71 49 24 72 50 24 73 51 24 74 45 25 75 49 25 76 48 25 77 55 26 78 59 26 79 58 26 80 32 27 81 52 27 82 53 27 83 57 28 84 56 28 85 58 28 86 52 29 87 56 29 88 57 29 89 71 30 90 60 30 91 61 30 92 66 31 93 62 31 94 63 31 95 60 32 96 66 32 97 67 32 98 69 33 99 68 33 100 86 33 101 73 34 102 70 34 103 78 34 104 64 35 105 71 35 106 72 35 107 69 36 108 75 36 109 74 36 110 70 37 111 73 37 112 74 37 113 79 38 114 78 38 115 82 38 116 63 39 117 62 39 118 76 39 119 81 40 120 80 40 121 83 40 122 77 41 123 76 41 124 80 41 125 87 42 126 86 42 127 90 42 128 64 43 129 65 43 130 85 43 131 89 44 132 91 44 133 90 44 134 84 45 135 85 45 136 89 45 137 103 46 138 92 46 139 93 46 140 98 47 141 94 47 142 95 47 143 92 48 144 98 48 145 99 48 146 101 49 147 100 49 148 118 49 149 105 50 150 102 50 151 110 50 152 96 51 153 103 51 154 104 51 155 101 52 156 107 52 157 106 52 158 102 53 159 105 53 160 106 53 161 111 54 162 110 54 163 114 54 164 95 55 165 94 55 166 108 55 167 113 56 168 112 56 169 115 56 170 109 57 171 108 57 172 112 57 173 119 58 174 118 58 175 122 58 176 96 59 177 97 59 178 117 59 179 121 60 180 123 60 181 122 60 182 116 61 183 117 61 184 121 61 185 135 62 186 136 62 187 125 62 188 130 63 189 131 63 190 127 63 191 124 64 192 125 64 193 131 64 194 133 65 195 151 65 196 150 65 197 137 66 198 143 66 199 142 66 200 128 67 201 129 67 202 136 67 203 133 68 204 132 68 205 138 68 206 134 69 207 139 69 208 138 69 209 143 70 210 147 70 211 146 70 212 127 71 213 141 71 214 140 71 215 145 72 216 146 72 217 147 72 218 141 73 219 145 73 220 144 73 221 151 74 222 155 74 223 154 74 224 128 75 225 148 75 226 149 75 227 153 76 228 152 76 229 154 76 230 148 77 231 152 77 232 153 77 233 160 78 234 161 78 235 157 78 236 161 79 237 162 79 238 158 79 239 162 80 240 163 80 241 159 80 242 163 81 243 160 81 244 156 81 245 160 82 246 163 82 247 167 82 248 164 83 249 167 83 250 171 83 251 163 84 252 162 84 253 166 84 254 162 85 255 161 85 256 165 85 257 161 86 258 160 86 259 164 86 260 168 87 261 171 87 262 176 87 263 167 88 264 166 88 265 170 88 266 166 89 267 165 89 268 169 89 269 165 90 270 164 90 271 168 90 272 175 91 273 174 91 274 173 91 275 176 92 276 177 92 277 174 92 278 169 93 279 168 93 280 179 93 281 171 94 282 170 94 283 177 94 284 170 95 285 169 95 286 178 95 287 178 96 288 179 96 289 172 96 290 177 97 291 178 97 292 173 97 293 179 98 294 176 98 295 175 98 296 180 99 297 187 99 298 184 99 299 181 100 300 186 100 301 187 100 302 183 101 303 184 101 304 185 101 305 182 102 306 185 102 307 186 102 308 188 103 309 191 103 310 192 103 311 189 104 312 188 104 313 195 104 314 191 105 315 190 105 316 193 105 317 190 106 318 189 106 319 194 106 320 185 107 321 184 107 322 192 107 323 187 108 324 186 108 325 194 108 326 186 109 327 185 109 328 193 109 329 184 110 330 187 110 331 195 110 332 180 111 333 183 111 334 191 111 335 183 112 336 182 112 337 190 112 338 182 113 339 181 113 340 189 113 341 181 114 342 180 114 343 188 114 344 0 115 345 16 115 346 1 115 347 17 116 348 4 116 349 1 116 350 2 117 351 4 117 352 3 117 353 3 118 354 5 118 355 0 118 356 5 119 357 9 119 358 16 119 359 5 120 360 7 120 361 9 120 362 27 121 363 16 121 364 11 121 365 5 122 366 4 122 367 7 122 368 17 123 369 8 123 370 4 123 371 17 124 372 26 124 373 10 124 374 17 125 375 16 125 376 13 125 377 17 126 378 10 126 379 8 126 380 17 127 381 13 127 382 18 127 383 19 128 384 18 128 385 15 128 386 16 129 387 19 129 388 12 129 389 20 130 390 18 130 391 21 130 392 23 131 393 16 131 394 25 131 395 23 132 396 21 132 397 19 132 398 23 133 399 19 133 400 16 133 401 20 134 402 22 134 403 18 134 404 24 135 405 17 135 406 22 135 407 24 136 408 26 136 409 17 136 410 28 137 411 39 137 412 29 137 413 30 138 414 34 138 415 31 138 416 34 139 417 28 139 418 35 139 419 36 140 420 37 140 421 54 140 422 38 141 423 41 141 424 46 141 425 39 142 426 32 142 427 40 142 428 43 143 429 37 143 430 42 143 431 41 144 432 38 144 433 42 144 434 46 145 435 47 145 436 50 145 437 30 146 438 31 146 439 44 146 440 48 147 441 49 147 442 51 147 443 44 148 444 45 148 445 48 148 446 54 149 447 55 149 448 58 149 449 33 150 450 32 150 451 53 150 452 59 151 453 57 151 454 58 151 455 53 152 456 52 152 457 57 152 458 72 153 459 71 153 460 61 153 461 67 154 462 66 154 463 63 154 464 61 155 465 60 155 466 67 155 467 87 156 468 69 156 469 86 156 470 79 157 471 73 157 472 78 157 473 65 158 474 64 158 475 72 158 476 68 159 477 69 159 478 74 159 479 75 160 480 70 160 481 74 160 482 83 161 483 79 161 484 82 161 485 77 162 486 63 162 487 76 162 488 82 163 489 81 163 490 83 163 491 81 164 492 77 164 493 80 164 494 91 165 495 87 165 496 90 165 497 84 166 498 64 166 499 85 166 500 88 167 501 89 167 502 90 167 503 88 168 504 84 168 505 89 168 506 104 169 507 103 169 508 93 169 509 99 170 510 98 170 511 95 170 512 93 171 513 92 171 514 99 171 515 119 172 516 101 172 517 118 172 518 111 173 519 105 173 520 110 173 521 97 174 522 96 174 523 104 174 524 100 175 525 101 175 526 106 175 527 107 176 528 102 176 529 106 176 530 115 177 531 111 177 532 114 177 533 109 178 534 95 178 535 108 178 536 114 179 537 113 179 538 115 179 539 113 180 540 109 180 541 112 180 542 123 181 543 119 181 544 122 181 545 116 182 546 96 182 547 117 182 548 120 183 549 121 183 550 122 183 551 120 184 552 116 184 553 121 184 554 124 185 555 135 185 556 125 185 557 126 186 558 130 186 559 127 186 560 130 187 561 124 187 562 131 187 563 132 188 564 133 188 565 150 188 566 134 189 567 137 189 568 142 189 569 135 190 570 128 190 571 136 190 572 139 191 573 133 191 574 138 191 575 137 192 576 134 192 577 138 192 578 142 193 579 143 193 580 146 193 581 126 194 582 127 194 583 140 194 584 144 195 585 145 195 586 147 195 587 140 196 588 141 196 589 144 196 590 150 197 591 151 197 592 154 197 593 129 198 594 128 198 595 149 198 596 155 199 597 153 199 598 154 199 599 149 200 600 148 200 601 153 200 602 156 201 603 160 201 604 157 201 605 157 202 606 161 202 607 158 202 608 158 203 609 162 203 610 159 203 611 159 204 612 163 204 613 156 204 614 164 205 615 160 205 616 167 205 617 168 206 618 164 206 619 171 206 620 167 207 621 163 207 622 166 207 623 166 208 624 162 208 625 165 208 626 165 209 627 161 209 628 164 209 629 179 210 630 168 210 631 176 210 632 171 211 633 167 211 634 170 211 635 170 212 636 166 212 637 169 212 638 169 213 639 165 213 640 168 213 641 172 214 642 175 214 643 173 214 644 175 215 645 176 215 646 174 215 647 178 216 648 169 216 649 179 216 650 176 217 651 171 217 652 177 217 653 177 218 654 170 218 655 178 218 656 173 219 657 178 219 658 172 219 659 174 220 660 177 220 661 173 220 662 172 221 663 179 221 664 175 221 665 183 222 666 180 222 667 184 222 668 180 223 669 181 223 670 187 223 671 182 224 672 183 224 673 185 224 674 181 225 675 182 225 676 186 225 677 195 226 678 188 226 679 192 226 680 194 227 681 189 227 682 195 227 683 192 228 684 191 228 685 193 228 686 193 229 687 190 229 688 194 229 689 193 230 690 185 230 691 192 230 692 195 231 693 187 231 694 194 231 695 194 232 696 186 232 697 193 232 698 192 233 699 184 233 700 195 233 701 188 234 702 180 234 703 191 234 704 191 235 705 183 235 706 190 235 707 190 236 708 182 236 709 189 236 710 189 237 711 181 237 712 188 237 713</p>
        </polylist>
      </mesh>
    </geometry>
    <geometry id="Cube_005-mesh" name="Cube.005">
      <mesh>
        <source id="Cube_005-mesh-positions">
          <float_array id="Cube_005-mesh-positions-array" count="84">0.1345403 0.3416422 2.48999 0.1345403 -0.3416422 2.48999 0.08711105 0.3416422 2.544718 0.08711105 -0.3416422 2.544718 0.04694199 0.3416422 2.56594 0.04694199 -0.3416422 2.56594 0.1438069 0.3416422 2.49763 0.1438069 -0.3416422 2.49763 0.0926674 0.3416422 2.555366 0.0926674 -0.3416422 2.555366 0.05249834 0.3416422 2.576587 0.05249834 -0.3416422 2.576587 -0.1345403 0.3416422 2.48999 -0.1345403 -0.3416422 2.48999 -0.08711105 0.3416422 2.544718 -0.08711105 -0.3416422 2.544718 -0.04694199 0.3416422 2.56594 -0.04694199 -0.3416422 2.56594 0 0.3416422 2.572003 0 -0.3416422 2.572003 -0.1438069 0.3416422 2.49763 -0.1438069 -0.3416422 2.49763 -0.0926674 0.3416422 2.555366 -0.0926674 -0.3416422 2.555366 -0.05249834 0.3416422 2.576587 -0.05249834 -0.3416422 2.576587 0 0.3416422 2.58265 0 -0.3416422 2.58265</float_array>
          <technique_common>
            <accessor source="#Cube_005-mesh-positions-array" count="28" stride="3">
              <param name="X" type="float"/>
              <param name="Y" type="float"/>
              <param name="Z" type="float"/>
            </accessor>
          </technique_common>
        </source>
        <source id="Cube_005-mesh-normals">
          <float_array id="Cube_005-mesh-normals-array" count="156">-0.7557004 0 -0.6549176 -0.4671216 0 -0.8841931 -0.1280998 0 -0.9917613 0.7485725 0 0.6630529 0.4671216 0 0.8841931 0.1147308 0 0.9933966 0 -1 0 0 1 0 0 -1 0 0 1 0 0 -1 0 0 1 0 0.6361322 0 -0.7715801 0.7557005 0 -0.6549174 0.4671216 0 -0.8841931 0.1280998 0 -0.9917613 -0.7485722 0 0.6630532 -0.4671216 0 0.8841931 -0.1147308 0 0.9933966 0 -1 0 0 1 0 0 -1 0 0 1 0 0 -1 0 0 1 0 -0.6361317 0 -0.7715806 -0.7557005 0 -0.6549174 -0.4671216 0 -0.8841931 -0.1280998 0 -0.9917613 0.7485722 0 0.6630532 0.4671216 0 0.8841931 0.1147308 0 0.9933966 0 -1 0 0 1 0 0 -1 0 0 1 0 0 -1 0 0 1 0 0.6361317 0 -0.7715806 0.7557004 0 -0.6549176 0.4671216 0 -0.8841931 0.1280998 0 -0.9917613 -0.7485725 0 0.6630529 -0.4671216 0 0.8841931 -0.1147308 0 0.9933966 0 -1 0 0 1 0 0 -1 0 0 1 0 0 -1 0 0 1 0 -0.6361322 0 -0.7715801</float_array>
          <technique_common>
            <accessor source="#Cube_005-mesh-normals-array" count="52" stride="3">
              <param name="X" type="float"/>
              <param name="Y" type="float"/>
              <param name="Z" type="float"/>
            </accessor>
          </technique_common>
        </source>
        <source id="Cube_005-mesh-map-0">
          <float_array id="Cube_005-mesh-map-0-array" count="312">0.7793039 0.03774398 0.6250361 0.03774565 0.625036 0.0213952 0.7793036 0.02139341 0.625036 0.0213952 0.6250358 0.01113826 0.7793036 0.01113653 0.6250358 0.01113826 0.6250357 4.52038e-4 0.7793039 0.04045552 0.779304 0.05786895 0.6250362 0.05786931 0.779304 0.05786895 0.7793041 0.06812584 0.6250362 0.0681262 0.7793041 0.06812584 0.7793041 0.08005738 0.6250362 0.08005768 0.04344886 0.766766 0.04470622 0.7691694 0.03285199 0.7705448 0.5681895 0.752939 0.580044 0.7543089 0.5787893 0.756713 0.05377483 0.7643621 0.04470622 0.7691694 0.04344886 0.766766 0.5787893 0.756713 0.580044 0.7543089 0.5891143 0.7591002 0.06530731 0.751291 0.05377483 0.7643621 0.05251526 0.7619584 0.5878602 0.7615044 0.5891143 0.7591002 0.6006638 0.7721301 0.7793039 0.03774398 0.7793039 0.04045552 0.6250361 0.04045599 0.7793042 0.1223698 0.7793043 0.1387204 0.6250361 0.1387218 0.7793043 0.1387204 0.7793043 0.1489773 0.6250362 0.1489788 0.7793043 0.1489773 0.7793045 0.1596636 0.6250362 0.1596652 0.7793042 0.1196594 0.625036 0.1196594 0.625036 0.1022459 0.7793042 0.1022459 0.625036 0.1022459 0.6250361 0.09198915 0.7793042 0.09198915 0.6250361 0.09198915 0.6250362 0.08005768 0.02226263 0.7667616 0.03285264 0.7681414 0.03285199 0.7705448 0.55759 0.7567113 0.5563354 0.7543072 0.5681895 0.752939 0.02226263 0.7667616 0.02100467 0.7691621 0.01195085 0.7643526 0.55759 0.7567113 0.5485212 0.7615031 0.5472669 0.7590995 0.01321083 0.7619534 0.01195085 0.7643526 4.50184e-4 0.751291 0.5485212 0.7615031 0.537814 0.7738557 0.5357224 0.772131 0.7793042 0.1223698 0.625036 0.1223711 0.625036 0.1196594 0.7793036 0.02139341 0.7793039 0.03774398 0.625036 0.0213952 0.7793036 0.01113653 0.7793036 0.02139341 0.6250358 0.01113826 0.7793034 4.50184e-4 0.7793036 0.01113653 0.6250357 4.52038e-4 0.6250361 0.04045599 0.7793039 0.04045552 0.6250362 0.05786931 0.6250362 0.05786931 0.779304 0.05786895 0.6250362 0.0681262 0.6250362 0.0681262 0.7793041 0.06812584 0.6250362 0.08005768 0.03285264 0.7681414 0.04344886 0.766766 0.03285199 0.7705448 0.5681893 0.7553431 0.5681895 0.752939 0.5787893 0.756713 0.05251526 0.7619584 0.05377483 0.7643621 0.04344886 0.766766 0.5878602 0.7615044 0.5787893 0.756713 0.5891143 0.7591002 0.06320965 0.7495685 0.06530731 0.751291 0.05251526 0.7619584 0.5985724 0.7738558 0.5878602 0.7615044 0.6006638 0.7721301 0.6250361 0.03774565 0.7793039 0.03774398 0.6250361 0.04045599 0.625036 0.1223711 0.7793042 0.1223698 0.6250361 0.1387218 0.6250361 0.1387218 0.7793043 0.1387204 0.6250362 0.1489788 0.6250362 0.1489788 0.7793043 0.1489773 0.6250362 0.1596652 0.7793042 0.1022459 0.7793042 0.1196594 0.625036 0.1022459 0.7793042 0.09198915 0.7793042 0.1022459 0.6250361 0.09198915 0.7793041 0.08005738 0.7793042 0.09198915 0.6250362 0.08005768 0.02100467 0.7691621 0.02226263 0.7667616 0.03285199 0.7705448 0.5681893 0.7553431 0.55759 0.7567113 0.5681895 0.752939 0.01321083 0.7619534 0.02226263 0.7667616 0.01195085 0.7643526 0.5563354 0.7543072 0.55759 0.7567113 0.5472669 0.7590995 0.002546072 0.7495734 0.01321083 0.7619534 4.50184e-4 0.751291 0.5472669 0.7590995 0.5485212 0.7615031 0.5357224 0.772131 0.7793042 0.1196594 0.7793042 0.1223698 0.625036 0.1196594</float_array>
          <technique_common>
            <accessor source="#Cube_005-mesh-map-0-array" count="156" stride="2">
              <param name="S" type="float"/>
              <param name="T" type="float"/>
            </accessor>
          </technique_common>
        </source>
        <vertices id="Cube_005-mesh-vertices">
          <input semantic="POSITION" source="#Cube_005-mesh-positions"/>
        </vertices>
        <polylist material="RustedMetal-material" count="52">
          <input semantic="VERTEX" source="#Cube_005-mesh-vertices" offset="0"/>
          <input semantic="NORMAL" source="#Cube_005-mesh-normals" offset="1"/>
          <input semantic="TEXCOORD" source="#Cube_005-mesh-map-0" offset="2" set="0"/>
          <vcount>3 3 3 3 3 3 3 3 3 3 3 3 3 3 3 3 3 3 3 3 3 3 3 3 3 3 3 3 3 3 3 3 3 3 3 3 3 3 3 3 3 3 3 3 3 3 3 3 3 3 3 3 </vcount>
          <p>0 0 0 1 0 1 3 0 2 2 1 3 3 1 4 5 1 5 4 2 6 5 2 7 19 2 8 6 3 9 8 3 10 9 3 11 8 4 12 10 4 13 11 4 14 10 5 15 26 5 16 27 5 17 5 6 18 11 6 19 27 6 20 26 7 21 10 7 22 4 7 23 9 8 24 11 8 25 5 8 26 4 9 27 10 9 28 8 9 29 7 10 30 9 10 31 3 10 32 2 11 33 8 11 34 6 11 35 0 12 36 6 12 37 7 12 38 12 13 39 14 13 40 15 13 41 14 14 42 16 14 43 17 14 44 16 15 45 18 15 46 19 15 47 20 16 48 21 16 49 23 16 50 22 17 51 23 17 52 25 17 53 24 18 54 25 18 55 27 18 56 17 19 57 19 19 58 27 19 59 16 20 60 24 20 61 26 20 62 17 21 63 25 21 64 23 21 65 16 22 66 14 22 67 22 22 68 15 23 69 23 23 70 21 23 71 14 24 72 12 24 73 20 24 74 12 25 75 13 25 76 21 25 77 2 26 78 0 26 79 3 26 80 4 27 81 2 27 82 5 27 83 18 28 84 4 28 85 19 28 86 7 29 87 6 29 88 9 29 89 9 30 90 8 30 91 11 30 92 11 31 93 10 31 94 27 31 95 19 32 96 5 32 97 27 32 98 18 33 99 26 33 100 4 33 101 3 34 102 9 34 103 5 34 104 2 35 105 4 35 106 8 35 107 1 36 108 7 36 109 3 36 110 0 37 111 2 37 112 6 37 113 1 38 114 0 38 115 7 38 116 13 39 117 12 39 118 15 39 119 15 40 120 14 40 121 17 40 122 17 41 123 16 41 124 19 41 125 22 42 126 20 42 127 23 42 128 24 43 129 22 43 130 25 43 131 26 44 132 24 44 133 27 44 134 25 45 135 17 45 136 27 45 137 18 46 138 16 46 139 26 46 140 15 47 141 17 47 142 23 47 143 24 48 144 16 48 145 22 48 146 13 49 147 15 49 148 21 49 149 22 50 150 14 50 151 20 50 152 20 51 153 12 51 154 21 51 155</p>
        </polylist>
      </mesh>
    </geometry>
  </library_geometries>
  <library_controllers/>
  <library_visual_scenes>
    <visual_scene id="Scene" name="Scene">
      <node id="Camera" name="Camera" type="NODE">
        <matrix sid="transform">0.6858805 -0.3173701 0.6548619 7.481132 0.7276338 0.3124686 -0.6106656 -6.50764 -0.01081678 0.8953432 0.4452454 5.343665 0 0 0 1</matrix>
        <instance_camera url="#Camera-camera"/>
      </node>
      <node id="Lamp_002" name="Lamp_002" type="NODE">
        <matrix sid="transform">0.7180832 0.5770313 -0.3890904 -5.544993 -0.6937656 0.5491673 -0.4659449 -4.281465 -0.05518905 0.6045247 0.7946723 5.903862 0 0 0 1</matrix>
        <instance_light url="#Lamp_002-light"/>
      </node>
      <node id="Chimney3" name="Chimney3" type="NODE">
        <matrix sid="transform">1 0 0 3.089944 0 1 0 0 0 0 1 0 0 0 0 1</matrix>
        <instance_geometry url="#Cube_002-mesh">
          <bind_material>
            <technique_common>
              <instance_material symbol="Brick-material" target="#Brick-material">
                <bind_vertex_input semantic="UVMap" input_semantic="TEXCOORD" input_set="0"/>
              </instance_material>
            </technique_common>
          </bind_material>
        </instance_geometry>
      </node>
      <node id="Chimney3Top" name="Chimney3Top" type="NODE">
        <matrix sid="transform">1 0 0 3.089944 0 1 0 0 0 0 1 0 0 0 0 1</matrix>
        <instance_geometry url="#Cube_005-mesh">
          <bind_material>
            <technique_common>
              <instance_material symbol="RustedMetal-material" target="#RustedMetal-material">
                <bind_vertex_input semantic="UVMap" input_semantic="TEXCOORD" input_set="0"/>
              </instance_material>
            </technique_common>
          </bind_material>
        </instance_geometry>
      </node>
    </visual_scene>
  </library_visual_scenes>
  <scene>
    <instance_visual_scene url="#Scene"/>
  </scene>
</COLLADA>