<?xml version="1.0" encoding="utf-8"?>
<COLLADA xmlns="http://www.collada.org/2005/11/COLLADASchema" version="1.4.1">
  <asset>
    <contributor>
      <author>Blender User</author>
      <authoring_tool>Blender 2.71.0 commit date:2014-06-25, commit time:18:36, hash:9337574</authoring_tool>
    </contributor>
    <created>2014-11-09T18:19:39</created>
    <modified>2014-11-09T18:19:39</modified>
    <unit name="meter" meter="1"/>
    <up_axis>Z_UP</up_axis>
  </asset>
  <library_cameras>
    <camera id="Camera-camera" name="Camera">
      <optics>
        <technique_common>
          <perspective>
            <xfov sid="xfov">49.13434</xfov>
            <aspect_ratio>1</aspect_ratio>
            <znear sid="znear">0.1</znear>
            <zfar sid="zfar">100</zfar>
          </perspective>
        </technique_common>
      </optics>
      <extra>
        <technique profile="blender">
          <YF_dofdist>0</YF_dofdist>
          <shiftx>0</shiftx>
          <shifty>0</shifty>
        </technique>
      </extra>
    </camera>
  </library_cameras>
  <library_images>
    <image id="GreyBricks_jpg" name="GreyBricks_jpg">
      <init_from>GreyBricks.jpg</init_from>
    </image>
    <image id="Plaster_jpg" name="Plaster_jpg">
      <init_from>Plaster.jpg</init_from>
    </image>
  </library_images>
  <library_effects>
    <effect id="Brick-effect">
      <profile_COMMON>
        <newparam sid="Plaster_jpg-surface">
          <surface type="2D">
            <init_from>Plaster_jpg</init_from>
          </surface>
        </newparam>
        <newparam sid="Plaster_jpg-sampler">
          <sampler2D>
            <source>Plaster_jpg-surface</source>
          </sampler2D>
        </newparam>
        <technique sid="common">
          <phong>
            <emission>
              <color sid="emission">0 0 0 1</color>
            </emission>
            <ambient>
              <color sid="ambient">0 0 0 1</color>
            </ambient>
            <diffuse>
              <texture texture="Plaster_jpg-sampler" texcoord="UVMap"/>
            </diffuse>
            <specular>
              <color sid="specular">0.00526315 0.00526315 0.00526315 1</color>
            </specular>
            <shininess>
              <float sid="shininess">50</float>
            </shininess>
            <index_of_refraction>
              <float sid="index_of_refraction">1</float>
            </index_of_refraction>
          </phong>
        </technique>
      </profile_COMMON>
    </effect>
    <effect id="Plaster-effect">
      <profile_COMMON>
        <newparam sid="Plaster_jpg-surface">
          <surface type="2D">
            <init_from>Plaster_jpg</init_from>
          </surface>
        </newparam>
        <newparam sid="Plaster_jpg-sampler">
          <sampler2D>
            <source>Plaster_jpg-surface</source>
          </sampler2D>
        </newparam>
        <technique sid="common">
          <phong>
            <emission>
              <color sid="emission">0 0 0 1</color>
            </emission>
            <ambient>
              <color sid="ambient">0 0 0 1</color>
            </ambient>
            <diffuse>
              <texture texture="Plaster_jpg-sampler" texcoord="UVMap"/>
            </diffuse>
            <specular>
              <color sid="specular">0.07723576 0.07723576 0.07723576 1</color>
            </specular>
            <shininess>
              <float sid="shininess">50</float>
            </shininess>
            <index_of_refraction>
              <float sid="index_of_refraction">1</float>
            </index_of_refraction>
          </phong>
        </technique>
      </profile_COMMON>
    </effect>
  </library_effects>
  <library_materials>
    <material id="Brick-material" name="Brick">
      <instance_effect url="#Brick-effect"/>
    </material>
    <material id="Plaster-material" name="Plaster">
      <instance_effect url="#Plaster-effect"/>
    </material>
  </library_materials>
  <library_geometries>
    <geometry id="Cube_008-mesh" name="Cube.008">
      <mesh>
        <source id="Cube_008-mesh-positions">
          <float_array id="Cube_008-mesh-positions-array" count="252">0.7999997 -2.499876 -2 -0.8 -2.499875 -2 0.7999997 -2.499876 -1.8 -0.8 -2.499875 -1.8 0.7999997 -2.249875 -1.8 -0.8 -2.249874 -1.8 0.8000001 -1.999875 -1.6 0.7999997 -2.249875 -1.6 -0.8 -2.249874 -1.6 -0.8 -1.999873 -1.6 -0.7999995 -1.749873 -1.4 0.8000001 -1.749874 -1.4 0.7999997 -1.999874 -1.4 -0.8 -1.999873 -1.4 -0.7999995 -1.499873 -1.2 0.7999997 -1.749873 -1.2 -0.8 -1.749872 -1.2 0.7999997 -1.499873 -1.2 0.7999997 -1.499873 -1 -0.8 -1.499872 -1 0.7999997 -1.249872 -1 -0.8 -1.249871 -1 -0.7999995 -0.9998709 -0.8 0.7999997 -1.249872 -0.8 -0.8 -1.249871 -0.8 0.7999997 -0.9998709 -0.8 0.7999997 -0.9998709 -0.6 -0.8 -0.99987 -0.6 0.7999997 -0.7498701 -0.6 -0.8 -0.7498691 -0.6 0.7999997 -0.7498701 -0.4 -0.8 -0.7498691 -0.4 0.7999997 -0.4998692 -0.4 -0.8 -0.4998683 -0.4 -0.7999995 -0.2498683 -0.2 0.7999997 -0.4998692 -0.2 -0.8 -0.4998683 -0.2 0.7999997 -0.2498683 -0.2 -0.7999995 1.32561e-4 0 0.8000001 1.31845e-4 0 0.7999997 -0.2498683 0 -0.8 -0.2498674 0 0.8000001 0.2501328 0.2 0.7999997 1.32561e-4 0.2 -0.8 1.33514e-4 0.2 -0.8 0.2501345 0.2 -0.7999995 0.5001345 0.4 0.7999997 0.2501335 0.4 -0.8 0.2501345 0.4 0.7999997 0.5001345 0.4 -0.7999995 0.7501354 0.6 0.8000001 0.7501347 0.6 0.7999997 0.5001345 0.6 -0.8 0.5001354 0.6 -0.7999995 1.000136 0.8 0.8000001 1.000136 0.8 0.7999997 0.7501354 0.8 -0.8 0.7501364 0.8 -0.7999995 1.250137 1 0.7999997 1.000136 1 -0.8 1.000137 1 0.7999997 1.250137 1 0.8000001 1.500138 1.2 0.7999997 1.250137 1.2 -0.8 1.250138 1.2 -0.8 1.500139 1.2 -0.7999995 1.750139 1.4 0.8000001 1.750138 1.4 0.7999997 1.500138 1.4 -0.8 1.500139 1.4 -0.7999995 2.00014 1.6 0.8000001 2.000139 1.6 0.7999997 1.750139 1.6 -0.8 1.75014 1.6 0.7999997 2.00014 1.8 -0.8 2.000141 1.8 0.7999997 2.250141 1.8 -0.8 2.250142 1.8 -0.7999995 4.236554 2 0.8000001 4.236554 2 0.7999997 2.250141 2 -0.8 2.250142 2 0.7999997 4.236554 -2 -0.8 4.236554 -2</float_array>
          <technique_common>
            <accessor source="#Cube_008-mesh-positions-array" count="84" stride="3">
              <param name="X" type="float"/>
              <param name="Y" type="float"/>
              <param name="Z" type="float"/>
            </accessor>
          </technique_common>
        </source>
        <source id="Cube_008-mesh-normals">
          <float_array id="Cube_008-mesh-normals-array" count="486">-5.96047e-7 -1 0 -5.96047e-7 -1 0 0 0 1 -5.96047e-7 -1 0 -5.96047e-7 -1 0 -5.96047e-7 -1 0 0 0 1 0 0 1 0 0 1 0 0 1 0 0 1 -1 0 0 1 7.4324e-7 1.15711e-6 -5.96047e-7 -1 0 0 0 1 0 1 0 0 0 1 0 0 1 -5.21541e-7 -1 0 -5.96047e-7 -1 4.76837e-6 0 0 1 -5.96047e-7 -1 4.76837e-6 0 0 1 0 0 1 -5.96047e-7 -1 4.76837e-6 0 0 1 0 0 1 0 0 1 -5.96047e-7 -1 4.76837e-6 -5.96047e-7 -1 4.76837e-6 0 0 1 -5.96047e-7 -1 0 0 0 1 -5.96047e-7 -1 4.76837e-6 -5.96047e-7 -1 4.76837e-6 -5.96047e-7 -1 4.76837e-6 0 0 1 -5.96047e-7 -1 4.76837e-6 0 0 1 -5.96047e-7 -1 0 -5.96047e-7 -1 4.76837e-6 -5.96047e-7 -1 4.76837e-6 0 0 1 -5.96047e-7 -1 0 -5.96047e-7 -1 0 0 0 1 -5.96047e-7 -1 0 -5.96047e-7 -1 0 -5.96047e-7 -1 0 0 0 1 0 0 1 0 0 1 0 0 1 0 0 1 -1 0 0 -1 0 0 -1 1.66893e-6 0 -1 1.66893e-6 -2.08617e-6 -1 0 -2.08616e-6 -1 1.66893e-6 0 -1 0 -2.08616e-6 -1 0 0 -1 1.66893e-6 0 -1 1.66893e-6 -2.08617e-6 -1 0 -2.08616e-6 -1 1.66893e-6 0 -1 1.66893e-6 -2.08617e-6 -1 1.66893e-6 -2.08617e-6 -1 1.66893e-6 -2.08617e-6 -1 0 -2.08616e-6 -1 1.66893e-6 0 -1 1.66893e-6 -2.08617e-6 -1 0 -2.08616e-6 -1 2.10043e-7 0 1 0 0 -1 0 0 -1 -4.33557e-7 -1.54421e-6 -1 0 0 -1 0 0 -1 0 0 -1 0 0 -1 4.80569e-7 -2.68688e-6 -1 0 0 -1 -3.09683e-7 -1.69906e-6 -1 -6.81303e-7 -1.23453e-6 -1 6.81305e-7 1.23453e-6 -1 0 0 -1 3.09684e-7 1.69906e-6 -1 1.23873e-7 1.93132e-6 -1 9.9099e-7 8.47425e-7 -1 -9.90986e-7 -8.47421e-7 -1 0 0 -1 4.95494e-7 1.46679e-6 -1 0 0 1 2.47747e-7 1.77648e-6 1 -2.10043e-7 0 1 0 2.08616e-6 1 -1.66893e-6 2.08617e-6 1 -1.66893e-6 2.08617e-6 1 -1.66893e-6 0 1 0 2.08616e-6 1 -1.66893e-6 2.08617e-6 1 -1.66893e-6 0 1 0 2.08616e-6 1 -1.66893e-6 2.08617e-6 1 -1.66893e-6 0 1 0 0 1 0 0 1 0 0 1 0 0 1 0 0 1 0 2.08616e-6 1 -1.66893e-6 2.08617e-6 1 -1.66893e-6 0 1 0 0 1 -4.80569e-7 2.68688e-6 1 -9.29052e-7 -9.24846e-7 1 0 0 1 0 0 1 0 0 1 0 0 1 0 -2.00874e-6 1 0 0 1 -7.43242e-7 -1.15711e-6 1 -5.57431e-7 -1.38937e-6 1 0 0 1 0 0 -5.96047e-7 -1 0 1 9.29049e-7 9.24843e-7 1 0 0 1 0 0 1 0 0 1 0 0 0 0 1 0 1 0 0 0 1 0 0 1 -1.04308e-6 -1 4.17232e-6 -5.21541e-7 -1 4.17233e-6 0 0 1 0 -1 0 0 0 1 0 0 1 0 -1 0 0 0 1 0 0 1 0 0 1 0 -1 0 -4.47035e-7 -1 3.57628e-6 0 0 1 -1.04308e-6 -1 3.57628e-6 0 0 1 0 -1 0 -4.47035e-7 -1 3.57628e-6 -4.47035e-7 -1 3.57628e-6 0 0 1 0 -1 0 0 0 1 -1.04308e-6 -1 3.57628e-6 -5.96047e-7 -1 4.76837e-6 -5.96047e-7 -1 4.76837e-6 0 0 1</float_array>
          <technique_common>
            <accessor source="#Cube_008-mesh-normals-array" count="162" stride="3">
              <param name="X" type="float"/>
              <param name="Y" type="float"/>
              <param name="Z" type="float"/>
            </accessor>
          </technique_common>
        </source>
        <source id="Cube_008-mesh-map-0">
          <float_array id="Cube_008-mesh-map-0-array" count="972">1.672119 -0.05297523 1.672119 -0.4722195 1.724524 -0.4722197 1.112314 1.437023 1.112314 1.017779 1.16472 1.017779 1.295733 1.017779 1.36124 1.017779 1.36124 1.437023 1.426747 1.489429 1.007503 1.489429 1.007503 1.437023 1.619714 -0.05297523 1.619714 -0.4722197 1.672119 -0.4722197 1.610167 1.204758 1.610167 0.7855138 1.662573 0.7855136 1.501801 -0.4722196 1.567308 -0.4722197 1.567308 -0.05297529 1.436294 -0.05297523 1.501801 -0.05297529 1.501801 0.3662691 0.9419956 1.017779 1.007503 1.017779 1.007503 1.437023 1.492254 0.7855138 1.557762 0.7855136 1.557761 1.204758 1.492254 0.3662692 1.557762 0.3662691 1.557761 0.7855136 0.8157546 0.7771856 -0.8838701 0.7247789 0.881262 0.7247801 1.239772 -0.6818422 0.2607262 -0.05297523 0.1952188 -0.1053807 1.557762 0.7855138 1.557762 0.3662693 1.610167 0.3662693 1.36124 0.8867645 0.9419957 0.8867647 0.9419956 0.3662691 0.5227512 0.3662691 0.9419957 0.3662691 0.9419956 1.414381 1.436294 -0.4722197 1.436294 -0.05297523 1.370787 -0.05297529 1.426747 1.204758 1.426747 0.7855138 1.492254 0.7855136 1.190922 1.437023 1.190922 1.017779 1.243327 1.017779 1.059908 1.437023 1.059908 1.017779 1.112314 1.017779 1.36124 0.9522716 1.36124 1.017779 0.9419957 1.017779 1.501801 0.3662692 1.501801 -0.05297517 1.554207 -0.05297511 1.436294 -0.05297523 1.436294 0.3662692 1.370787 0.3662691 1.501801 -0.05297529 1.436294 -0.05297529 1.436294 -0.4722195 1.662573 0.7855138 1.662573 0.3662693 1.714978 0.3662694 1.305279 -0.05297529 1.305279 -0.4722197 1.370787 -0.4722197 1.305279 0.3662691 1.305279 -0.05297523 1.370787 -0.05297523 1.492254 0.7855136 1.426747 0.7855136 1.426748 0.3662692 1.610167 0.7855138 1.610167 0.3662693 1.662573 0.3662694 1.724524 -0.05297511 1.724524 0.3662693 1.672119 0.3662692 1.36124 1.204758 1.36124 0.7855138 1.426747 0.7855136 1.567308 -0.05297523 1.567308 -0.4722197 1.619714 -0.4722197 1.239772 -0.05297523 1.305279 -0.05297523 1.305279 0.3662691 0.9419957 1.466786 0.5227512 1.466786 0.5227514 1.414381 1.714978 0.7855138 1.714978 1.204758 1.662573 1.204758 1.567308 0.3662692 1.567308 -0.05297517 1.619714 -0.05297499 1.36124 0.8867645 1.36124 0.9522716 0.9419957 0.9522718 1.557762 1.204758 1.557762 0.7855136 1.610167 0.7855138 1.36124 0.7855136 1.36124 0.3662692 1.426747 0.3662691 1.619714 0.3662692 1.619714 -0.05297517 1.672119 -0.05297517 1.007503 1.437023 1.007503 1.017779 1.059908 1.017779 1.243328 1.437023 1.243327 1.017779 1.295733 1.017779 1.239772 -0.2625978 1.239772 -0.6818422 1.305279 -0.6818422 1.724524 -0.05297529 1.672119 -0.05297523 1.724524 -0.4722197 1.16472 1.437023 1.112314 1.437023 1.16472 1.017779 1.295733 1.437023 1.295733 1.017779 1.36124 1.437023 1.426747 1.437023 1.426747 1.489429 1.007503 1.437023 1.672119 -0.05297529 1.619714 -0.05297523 1.672119 -0.4722197 1.662573 1.204758 1.610167 1.204758 1.662573 0.7855136 1.501801 -0.05297517 1.501801 -0.4722196 1.567308 -0.05297529 1.436294 0.3662692 1.436294 -0.05297523 1.501801 0.3662691 0.9419958 1.437023 0.9419956 1.017779 1.007503 1.437023 1.492254 1.204758 1.492254 0.7855138 1.557761 1.204758 1.492254 0.7855136 1.492254 0.3662692 1.557761 0.7855136 0.881262 0.7771856 0.8157546 0.7771856 0.881262 0.7247801 0.8157546 0.7771856 0.8157545 0.8295912 0.7502473 0.8295912 0.7502473 0.8295912 0.7502473 0.8819967 0.6847407 0.8819967 0.6847407 0.8819967 0.6847401 0.9344022 0.6192332 0.9344022 0.6192332 0.9344022 0.6192331 0.9868078 0.5537257 0.9868078 0.5537257 0.9868078 0.5537257 1.039213 0.4882189 1.039213 0.4882189 1.039213 0.4882186 1.091619 0.4227114 1.091619 0.4227114 1.091619 0.4227114 1.144024 0.3572042 1.144024 0.3572042 1.144024 0.3572042 1.19643 0.2916973 1.19643 0.2916973 1.19643 0.291697 1.248835 0.2261899 1.248835 0.2261899 1.248835 0.2261897 1.301241 0.1606823 1.301241 0.1606823 1.301241 0.1606823 1.353646 0.09517544 1.353646 0.09517544 1.353646 0.0951752 1.406052 0.02966827 1.406052 0.02966827 1.406052 0.02966797 1.458457 -0.03583896 1.458457 -0.03583896 1.458457 -0.0358392 1.510863 -0.1013461 1.510863 -0.1013461 1.510863 -0.1013464 1.563269 -0.1668536 1.563268 -0.1668536 1.563268 -0.1668537 1.615674 -0.2323607 1.615674 -0.2323607 1.615674 -0.232361 1.66808 -0.297868 1.668079 -0.297868 1.668079 -0.2978683 1.720485 -0.3633753 1.720485 -0.3633753 1.720485 -0.3633753 1.77289 -0.8838708 1.77289 -0.4598529 -0.6294363 -0.5253601 -0.6294363 -0.5253601 -0.6818419 0.6192332 0.9344022 -0.8838701 0.7247789 0.6847407 0.8819967 0.4227114 1.091619 -0.8838701 0.7247789 0.4882189 1.039213 0.2261899 1.248835 -0.8838701 0.7247789 0.2916973 1.19643 0.02966827 1.406052 -0.8838701 0.7247789 0.09517544 1.353646 -0.1013461 1.510863 -0.8838701 0.7247789 -0.03583896 1.458457 -0.297868 1.668079 -0.8838701 0.7247789 -0.2323607 1.615674 -0.297868 1.668079 -0.3633753 1.720485 -0.8838708 1.77289 0.8157546 0.7771856 0.7502473 0.8295912 -0.8838701 0.7247789 0.5537257 0.9868078 -0.8838701 0.7247789 0.6192332 0.9344022 0.1606823 1.301241 -0.8838701 0.7247789 0.2261899 1.248835 -0.8838701 0.7247789 0.1606823 1.301241 0.09517544 1.353646 -0.8838708 1.77289 -0.8838701 0.7247789 -0.297868 1.668079 -0.8838701 0.7247789 0.5537257 0.9868078 0.4882189 1.039213 -0.8838701 0.7247789 0.7502473 0.8295912 0.6847407 0.8819967 -0.8838701 0.7247789 -0.1668536 1.563268 -0.2323607 1.615674 -0.1668536 1.563268 -0.8838701 0.7247789 -0.1013461 1.510863 -0.8838701 0.7247789 0.02966827 1.406052 -0.03583896 1.458457 -0.8838701 0.7247789 0.3572042 1.144024 0.2916973 1.19643 -0.8838701 0.7247789 0.4227114 1.091619 0.3572042 1.144024 1.239772 -0.6818422 -0.2633313 -0.4722197 -0.3288387 -0.5246252 1.239772 0.366269 0.7192768 0.3662691 0.7192768 0.3138636 0.7192768 0.3138636 0.6537694 0.3138637 0.6537693 0.261458 0.6537693 0.261458 0.5882623 0.2614581 0.588262 0.2090525 0.588262 0.2090525 0.5227551 0.2090525 0.5227549 0.1566469 0.5227549 0.1566469 0.4572479 0.1566469 0.4572479 0.1042413 0.4572479 0.1042413 0.3917407 0.1042413 0.3917405 0.05183583 0.3917405 0.05183583 0.3262335 0.05183583 0.3262333 -5.69701e-4 0.3262333 -5.69701e-4 0.2607262 -5.69701e-4 0.2607262 -0.05297523 0.2607262 -0.05297523 0.195219 -0.05297523 0.1952188 -0.1053807 0.1952188 -0.1053807 0.1297118 -0.1053807 0.1297116 -0.1577863 0.1297116 -0.1577863 0.06420457 -0.1577863 0.06420457 -0.2101919 0.06420457 -0.2101919 -0.001302599 -0.2101919 -0.001302599 -0.2625975 -0.001302599 -0.2625975 -0.06680977 -0.2625975 -0.06680977 -0.315003 -0.06680977 -0.315003 -0.132317 -0.315003 -0.132317 -0.3674085 -0.132317 -0.3674085 -0.1978241 -0.3674085 -0.1978241 -0.4198141 -0.1978241 -0.4198141 -0.2633313 -0.4198141 -0.2633313 -0.4722197 -0.2633313 -0.4722197 -0.3288386 -0.4722197 -0.3288387 -0.5246252 -0.3288387 -0.5246252 -0.3943457 -0.5246252 -0.3943459 -0.5770308 -0.3943459 -0.5770308 -0.4598529 -0.5770308 -0.4598529 -0.6294363 1.239772 -0.6818422 -0.06680977 -0.315003 -0.132317 -0.3674085 1.239772 0.366269 0.7192768 0.3138636 0.6537693 0.261458 0.4572479 0.1042413 1.239772 -0.6818422 0.5227549 0.1566469 0.3262333 -5.69701e-4 1.239772 -0.6818422 0.3917405 0.05183583 0.1297116 -0.1577863 1.239772 -0.6818422 0.1952188 -0.1053807 -0.1978241 -0.4198141 1.239772 -0.6818422 -0.132317 -0.3674085 -0.3943459 -0.5770308 1.239772 -0.6818422 -0.3288387 -0.5246252 -0.4598529 -0.6294363 1.239772 -0.6818422 -0.3943459 -0.5770308 0.588262 0.2090525 1.239772 -0.6818422 0.6537693 0.261458 0.2607262 -0.05297523 1.239772 -0.6818422 0.3262333 -5.69701e-4 0.06420457 -0.2101919 1.239772 -0.6818422 0.1297116 -0.1577863 -0.06680977 -0.315003 1.239772 -0.6818422 -0.001302599 -0.2625975 -0.2633313 -0.4722197 1.239772 -0.6818422 -0.1978241 -0.4198141 1.610167 0.7855138 1.557762 0.7855138 1.610167 0.3662693 1.239772 -0.6818422 0.4572479 0.1042413 0.3917405 0.05183583 1.239772 -0.6818422 1.239772 0.366269 0.6537693 0.261458 1.239772 -0.6818422 0.588262 0.2090525 0.5227549 0.1566469 1.239772 -0.6818422 0.06420457 -0.2101919 -0.001302599 -0.2625975 -0.4598529 -0.6294363 -0.5253601 -0.6818419 1.239772 -0.6818422 1.36124 0.3662691 1.36124 0.8867645 0.9419956 0.3662691 0.5227511 1.414381 0.5227512 0.3662691 0.9419956 1.414381 1.370787 -0.4722197 1.436294 -0.4722197 1.370787 -0.05297529 1.492254 1.204758 1.426747 1.204758 1.492254 0.7855136 1.243327 1.437023 1.190922 1.437023 1.243327 1.017779 1.112314 1.437023 1.059908 1.437023 1.112314 1.017779 0.9419956 0.9522721 1.36124 0.9522716 0.9419957 1.017779 1.554207 0.3662692 1.501801 0.3662692 1.554207 -0.05297511 1.370787 -0.05297523 1.436294 -0.05297523 1.370787 0.3662691 1.501801 -0.4722197 1.501801 -0.05297529 1.436294 -0.4722195 1.714978 0.7855136 1.662573 0.7855138 1.714978 0.3662694 1.370787 -0.05297523 1.305279 -0.05297529 1.370787 -0.4722197 1.370786 0.3662692 1.305279 0.3662691 1.370787 -0.05297523 1.492254 0.3662691 1.492254 0.7855136 1.426748 0.3662692 1.662573 0.7855138 1.610167 0.7855138 1.662573 0.3662694 1.672119 -0.05297517 1.724524 -0.05297511 1.672119 0.3662692 1.426747 1.204758 1.36124 1.204758 1.426747 0.7855136 1.619714 -0.05297517 1.567308 -0.05297523 1.619714 -0.4722197 1.239772 0.3662692 1.239772 -0.05297523 1.305279 0.3662691 0.9419957 1.414381 0.9419957 1.466786 0.5227514 1.414381 1.662573 0.7855136 1.714978 0.7855138 1.662573 1.204758 1.619714 0.3662694 1.567308 0.3662692 1.619714 -0.05297499 0.9419956 0.8867649 1.36124 0.8867645 0.9419957 0.9522718 1.610167 1.204758 1.557762 1.204758 1.610167 0.7855138 1.426747 0.7855138 1.36124 0.7855136 1.426747 0.3662691 1.672119 0.3662694 1.619714 0.3662692 1.672119 -0.05297517 1.059908 1.437023 1.007503 1.437023 1.059908 1.017779 1.295733 1.437023 1.243328 1.437023 1.295733 1.017779 1.305279 -0.2625977 1.239772 -0.2625978 1.305279 -0.6818422</float_array>
          <technique_common>
            <accessor source="#Cube_008-mesh-map-0-array" count="486" stride="2">
              <param name="S" type="float"/>
              <param name="T" type="float"/>
            </accessor>
          </technique_common>
        </source>
        <vertices id="Cube_008-mesh-vertices">
          <input semantic="POSITION" source="#Cube_008-mesh-positions"/>
        </vertices>
        <polylist material="Brick-material" count="82">
          <input semantic="VERTEX" source="#Cube_008-mesh-vertices" offset="0"/>
          <input semantic="NORMAL" source="#Cube_008-mesh-normals" offset="1"/>
          <input semantic="TEXCOORD" source="#Cube_008-mesh-map-0" offset="2" set="0"/>
          <vcount>3 3 3 3 3 3 3 3 3 3 3 3 3 3 3 3 3 3 3 3 3 3 3 3 3 3 3 3 3 3 3 3 3 3 3 3 3 3 3 3 3 3 3 3 3 3 3 3 3 3 3 3 3 3 3 3 3 3 3 3 3 3 3 3 3 3 3 3 3 3 3 3 3 3 3 3 3 3 3 3 3 3 </vcount>
          <p>5 11 33 83 11 34 1 11 35 82 12 36 49 12 37 42 12 38 82 15 45 83 15 46 78 15 47 3 54 162 5 54 163 1 54 164 5 55 165 8 55 166 9 55 167 9 56 168 13 56 169 10 56 170 10 57 171 16 57 172 14 57 173 14 58 174 19 58 175 21 58 176 21 59 177 24 59 178 22 59 179 22 60 180 27 60 181 29 60 182 29 61 183 31 61 184 33 61 185 33 62 186 36 62 187 34 62 188 34 63 189 41 63 190 38 63 191 38 64 192 44 64 193 45 64 194 45 65 195 48 65 196 46 65 197 46 66 198 53 66 199 50 66 200 50 67 201 57 67 202 54 67 203 54 68 204 60 68 205 58 68 206 58 69 207 64 69 208 65 69 209 65 70 210 69 70 211 66 70 212 66 71 213 73 71 214 70 71 215 70 72 216 75 72 217 77 72 218 77 73 219 81 73 220 78 73 221 4 74 222 2 74 223 0 74 224 14 75 225 83 75 226 10 75 227 29 76 228 83 76 229 22 76 230 38 77 231 83 77 232 34 77 233 50 78 234 83 78 235 46 78 236 58 79 237 83 79 238 54 79 239 70 80 240 83 80 241 66 80 242 70 81 243 77 81 244 78 81 245 5 82 246 9 82 247 83 82 248 21 83 249 83 83 250 14 83 251 45 84 252 83 84 253 38 84 254 83 85 255 45 85 256 46 85 257 78 86 258 83 86 259 70 86 260 83 87 261 21 87 262 22 87 263 83 88 264 9 88 265 10 88 266 83 89 267 65 89 268 66 89 269 65 90 270 83 90 271 58 90 272 83 91 273 50 91 274 54 91 275 83 92 276 33 92 277 34 92 278 83 93 279 29 93 280 33 93 281 82 94 282 17 94 283 11 94 284 79 95 285 80 95 286 76 95 287 76 96 288 74 96 289 71 96 290 71 97 291 72 97 292 67 97 293 67 98 294 68 98 295 62 98 296 62 99 297 63 99 298 61 99 299 61 100 300 59 100 301 55 100 302 55 101 303 56 101 304 51 101 305 51 102 306 52 102 307 49 102 308 49 103 309 47 103 310 42 103 311 42 104 312 43 104 313 39 104 314 39 105 315 40 105 316 37 105 317 37 106 318 35 106 319 32 106 320 32 107 321 30 107 322 28 107 323 28 108 324 26 108 325 25 108 326 25 109 327 23 109 328 20 109 329 20 110 330 18 110 331 17 110 332 17 111 333 15 111 334 11 111 335 11 112 336 12 112 337 6 112 338 6 113 339 7 113 340 4 113 341 82 114 342 28 114 343 25 114 344 79 115 345 76 115 346 71 115 347 61 116 348 82 116 349 62 116 350 51 117 351 82 117 352 55 117 353 39 118 354 82 118 355 42 118 356 20 119 357 82 119 358 25 119 359 6 120 360 82 120 361 11 120 362 4 121 363 82 121 364 6 121 365 67 122 366 82 122 367 71 122 368 49 123 369 82 123 370 51 123 371 37 124 372 82 124 373 39 124 374 28 125 375 82 125 376 32 125 377 17 126 378 82 126 379 20 126 380 82 128 384 61 128 385 55 128 386 82 129 387 79 129 388 71 129 389 82 130 390 67 130 391 62 130 392 82 131 393 37 131 394 32 131 395 4 132 396 0 132 397 82 132 398 79 134 402 82 134 403 78 134 404</p>
        </polylist>
        <polylist material="Plaster-material" count="80">
          <input semantic="VERTEX" source="#Cube_008-mesh-vertices" offset="0"/>
          <input semantic="NORMAL" source="#Cube_008-mesh-normals" offset="1"/>
          <input semantic="TEXCOORD" source="#Cube_008-mesh-map-0" offset="2" set="0"/>
          <vcount>3 3 3 3 3 3 3 3 3 3 3 3 3 3 3 3 3 3 3 3 3 3 3 3 3 3 3 3 3 3 3 3 3 3 3 3 3 3 3 3 3 3 3 3 3 3 3 3 3 3 3 3 3 3 3 3 3 3 3 3 3 3 3 3 3 3 3 3 3 3 3 3 3 3 3 3 3 3 3 3 </vcount>
          <p>2 0 0 3 0 1 1 0 2 7 1 3 8 1 4 5 1 5 12 2 6 11 2 7 10 2 8 23 3 9 24 3 10 21 3 11 30 4 12 31 4 13 29 4 14 35 5 15 36 5 16 33 5 17 40 6 18 39 6 19 38 6 20 52 7 21 51 7 22 50 7 23 56 8 24 55 8 25 54 8 26 68 9 27 67 9 28 66 9 29 72 10 30 71 10 31 70 10 32 80 13 39 81 13 40 77 13 41 81 14 42 80 14 43 79 14 44 3 16 48 2 16 49 4 16 50 8 17 51 7 17 52 6 17 53 12 18 54 13 18 55 9 18 56 15 19 57 16 19 58 10 19 59 15 20 60 17 20 61 14 20 62 18 21 63 19 21 64 14 21 65 19 22 66 18 22 67 20 22 68 23 23 69 25 23 70 22 23 71 26 24 72 27 24 73 22 24 74 27 25 75 26 25 76 28 25 77 31 26 78 30 26 79 32 26 80 35 27 81 37 27 82 34 27 83 40 28 84 41 28 85 34 28 86 43 29 87 44 29 88 38 29 89 44 30 90 43 30 91 42 30 92 47 31 93 48 31 94 45 31 95 47 32 96 49 32 97 46 32 98 52 33 99 53 33 100 46 33 101 56 34 102 57 34 103 50 34 104 59 35 105 60 35 106 54 35 107 59 36 108 61 36 109 58 36 110 63 37 111 64 37 112 58 37 113 64 38 114 63 38 115 62 38 116 68 39 117 69 39 118 65 39 119 72 40 120 73 40 121 66 40 122 74 41 123 75 41 124 70 41 125 75 42 126 74 42 127 76 42 128 0 43 129 2 43 130 1 43 131 4 44 132 7 44 133 5 44 134 13 45 135 12 45 136 10 45 137 20 46 138 23 46 139 21 46 140 28 47 141 30 47 142 29 47 143 32 48 144 35 48 145 33 48 146 41 49 147 40 49 148 38 49 149 53 50 150 52 50 151 50 50 152 57 51 153 56 51 154 54 51 155 69 52 156 68 52 157 66 52 158 73 53 159 72 53 160 70 53 161 76 127 381 80 127 382 77 127 383 78 133 399 81 133 400 79 133 401 5 135 405 3 135 406 4 135 407 9 136 408 8 136 409 6 136 410 6 137 411 12 137 412 9 137 413 11 138 414 15 138 415 10 138 416 16 139 417 15 139 418 14 139 419 17 140 420 18 140 421 14 140 422 21 141 423 19 141 424 20 141 425 24 142 426 23 142 427 22 142 428 25 143 429 26 143 430 22 143 431 29 144 432 27 144 433 28 144 434 33 145 435 31 145 436 32 145 437 36 146 438 35 146 439 34 146 440 37 147 441 40 147 442 34 147 443 39 148 444 43 148 445 38 148 446 45 149 447 44 149 448 42 149 449 42 150 450 47 150 451 45 150 452 48 151 453 47 151 454 46 151 455 49 152 456 52 152 457 46 152 458 51 153 459 56 153 460 50 153 461 55 154 462 59 154 463 54 154 464 60 155 465 59 155 466 58 155 467 61 156 468 63 156 469 58 156 470 65 157 471 64 157 472 62 157 473 62 158 474 68 158 475 65 158 476 67 159 477 72 159 478 66 159 479 71 160 480 74 160 481 70 160 482 77 161 483 75 161 484 76 161 485</p>
        </polylist>
      </mesh>
    </geometry>
    <geometry id="Cube_000-mesh" name="Cube.000">
      <mesh>
        <source id="Cube_000-mesh-positions">
          <float_array id="Cube_000-mesh-positions-array" count="30">-0.06720632 -3.644576 -1.822857 -0.06720632 -3.644576 -1.36997 0.06720596 3.091855 -1.822857 0.06720596 1.105442 2.507842 0.06720638 3.091855 2.507842 0.06720596 -3.644576 -1.36997 0.06720596 -3.644576 -1.822857 -0.0672059 3.091855 2.507842 -0.06720632 1.105442 2.507842 -0.06720632 3.091855 -1.822857</float_array>
          <technique_common>
            <accessor source="#Cube_000-mesh-positions-array" count="10" stride="3">
              <param name="X" type="float"/>
              <param name="Y" type="float"/>
              <param name="Z" type="float"/>
            </accessor>
          </technique_common>
        </source>
        <source id="Cube_000-mesh-normals">
          <float_array id="Cube_000-mesh-normals-array" count="48">1 0 0 1 0 0 0 1 0 0 0 -1 0 -0.6324006 0.7746415 0 0 1 0 -1 0 -1 0 0 -1 2.10043e-7 0 -1 0 0 1 -2.10043e-7 0 0 1 0 0 0 -1 0 -0.6324006 0.7746415 0 0 1 0 -1 0</float_array>
          <technique_common>
            <accessor source="#Cube_000-mesh-normals-array" count="16" stride="3">
              <param name="X" type="float"/>
              <param name="Y" type="float"/>
              <param name="Z" type="float"/>
            </accessor>
          </technique_common>
        </source>
        <source id="Cube_000-mesh-map-0">
          <float_array id="Cube_000-mesh-map-0-array" count="96">-1.611539 -0.2895607 -1.611539 -0.4611449 0.9406749 -0.4611479 0.9406749 -0.4611479 0.1880894 1.179614 -1.611539 -0.2895607 2.227559 -0.9168735 2.227559 0.7238873 2.176635 0.7238873 2.176635 -0.9168735 2.176635 1.63534 2.12571 1.63534 -0.5728264 1.635341 1.750347 1.635341 1.750347 1.686265 -1.155812 1.635341 -0.5728264 1.635341 -0.5728264 1.686265 1.750347 1.635341 1.858857 1.635341 1.858857 1.686265 0.0292223 -0.4611456 2.581436 -0.4611482 2.581436 -0.2895638 0.02922362 1.179615 0.0292223 -0.4611456 0.7818108 1.179614 0.0292223 -0.4611456 2.581436 -0.2895638 0.7818108 1.179614 0.9406749 -0.4611479 0.9406767 1.179613 0.1880894 1.179614 2.176635 -0.9168735 2.227559 -0.9168735 2.176635 0.7238873 2.12571 -0.9168735 2.176635 -0.9168735 2.12571 1.63534 -0.5728264 1.686265 -0.5728264 1.635341 1.750347 1.686265 -1.155812 1.686266 -1.155812 1.635341 -0.5728264 1.686265 1.750347 1.686265 1.750347 1.635341 1.858857 1.686265</float_array>
          <technique_common>
            <accessor source="#Cube_000-mesh-map-0-array" count="48" stride="2">
              <param name="S" type="float"/>
              <param name="T" type="float"/>
            </accessor>
          </technique_common>
        </source>
        <vertices id="Cube_000-mesh-vertices">
          <input semantic="POSITION" source="#Cube_000-mesh-positions"/>
        </vertices>
        <polylist material="Plaster-material" count="16">
          <input semantic="VERTEX" source="#Cube_000-mesh-vertices" offset="0"/>
          <input semantic="NORMAL" source="#Cube_000-mesh-normals" offset="1"/>
          <input semantic="TEXCOORD" source="#Cube_000-mesh-map-0" offset="2" set="0"/>
          <vcount>3 3 3 3 3 3 3 3 3 3 3 3 3 3 3 3 </vcount>
          <p>5 0 0 6 0 1 2 0 2 2 1 3 3 1 4 5 1 5 9 2 6 7 2 7 4 2 8 0 3 9 9 3 10 2 3 11 8 4 12 1 4 13 5 4 14 7 5 15 8 5 16 3 5 17 1 6 18 0 6 19 6 6 20 9 7 21 0 7 22 1 7 23 7 8 24 9 8 25 8 8 26 9 9 27 1 9 28 8 9 29 2 10 30 4 10 31 3 10 32 2 11 33 9 11 34 4 11 35 6 12 36 0 12 37 2 12 38 3 13 39 8 13 40 5 13 41 4 14 42 7 14 43 3 14 44 5 15 45 1 15 46 6 15 47</p>
        </polylist>
      </mesh>
    </geometry>
    <geometry id="Cube_003-mesh" name="Cube.003">
      <mesh>
        <source id="Cube_003-mesh-positions">
          <float_array id="Cube_003-mesh-positions-array" count="24">-0.7999995 4.236554 2.330699 0.8000001 4.236554 2.330699 0.7999997 4.236554 -2 -0.8 4.236554 -2 -0.7999995 4.155128 2.330699 0.8000001 4.155128 2.330699 0.7999997 4.155128 -2 -0.8 4.155128 -2</float_array>
          <technique_common>
            <accessor source="#Cube_003-mesh-positions-array" count="8" stride="3">
              <param name="X" type="float"/>
              <param name="Y" type="float"/>
              <param name="Z" type="float"/>
            </accessor>
          </technique_common>
        </source>
        <source id="Cube_003-mesh-normals">
          <float_array id="Cube_003-mesh-normals-array" count="36">0 1 0 0 -1 0 -1 0 0 1 0 0 0 0 -1 0 0 1 0 1 0 0 -1 0 -1 0 0 1 0 0 0 0 -1 0 0 1</float_array>
          <technique_common>
            <accessor source="#Cube_003-mesh-normals-array" count="12" stride="3">
              <param name="X" type="float"/>
              <param name="Y" type="float"/>
              <param name="Z" type="float"/>
            </accessor>
          </technique_common>
        </source>
        <source id="Cube_003-mesh-map-0">
          <float_array id="Cube_003-mesh-map-0-array" count="72">0.2647318 -0.5457059 0.9289355 -0.5457062 0.9289357 1.252085 -0.4006121 1.252085 -0.3999921 -0.5457062 0.2642119 -0.5454768 -0.8948665 0.6931542 -0.8948569 0.6593925 0.901098 0.6598356 1.565531 0.6936609 1.565525 0.6598301 3.365673 0.6591954 -1.55814 0.6929549 -1.55813 0.6591998 -0.8948569 0.6593925 0.9010932 0.69363 0.901098 0.6598356 1.565525 0.6598301 0.2647315 1.252085 0.2647318 -0.5457059 0.9289357 1.252085 0.2635913 1.252314 -0.4006121 1.252085 0.2642119 -0.5454768 0.9010932 0.69363 -0.8948665 0.6931542 0.901098 0.6598356 3.365684 0.6930492 1.565531 0.6936609 3.365673 0.6591954 -0.8948665 0.6931542 -1.55814 0.6929549 -0.8948569 0.6593925 1.565531 0.6936609 0.9010932 0.69363 1.565525 0.6598301</float_array>
          <technique_common>
            <accessor source="#Cube_003-mesh-map-0-array" count="36" stride="2">
              <param name="S" type="float"/>
              <param name="T" type="float"/>
            </accessor>
          </technique_common>
        </source>
        <vertices id="Cube_003-mesh-vertices">
          <input semantic="POSITION" source="#Cube_003-mesh-positions"/>
        </vertices>
        <polylist material="Plaster-material" count="12">
          <input semantic="VERTEX" source="#Cube_003-mesh-vertices" offset="0"/>
          <input semantic="NORMAL" source="#Cube_003-mesh-normals" offset="1"/>
          <input semantic="TEXCOORD" source="#Cube_003-mesh-map-0" offset="2" set="0"/>
          <vcount>3 3 3 3 3 3 3 3 3 3 3 3 </vcount>
          <p>2 0 0 3 0 1 0 0 2 4 1 3 7 1 4 6 1 5 3 2 6 7 2 7 4 2 8 1 3 9 5 3 10 6 3 11 2 4 12 6 4 13 7 4 14 0 5 15 4 5 16 5 5 17 1 6 18 2 6 19 0 6 20 5 7 21 4 7 22 6 7 23 0 8 24 3 8 25 4 8 26 2 9 27 1 9 28 6 9 29 3 10 30 2 10 31 7 10 32 1 11 33 0 11 34 5 11 35</p>
        </polylist>
      </mesh>
    </geometry>
    <geometry id="Cube_002-mesh" name="Cube.002">
      <mesh>
        <source id="Cube_002-mesh-positions">
          <float_array id="Cube_002-mesh-positions-array" count="30">-0.06720632 -3.644576 -1.822857 -0.06720632 -3.644576 -1.36997 0.06720596 3.091855 -1.822857 0.06720596 1.105442 2.507842 0.06720638 3.091855 2.507842 0.06720596 -3.644576 -1.36997 0.06720596 -3.644576 -1.822857 -0.0672059 3.091855 2.507842 -0.06720632 1.105442 2.507842 -0.06720632 3.091855 -1.822857</float_array>
          <technique_common>
            <accessor source="#Cube_002-mesh-positions-array" count="10" stride="3">
              <param name="X" type="float"/>
              <param name="Y" type="float"/>
              <param name="Z" type="float"/>
            </accessor>
          </technique_common>
        </source>
        <source id="Cube_002-mesh-normals">
          <float_array id="Cube_002-mesh-normals-array" count="48">1 0 0 1 0 0 0 1 0 0 0 -1 0 -0.6324006 0.7746415 0 0 1 0 -1 0 -1 0 0 -1 2.10043e-7 0 -1 0 0 1 -2.10043e-7 0 0 1 0 0 0 -1 0 -0.6324006 0.7746415 0 0 1 0 -1 0</float_array>
          <technique_common>
            <accessor source="#Cube_002-mesh-normals-array" count="16" stride="3">
              <param name="X" type="float"/>
              <param name="Y" type="float"/>
              <param name="Z" type="float"/>
            </accessor>
          </technique_common>
        </source>
        <source id="Cube_002-mesh-map-0">
          <float_array id="Cube_002-mesh-map-0-array" count="96">-1.611539 -0.2895607 -1.611539 -0.4611449 0.9406749 -0.4611479 0.9406749 -0.4611479 0.1880894 1.179614 -1.611539 -0.2895607 2.227559 -0.9168735 2.227559 0.7238873 2.176635 0.7238873 2.176635 -0.9168735 2.176635 1.63534 2.12571 1.63534 -0.5728264 1.635341 1.750347 1.635341 1.750347 1.686265 -1.155812 1.635341 -0.5728264 1.635341 -0.5728264 1.686265 1.750347 1.635341 1.858857 1.635341 1.858857 1.686265 0.0292223 -0.4611456 2.581436 -0.4611482 2.581436 -0.2895638 0.02922362 1.179615 0.0292223 -0.4611456 0.7818108 1.179614 0.0292223 -0.4611456 2.581436 -0.2895638 0.7818108 1.179614 0.9406749 -0.4611479 0.9406767 1.179613 0.1880894 1.179614 2.176635 -0.9168735 2.227559 -0.9168735 2.176635 0.7238873 2.12571 -0.9168735 2.176635 -0.9168735 2.12571 1.63534 -0.5728264 1.686265 -0.5728264 1.635341 1.750347 1.686265 -1.155812 1.686266 -1.155812 1.635341 -0.5728264 1.686265 1.750347 1.686265 1.750347 1.635341 1.858857 1.686265</float_array>
          <technique_common>
            <accessor source="#Cube_002-mesh-map-0-array" count="48" stride="2">
              <param name="S" type="float"/>
              <param name="T" type="float"/>
            </accessor>
          </technique_common>
        </source>
        <vertices id="Cube_002-mesh-vertices">
          <input semantic="POSITION" source="#Cube_002-mesh-positions"/>
        </vertices>
        <polylist material="Plaster-material" count="16">
          <input semantic="VERTEX" source="#Cube_002-mesh-vertices" offset="0"/>
          <input semantic="NORMAL" source="#Cube_002-mesh-normals" offset="1"/>
          <input semantic="TEXCOORD" source="#Cube_002-mesh-map-0" offset="2" set="0"/>
          <vcount>3 3 3 3 3 3 3 3 3 3 3 3 3 3 3 3 </vcount>
          <p>5 0 0 6 0 1 2 0 2 2 1 3 3 1 4 5 1 5 9 2 6 7 2 7 4 2 8 0 3 9 9 3 10 2 3 11 8 4 12 1 4 13 5 4 14 7 5 15 8 5 16 3 5 17 1 6 18 0 6 19 6 6 20 9 7 21 0 7 22 1 7 23 7 8 24 9 8 25 8 8 26 9 9 27 1 9 28 8 9 29 2 10 30 4 10 31 3 10 32 2 11 33 9 11 34 4 11 35 6 12 36 0 12 37 2 12 38 3 13 39 8 13 40 5 13 41 4 14 42 7 14 43 3 14 44 5 15 45 1 15 46 6 15 47</p>
        </polylist>
      </mesh>
    </geometry>
  </library_geometries>
  <library_controllers/>
  <library_visual_scenes>
    <visual_scene id="Scene" name="Scene">
      <node id="Camera" name="Camera" type="NODE">
        <matrix sid="transform">0.6858805 -0.3173701 0.6548619 10.10198 0.7276338 0.3124686 -0.6106656 -5.419581 -0.01081678 0.8953432 0.4452454 6.366649 0 0 0 1</matrix>
        <instance_camera url="#Camera-camera"/>
      </node>
      <node id="Stair1LongWide" name="Stair1LongWide" type="NODE">
        <matrix sid="transform">1 0 0 4.551964 0 1 0 1.198618 0 0 1 1.9 0 0 0 1</matrix>
        <instance_geometry url="#Cube_008-mesh">
          <bind_material>
            <technique_common>
              <instance_material symbol="Brick-material" target="#Brick-material">
                <bind_vertex_input semantic="UVMap" input_semantic="TEXCOORD" input_set="0"/>
              </instance_material>
              <instance_material symbol="Plaster-material" target="#Plaster-material">
                <bind_vertex_input semantic="UVMap" input_semantic="TEXCOORD" input_set="0"/>
              </instance_material>
            </technique_common>
          </bind_material>
        </instance_geometry>
      </node>
      <node id="Stair1LongWideSide1" name="Stair1LongWideSide1" type="NODE">
        <matrix sid="transform">1 0 0 5.405308 0 1 0 2.343318 0 0 1 1.722857 0 0 0 1</matrix>
        <instance_geometry url="#Cube_000-mesh">
          <bind_material>
            <technique_common>
              <instance_material symbol="Plaster-material" target="#Plaster-material">
                <bind_vertex_input semantic="UVMap" input_semantic="TEXCOORD" input_set="0"/>
              </instance_material>
            </technique_common>
          </bind_material>
        </instance_geometry>
      </node>
      <node id="Stair1LongWideBack" name="Stair1LongWideBack" type="NODE">
        <matrix sid="transform">1 0 0 4.551963 0 1 0 1.226078 0 0 1 1.9 0 0 0 1</matrix>
        <instance_geometry url="#Cube_003-mesh">
          <bind_material>
            <technique_common>
              <instance_material symbol="Plaster-material" target="#Plaster-material">
                <bind_vertex_input semantic="UVMap" input_semantic="TEXCOORD" input_set="0"/>
              </instance_material>
              <instance_material symbol="Plaster-material" target="#Plaster-material">
                <bind_vertex_input semantic="UVMap" input_semantic="TEXCOORD" input_set="0"/>
              </instance_material>
            </technique_common>
          </bind_material>
        </instance_geometry>
      </node>
      <node id="Stair1LongWideSide2" name="Stair1LongWideSide2" type="NODE">
        <matrix sid="transform">1 0 0 3.694607 0 1 0 2.343318 0 0 1 1.722857 0 0 0 1</matrix>
        <instance_geometry url="#Cube_002-mesh">
          <bind_material>
            <technique_common>
              <instance_material symbol="Plaster-material" target="#Plaster-material">
                <bind_vertex_input semantic="UVMap" input_semantic="TEXCOORD" input_set="0"/>
              </instance_material>
            </technique_common>
          </bind_material>
        </instance_geometry>
      </node>
    </visual_scene>
  </library_visual_scenes>
  <scene>
    <instance_visual_scene url="#Scene"/>
  </scene>
</COLLADA>