<?xml version="1.0" encoding="utf-8"?>
<COLLADA xmlns="http://www.collada.org/2005/11/COLLADASchema" version="1.4.1">
  <asset>
    <contributor>
      <author>Blender User</author>
      <authoring_tool>Blender 2.71.0 commit date:2014-06-25, commit time:18:36, hash:9337574</authoring_tool>
    </contributor>
    <created>2014-12-01T07:17:53</created>
    <modified>2014-12-01T07:17:53</modified>
    <unit name="meter" meter="1"/>
    <up_axis>Z_UP</up_axis>
  </asset>
  <library_cameras>
    <camera id="Camera-camera" name="Camera">
      <optics>
        <technique_common>
          <perspective>
            <xfov sid="xfov">49.13434</xfov>
            <aspect_ratio>1</aspect_ratio>
            <znear sid="znear">0.1</znear>
            <zfar sid="zfar">100</zfar>
          </perspective>
        </technique_common>
      </optics>
      <extra>
        <technique profile="blender">
          <YF_dofdist>0</YF_dofdist>
          <shiftx>0</shiftx>
          <shifty>0</shifty>
        </technique>
      </extra>
    </camera>
  </library_cameras>
  <library_images>
    <image id="Wood_jpg" name="Wood_jpg">
      <init_from>Wood.jpg</init_from>
    </image>
    <image id="RoofTiles_jpg" name="RoofTiles_jpg">
      <init_from>RoofTiles.jpg</init_from>
    </image>
    <image id="Plaster_jpg" name="Plaster_jpg">
      <init_from>Plaster.jpg</init_from>
    </image>
  </library_images>
  <library_effects>
    <effect id="Wood-effect">
      <profile_COMMON>
        <newparam sid="Wood_jpg-surface">
          <surface type="2D">
            <init_from>Wood_jpg</init_from>
          </surface>
        </newparam>
        <newparam sid="Wood_jpg-sampler">
          <sampler2D>
            <source>Wood_jpg-surface</source>
          </sampler2D>
        </newparam>
        <technique sid="common">
          <phong>
            <emission>
              <color sid="emission">0 0 0 1</color>
            </emission>
            <ambient>
              <color sid="ambient">0 0 0 1</color>
            </ambient>
            <diffuse>
              <texture texture="Wood_jpg-sampler" texcoord="UVMap"/>
            </diffuse>
            <specular>
              <color sid="specular">2.74542e-4 1.05055e-4 6.99105e-5 1</color>
            </specular>
            <shininess>
              <float sid="shininess">50</float>
            </shininess>
            <index_of_refraction>
              <float sid="index_of_refraction">1</float>
            </index_of_refraction>
          </phong>
        </technique>
        <extra>
          <technique profile="GOOGLEEARTH">
            <double_sided>1</double_sided>
          </technique>
        </extra>
      </profile_COMMON>
      <extra><technique profile="MAX3D"><double_sided>1</double_sided></technique></extra>
    </effect>
    <effect id="RoofTiles-effect">
      <profile_COMMON>
        <newparam sid="RoofTiles_jpg-surface">
          <surface type="2D">
            <init_from>RoofTiles_jpg</init_from>
          </surface>
        </newparam>
        <newparam sid="RoofTiles_jpg-sampler">
          <sampler2D>
            <source>RoofTiles_jpg-surface</source>
          </sampler2D>
        </newparam>
        <technique sid="common">
          <phong>
            <emission>
              <color sid="emission">0 0 0 1</color>
            </emission>
            <ambient>
              <color sid="ambient">0 0 0 1</color>
            </ambient>
            <diffuse>
              <texture texture="RoofTiles_jpg-sampler" texcoord="UVMap"/>
            </diffuse>
            <specular>
              <color sid="specular">0.00203893 0.00203893 0.00203893 1</color>
            </specular>
            <shininess>
              <float sid="shininess">50</float>
            </shininess>
            <index_of_refraction>
              <float sid="index_of_refraction">1</float>
            </index_of_refraction>
          </phong>
        </technique>
        <extra>
          <technique profile="GOOGLEEARTH">
            <double_sided>1</double_sided>
          </technique>
        </extra>
      </profile_COMMON>
      <extra><technique profile="MAX3D"><double_sided>1</double_sided></technique></extra>
    </effect>
    <effect id="Plaster-effect">
      <profile_COMMON>
        <newparam sid="Plaster_jpg-surface">
          <surface type="2D">
            <init_from>Plaster_jpg</init_from>
          </surface>
        </newparam>
        <newparam sid="Plaster_jpg-sampler">
          <sampler2D>
            <source>Plaster_jpg-surface</source>
          </sampler2D>
        </newparam>
        <technique sid="common">
          <phong>
            <emission>
              <color sid="emission">0 0 0 1</color>
            </emission>
            <ambient>
              <color sid="ambient">0 0 0 1</color>
            </ambient>
            <diffuse>
              <texture texture="Plaster_jpg-sampler" texcoord="UVMap"/>
            </diffuse>
            <specular>
              <color sid="specular">0.02631579 0.02631579 0.02631579 1</color>
            </specular>
            <shininess>
              <float sid="shininess">50</float>
            </shininess>
            <index_of_refraction>
              <float sid="index_of_refraction">1</float>
            </index_of_refraction>
          </phong>
        </technique>
        <extra>
          <technique profile="GOOGLEEARTH">
            <double_sided>1</double_sided>
          </technique>
        </extra>
      </profile_COMMON>
      <extra><technique profile="MAX3D"><double_sided>1</double_sided></technique></extra>
    </effect>
  </library_effects>
  <library_materials>
    <material id="Wood-material" name="Wood">
      <instance_effect url="#Wood-effect"/>
    </material>
    <material id="RoofTiles-material" name="RoofTiles">
      <instance_effect url="#RoofTiles-effect"/>
    </material>
    <material id="Plaster-material" name="Plaster">
      <instance_effect url="#Plaster-effect"/>
    </material>
  </library_materials>
  <library_geometries>
    <geometry id="Cube_257-mesh" name="Cube.257">
      <mesh>
        <source id="Cube_257-mesh-positions">
          <float_array id="Cube_257-mesh-positions-array" count="675">-2.122358 1.648678 -1.304021 -2.122358 1.780905 -1.304021 -1.990131 1.780905 -1.304021 -1.990131 1.648678 -1.304021 -2.122358 1.648678 1.321435 -2.122358 1.780905 1.321435 -1.990131 1.780905 1.321435 -1.990131 1.648678 1.321435 1.990138 1.648678 -1.304021 1.990138 1.780905 -1.304021 2.122365 1.780905 -1.304021 2.122365 1.648678 -1.304021 1.990138 1.648678 1.321435 1.990138 1.780905 1.321435 2.122365 1.780905 1.321435 2.122365 1.648678 1.321435 2.003095 1.718986 0.9359522 2.003095 1.586759 0.9359522 2.003095 1.586759 0.8037253 2.003095 1.718986 0.8037253 -1.986051 1.718986 0.9359516 -1.986051 1.586759 0.9359516 -1.986051 1.586759 0.8037247 -1.986051 1.718986 0.8037247 0.4958713 1.79263 1.310844 0.4958713 1.660403 1.310844 0.3636443 1.660403 1.310844 0.3636443 1.79263 1.310844 0.495872 1.792629 -1.321435 0.495872 1.660402 -1.321435 0.3636451 1.660402 -1.321435 0.3636451 1.792629 -1.321435 1.611137 1.79263 1.310844 1.611137 1.660403 1.310844 1.47891 1.660403 1.310844 1.47891 1.79263 1.310844 1.611138 1.792629 -1.321435 1.611138 1.660402 -1.321435 1.478911 1.660402 -1.321435 1.478911 1.792629 -1.321435 -0.3179174 1.79263 1.310844 -0.3179174 1.660403 1.310844 -0.4501445 1.660403 1.310844 -0.4501445 1.79263 1.310844 -0.3179166 1.792629 -1.321435 -0.3179166 1.660402 -1.321435 -0.4501437 1.660402 -1.321435 -0.4501437 1.792629 -1.321435 -1.440929 1.79263 1.310844 -1.440929 1.660403 1.310844 -1.573156 1.660403 1.310844 -1.573156 1.79263 1.310844 -1.440928 1.792629 -1.321435 -1.440928 1.660402 -1.321435 -1.573155 1.660402 -1.321435 -1.573155 1.792629 -1.321435 2.003095 1.718986 -0.1715534 2.003095 1.586759 -0.1715534 2.003095 1.586759 -0.3037804 2.003095 1.718986 -0.3037804 -1.986051 1.718986 -0.1715539 -1.986051 1.586759 -0.1715539 -1.986051 1.586759 -0.3037808 -1.986051 1.718986 -0.3037808 -2.053734 1.682879 0.9359522 -1.921507 1.682879 0.9359522 -1.921507 1.682879 0.8037253 -2.053734 1.682879 0.8037253 -2.053733 -1.6958 0.9359516 -1.921506 -1.6958 0.9359516 -1.921506 -1.6958 0.8037247 -2.053733 -1.6958 0.8037247 -2.127378 0.4673866 1.310844 -1.995152 0.4673866 1.310844 -1.995151 0.3351597 1.310844 -2.127378 0.3351597 1.310844 -2.127377 0.4673874 -1.321435 -1.995151 0.4673874 -1.321435 -1.995151 0.3351604 -1.321435 -2.127377 0.3351603 -1.321435 -2.127378 -0.3464021 1.310844 -1.995151 -0.3464021 1.310844 -1.995151 -0.4786292 1.310844 -2.127378 -0.4786292 1.310844 -2.127377 -0.3464015 -1.321435 -1.99515 -0.3464012 -1.321435 -1.99515 -0.4786283 -1.321435 -2.127377 -0.4786285 -1.321435 -2.053734 1.670227 -0.1715534 -1.921507 1.670227 -0.1715534 -1.921507 1.670227 -0.3037804 -2.053734 1.670227 -0.3037804 -2.053733 -1.683147 -0.1715539 -1.921506 -1.683147 -0.1715539 -1.921506 -1.683147 -0.3037808 -2.053733 -1.683147 -0.3037808 2.08723 1.677867 0.9359522 1.955003 1.677867 0.9359522 1.955003 1.677867 0.8037253 2.08723 1.677867 0.8037253 2.087235 -1.695801 0.9359516 1.955008 -1.695801 0.9359516 1.955008 -1.695801 0.8037247 2.087235 -1.695801 0.8037247 2.160876 0.4673861 1.310844 2.02865 0.4673861 1.310844 2.02865 0.3351593 1.310844 2.160876 0.3351593 1.310844 2.160875 0.4673866 -1.321435 2.028649 0.4673866 -1.321435 2.028649 0.3351597 -1.321435 2.160875 0.3351597 -1.321435 -1.986051 -1.736614 -0.3037804 -1.986051 -1.604387 -0.3037804 -1.986051 -1.604387 -0.1715534 -1.986051 -1.736614 -0.1715534 2.160877 -0.3464025 1.310844 2.02865 -0.3464025 1.310844 2.02865 -0.4786298 1.310844 2.160877 -0.4786298 1.310844 2.160876 -0.3464021 -1.321435 2.028649 -0.3464021 -1.321435 2.028649 -0.4786289 -1.321435 2.160876 -0.4786289 -1.321435 2.08723 1.665214 -0.1715534 1.955003 1.665214 -0.1715534 1.955003 1.665214 -0.3037804 2.08723 1.665214 -0.3037804 2.087235 -1.683148 -0.1715539 1.955008 -1.683148 -0.1715539 1.955008 -1.683148 -0.3037808 2.087235 -1.683148 -0.3037808 2.003094 -1.692132 0.9359522 2.003094 -1.559906 0.9359522 2.003094 -1.559906 0.8037253 2.003094 -1.692132 0.8037253 -1.986051 -1.692133 0.9359516 -1.986051 -1.559906 0.9359516 -1.986051 -1.559906 0.8037247 -1.986051 -1.692133 0.8037247 0.4958708 -1.765777 1.310844 0.4958708 -1.63355 1.310844 0.3636439 -1.63355 1.310844 0.3636439 -1.765777 1.310844 0.495872 -1.765776 -1.321435 0.495872 -1.633549 -1.321435 0.3636451 -1.633549 -1.321435 0.3636451 -1.765776 -1.321435 1.611137 -1.765777 1.310844 1.611137 -1.63355 1.310844 1.47891 -1.63355 1.310844 1.47891 -1.765777 1.310844 1.611138 -1.765776 -1.321435 1.611138 -1.633549 -1.321435 1.478911 -1.633549 -1.321435 1.478911 -1.765776 -1.321435 -0.3179178 -1.765777 1.310844 -0.3179178 -1.63355 1.310844 -0.4501445 -1.63355 1.310844 -0.4501445 -1.765777 1.310844 -0.3179166 -1.765776 -1.321435 -0.3179166 -1.633549 -1.321435 -0.4501437 -1.633549 -1.321435 -0.4501437 -1.765776 -1.321435 -1.440929 -1.765777 1.310844 -1.440929 -1.63355 1.310844 -1.573156 -1.63355 1.310844 -1.573156 -1.765777 1.310844 -1.440928 -1.765776 -1.321435 -1.440928 -1.633549 -1.321435 -1.573155 -1.633549 -1.321435 -1.573155 -1.765776 -1.321435 2.003094 -1.692132 -0.1715534 2.003094 -1.559906 -0.1715534 2.003094 -1.559906 -0.3037804 2.003094 -1.692132 -0.3037804 -1.986051 -1.692133 -0.1715539 -1.986051 -1.559906 -0.1715539 -1.98605 -1.559906 -0.3037808 -1.98605 -1.692133 -0.3037808 1.990138 -1.773243 -1.304021 1.990138 -1.641016 -1.304021 2.122365 -1.641016 -1.304021 2.122365 -1.773243 -1.304021 1.990138 -1.773243 1.321435 1.990138 -1.641016 1.321435 2.122365 -1.641016 1.321435 2.122365 -1.773243 1.321435 -2.122358 -1.773243 -1.304021 -2.122358 -1.641016 -1.304021 -1.990131 -1.641016 -1.304021 -1.990131 -1.773243 -1.304021 -2.122358 -1.773243 1.321435 -2.122358 -1.641016 1.321435 -1.990131 -1.641016 1.321435 -1.990131 -1.773243 1.321435 2.003095 -1.736619 -0.1715539 2.003095 -1.604392 -0.1715539 2.003095 -1.604392 -0.3037808 2.003095 -1.736619 -0.3037808 -1.937959 -1.682842 -0.3037804 -1.986051 -1.73966 0.9359522 -1.986051 -1.607433 0.9359522 -1.986051 -1.607433 0.8037253 -1.986051 -1.73966 0.8037253 2.003095 -1.739665 0.9359516 2.003095 -1.607438 0.9359516 2.003095 -1.607438 0.8037247 2.003095 -1.739665 0.8037247 -2.065874 -1.695801 0.9359522 -1.933647 -1.695801 0.9359522 -1.933647 -1.695801 0.8037253 -2.065874 -1.695801 0.8037253 -2.065875 1.677867 0.9359516 -1.933647 1.677867 0.9359516 -1.933647 1.677867 0.8037247 -2.065875 1.677867 0.8037247 -2.065874 -1.683147 -0.1715534 -1.933647 -1.683148 -0.1715534 -1.933647 -1.683148 -0.3037804 -2.065874 -1.683147 -0.3037804 -2.065875 1.665214 -0.1715539 -1.933647 1.665214 -0.1715539 -1.933647 1.665214 -0.3037808 -2.065875 1.665214 -0.3037808</float_array>
          <technique_common>
            <accessor source="#Cube_257-mesh-positions-array" count="225" stride="3">
              <param name="X" type="float"/>
              <param name="Y" type="float"/>
              <param name="Z" type="float"/>
            </accessor>
          </technique_common>
        </source>
        <source id="Cube_257-mesh-normals">
          <float_array id="Cube_257-mesh-normals-array" count="528">-1 0 -1.81621e-7 0 1 0 1 0 1.81621e-7 0 -1 0 -1 0 0 0 1 0 1 0 0 0 -1 0 1.49417e-7 0 -1 0 1 0 -1.49417e-7 0 1 1 0 3.05691e-7 -1 0 -3.05691e-7 0 1 -2.71725e-7 1 0 2.71725e-7 -1 0 -3.17012e-7 0 1 -2.71725e-7 1 0 3.05691e-7 -1 0 -3.05691e-7 0 1 -2.71725e-7 1 0 3.17012e-7 -1 0 -2.71725e-7 0 1 -2.71725e-7 0 0 -1 0 1 0 0 0 1 0 1.76414e-7 -1 -1 -2.11697e-7 0 0 -1.76414e-7 1 0 1 3.05691e-7 0 -1 -2.26437e-7 -1 0 -2.71725e-7 0 1 2.26437e-7 0 -1 -2.37759e-7 -1 0 -2.71725e-7 0 1.24422e-7 -1 -1 -2.13294e-7 0 0 -1.19978e-7 1 0 1.76676e-7 -1 1 1.48408e-6 0 0 -1.76676e-7 1 0 1 1.58506e-7 0 -1 -1.58506e-7 1 0 -3.623e-7 0 1 1.58506e-7 0 -1 -3.17012e-7 1 0 -2.71725e-7 0 1.24608e-7 -1 1 1.4953e-6 0 0 -1.20158e-7 1 1.49417e-7 0 -1 0 -1 0 -1.49417e-7 0 1 1 0 4.64197e-7 -1 0 -4.64197e-7 0 -1 -2.71725e-7 1 0 4.52875e-7 -1 0 -4.98162e-7 0 -1 -2.71725e-7 1 0 4.64197e-7 -1 0 -3.05691e-7 0 -1 -2.71725e-7 1 0 3.17012e-7 -1 0 -2.71725e-7 0 -1 -2.71725e-7 0 0 -1 0 -1 0 0 0 1 -1 0 0 0 1 0 1 0 0 0 -1 0 -1 0 -1.81621e-7 0 1 0 1 0 1.81621e-7 0 -1 0 0 0 -1 -1.37464e-6 -1 0 0 0 1 -1.49417e-7 0 -1 -1.37464e-6 -1 0 1.49417e-7 0 1 0 -1.76676e-7 -1 -1 -1.41341e-7 0 0 1.76676e-7 1 0 -1.24608e-7 -1 -1 -1.42409e-7 0 0 0 1 -1 0 -1.81621e-7 0 1 0 1 0 1.81621e-7 0 -1 0 -1 0 0 0 1 0 1 0 0 0 -1 0 1.49417e-7 0 -1 0 1 0 -1.49417e-7 0 1 1 0 3.05691e-7 -1 0 -3.05691e-7 0 1 -2.71725e-7 1 0 2.71725e-7 -1 0 -3.17012e-7 0 1 -2.71725e-7 1 0 3.05691e-7 -1 0 -3.05691e-7 0 1 -2.71725e-7 1 0 3.17012e-7 -1 0 -2.71725e-7 0 1 -2.71725e-7 0 0 -1 0 1 0 0 0 1 0 1.76414e-7 -1 -1 -2.11697e-7 0 0 -1.76414e-7 1 0 1 3.05691e-7 1.57771e-6 -1 -3.0569e-7 -1 0 -2.71725e-7 -1.57771e-6 1 3.0569e-7 1.35233e-6 -1 -3.0569e-7 -1 0 -2.71725e-7 0 1.24422e-7 -1 -1 -2.13294e-7 0 0 -1.19978e-7 1 0 1.76676e-7 -1 1 1.48408e-6 0 0 -1.76676e-7 1 0 1 1.58506e-7 0 -1 -1.58506e-7 1 0 -3.623e-7 0 1 1.58506e-7 0 -1 -3.17012e-7 1 0 -2.71725e-7 0 1.24608e-7 -1 1 1.4953e-6 0 0 -1.20158e-7 1 1.49417e-7 0 -1 0 -1 0 -1.49417e-7 0 1 1 0 4.64197e-7 -1 0 -4.64197e-7 0 -1 -2.71725e-7 1 0 4.52875e-7 -1 0 -4.98162e-7 0 -1 -2.71725e-7 1 0 4.64197e-7 -1 0 -3.05691e-7 0 -1 -2.71725e-7 1 0 3.17012e-7 -1 0 -2.71725e-7 0 -1 -2.71725e-7 0 0 -1 0 -1 0 0 0 1 -1 0 0 0 1 0 1 0 0 0 -1 0 -1 0 -1.81621e-7 0 1 0 1 0 1.81621e-7 0 -1 0 0 0 -1 -1.37464e-6 -1 0 0 0 1 -1.49417e-7 0 -1 -1.37464e-6 -1 0 1.49417e-7 0 1 0 -1.76676e-7 -1 -1 -1.41341e-7 0 0 1.76676e-7 1 0 -1.24608e-7 -1 -1 -1.42409e-7 0 0 0 1</float_array>
          <technique_common>
            <accessor source="#Cube_257-mesh-normals-array" count="176" stride="3">
              <param name="X" type="float"/>
              <param name="Y" type="float"/>
              <param name="Z" type="float"/>
            </accessor>
          </technique_common>
        </source>
        <source id="Cube_257-mesh-map-0">
          <float_array id="Cube_257-mesh-map-0-array" count="1056">0.4718295 1.209419 0.4012737 1.209419 0.4012727 -0.2271745 0.3307178 1.209419 0.3307188 -0.2271745 0.4012727 -0.2271745 0.2601618 1.209419 0.2601648 -0.2271747 0.3307188 -0.2271745 0.5423855 1.209419 0.4718295 1.209419 0.4718267 -0.2271745 0.4718295 1.209419 0.4012737 1.209419 0.4012727 -0.2271745 0.4012737 1.209419 0.3307178 1.209419 0.3307188 -0.2271745 0.2601618 1.209419 0.2601648 -0.2271747 0.3307188 -0.2271745 0.5423855 1.209419 0.4718295 1.209419 0.4718267 -0.2271745 0.395794 -0.9361848 0.3213276 -0.9361848 0.3213331 1.260555 0.4702601 -0.936185 0.395794 -0.9361848 0.3957948 1.260555 0.5447265 -0.9361848 0.4702601 -0.936185 0.4702565 1.260555 0.1538641 -0.05768865 0.1538642 1.036959 0.2283298 1.036959 0.004932582 1.036959 0.07939833 1.036959 0.07939833 -0.05768835 0.07939833 -0.05768835 0.07939833 1.036959 0.1538642 1.036959 0.1538641 -0.05768865 0.1538642 1.036959 0.2283298 1.036959 0.004932582 1.036959 0.07939833 1.036959 0.07939833 -0.05768835 0.07939833 -0.05768835 0.07939833 1.036959 0.1538642 1.036959 0.3885931 -0.05103009 0.3885933 1.043617 0.4630588 1.043617 0.2396618 1.043617 0.3141275 1.043617 0.3141273 -0.05103009 0.3141273 -0.05103009 0.3141275 1.043617 0.3885933 1.043617 0.3885931 -0.05103009 0.3885933 1.043617 0.4630588 1.043617 0.2396618 1.043617 0.3141275 1.043617 0.3141273 -0.05103009 0.3141273 -0.05103009 0.3141275 1.043617 0.3885933 1.043617 0.395794 -0.9361848 0.3213276 -0.9361848 0.3213331 1.260555 0.4702601 -0.936185 0.395794 -0.9361848 0.3957948 1.260555 0.5447265 -0.9361848 0.4702601 -0.936185 0.4702565 1.260555 0.395794 -0.9361848 0.3213276 -0.9361848 0.3213331 1.260555 0.4702601 -0.936185 0.395794 -0.9361848 0.3957948 1.260555 0.5447265 -0.9361848 0.4702601 -0.936185 0.4702565 1.260555 0.1538641 -0.05768865 0.1538642 1.036959 0.2283298 1.036959 0.004932582 1.036959 0.07939833 1.036959 0.07939833 -0.05768835 0.07939833 -0.05768835 0.07939833 1.036959 0.1538642 1.036959 0.3885931 -0.05103009 0.3885933 1.043617 0.4630588 1.043617 0.2396618 1.043617 0.3141275 1.043617 0.3141273 -0.05103009 0.3141273 -0.05103009 0.3141275 1.043617 0.3885933 1.043617 0.395794 -0.9361848 0.3213276 -0.9361848 0.3213331 1.260555 0.4702601 -0.936185 0.395794 -0.9361848 0.3957948 1.260555 0.5447265 -0.9361848 0.4702601 -0.936185 0.4702565 1.260555 0.3957948 1.260555 0.3213331 1.260555 0.3213276 -0.9361848 0.4702601 -0.936185 0.4702565 1.260555 0.3957948 1.260555 0.5447265 -0.9361848 0.5447258 1.260555 0.4702565 1.260555 0.1538641 -0.05768865 0.2283298 -0.05768865 0.2283298 1.036959 0.07939833 -0.05768835 0.07939833 1.036959 0.004932582 1.036959 0.07939833 -0.05768835 0.1538641 -0.05768865 0.1538642 1.036959 0.3885931 -0.05103009 0.463059 -0.05103027 0.4630588 1.043617 0.3141273 -0.05103009 0.3141275 1.043617 0.2396618 1.043617 0.3141273 -0.05103009 0.3885931 -0.05103009 0.3885933 1.043617 0.395794 -0.9361848 0.3957948 1.260555 0.3213331 1.260555 0.4702601 -0.936185 0.4702565 1.260555 0.3957948 1.260555 0.5447265 -0.9361848 0.5447258 1.260555 0.4702565 1.260555 0.395794 -0.9361848 0.3957948 1.260555 0.3213331 1.260555 0.4702601 -0.936185 0.4702565 1.260555 0.3957948 1.260555 0.5447265 -0.9361848 0.5447258 1.260555 0.4702565 1.260555 0.1538641 -0.05768865 0.2283298 -0.05768865 0.2283298 1.036959 0.07939833 -0.05768835 0.07939833 1.036959 0.004932582 1.036959 0.07939833 -0.05768835 0.1538641 -0.05768865 0.1538642 1.036959 0.1538641 -0.05768865 0.2283298 -0.05768865 0.2283298 1.036959 0.07939833 -0.05768835 0.07939833 1.036959 0.004932582 1.036959 0.07939833 -0.05768835 0.1538641 -0.05768865 0.1538642 1.036959 0.3885931 -0.05103009 0.463059 -0.05103027 0.4630588 1.043617 0.3141273 -0.05103009 0.3141275 1.043617 0.2396618 1.043617 0.3141273 -0.05103009 0.3885931 -0.05103009 0.3885933 1.043617 0.3885931 -0.05103009 0.463059 -0.05103027 0.4630588 1.043617 0.3141273 -0.05103009 0.3141275 1.043617 0.2396618 1.043617 0.3141273 -0.05103009 0.3885931 -0.05103009 0.3885933 1.043617 0.395794 -0.9361848 0.3957948 1.260555 0.3213331 1.260555 0.4702601 -0.936185 0.4702565 1.260555 0.3957948 1.260555 0.5447265 -0.9361848 0.5447258 1.260555 0.4702565 1.260555 0.4718295 1.209419 0.4012737 1.209419 0.4012727 -0.2271745 0.4012737 1.209419 0.3307178 1.209419 0.3307188 -0.2271745 0.3307178 1.209419 0.2601618 1.209419 0.2601648 -0.2271747 0.5423855 1.209419 0.4718295 1.209419 0.4718267 -0.2271745 0.4718295 1.209419 0.4012737 1.209419 0.4012727 -0.2271745 0.3307178 1.209419 0.3307188 -0.2271745 0.4012727 -0.2271745 0.3307178 1.209419 0.2601618 1.209419 0.2601648 -0.2271747 0.5423855 1.209419 0.4718295 1.209419 0.4718267 -0.2271745 0.395794 -0.9361848 0.3213276 -0.9361848 0.3213331 1.260555 0.4702601 -0.936185 0.395794 -0.9361848 0.3957948 1.260555 0.4702601 -0.936185 0.4702565 1.260555 0.5447258 1.260555 0.395794 -0.9361848 0.3213276 -0.9361848 0.3213331 1.260555 0.4702601 -0.936185 0.395794 -0.9361848 0.3957948 1.260555 0.4702601 -0.936185 0.4702565 1.260555 0.5447258 1.260555 0.395794 -0.9361848 0.3957948 1.260555 0.3213331 1.260555 0.4702601 -0.936185 0.4702565 1.260555 0.3957948 1.260555 0.5447258 1.260555 0.4702565 1.260555 0.4702601 -0.936185 0.395794 -0.9361848 0.3957948 1.260555 0.3213331 1.260555 0.4702601 -0.936185 0.4702565 1.260555 0.3957948 1.260555 0.5447258 1.260555 0.4702565 1.260555 0.4702601 -0.936185 0.4718267 -0.2271745 0.4718295 1.209419 0.4012727 -0.2271745 0.4012737 1.209419 0.3307178 1.209419 0.4012727 -0.2271745 0.3307178 1.209419 0.2601618 1.209419 0.3307188 -0.2271745 0.5423806 -0.2271747 0.5423855 1.209419 0.4718267 -0.2271745 0.4718267 -0.2271745 0.4718295 1.209419 0.4012727 -0.2271745 0.4012727 -0.2271745 0.4012737 1.209419 0.3307188 -0.2271745 0.3307178 1.209419 0.2601618 1.209419 0.3307188 -0.2271745 0.5423806 -0.2271747 0.5423855 1.209419 0.4718267 -0.2271745 0.3957948 1.260555 0.395794 -0.9361848 0.3213331 1.260555 0.4702565 1.260555 0.4702601 -0.936185 0.3957948 1.260555 0.5447258 1.260555 0.5447265 -0.9361848 0.4702565 1.260555 0.2283298 -0.05768865 0.1538641 -0.05768865 0.2283298 1.036959 0.004932582 -0.05768835 0.004932582 1.036959 0.07939833 -0.05768835 0.1538641 -0.05768865 0.07939833 -0.05768835 0.1538642 1.036959 0.2283298 -0.05768865 0.1538641 -0.05768865 0.2283298 1.036959 0.004932582 -0.05768835 0.004932582 1.036959 0.07939833 -0.05768835 0.1538641 -0.05768865 0.07939833 -0.05768835 0.1538642 1.036959 0.463059 -0.05103027 0.3885931 -0.05103009 0.4630588 1.043617 0.2396616 -0.05103009 0.2396618 1.043617 0.3141273 -0.05103009 0.3885931 -0.05103009 0.3141273 -0.05103009 0.3885933 1.043617 0.463059 -0.05103027 0.3885931 -0.05103009 0.4630588 1.043617 0.2396616 -0.05103009 0.2396618 1.043617 0.3141273 -0.05103009 0.3885931 -0.05103009 0.3141273 -0.05103009 0.3885933 1.043617 0.3957948 1.260555 0.395794 -0.9361848 0.3213331 1.260555 0.4702565 1.260555 0.4702601 -0.936185 0.3957948 1.260555 0.5447258 1.260555 0.5447265 -0.9361848 0.4702565 1.260555 0.3957948 1.260555 0.395794 -0.9361848 0.3213331 1.260555 0.4702565 1.260555 0.4702601 -0.936185 0.3957948 1.260555 0.5447258 1.260555 0.5447265 -0.9361848 0.4702565 1.260555 0.2283298 -0.05768865 0.1538641 -0.05768865 0.2283298 1.036959 0.004932582 -0.05768835 0.004932582 1.036959 0.07939833 -0.05768835 0.1538641 -0.05768865 0.07939833 -0.05768835 0.1538642 1.036959 0.463059 -0.05103027 0.3885931 -0.05103009 0.4630588 1.043617 0.2396616 -0.05103009 0.2396618 1.043617 0.3141273 -0.05103009 0.3885931 -0.05103009 0.3141273 -0.05103009 0.3885933 1.043617 0.3957948 1.260555 0.395794 -0.9361848 0.3213331 1.260555 0.4702565 1.260555 0.4702601 -0.936185 0.3957948 1.260555 0.5447258 1.260555 0.5447265 -0.9361848 0.4702565 1.260555 0.395794 -0.9361848 0.3957948 1.260555 0.3213276 -0.9361848 0.395794 -0.9361848 0.4702601 -0.936185 0.3957948 1.260555 0.4702601 -0.936185 0.5447265 -0.9361848 0.4702565 1.260555 0.1538642 1.036959 0.1538641 -0.05768865 0.2283298 1.036959 0.004932582 -0.05768835 0.07939833 -0.05768835 0.004932582 1.036959 0.07939833 1.036959 0.07939833 -0.05768835 0.1538642 1.036959 0.3885933 1.043617 0.3885931 -0.05103009 0.4630588 1.043617 0.2396616 -0.05103009 0.3141273 -0.05103009 0.2396618 1.043617 0.3141275 1.043617 0.3141273 -0.05103009 0.3885933 1.043617 0.3213276 -0.9361848 0.395794 -0.9361848 0.3213331 1.260555 0.395794 -0.9361848 0.4702601 -0.936185 0.3957948 1.260555 0.4702601 -0.936185 0.5447265 -0.9361848 0.4702565 1.260555 0.3213276 -0.9361848 0.395794 -0.9361848 0.3213331 1.260555 0.395794 -0.9361848 0.4702601 -0.936185 0.3957948 1.260555 0.4702601 -0.936185 0.5447265 -0.9361848 0.4702565 1.260555 0.1538642 1.036959 0.1538641 -0.05768865 0.2283298 1.036959 0.004932582 -0.05768835 0.07939833 -0.05768835 0.004932582 1.036959 0.07939833 1.036959 0.07939833 -0.05768835 0.1538642 1.036959 0.1538642 1.036959 0.1538641 -0.05768865 0.2283298 1.036959 0.004932582 -0.05768835 0.07939833 -0.05768835 0.004932582 1.036959 0.07939833 1.036959 0.07939833 -0.05768835 0.1538642 1.036959 0.3885933 1.043617 0.3885931 -0.05103009 0.4630588 1.043617 0.2396616 -0.05103009 0.3141273 -0.05103009 0.2396618 1.043617 0.3141275 1.043617 0.3141273 -0.05103009 0.3885933 1.043617 0.3885933 1.043617 0.3885931 -0.05103009 0.4630588 1.043617 0.2396616 -0.05103009 0.3141273 -0.05103009 0.2396618 1.043617 0.3141275 1.043617 0.3141273 -0.05103009 0.3885933 1.043617 0.3213276 -0.9361848 0.395794 -0.9361848 0.3213331 1.260555 0.395794 -0.9361848 0.4702601 -0.936185 0.3957948 1.260555 0.4702601 -0.936185 0.5447265 -0.9361848 0.4702565 1.260555 0.4718267 -0.2271745 0.4718295 1.209419 0.4012727 -0.2271745 0.4012727 -0.2271745 0.4012737 1.209419 0.3307188 -0.2271745 0.3307188 -0.2271745 0.3307178 1.209419 0.2601648 -0.2271747 0.5423806 -0.2271747 0.5423855 1.209419 0.4718267 -0.2271745 0.4718267 -0.2271745 0.4718295 1.209419 0.4012727 -0.2271745 0.4012737 1.209419 0.3307178 1.209419 0.4012727 -0.2271745 0.3307188 -0.2271745 0.3307178 1.209419 0.2601648 -0.2271747 0.5423806 -0.2271747 0.5423855 1.209419 0.4718267 -0.2271745 0.3957948 1.260555 0.395794 -0.9361848 0.3213331 1.260555 0.4702565 1.260555 0.4702601 -0.936185 0.3957948 1.260555 0.5447265 -0.9361848 0.4702601 -0.936185 0.5447258 1.260555 0.3957948 1.260555 0.395794 -0.9361848 0.3213331 1.260555 0.4702565 1.260555 0.4702601 -0.936185 0.3957948 1.260555 0.5447265 -0.9361848 0.4702601 -0.936185 0.5447258 1.260555 0.3213276 -0.9361848 0.395794 -0.9361848 0.3213331 1.260555 0.395794 -0.9361848 0.4702601 -0.936185 0.3957948 1.260555 0.5447265 -0.9361848 0.5447258 1.260555 0.4702601 -0.936185 0.3213276 -0.9361848 0.395794 -0.9361848 0.3213331 1.260555 0.395794 -0.9361848 0.4702601 -0.936185 0.3957948 1.260555 0.5447265 -0.9361848 0.5447258 1.260555 0.4702601 -0.936185</float_array>
          <technique_common>
            <accessor source="#Cube_257-mesh-map-0-array" count="528" stride="2">
              <param name="S" type="float"/>
              <param name="T" type="float"/>
            </accessor>
          </technique_common>
        </source>
        <vertices id="Cube_257-mesh-vertices">
          <input semantic="POSITION" source="#Cube_257-mesh-positions"/>
        </vertices>
        <polylist material="Wood-material" count="176">
          <input semantic="VERTEX" source="#Cube_257-mesh-vertices" offset="0"/>
          <input semantic="NORMAL" source="#Cube_257-mesh-normals" offset="1"/>
          <input semantic="TEXCOORD" source="#Cube_257-mesh-map-0" offset="2" set="0"/>
          <vcount>3 3 3 3 3 3 3 3 3 3 3 3 3 3 3 3 3 3 3 3 3 3 3 3 3 3 3 3 3 3 3 3 3 3 3 3 3 3 3 3 3 3 3 3 3 3 3 3 3 3 3 3 3 3 3 3 3 3 3 3 3 3 3 3 3 3 3 3 3 3 3 3 3 3 3 3 3 3 3 3 3 3 3 3 3 3 3 3 3 3 3 3 3 3 3 3 3 3 3 3 3 3 3 3 3 3 3 3 3 3 3 3 3 3 3 3 3 3 3 3 3 3 3 3 3 3 3 3 3 3 3 3 3 3 3 3 3 3 3 3 3 3 3 3 3 3 3 3 3 3 3 3 3 3 3 3 3 3 3 3 3 3 3 3 3 3 3 3 3 3 3 3 3 3 3 3 </vcount>
          <p>4 0 0 5 0 1 1 0 2 6 1 3 2 1 4 1 1 5 7 2 6 3 2 7 2 2 8 7 3 9 4 3 10 0 3 11 12 4 12 13 4 13 9 4 14 13 5 15 14 5 16 10 5 17 15 6 18 11 6 19 10 6 20 15 7 21 12 7 22 8 7 23 19 8 24 18 8 25 22 8 26 16 9 27 19 9 28 23 9 29 17 10 30 16 10 31 20 10 32 28 11 33 24 11 34 25 11 35 26 12 36 27 12 37 31 12 38 31 13 39 27 13 40 24 13 41 36 14 42 32 14 43 33 14 44 34 15 45 35 15 46 39 15 47 39 16 48 35 16 49 32 16 50 44 17 51 40 17 52 41 17 53 42 18 54 43 18 55 47 18 56 47 19 57 43 19 58 40 19 59 52 20 60 48 20 61 49 20 62 50 21 63 51 21 64 55 21 65 55 22 66 51 22 67 48 22 68 59 23 69 58 23 70 62 23 71 56 24 72 59 24 73 63 24 74 57 25 75 56 25 76 60 25 77 67 26 78 66 26 79 70 26 80 64 27 81 67 27 82 71 27 83 65 28 84 64 28 85 68 28 86 76 29 87 72 29 88 73 29 89 74 30 90 75 30 91 79 30 92 79 31 93 75 31 94 72 31 95 84 32 96 80 32 97 81 32 98 82 33 99 83 33 100 87 33 101 87 34 102 83 34 103 80 34 104 91 35 105 90 35 106 94 35 107 88 36 108 91 36 109 95 36 110 89 37 111 88 37 112 92 37 113 103 38 114 102 38 115 98 38 116 96 39 117 100 39 118 103 39 119 97 40 120 101 40 121 100 40 122 108 41 123 109 41 124 105 41 125 111 42 126 107 42 127 106 42 128 111 43 129 108 43 130 104 43 131 120 44 132 121 44 133 117 44 134 123 45 135 119 45 136 118 45 137 123 46 138 120 46 139 116 46 140 127 47 141 131 47 142 130 47 143 124 48 144 128 48 145 131 48 146 125 49 147 129 49 148 128 49 149 135 50 150 139 50 151 138 50 152 132 51 153 136 51 154 139 51 155 133 52 156 137 52 157 136 52 158 144 53 159 145 53 160 141 53 161 147 54 162 143 54 163 142 54 164 147 55 165 144 55 166 140 55 167 152 56 168 153 56 169 149 56 170 155 57 171 151 57 172 150 57 173 155 58 174 152 58 175 148 58 176 160 59 177 161 59 178 157 59 179 163 60 180 159 60 181 158 60 182 163 61 183 160 61 184 156 61 185 168 62 186 169 62 187 165 62 188 171 63 189 167 63 190 166 63 191 171 64 192 168 64 193 164 64 194 175 65 195 179 65 196 178 65 197 172 66 198 176 66 199 179 66 200 173 67 201 177 67 202 176 67 203 184 68 204 185 68 205 181 68 206 185 69 207 186 69 208 182 69 209 186 70 210 187 70 211 183 70 212 187 71 213 184 71 214 180 71 215 192 72 216 193 72 217 189 72 218 194 73 219 190 73 220 189 73 221 194 74 222 195 74 223 191 74 224 195 75 225 192 75 226 188 75 227 112 76 228 113 76 229 198 76 230 115 77 231 112 77 232 199 77 233 115 78 234 196 78 235 197 78 236 204 79 237 203 79 238 207 79 239 201 80 240 204 80 241 208 80 242 201 81 243 205 81 244 206 81 245 212 82 246 216 82 247 215 82 248 209 83 249 213 83 250 216 83 251 214 84 252 213 84 253 209 84 254 220 85 255 224 85 256 223 85 257 217 86 258 221 86 259 224 86 260 222 87 261 221 87 262 217 87 263 0 88 264 4 88 265 1 88 266 5 89 267 6 89 268 1 89 269 6 90 270 7 90 271 2 90 272 3 91 273 7 91 274 0 91 275 8 92 276 12 92 277 9 92 278 9 93 279 13 93 280 10 93 281 14 94 282 15 94 283 10 94 284 11 95 285 15 95 286 8 95 287 23 96 288 19 96 289 22 96 290 20 97 291 16 97 292 23 97 293 21 98 294 17 98 295 20 98 296 29 99 297 28 99 298 25 99 299 30 100 300 26 100 301 31 100 302 28 101 303 31 101 304 24 101 305 37 102 306 36 102 307 33 102 308 38 103 309 34 103 310 39 103 311 36 104 312 39 104 313 32 104 314 45 105 315 44 105 316 41 105 317 46 106 318 42 106 319 47 106 320 44 107 321 47 107 322 40 107 323 53 108 324 52 108 325 49 108 326 54 109 327 50 109 328 55 109 329 52 110 330 55 110 331 48 110 332 63 111 333 59 111 334 62 111 335 60 112 336 56 112 337 63 112 338 61 113 339 57 113 340 60 113 341 71 114 342 67 114 343 70 114 344 68 115 345 64 115 346 71 115 347 69 116 348 65 116 349 68 116 350 77 117 351 76 117 352 73 117 353 78 118 354 74 118 355 79 118 356 76 119 357 79 119 358 72 119 359 85 120 360 84 120 361 81 120 362 86 121 363 82 121 364 87 121 365 84 122 366 87 122 367 80 122 368 95 123 369 91 123 370 94 123 371 92 124 372 88 124 373 95 124 374 93 125 375 89 125 376 92 125 377 99 126 378 103 126 379 98 126 380 99 127 381 96 127 382 103 127 383 96 128 384 97 128 385 100 128 386 104 129 387 108 129 388 105 129 389 110 130 390 111 130 391 106 130 392 107 131 393 111 131 394 104 131 395 116 132 396 120 132 397 117 132 398 122 133 399 123 133 400 118 133 401 119 134 402 123 134 403 116 134 404 126 135 405 127 135 406 130 135 407 127 136 408 124 136 409 131 136 410 124 137 411 125 137 412 128 137 413 134 138 414 135 138 415 138 138 416 135 139 417 132 139 418 139 139 419 132 140 420 133 140 421 136 140 422 140 141 423 144 141 424 141 141 425 146 142 426 147 142 427 142 142 428 143 143 429 147 143 430 140 143 431 148 144 432 152 144 433 149 144 434 154 145 435 155 145 436 150 145 437 151 146 438 155 146 439 148 146 440 156 147 441 160 147 442 157 147 443 162 148 444 163 148 445 158 148 446 159 149 447 163 149 448 156 149 449 164 150 450 168 150 451 165 150 452 170 151 453 171 151 454 166 151 455 167 152 456 171 152 457 164 152 458 174 153 459 175 153 460 178 153 461 175 154 462 172 154 463 179 154 464 172 155 465 173 155 466 176 155 467 180 156 468 184 156 469 181 156 470 181 157 471 185 157 472 182 157 473 182 158 474 186 158 475 183 158 476 183 159 477 187 159 478 180 159 479 188 160 480 192 160 481 189 160 482 193 161 483 194 161 484 189 161 485 190 162 486 194 162 487 191 162 488 191 163 489 195 163 490 188 163 491 199 164 492 112 164 493 198 164 494 196 165 495 115 165 496 199 165 497 114 166 498 115 166 499 197 166 500 208 167 501 204 167 502 207 167 503 205 168 504 201 168 505 208 168 506 202 169 507 201 169 508 206 169 509 211 170 510 212 170 511 215 170 512 212 171 513 209 171 514 216 171 515 210 172 516 214 172 517 209 172 518 219 173 519 220 173 520 223 173 521 220 174 522 217 174 523 224 174 524 218 175 525 222 175 526 217 175 527</p>
        </polylist>
      </mesh>
    </geometry>
    <geometry id="Cube_270-mesh" name="Cube.270">
      <mesh>
        <source id="Cube_270-mesh-positions">
          <float_array id="Cube_270-mesh-positions-array" count="636">2.183062 1.939049 -0.666294 2.183062 1.806822 -0.666294 2.183062 1.806822 -0.7985209 2.183062 1.939049 -0.7985209 0.5063714 1.933558 0.6125812 0.5063716 1.801331 0.6125812 0.3741453 1.801332 0.6125812 0.3741449 1.933559 0.6125812 0.5063726 1.933558 -1.926974 0.5063726 1.801331 -1.926974 0.3741461 1.801331 -1.926974 0.3741461 1.933558 -1.926974 1.621637 1.933558 0.6125814 1.621638 1.801331 0.6125813 1.489411 1.801332 0.6125813 1.48941 1.933559 0.6125813 1.621639 1.933558 -1.926974 1.621639 1.801331 -1.926974 1.489412 1.801331 -1.926974 1.489412 1.933558 -1.926974 2.19888 1.942047 0.4570388 2.19888 1.80982 0.4570388 2.19888 1.80982 0.3248119 2.19888 1.942047 0.3248119 -2.094767 1.93905 -0.666295 -2.094766 1.806823 -0.666295 -2.094766 1.806823 -0.7985219 -2.094767 1.93905 -0.7985219 -0.3074168 1.933558 0.6125812 -0.3074164 1.801331 0.6125812 -0.4396437 1.801332 0.6125812 -0.4396437 1.933559 0.6125812 -0.3074156 1.933558 -1.926974 -0.3074156 1.801331 -1.926974 -0.4396429 1.801331 -1.926974 -0.4396425 1.933558 -1.926974 -1.430428 1.933559 0.6125812 -1.430428 1.801332 0.6125812 -1.562655 1.801332 0.6125811 -1.562655 1.933559 0.6125811 -1.430427 1.933558 -1.926974 -1.430427 1.801331 -1.926974 -1.562654 1.801331 -1.926974 -1.562654 1.933558 -1.926974 -2.091205 1.942048 0.4570379 -2.091205 1.809821 0.4570379 -2.091205 1.809821 0.3248109 -2.091205 1.942048 0.3248109 -2.200601 0.4412439 1.827267 -2.068373 0.4412439 1.827267 -2.068374 0.309017 1.917263 -2.200601 0.309017 1.917263 -2.200599 0.4412447 -1.994281 -2.068373 0.4412447 -1.994281 -2.068373 0.3090178 -1.994281 -2.2006 0.3090178 -1.994281 -2.2006 -0.3725447 1.917263 -2.068373 -0.3725445 1.917263 -2.068373 -0.5047717 1.827267 -2.200601 -0.5047718 1.827267 -2.200599 -0.3725439 -1.994281 -2.068373 -0.3725437 -1.994281 -2.068372 -0.5047708 -1.994281 -2.200599 -0.504771 -1.994281 -2.200598 -1.495555 -1.994281 -2.068372 -1.495555 -1.994281 -2.068372 -1.627782 -1.994281 -2.200599 -1.627782 -1.994281 -2.156568 1.868566 -0.6662939 -2.024341 1.868566 -0.6662939 -2.024341 1.868566 -0.7985208 -2.156568 1.868566 -0.7985208 -2.159565 1.878727 0.4570387 -2.027339 1.878728 0.4570387 -2.027339 1.878728 0.3248118 -2.159565 1.878727 0.3248118 -2.156566 -1.875286 -0.6662943 -2.02434 -1.875285 -0.6662943 -2.02434 -1.875285 -0.7985212 -2.156566 -1.875286 -0.7985212 -2.159564 -1.872998 0.4570385 -2.027337 -1.872997 0.4570385 -2.027337 -1.872997 0.3248115 -2.159564 -1.872998 0.3248115 2.284348 0.4412437 1.827266 2.152121 0.4412439 1.827266 2.152121 0.309017 1.917263 2.284348 0.3090168 1.917263 2.284348 0.4412445 -1.994282 2.152121 0.4412447 -1.994282 2.152121 0.3090178 -1.994282 2.284348 0.3090176 -1.994282 2.284349 -0.3725449 1.917263 2.152122 -0.3725447 1.917263 2.152122 -0.5047718 1.827266 2.284349 -0.5047717 1.827266 2.284348 -0.3725441 -1.994282 2.152121 -0.3725439 -1.994282 2.152121 -0.504771 -1.994282 2.284348 -0.5047708 -1.994282 2.240312 1.868566 -0.6662941 2.108085 1.868566 -0.6662941 2.108085 1.868566 -0.7985211 2.240312 1.868566 -0.7985211 2.243309 1.878727 0.4570385 2.111083 1.878727 0.4570382 2.111083 1.878727 0.3248113 2.243309 1.878727 0.3248115 2.240318 -1.875286 -0.6662945 2.108091 -1.875286 -0.6662945 2.108091 -1.875286 -0.7985215 2.240318 -1.875286 -0.7985215 2.243315 -1.872998 0.4570381 2.111088 -1.872998 0.4570381 2.111088 -1.872998 0.3248112 2.243315 -1.872998 0.3248112 2.183061 -1.93905 -0.6662939 2.183061 -1.806823 -0.6662939 2.183061 -1.806823 -0.7985208 2.183061 -1.93905 -0.7985208 0.5063712 -1.933559 0.6125813 0.5063714 -1.801332 0.6125813 0.3741445 -1.801332 0.6125812 0.3741441 -1.933559 0.6125813 0.5063722 -1.933558 -1.926974 0.5063726 -1.801331 -1.926974 0.3741457 -1.801331 -1.926974 0.3741453 -1.933558 -1.926974 1.621637 -1.933559 0.6125814 1.621637 -1.801332 0.6125814 1.48941 -1.801332 0.6125814 1.48941 -1.933559 0.6125814 1.621638 -1.933558 -1.926974 1.621639 -1.801331 -1.926974 1.489412 -1.801331 -1.926974 1.489411 -1.933558 -1.926974 2.19888 -1.942047 0.4570389 2.19888 -1.809821 0.4570389 2.19888 -1.809821 0.3248119 2.19888 -1.942047 0.3248119 -2.094767 -1.93905 -0.6662949 -2.094767 -1.806823 -0.6662949 -2.094767 -1.806823 -0.7985219 -2.094767 -1.93905 -0.7985219 -0.3074172 -1.933559 0.6125812 -0.3074172 -1.801332 0.6125812 -0.4396445 -1.801332 0.6125812 -0.4396441 -1.933559 0.6125812 -0.3074164 -1.933558 -1.926974 -0.307416 -1.801331 -1.926974 -0.4396433 -1.801331 -1.926974 -0.4396433 -1.933558 -1.926974 -1.430428 -1.933559 0.6125812 -1.430428 -1.801332 0.6125812 -1.562656 -1.801332 0.6125812 -1.562656 -1.933559 0.6125812 -1.430428 -1.933558 -1.926974 -1.430427 -1.801331 -1.926974 -1.562654 -1.801331 -1.926974 -1.562654 -1.933558 -1.926974 -2.091205 -1.942048 0.4570379 -2.091205 -1.809821 0.4570379 -2.091205 -1.809821 0.3248111 -2.091205 -1.942048 0.3248111 -2.194797 -1.952146 -1.899069 -2.194797 -1.81992 -1.899069 -2.06257 -1.81992 -1.899069 -2.06257 -1.952146 -1.899069 -2.194797 -1.952146 0.6437011 -2.194797 -1.81992 0.6437011 -2.06257 -1.81992 0.6437011 -2.06257 -1.952146 0.6437011 2.140173 -1.952147 -1.899069 2.140173 -1.81992 -1.899069 2.2724 -1.81992 -1.899069 2.2724 -1.952147 -1.899069 2.140173 -1.952147 0.6437013 2.140173 -1.81992 0.6437013 2.2724 -1.81992 0.6437013 2.2724 -1.952147 0.6437013 2.140173 1.764123 -1.899069 2.140173 1.89635 -1.899069 2.2724 1.89635 -1.899069 2.2724 1.764123 -1.899069 2.140173 1.764123 0.6437011 2.140173 1.89635 0.6437011 2.2724 1.89635 0.6437011 2.2724 1.764123 0.6437011 -2.194797 1.764123 -1.899069 -2.194797 1.89635 -1.899069 -2.06257 1.89635 -1.899069 -2.06257 1.764123 -1.899069 -2.194797 1.764123 0.6437011 -2.194797 1.89635 0.6437011 -2.06257 1.89635 0.6437011 -2.06257 1.764123 0.6437011 -2.178335 -1.865125 -0.6662941 -2.046108 -1.865125 -0.6662941 -2.046108 -1.865125 -0.7985211 -2.178335 -1.865125 -0.7985211 -2.181333 -1.875286 0.4570385 -2.049106 -1.875286 0.4570382 -2.049106 -1.875286 0.3248113 -2.181333 -1.875286 0.3248115 -2.178336 1.878727 -0.6662945 -2.046109 1.878727 -0.6662945 -2.046109 1.878727 -0.7985215 -2.178336 1.878727 -0.7985215 -2.181334 1.876439 0.4570381 -2.049107 1.876439 0.4570381 -2.049107 1.876439 0.3248112 -2.181334 1.876439 0.3248112</float_array>
          <technique_common>
            <accessor source="#Cube_270-mesh-positions-array" count="212" stride="3">
              <param name="X" type="float"/>
              <param name="Y" type="float"/>
              <param name="Z" type="float"/>
            </accessor>
          </technique_common>
        </source>
        <source id="Cube_270-mesh-normals">
          <float_array id="Cube_270-mesh-normals-array" count="492">2.36868e-7 0 -1 1.67201e-7 1 0 1 1.8031e-6 4.9288e-7 -1 -2.93004e-6 -4.81144e-7 3.60622e-6 1 -3.75526e-7 1 1.8031e-6 5.16351e-7 -1 -9.01551e-7 -4.6941e-7 3.60621e-6 1 -2.81644e-7 2.1535e-7 0 -1 0 1 0 -2.36868e-7 0 1 1 2.93004e-6 4.81144e-7 -1 0 -4.81145e-7 3.6062e-6 1 -3.75526e-7 1 6.31085e-6 4.69407e-7 -1 0 -4.6941e-7 0 1 -4.6941e-7 -2.1535e-7 0 1 0 1 2.10559e-7 0 -1 -2.05715e-7 -1 -1.65943e-7 -2.4381e-7 -1.57772e-6 1 2.05715e-7 1.35232e-6 -1 -2.18357e-7 -1 7.33685e-6 -1.82856e-7 0 0 -1 -1 -4.45779e-7 0 0 0 -1 -1 -4.44843e-7 0 0 0 1 0 0 1 1.57771e-6 1 2.10559e-7 -1.57771e-6 -1 -2.05715e-7 1 0 -1.87164e-7 1.57771e-6 1 2.05714e-7 1.35233e-6 -1 -2.18358e-7 1 -1.59567e-6 -3.04763e-7 0 0 -1 1 1.65575e-6 0 0 0 -1 1 1.58873e-6 0 0 0 1 0 0 1 2.50801e-7 0 -1 0 -1 0 1 -3.15543e-6 4.9288e-7 -1 3.15543e-6 -4.81144e-7 1.8031e-6 -1 -3.75527e-7 1 -3.60621e-6 5.1635e-7 -1 1.8031e-6 -3.75527e-7 1.8031e-6 -1 -3.75527e-7 2.1535e-7 0 -1 0 -1 0 -2.36868e-7 0 1 1 -3.15543e-6 4.81144e-7 -1 -3.15543e-6 -3.16853e-7 1.8031e-6 -1 -3.75528e-7 1 -2.70466e-6 4.69409e-7 -1 0 -4.6941e-7 0 -1 -4.6941e-7 -2.36191e-7 0 1 -1 0 0 0 1 0 1 0 0 0 -1 0 -1 0 0 0 1 0 1 0 0 0 -1 0 -1 0 -1.87527e-7 0 1 0 1 0 1.87527e-7 0 -1 0 -1 0 0 0 1 0 1 0 0 0 -1 0 0 0 -1 -1 -2.54731e-7 0 0 0 -1 -1 -1.90647e-7 0 0 0 1 0 0 1 2.36868e-7 0 -1 1.67201e-7 1 0 1 0 3.98999e-7 -1 0 -3.28587e-7 1.80311e-6 1 -2.81645e-7 1 0 4.22469e-7 -1 0 -4.22469e-7 0 1 -4.6941e-7 2.1535e-7 0 -1 0 1 0 -2.36868e-7 0 1 1 0 3.28587e-7 -1 3.15543e-6 -3.16853e-7 1.8031e-6 1 -2.81645e-7 1 3.60622e-6 3.28586e-7 -1 3.60621e-6 -2.81647e-7 1.80311e-6 1 -3.75527e-7 -2.1535e-7 0 1 0 1 2.10559e-7 0 -1 -2.05715e-7 -1 5.4093e-6 -4.36715e-7 -1.57772e-6 1 2.05715e-7 1.35232e-6 -1 -2.18357e-7 -1 0 -4.36716e-7 0 0 -1 -1 -4.45779e-7 0 0 0 -1 -1 -4.44843e-7 0 0 0 1 0 0 1 1.57771e-6 1 2.10559e-7 -1.57771e-6 -1 -2.05715e-7 1 -1.24458e-7 -1.82858e-7 1.57772e-6 1 2.05714e-7 1.35233e-6 -1 -2.18358e-7 1 0 -2.49552e-7 0 0 -1 1 1.65575e-6 0 1.57771e-6 0 -1 1 1.58873e-6 0 0 0 1 -1.57771e-6 0 1 2.50801e-7 0 -1 0 -1 0 1 -1.35233e-6 3.98998e-7 -1 3.15543e-6 -4.81144e-7 1.8031e-6 -1 -3.75527e-7 1 -9.0155e-7 3.75528e-7 -1 3.6062e-6 -4.69408e-7 0 -1 -4.6941e-7 2.1535e-7 0 -1 0 -1 0 -2.36868e-7 0 1 1 0 3.16852e-7 -1 0 -4.81145e-7 1.8031e-6 -1 -3.75528e-7 1 0 3.28587e-7 -1 0 -4.6941e-7 -1.8031e-6 -1 -3.75529e-7 -2.36191e-7 0 1 -1 0 0 0 1 0 1 0 0 0 -1 0 -1 0 0 0 1 0 1 0 0 0 -1 0 -1 0 -1.87527e-7 0 1 0 1 0 1.87527e-7 0 -1 0 -1 0 0 0 1 0 1 0 0 0 -1 0 0 0 -1 -1 -2.54731e-7 0 -1.57771e-6 0 -1 -1 -1.90647e-7 0 0 0 1 1.8031e-6 0 1</float_array>
          <technique_common>
            <accessor source="#Cube_270-mesh-normals-array" count="164" stride="3">
              <param name="X" type="float"/>
              <param name="Y" type="float"/>
              <param name="Z" type="float"/>
            </accessor>
          </technique_common>
        </source>
        <source id="Cube_270-mesh-map-0">
          <float_array id="Cube_270-mesh-map-0-array" count="984">0.395794 -0.9361848 0.3213276 -0.9361848 0.3213331 1.260555 0.395794 -0.9361848 0.3957948 1.260555 0.4702565 1.260555 0.1538641 -0.05768865 0.1538642 1.036959 0.2283298 1.036959 0.004932582 1.036959 0.07939833 1.036959 0.07939833 -0.05768835 0.07939833 -0.05768835 0.07939833 1.036959 0.1538642 1.036959 0.1538641 -0.05768865 0.1538642 1.036959 0.2283298 1.036959 0.004932582 1.036959 0.07939833 1.036959 0.07939833 -0.05768835 0.07939833 1.036959 0.1538642 1.036959 0.1538641 -0.05768865 0.6242287 -0.906604 0.5497635 -0.9066036 0.5497565 1.258336 0.6986936 -0.906604 0.6242287 -0.906604 0.6242276 1.258336 0.4702601 -0.936185 0.4702565 1.260555 0.5447258 1.260555 0.3885931 -0.05103009 0.3885933 1.043617 0.4630588 1.043617 0.2396618 1.043617 0.3141275 1.043617 0.3141273 -0.05103009 0.3141273 -0.05103009 0.3141275 1.043617 0.3885933 1.043617 0.3885931 -0.05103009 0.3885933 1.043617 0.4630588 1.043617 0.2396618 1.043617 0.3141275 1.043617 0.3141273 -0.05103009 0.3141275 1.043617 0.3885933 1.043617 0.3885931 -0.05103009 0.7731592 -0.9066039 0.6986936 -0.906604 0.6986951 1.258336 0.2386567 -0.5696358 0.2386515 1.524857 0.1728568 1.524856 0.3702381 1.569636 0.3044437 1.569636 0.3044449 -0.5696357 0.3044449 -0.5696357 0.3044437 1.569636 0.2386515 1.524857 -0.3564471 -0.5696359 -0.3564458 1.56963 -0.4222401 1.569631 -0.2248565 1.524849 -0.2906513 1.524849 -0.2906472 -0.5696357 -0.2906513 1.524849 -0.3564458 1.56963 -0.3564471 -0.5696359 0.3213276 -0.9361848 0.3213331 1.260555 0.3957948 1.260555 0.4702601 -0.936185 0.395794 -0.9361848 0.3957948 1.260555 0.6242287 -0.906604 0.5497635 -0.9066036 0.5497565 1.258336 0.6986936 -0.906604 0.6242287 -0.906604 0.6242276 1.258336 0.5447265 -0.9361848 0.4702601 -0.936185 0.4702565 1.260555 0.6986936 -0.906604 0.6986951 1.258336 0.7731592 1.258336 0.106081 -0.5696358 0.1718754 -0.5696357 0.1718749 1.524838 -0.0255075 -0.5696359 0.04028671 -0.5696359 0.04028385 1.569617 0.04028671 -0.5696359 0.106081 -0.5696358 0.1060754 1.524838 -0.09228491 -0.5696355 -0.02649062 -0.5696353 -0.02649086 1.569624 -0.1580786 -0.5696358 -0.1580876 1.524839 -0.2238752 1.524838 -0.09228491 -0.5696355 -0.09228837 1.569624 -0.1580876 1.524839 0.3957948 1.260555 0.3213331 1.260555 0.3213276 -0.9361848 0.4702601 -0.936185 0.4702565 1.260555 0.3957948 1.260555 0.6242287 -0.906604 0.6242276 1.258336 0.5497565 1.258336 0.6986936 -0.906604 0.6986951 1.258336 0.6242276 1.258336 0.5447265 -0.9361848 0.5447258 1.260555 0.4702565 1.260555 0.7731592 1.258336 0.6986951 1.258336 0.6986936 -0.906604 0.395794 -0.9361848 0.3957948 1.260555 0.3213331 1.260555 0.4702565 1.260555 0.3957948 1.260555 0.395794 -0.9361848 0.1538641 -0.05768865 0.2283298 -0.05768865 0.2283298 1.036959 0.07939833 -0.05768835 0.07939833 1.036959 0.004932582 1.036959 0.07939833 -0.05768835 0.1538641 -0.05768865 0.1538642 1.036959 0.1538641 -0.05768865 0.2283298 -0.05768865 0.2283298 1.036959 0.07939833 -0.05768835 0.07939833 1.036959 0.004932582 1.036959 0.1538641 -0.05768865 0.1538642 1.036959 0.07939833 1.036959 0.6242287 -0.906604 0.6242276 1.258336 0.5497565 1.258336 0.6986951 1.258336 0.6242276 1.258336 0.6242287 -0.906604 0.5447265 -0.9361848 0.5447258 1.260555 0.4702565 1.260555 0.3885931 -0.05103009 0.463059 -0.05103027 0.4630588 1.043617 0.3141273 -0.05103009 0.3141275 1.043617 0.2396618 1.043617 0.3141273 -0.05103009 0.3885931 -0.05103009 0.3885933 1.043617 0.3885931 -0.05103009 0.463059 -0.05103027 0.4630588 1.043617 0.3141273 -0.05103009 0.3141275 1.043617 0.2396618 1.043617 0.3141273 -0.05103009 0.3885931 -0.05103009 0.3885933 1.043617 0.7731592 -0.9066039 0.7731592 1.258336 0.6986951 1.258336 0.1567862 1.26452 0.07796955 1.264493 0.07849276 -0.2511762 0.07796955 1.264493 -8.46975e-4 1.264465 -3.24007e-4 -0.2512034 -8.46975e-4 1.264465 -0.07966357 1.264438 -0.07914072 -0.2512306 0.2356029 1.264547 0.1567862 1.26452 0.1573094 -0.251149 0.1567862 1.26452 0.07796955 1.264493 0.07849276 -0.2511762 0.07796955 1.264493 -8.46975e-4 1.264465 -3.24007e-4 -0.2512034 -8.46975e-4 1.264465 -0.07966357 1.264438 -0.07914072 -0.2512306 0.2356029 1.264547 0.1567862 1.26452 0.1573094 -0.251149 0.1567862 1.26452 0.07796955 1.264493 0.07849276 -0.2511762 -8.46975e-4 1.264465 -3.24007e-4 -0.2512034 0.07849276 -0.2511762 -8.46975e-4 1.264465 -0.07966357 1.264438 -0.07914072 -0.2512306 0.2356029 1.264547 0.1567862 1.26452 0.1573094 -0.251149 0.1567862 1.26452 0.07796955 1.264493 0.07849276 -0.2511762 0.07796955 1.264493 -8.46975e-4 1.264465 -3.24007e-4 -0.2512034 -8.46975e-4 1.264465 -0.07966357 1.264438 -0.07914072 -0.2512306 0.2356029 1.264547 0.1567862 1.26452 0.1573094 -0.251149 0.395794 -0.9361848 0.3957948 1.260555 0.3213331 1.260555 0.4702601 -0.936185 0.4702565 1.260555 0.3957948 1.260555 0.6242287 -0.906604 0.6242276 1.258336 0.5497565 1.258336 0.6986936 -0.906604 0.6986951 1.258336 0.6242276 1.258336 0.5447258 1.260555 0.4702565 1.260555 0.4702601 -0.936185 0.7731592 -0.9066039 0.7731592 1.258336 0.6986951 1.258336 0.3957948 1.260555 0.395794 -0.9361848 0.3213331 1.260555 0.4702601 -0.936185 0.395794 -0.9361848 0.4702565 1.260555 0.2283298 -0.05768865 0.1538641 -0.05768865 0.2283298 1.036959 0.004932582 -0.05768835 0.004932582 1.036959 0.07939833 -0.05768835 0.1538641 -0.05768865 0.07939833 -0.05768835 0.1538642 1.036959 0.2283298 -0.05768865 0.1538641 -0.05768865 0.2283298 1.036959 0.004932582 -0.05768835 0.004932582 1.036959 0.07939833 -0.05768835 0.07939833 -0.05768835 0.07939833 1.036959 0.1538641 -0.05768865 0.6242276 1.258336 0.6242287 -0.906604 0.5497565 1.258336 0.6986951 1.258336 0.6986936 -0.906604 0.6242276 1.258336 0.5447265 -0.9361848 0.4702601 -0.936185 0.5447258 1.260555 0.463059 -0.05103027 0.3885931 -0.05103009 0.4630588 1.043617 0.2396616 -0.05103009 0.2396618 1.043617 0.3141273 -0.05103009 0.3885931 -0.05103009 0.3141273 -0.05103009 0.3885933 1.043617 0.463059 -0.05103027 0.3885931 -0.05103009 0.4630588 1.043617 0.2396616 -0.05103009 0.2396618 1.043617 0.3141273 -0.05103009 0.3141273 -0.05103009 0.3141275 1.043617 0.3885931 -0.05103009 0.7731592 1.258336 0.7731592 -0.9066039 0.6986951 1.258336 0.1728568 -0.5696359 0.2386567 -0.5696358 0.1728568 1.524856 0.3702385 -0.5696358 0.3702381 1.569636 0.3044449 -0.5696357 0.2386567 -0.5696358 0.3044449 -0.5696357 0.2386515 1.524857 -0.4222406 -0.5696359 -0.3564471 -0.5696359 -0.4222401 1.569631 -0.2248594 -0.5696359 -0.2248565 1.524849 -0.2906472 -0.5696357 -0.2906472 -0.5696357 -0.2906513 1.524849 -0.3564471 -0.5696359 0.395794 -0.9361848 0.3213276 -0.9361848 0.3957948 1.260555 0.4702565 1.260555 0.4702601 -0.936185 0.3957948 1.260555 0.6242276 1.258336 0.6242287 -0.906604 0.5497565 1.258336 0.6986951 1.258336 0.6986936 -0.906604 0.6242276 1.258336 0.5447258 1.260555 0.5447265 -0.9361848 0.4702565 1.260555 0.7731592 -0.9066039 0.6986936 -0.906604 0.7731592 1.258336 0.1060754 1.524838 0.106081 -0.5696358 0.1718749 1.524838 -0.02550923 1.569617 -0.0255075 -0.5696359 0.04028385 1.569617 0.04028385 1.569617 0.04028671 -0.5696359 0.1060754 1.524838 -0.09228837 1.569624 -0.09228491 -0.5696355 -0.02649086 1.569624 -0.2238725 -0.5696359 -0.1580786 -0.5696358 -0.2238752 1.524838 -0.1580786 -0.5696358 -0.09228491 -0.5696355 -0.1580876 1.524839 0.395794 -0.9361848 0.3957948 1.260555 0.3213276 -0.9361848 0.395794 -0.9361848 0.4702601 -0.936185 0.3957948 1.260555 0.5497635 -0.9066036 0.6242287 -0.906604 0.5497565 1.258336 0.6242287 -0.906604 0.6986936 -0.906604 0.6242276 1.258336 0.4702601 -0.936185 0.5447265 -0.9361848 0.4702565 1.260555 0.7731592 -0.9066039 0.7731592 1.258336 0.6986936 -0.906604 0.3213276 -0.9361848 0.395794 -0.9361848 0.3213331 1.260555 0.4702601 -0.936185 0.4702565 1.260555 0.395794 -0.9361848 0.1538642 1.036959 0.1538641 -0.05768865 0.2283298 1.036959 0.004932582 -0.05768835 0.07939833 -0.05768835 0.004932582 1.036959 0.07939833 1.036959 0.07939833 -0.05768835 0.1538642 1.036959 0.1538642 1.036959 0.1538641 -0.05768865 0.2283298 1.036959 0.004932582 -0.05768835 0.07939833 -0.05768835 0.004932582 1.036959 0.07939833 -0.05768835 0.1538641 -0.05768865 0.07939833 1.036959 0.5497635 -0.9066036 0.6242287 -0.906604 0.5497565 1.258336 0.6986936 -0.906604 0.6986951 1.258336 0.6242287 -0.906604 0.4702601 -0.936185 0.5447265 -0.9361848 0.4702565 1.260555 0.3885933 1.043617 0.3885931 -0.05103009 0.4630588 1.043617 0.2396616 -0.05103009 0.3141273 -0.05103009 0.2396618 1.043617 0.3141275 1.043617 0.3141273 -0.05103009 0.3885933 1.043617 0.3885933 1.043617 0.3885931 -0.05103009 0.4630588 1.043617 0.2396616 -0.05103009 0.3141273 -0.05103009 0.2396618 1.043617 0.3141275 1.043617 0.3141273 -0.05103009 0.3885933 1.043617 0.6986936 -0.906604 0.7731592 -0.9066039 0.6986951 1.258336 0.1573094 -0.251149 0.1567862 1.26452 0.07849276 -0.2511762 0.07849276 -0.2511762 0.07796955 1.264493 -3.24007e-4 -0.2512034 -3.24007e-4 -0.2512034 -8.46975e-4 1.264465 -0.07914072 -0.2512306 0.2361262 -0.2511218 0.2356029 1.264547 0.1573094 -0.251149 0.1573094 -0.251149 0.1567862 1.26452 0.07849276 -0.2511762 0.07849276 -0.2511762 0.07796955 1.264493 -3.24007e-4 -0.2512034 -3.24007e-4 -0.2512034 -8.46975e-4 1.264465 -0.07914072 -0.2512306 0.2361262 -0.2511218 0.2356029 1.264547 0.1573094 -0.251149 0.1573094 -0.251149 0.1567862 1.26452 0.07849276 -0.2511762 0.07796955 1.264493 -8.46975e-4 1.264465 0.07849276 -0.2511762 -3.24007e-4 -0.2512034 -8.46975e-4 1.264465 -0.07914072 -0.2512306 0.2361262 -0.2511218 0.2356029 1.264547 0.1573094 -0.251149 0.1573094 -0.251149 0.1567862 1.26452 0.07849276 -0.2511762 0.07849276 -0.2511762 0.07796955 1.264493 -3.24007e-4 -0.2512034 -3.24007e-4 -0.2512034 -8.46975e-4 1.264465 -0.07914072 -0.2512306 0.2361262 -0.2511218 0.2356029 1.264547 0.1573094 -0.251149 0.3213276 -0.9361848 0.395794 -0.9361848 0.3213331 1.260555 0.395794 -0.9361848 0.4702601 -0.936185 0.3957948 1.260555 0.5497635 -0.9066036 0.6242287 -0.906604 0.5497565 1.258336 0.6242287 -0.906604 0.6986936 -0.906604 0.6242276 1.258336 0.5447265 -0.9361848 0.5447258 1.260555 0.4702601 -0.936185 0.6986936 -0.906604 0.7731592 -0.9066039 0.6986951 1.258336</float_array>
          <technique_common>
            <accessor source="#Cube_270-mesh-map-0-array" count="492" stride="2">
              <param name="S" type="float"/>
              <param name="T" type="float"/>
            </accessor>
          </technique_common>
        </source>
        <vertices id="Cube_270-mesh-vertices">
          <input semantic="POSITION" source="#Cube_270-mesh-positions"/>
        </vertices>
        <lines count="3">
          <input semantic="VERTEX" source="#Cube_270-mesh-vertices" offset="0"/>
          <p>65 64 67 66 64 67</p>
        </lines>
        <polylist material="Wood-material" count="164">
          <input semantic="VERTEX" source="#Cube_270-mesh-vertices" offset="0"/>
          <input semantic="NORMAL" source="#Cube_270-mesh-normals" offset="1"/>
          <input semantic="TEXCOORD" source="#Cube_270-mesh-map-0" offset="2" set="0"/>
          <vcount>3 3 3 3 3 3 3 3 3 3 3 3 3 3 3 3 3 3 3 3 3 3 3 3 3 3 3 3 3 3 3 3 3 3 3 3 3 3 3 3 3 3 3 3 3 3 3 3 3 3 3 3 3 3 3 3 3 3 3 3 3 3 3 3 3 3 3 3 3 3 3 3 3 3 3 3 3 3 3 3 3 3 3 3 3 3 3 3 3 3 3 3 3 3 3 3 3 3 3 3 3 3 3 3 3 3 3 3 3 3 3 3 3 3 3 3 3 3 3 3 3 3 3 3 3 3 3 3 3 3 3 3 3 3 3 3 3 3 3 3 3 3 3 3 3 3 3 3 3 3 3 3 3 3 3 3 3 3 3 3 3 3 3 3 </vcount>
          <p>3 0 0 2 0 1 26 0 2 3 1 3 27 1 4 24 1 5 8 2 6 4 2 7 5 2 8 6 3 9 7 3 10 11 3 11 11 4 12 7 4 13 4 4 14 16 5 15 12 5 16 13 5 17 14 6 18 15 6 19 19 6 20 15 7 21 12 7 22 16 7 23 23 8 24 22 8 25 46 8 26 20 9 27 23 9 28 47 9 29 0 10 30 24 10 31 25 10 32 32 11 33 28 11 34 29 11 35 30 12 36 31 12 37 35 12 38 35 13 39 31 13 40 28 13 41 40 14 42 36 14 43 37 14 44 38 15 45 39 15 46 43 15 47 39 16 48 36 16 49 40 16 50 21 17 51 20 17 52 44 17 53 52 18 54 48 18 55 49 18 56 50 19 57 51 19 58 55 19 59 55 20 60 51 20 61 48 20 62 60 21 63 56 21 64 57 21 65 58 22 66 59 22 67 63 22 68 59 23 69 56 23 70 60 23 71 70 24 72 78 24 73 79 24 74 68 25 75 71 25 76 79 25 77 75 26 78 74 26 79 82 26 80 72 27 81 75 27 82 83 27 83 69 28 84 68 28 85 76 28 86 72 29 87 80 29 88 81 29 89 88 30 90 89 30 91 85 30 92 90 31 93 91 31 94 87 31 95 91 32 96 88 32 97 84 32 98 96 33 99 97 33 100 93 33 101 99 34 102 95 34 103 94 34 104 96 35 105 92 35 106 95 35 107 111 36 108 110 36 109 102 36 110 100 37 111 108 37 112 111 37 113 107 38 114 115 38 115 114 38 116 104 39 117 112 39 118 115 39 119 101 40 120 109 40 121 108 40 122 113 41 123 112 41 124 104 41 125 119 42 126 143 42 127 142 42 128 140 43 129 143 43 130 119 43 131 124 44 132 125 44 133 121 44 134 127 45 135 123 45 136 122 45 137 127 46 138 124 46 139 120 46 140 132 47 141 133 47 142 129 47 143 135 48 144 131 48 145 130 48 146 132 49 147 128 49 148 131 49 149 139 50 150 163 50 151 162 50 152 160 51 153 163 51 154 139 51 155 117 52 156 141 52 157 140 52 158 148 53 159 149 53 160 145 53 161 151 54 162 147 54 163 146 54 164 151 55 165 148 55 166 144 55 167 156 56 168 157 56 169 153 56 170 159 57 171 155 57 172 154 57 173 159 58 174 156 58 175 152 58 176 137 59 177 161 59 178 160 59 179 168 60 180 169 60 181 165 60 182 169 61 183 170 61 184 166 61 185 170 62 186 171 62 187 167 62 188 171 63 189 168 63 190 164 63 191 176 64 192 177 64 193 173 64 194 177 65 195 178 65 196 174 65 197 178 66 198 179 66 199 175 66 200 179 67 201 176 67 202 172 67 203 184 68 204 185 68 205 181 68 206 186 69 207 182 69 208 181 69 209 186 70 210 187 70 211 183 70 212 187 71 213 184 71 214 180 71 215 192 72 216 193 72 217 189 72 218 193 73 219 194 73 220 190 73 221 194 74 222 195 74 223 191 74 224 195 75 225 192 75 226 188 75 227 199 76 228 207 76 229 206 76 230 196 77 231 204 77 232 207 77 233 203 78 234 211 78 235 210 78 236 200 79 237 208 79 238 211 79 239 205 80 240 204 80 241 196 80 242 201 81 243 209 81 244 208 81 245 27 82 246 3 82 247 26 82 248 0 83 249 3 83 250 24 83 251 9 84 252 8 84 253 5 84 254 10 85 255 6 85 256 11 85 257 8 86 258 11 86 259 4 86 260 17 87 261 16 87 262 13 87 263 18 88 264 14 88 265 19 88 266 19 89 267 15 89 268 16 89 269 47 90 270 23 90 271 46 90 272 44 91 273 20 91 274 47 91 275 1 92 276 0 92 277 25 92 278 33 93 279 32 93 280 29 93 281 34 94 282 30 94 283 35 94 284 32 95 285 35 95 286 28 95 287 41 96 288 40 96 289 37 96 290 42 97 291 38 97 292 43 97 293 43 98 294 39 98 295 40 98 296 45 99 297 21 99 298 44 99 299 53 100 300 52 100 301 49 100 302 54 101 303 50 101 304 55 101 305 52 102 306 55 102 307 48 102 308 61 103 309 60 103 310 57 103 311 62 104 312 58 104 313 63 104 314 63 105 315 59 105 316 60 105 317 71 106 318 70 106 319 79 106 320 76 107 321 68 107 322 79 107 323 83 108 324 75 108 325 82 108 326 80 109 327 72 109 328 83 109 329 77 110 330 69 110 331 76 110 332 73 111 333 72 111 334 81 111 335 84 112 336 88 112 337 85 112 338 86 113 339 90 113 340 87 113 341 87 114 342 91 114 343 84 114 344 92 115 345 96 115 346 93 115 347 98 116 348 99 116 349 94 116 350 99 117 351 96 117 352 95 117 353 103 118 354 111 118 355 102 118 356 103 119 357 100 119 358 111 119 359 106 120 360 107 120 361 114 120 362 107 121 363 104 121 364 115 121 365 100 122 366 101 122 367 108 122 368 105 123 369 113 123 370 104 123 371 118 124 372 119 124 373 142 124 374 116 125 375 140 125 376 119 125 377 120 126 378 124 126 379 121 126 380 126 127 381 127 127 382 122 127 383 123 128 384 127 128 385 120 128 386 128 129 387 132 129 388 129 129 389 134 130 390 135 130 391 130 130 392 135 131 393 132 131 394 131 131 395 138 132 396 139 132 397 162 132 398 136 133 399 160 133 400 139 133 401 116 134 402 117 134 403 140 134 404 144 135 405 148 135 406 145 135 407 150 136 408 151 136 409 146 136 410 147 137 411 151 137 412 144 137 413 152 138 414 156 138 415 153 138 416 158 139 417 159 139 418 154 139 419 155 140 420 159 140 421 152 140 422 136 141 423 137 141 424 160 141 425 164 142 426 168 142 427 165 142 428 165 143 429 169 143 430 166 143 431 166 144 432 170 144 433 167 144 434 167 145 435 171 145 436 164 145 437 172 146 438 176 146 439 173 146 440 173 147 441 177 147 442 174 147 443 174 148 444 178 148 445 175 148 446 175 149 447 179 149 448 172 149 449 180 150 450 184 150 451 181 150 452 185 151 453 186 151 454 181 151 455 182 152 456 186 152 457 183 152 458 183 153 459 187 153 460 180 153 461 188 154 462 192 154 463 189 154 464 189 155 465 193 155 466 190 155 467 190 156 468 194 156 469 191 156 470 191 157 471 195 157 472 188 157 473 198 158 474 199 158 475 206 158 476 199 159 477 196 159 478 207 159 479 202 160 480 203 160 481 210 160 482 203 161 483 200 161 484 211 161 485 197 162 486 205 162 487 196 162 488 200 163 489 201 163 490 208 163 491</p>
        </polylist>
      </mesh>
    </geometry>
    <geometry id="Cube_271-mesh" name="Cube.271">
      <mesh>
        <source id="Cube_271-mesh-positions">
          <float_array id="Cube_271-mesh-positions-array" count="96">-2.274772 -2.016063 0.08642226 -2.274772 -1.685098 0.08642226 2.392019 -1.685098 0.08642226 2.392019 -2.016063 0.08642226 -2.274772 -2.016063 -0.08642226 -2.274772 -1.685098 -0.08642226 2.392019 -1.685098 -0.08642226 2.392019 -2.016063 -0.08642226 -1.936398 1.647598 -0.0864216 -2.251458 1.647598 -0.08642166 -2.251458 -1.692457 -0.08642292 -1.936398 -1.692457 -0.08642292 -1.936398 1.647598 0.08642292 -2.251458 1.647598 0.08642292 -2.251459 -1.692457 0.0864216 -1.936399 -1.692457 0.08642166 2.017007 1.647598 0.0864222 2.332067 1.647598 0.0864222 2.332067 -1.692457 0.0864222 2.017007 -1.692457 0.0864222 2.017007 1.647598 -0.08642232 2.332067 1.647598 -0.08642238 2.332067 -1.692457 -0.08642238 2.017007 -1.692457 -0.08642232 -2.274772 1.647598 0.08642226 -2.274772 2.045144 0.08642226 2.392019 2.045144 0.08642226 2.392019 1.647598 0.08642226 -2.274772 1.647598 -0.08642226 -2.274772 2.045144 -0.08642226 2.392019 2.045144 -0.08642226 2.392019 1.647598 -0.08642226</float_array>
          <technique_common>
            <accessor source="#Cube_271-mesh-positions-array" count="32" stride="3">
              <param name="X" type="float"/>
              <param name="Y" type="float"/>
              <param name="Z" type="float"/>
            </accessor>
          </technique_common>
        </source>
        <source id="Cube_271-mesh-normals">
          <float_array id="Cube_271-mesh-normals-array" count="108">0 0 1 0 0 -1 1 0 0 0 1 0 -1 0 0 0 -1 0 1.41889e-7 3.79215e-7 -1 -1.41889e-7 -3.79215e-7 1 -1 1.42764e-7 -2.75876e-6 0 0 1 0 0 -1 1 2.14145e-7 0 0 0 1 0 0 -1 1 0 0 0 1 0 -1 0 0 0 -1 0 0 0 1 0 0 -1 1 0 0 0 1 0 -1 0 0 0 -1 0 1.65537e-7 3.81446e-7 -1 -1.65537e-7 -3.81446e-7 1 -1 1.42764e-7 -2.75876e-6 0 0 1 0 0 -1 1 2.14145e-7 0 0 0 1 0 0 -1 1 0 0 0 1 0 -1 0 0 0 -1 0</float_array>
          <technique_common>
            <accessor source="#Cube_271-mesh-normals-array" count="36" stride="3">
              <param name="X" type="float"/>
              <param name="Y" type="float"/>
              <param name="Z" type="float"/>
            </accessor>
          </technique_common>
        </source>
        <source id="Cube_271-mesh-map-0">
          <float_array id="Cube_271-mesh-map-0-array" count="216">0.4089925 1.861288 0.4090055 -1.668304 0.550221 -1.668303 0.7651831 1.861289 0.6239675 1.861289 0.6239697 -1.668303 0.550221 -1.668303 0.550224 -1.813112 0.623972 -1.81311 0.5502065 1.861289 0.550221 -1.668303 0.6239697 -1.668303 0.5502056 2.006122 0.5502065 1.861289 0.6239675 1.861289 0.4090055 -1.668304 0.4089925 1.861288 0.3352434 1.861288 0.4404642 1.272185 0.3144304 1.272185 0.3144284 -0.5472827 0.2452864 -0.5472822 0.245287 1.272185 0.1192528 1.272186 0.3144284 -0.5472827 0.3144304 1.272185 0.245287 1.272185 0.7455526 1.174248 0.6195188 1.174248 0.6195176 -0.64522 0.5503755 -0.64522 0.5503753 1.174248 0.4243409 1.174247 0.6195176 -0.64522 0.6195188 1.174248 0.5503753 1.174248 0.3036824 1.866629 0.3036953 -1.65715 0.4730399 -1.65715 0.716017 1.866627 0.5466726 1.866629 0.5466669 -1.65715 0.4730399 -1.65715 0.4730446 -1.830803 0.5466714 -1.830801 0.4730328 1.866629 0.4730399 -1.65715 0.5466669 -1.65715 0.4730341 2.040314 0.4730328 1.866629 0.5466726 1.866629 0.3036953 -1.65715 0.3036824 1.866629 0.2300548 1.866629 0.5502065 1.861289 0.4089925 1.861288 0.550221 -1.668303 0.7651837 -1.668303 0.7651831 1.861289 0.6239697 -1.668303 0.6239697 -1.668303 0.550221 -1.668303 0.623972 -1.81311 0.6239675 1.861289 0.5502065 1.861289 0.6239697 -1.668303 0.6239666 2.006123 0.5502056 2.006122 0.6239675 1.861289 0.3352449 -1.668304 0.4090055 -1.668304 0.3352434 1.861288 0.4404628 -0.5472827 0.4404642 1.272185 0.3144284 -0.5472827 0.1192524 -0.5472821 0.2452864 -0.5472822 0.1192528 1.272186 0.2452864 -0.5472822 0.3144284 -0.5472827 0.245287 1.272185 0.7455521 -0.6452199 0.7455526 1.174248 0.6195176 -0.64522 0.4243415 -0.64522 0.5503755 -0.64522 0.4243409 1.174247 0.5503755 -0.64522 0.6195176 -0.64522 0.5503753 1.174248 0.4730328 1.866629 0.3036824 1.866629 0.4730399 -1.65715 0.7160174 -1.65715 0.716017 1.866627 0.5466669 -1.65715 0.5466669 -1.65715 0.4730399 -1.65715 0.5466714 -1.830801 0.5466726 1.866629 0.4730328 1.866629 0.5466669 -1.65715 0.546674 2.040313 0.4730341 2.040314 0.5466726 1.866629 0.2300562 -1.65715 0.3036953 -1.65715 0.2300548 1.866629</float_array>
          <technique_common>
            <accessor source="#Cube_271-mesh-map-0-array" count="108" stride="2">
              <param name="S" type="float"/>
              <param name="T" type="float"/>
            </accessor>
          </technique_common>
        </source>
        <vertices id="Cube_271-mesh-vertices">
          <input semantic="POSITION" source="#Cube_271-mesh-positions"/>
        </vertices>
        <polylist material="Wood-material" count="36">
          <input semantic="VERTEX" source="#Cube_271-mesh-vertices" offset="0"/>
          <input semantic="NORMAL" source="#Cube_271-mesh-normals" offset="1"/>
          <input semantic="TEXCOORD" source="#Cube_271-mesh-map-0" offset="2" set="0"/>
          <vcount>3 3 3 3 3 3 3 3 3 3 3 3 3 3 3 3 3 3 3 3 3 3 3 3 3 3 3 3 3 3 3 3 3 3 3 3 </vcount>
          <p>0 0 0 3 0 1 2 0 2 4 1 3 5 1 4 6 1 5 2 2 6 3 2 7 7 2 8 1 3 9 2 3 10 6 3 11 0 4 12 1 4 13 5 4 14 3 5 15 0 5 16 4 5 17 11 6 18 10 6 19 9 6 20 13 7 21 14 7 22 15 7 23 9 8 24 10 8 25 14 8 26 19 9 27 18 9 28 17 9 29 21 10 30 22 10 31 23 10 32 17 11 33 18 11 34 22 11 35 24 12 36 27 12 37 26 12 38 28 13 39 29 13 40 30 13 41 26 14 42 27 14 43 31 14 44 25 15 45 26 15 46 30 15 47 24 16 48 25 16 49 29 16 50 27 17 51 24 17 52 28 17 53 1 18 54 0 18 55 2 18 56 7 19 57 4 19 58 6 19 59 6 20 60 2 20 61 7 20 62 5 21 63 1 21 64 6 21 65 4 22 66 0 22 67 5 22 68 7 23 69 3 23 70 4 23 71 8 24 72 11 24 73 9 24 74 12 25 75 13 25 76 15 25 77 13 26 78 9 26 79 14 26 80 16 27 81 19 27 82 17 27 83 20 28 84 21 28 85 23 28 86 21 29 87 17 29 88 22 29 89 25 30 90 24 30 91 26 30 92 31 31 93 28 31 94 30 31 95 30 32 96 26 32 97 31 32 98 29 33 99 25 33 100 30 33 101 28 34 102 24 34 103 29 34 104 31 35 105 27 35 106 28 35 107</p>
        </polylist>
      </mesh>
    </geometry>
    <geometry id="Cube_272-mesh" name="Cube.272">
      <mesh>
        <source id="Cube_272-mesh-positions">
          <float_array id="Cube_272-mesh-positions-array" count="27">-2.29491 2.171208 -0.6117967 2.427401 2.171203 -0.613023 0.00335288 2.171206 -0.6615134 -2.29491 -2.171208 -0.6117967 2.427401 -2.171203 -0.613023 -2.537052 0 1.148261 2.640602 0 1.150158 0.00335288 -2.171206 -0.6615134 0.003351092 0 0.9933013</float_array>
          <technique_common>
            <accessor source="#Cube_272-mesh-positions-array" count="9" stride="3">
              <param name="X" type="float"/>
              <param name="Y" type="float"/>
              <param name="Z" type="float"/>
            </accessor>
          </technique_common>
        </source>
        <source id="Cube_272-mesh-normals">
          <float_array id="Cube_272-mesh-normals-array" count="24">-0.04625338 0.6269787 0.7776622 0.01720291 0.6060839 0.7952147 -0.0159071 -0.6060969 0.7952317 0.01720291 -0.6060839 0.7952147 -0.0159071 0.6060969 0.7952317 0.0474888 0.6258079 0.7785304 -0.04625338 -0.6269787 0.7776622 0.0474888 -0.6258079 0.7785304</float_array>
          <technique_common>
            <accessor source="#Cube_272-mesh-normals-array" count="8" stride="3">
              <param name="X" type="float"/>
              <param name="Y" type="float"/>
              <param name="Z" type="float"/>
            </accessor>
          </technique_common>
        </source>
        <source id="Cube_272-mesh-map-0">
          <float_array id="Cube_272-mesh-map-0-array" count="48">0.5085422 1.19747 -0.2652358 1.254969 -0.2075371 -0.3485918 0.5085422 1.19747 0.5087271 -0.365993 1.221955 -0.3474679 0.5085422 1.19747 0.5087271 -0.365993 -0.2075371 -0.3485918 1.221955 -0.3474679 0.5087271 -0.365993 0.5085422 1.19747 0.5087271 -0.365993 0.5085422 1.19747 -0.2075371 -0.3485918 1.286988 1.254968 0.5085422 1.19747 1.221955 -0.3474679 -0.2652358 1.254969 0.5085422 1.19747 -0.2075371 -0.3485918 1.286988 1.254968 1.221955 -0.3474679 0.5085422 1.19747</float_array>
          <technique_common>
            <accessor source="#Cube_272-mesh-map-0-array" count="24" stride="2">
              <param name="S" type="float"/>
              <param name="T" type="float"/>
            </accessor>
          </technique_common>
        </source>
        <vertices id="Cube_272-mesh-vertices">
          <input semantic="POSITION" source="#Cube_272-mesh-positions"/>
        </vertices>
        <polylist material="RoofTiles-material" count="8">
          <input semantic="VERTEX" source="#Cube_272-mesh-vertices" offset="0"/>
          <input semantic="NORMAL" source="#Cube_272-mesh-normals" offset="1"/>
          <input semantic="TEXCOORD" source="#Cube_272-mesh-map-0" offset="2" set="0"/>
          <vcount>3 3 3 3 3 3 3 3 </vcount>
          <p>8 0 0 6 0 1 1 0 2 8 1 3 2 1 4 0 1 5 8 2 6 7 2 7 4 2 8 3 3 9 7 3 10 8 3 11 2 4 12 8 4 13 1 4 14 5 5 15 8 5 16 0 5 17 6 6 18 8 6 19 4 6 20 5 7 21 3 7 22 8 7 23</p>
        </polylist>
      </mesh>
    </geometry>
    <geometry id="Cube_273-mesh" name="Cube.273">
      <mesh>
        <source id="Cube_273-mesh-positions">
          <float_array id="Cube_273-mesh-positions-array" count="36">-2.187286 -1.833073 -2.253722 -2.187286 1.833073 -2.253722 2.187286 1.833073 -2.253722 2.187286 -1.833073 -2.253722 -2.187286 -1.833073 0.3700287 -2.187286 1.833073 0.3700287 2.187286 1.833073 0.3700287 2.187286 -1.833073 0.3700287 2.187286 0 -2.253722 2.187286 0 1.767951 -2.187286 0 -2.253722 -2.187286 0 1.767951</float_array>
          <technique_common>
            <accessor source="#Cube_273-mesh-positions-array" count="12" stride="3">
              <param name="X" type="float"/>
              <param name="Y" type="float"/>
              <param name="Z" type="float"/>
            </accessor>
          </technique_common>
        </source>
        <source id="Cube_273-mesh-normals">
          <float_array id="Cube_273-mesh-normals-array" count="36">-1 0 0 1 0 0 1 0 0 0 -1 0 0 1 0 -1 0 0 -1 0 0 1 0 0 1 0 0 0 -1 0 0 1 0 -1 0 0</float_array>
          <technique_common>
            <accessor source="#Cube_273-mesh-normals-array" count="12" stride="3">
              <param name="X" type="float"/>
              <param name="Y" type="float"/>
              <param name="Z" type="float"/>
            </accessor>
          </technique_common>
        </source>
        <source id="Cube_273-mesh-map-0">
          <float_array id="Cube_273-mesh-map-0-array" count="72">2.851818 0.7960273 2.851819 0.02641081 3.583623 0.02641248 0.5670719 0.7960247 -0.1647406 0.7960234 -0.164739 0.02639925 -0.8965532 0.7960221 -0.8965516 0.0263971 -0.164739 0.02639925 -0.8965532 0.7960221 -3.181317 0.7960216 -3.181317 0.02639549 2.851818 0.7960273 0.5670719 0.7960247 0.5670737 0.0264014 4.315425 0.7960295 3.583622 0.7960284 3.583623 0.02641248 3.583622 0.7960284 2.851818 0.7960273 3.583623 0.02641248 0.5670737 0.0264014 0.5670719 0.7960247 -0.164739 0.02639925 -0.1647406 0.7960234 -0.8965532 0.7960221 -0.164739 0.02639925 -0.8965516 0.0263971 -0.8965532 0.7960221 -3.181317 0.02639549 2.851819 0.02641081 2.851818 0.7960273 0.5670737 0.0264014 4.315427 0.02641415 4.315425 0.7960295 3.583623 0.02641248</float_array>
          <technique_common>
            <accessor source="#Cube_273-mesh-map-0-array" count="36" stride="2">
              <param name="S" type="float"/>
              <param name="T" type="float"/>
            </accessor>
          </technique_common>
        </source>
        <vertices id="Cube_273-mesh-vertices">
          <input semantic="POSITION" source="#Cube_273-mesh-positions"/>
        </vertices>
        <polylist material="Plaster-material" count="12">
          <input semantic="VERTEX" source="#Cube_273-mesh-vertices" offset="0"/>
          <input semantic="NORMAL" source="#Cube_273-mesh-normals" offset="1"/>
          <input semantic="TEXCOORD" source="#Cube_273-mesh-map-0" offset="2" set="0"/>
          <vcount>3 3 3 3 3 3 3 3 3 3 3 3 </vcount>
          <p>5 0 0 1 0 1 10 0 2 6 1 3 9 1 4 8 1 5 7 2 6 3 2 7 8 2 8 7 3 9 4 3 10 0 3 11 5 4 12 6 4 13 2 4 14 4 5 15 11 5 16 10 5 17 11 6 18 5 6 19 10 6 20 2 7 21 6 7 22 8 7 23 9 8 24 7 8 25 8 8 26 3 9 27 7 9 28 0 9 29 1 10 30 5 10 31 2 10 32 0 11 33 4 11 34 10 11 35</p>
        </polylist>
      </mesh>
    </geometry>
    <geometry id="Cube_274-mesh" name="Cube.274">
      <mesh>
        <source id="Cube_274-mesh-positions">
          <float_array id="Cube_274-mesh-positions-array" count="24">-2.062676 -1.702134 -1.311875 -2.062676 1.702134 -1.311875 2.062676 1.702134 -1.311875 2.062676 -1.702134 -1.311875 -2.062676 -1.702134 1.311875 -2.062676 1.702134 1.311875 2.062676 1.702134 1.311875 2.062676 -1.702134 1.311875</float_array>
          <technique_common>
            <accessor source="#Cube_274-mesh-positions-array" count="8" stride="3">
              <param name="X" type="float"/>
              <param name="Y" type="float"/>
              <param name="Z" type="float"/>
            </accessor>
          </technique_common>
        </source>
        <source id="Cube_274-mesh-normals">
          <float_array id="Cube_274-mesh-normals-array" count="24">-1 0 0 0 1 0 1 0 0 0 -1 0 -1 0 0 0 1 0 1 0 0 0 -1 0</float_array>
          <technique_common>
            <accessor source="#Cube_274-mesh-normals-array" count="8" stride="3">
              <param name="X" type="float"/>
              <param name="Y" type="float"/>
              <param name="Z" type="float"/>
            </accessor>
          </technique_common>
        </source>
        <source id="Cube_274-mesh-map-0">
          <float_array id="Cube_274-mesh-map-0-array" count="48">4.45986 0.939418 2.901959 0.939419 2.901957 0.04679214 2.901959 0.939419 0.3569504 0.9394256 0.3569483 0.04679989 0.3569504 0.9394256 -1.200947 0.9394292 -1.200947 0.04680246 -1.200947 0.9394292 -3.745961 0.9394302 -3.745962 0.04680246 4.459859 0.04679 4.45986 0.939418 2.901957 0.04679214 2.901957 0.04679214 2.901959 0.939419 0.3569483 0.04679989 0.3569483 0.04679989 0.3569504 0.9394256 -1.200947 0.04680246 -1.200947 0.04680246 -1.200947 0.9394292 -3.745962 0.04680246</float_array>
          <technique_common>
            <accessor source="#Cube_274-mesh-map-0-array" count="24" stride="2">
              <param name="S" type="float"/>
              <param name="T" type="float"/>
            </accessor>
          </technique_common>
        </source>
        <vertices id="Cube_274-mesh-vertices">
          <input semantic="POSITION" source="#Cube_274-mesh-positions"/>
        </vertices>
        <polylist material="Plaster-material" count="8">
          <input semantic="VERTEX" source="#Cube_274-mesh-vertices" offset="0"/>
          <input semantic="NORMAL" source="#Cube_274-mesh-normals" offset="1"/>
          <input semantic="TEXCOORD" source="#Cube_274-mesh-map-0" offset="2" set="0"/>
          <vcount>3 3 3 3 3 3 3 3 </vcount>
          <p>4 0 0 5 0 1 1 0 2 5 1 3 6 1 4 2 1 5 6 2 6 7 2 7 3 2 8 7 3 9 4 3 10 0 3 11 0 4 12 4 4 13 1 4 14 1 5 15 5 5 16 2 5 17 2 6 18 6 6 19 3 6 20 3 7 21 7 7 22 0 7 23</p>
        </polylist>
      </mesh>
    </geometry>
    <geometry id="Cube_011-mesh" name="Cube.011">
      <mesh>
        <source id="Cube_011-mesh-positions">
          <float_array id="Cube_011-mesh-positions-array" count="171">-2.268188 2.177638 -0.5820963 2.381974 2.177634 -0.5833225 -2.284516 2.071449 -0.7196385 2.388856 2.071444 -0.720999 0.003352999 2.177636 -0.6318129 0.00335288 2.071446 -0.7699503 -2.268195 2.210162 -0.6071627 2.381967 2.210158 -0.6083887 -2.279179 2.103972 -0.7447049 2.388848 2.103968 -0.7460652 0.003345906 2.21016 -0.6568791 0.003345787 2.10397 -0.7950166 2.380614 2.228661 -0.6022205 2.370221 2.138094 -0.8171709 2.428321 2.228675 -0.605111 2.417927 2.138108 -0.8200614 -2.266181 2.228666 -0.6022204 -2.255787 2.138099 -0.8171708 -2.313888 2.22868 -0.6051109 -2.303494 2.138113 -0.8200614 -2.284516 2.080641 -0.7022547 2.418249 2.080636 -0.7036151 0.00335282 2.080639 -0.7525665 -2.268188 -2.177638 -0.5820963 2.381974 -2.177634 -0.5833225 -2.284516 -2.071449 -0.7196385 2.388856 -2.071444 -0.720999 0.003352999 -2.177636 -0.6318129 0.00335288 -2.071446 -0.7699503 -2.268195 -2.210162 -0.6071627 2.381967 -2.210158 -0.6083887 -2.279179 -2.103972 -0.7447049 2.388848 -2.103968 -0.7460652 0.003345906 -2.21016 -0.6568791 0.003345787 -2.10397 -0.7950166 2.380614 -2.228661 -0.6022205 2.622753 0 1.205719 2.370221 -2.138094 -0.8171709 2.608093 0 0.9536407 2.428321 -2.228675 -0.605111 2.67046 0 1.202828 2.417927 -2.138108 -0.8200614 2.6558 0 0.9507502 -2.266181 -2.228666 -0.6022204 -2.508323 0 1.205719 -2.255787 -2.138099 -0.8171708 -2.493664 0 0.9536409 -2.313888 -2.22868 -0.6051109 -2.55603 0 1.202829 -2.303494 -2.138113 -0.8200614 -2.541371 0 0.9507504 -2.284516 -2.080641 -0.7022547 2.418249 -2.080636 -0.7036151 -2.522393 0 1.020675 2.627694 0 1.022384 0.00335282 -2.080639 -0.7525665 0.003351092 0 0.8648762</float_array>
          <technique_common>
            <accessor source="#Cube_011-mesh-positions-array" count="57" stride="3">
              <param name="X" type="float"/>
              <param name="Y" type="float"/>
              <param name="Z" type="float"/>
            </accessor>
          </technique_common>
        </source>
        <source id="Cube_011-mesh-normals">
          <float_array id="Cube_011-mesh-normals-array" count="240">-0.01252424 -0.7920724 0.6102988 0.0134148 -0.7922421 0.6100596 0.01252424 0.7920724 -0.6102986 -0.01333695 0.7927473 -0.6094046 -0.01744627 -0.6085545 -0.7933202 0.0173335 0.610354 0.7919391 0.01625072 -0.6103576 -0.7919592 -0.01614421 0.6103585 0.7919607 -0.9961374 -0.05258268 0.07032197 0.9961375 0.05258244 -0.07032185 -0.02372223 0.9216914 -0.387198 -0.04645889 -0.6402268 -0.7667798 0.04685008 0.6323655 0.7732522 0.9961374 -0.05258411 0.07032251 -0.9961374 0.05258387 -0.07032239 0.02373236 0.9216914 -0.3871973 0.04645895 -0.640226 -0.7667804 -0.04666554 0.6323605 0.7732675 0.04628032 -0.6350179 -0.7711098 -0.01735973 -0.6136515 -0.7893863 -0.01252424 0.7920724 0.6102988 0.01333707 0.7927466 0.6094055 0.01252424 -0.7920724 -0.6102986 -0.01345342 -0.7919908 -0.6103848 -0.01745659 0.6103498 -0.7919396 0.0173335 -0.610354 0.7919391 0.01625072 0.6103576 -0.7919592 -0.01614421 -0.6103615 0.7919585 -0.9961374 0.05258268 0.07032197 0.9961375 -0.05258244 -0.07032185 -0.02372223 -0.9216914 -0.387198 -0.04645889 0.6402268 -0.7667798 0.0466718 -0.6323614 0.7732663 0.9961374 0.05258411 0.07032251 -0.9961374 -0.05258387 -0.07032239 0.02373236 -0.9216914 -0.3871973 0.04645895 0.640226 -0.7667804 -0.04685014 -0.6323647 0.7732527 0.04628032 0.6350179 -0.7711098 -0.04762053 0.6338329 -0.7720027 -0.01242423 -0.7927559 0.6094127 0.01333707 -0.7927466 0.6094055 0.01242411 0.7927565 -0.6094118 -0.01345342 0.7919908 -0.6103848 -0.01745659 -0.6103498 -0.7919396 0.0173335 0.6103519 0.7919407 0.01625072 -0.6103574 -0.7919594 -0.01614421 0.6103615 0.7919585 -0.9964388 -0.06125116 0.05794888 0.9964388 0.06125086 -0.05794894 -0.0237227 0.9216914 -0.3871979 -0.04627645 -0.6402226 -0.7667943 0.04667061 0.6323614 0.7732664 0.9964388 -0.06125563 0.05794519 -0.9964388 0.06125527 -0.05794525 0.02373188 0.9216914 -0.3871974 0.04627233 -0.6402218 -0.7667953 -0.04685014 0.6323647 0.7732527 0.01600104 -0.6136654 -0.7894041 -0.04762053 -0.6338329 -0.7720027 -0.01242423 0.7927559 0.6094127 0.0134148 0.7922421 0.6100596 0.01242411 -0.7927565 -0.6094118 -0.01333695 -0.7927473 -0.6094047 -0.01744627 0.6085545 -0.7933202 0.0173335 -0.6103519 0.7919407 0.01625072 0.6103574 -0.7919594 -0.01614421 -0.6103585 0.7919608 -0.9964388 0.06125122 0.057949 0.9964388 -0.0612508 -0.05794906 -0.0237227 -0.9216914 -0.3871979 -0.04627782 0.6402227 -0.7667942 0.04685008 -0.6323655 0.7732522 0.9964387 0.06125563 0.05794531 -0.9964388 -0.06125527 -0.05794519 0.02373188 -0.9216914 -0.3871974 0.04627203 0.6402217 -0.7667953 -0.04666703 -0.6323604 0.7732674 0.01600104 0.6136654 -0.7894041 -0.01735973 0.6136515 -0.7893863</float_array>
          <technique_common>
            <accessor source="#Cube_011-mesh-normals-array" count="80" stride="3">
              <param name="X" type="float"/>
              <param name="Y" type="float"/>
              <param name="Z" type="float"/>
            </accessor>
          </technique_common>
        </source>
        <source id="Cube_011-mesh-map-0">
          <float_array id="Cube_011-mesh-map-0-array" count="480">0.4735805 0.3594362 0.4734646 -0.6855896 0.5388996 -0.6838851 0.5394785 1.403823 0.4741459 1.409281 0.4735805 0.3594362 0.5560593 -0.6836678 0.6220512 -0.6854084 0.6218617 0.359398 0.5566555 1.403596 0.5564125 0.3594268 0.6218617 0.359398 0.6392251 0.3593931 0.639905 1.409492 0.6225162 1.406897 0.5390868 0.3594311 0.5564125 0.3594268 0.5566555 1.403596 0.6392251 0.3593931 0.6218617 0.359398 0.6220512 -0.6854084 0.5390868 0.3594311 0.5388996 -0.6838851 0.5560593 -0.6836678 0.3957341 0.9562646 0.4798867 0.9915816 0.4643719 -0.2292869 0.3038795 -0.229851 0.2907861 0.9910471 0.3748675 0.9555461 0.9431083 0.8293845 0.9431083 0.9232831 0.9623278 0.9230691 0.2907861 0.9910471 0.3038795 -0.229851 0.2836174 -0.2293165 0.394488 -0.3015142 0.3736215 -0.3022328 0.3748675 0.9555461 0.4643719 -0.2292869 0.4798867 0.9915816 0.3957341 0.9562646 0.3748675 0.9555461 0.2907861 0.9910471 0.3038795 -0.229851 0.9623278 0.9230691 0.9431083 0.9232831 0.9431083 0.8293845 0.2836174 -0.2293165 0.3038795 -0.229851 0.2907861 0.9910471 0.394488 -0.3015142 0.3957341 0.9562646 0.3748675 0.9555461 1.207026 -0.4560781 2.213959 -0.5332307 2.176078 0.5155519 1.207753 1.483045 1.195484 0.5157757 2.176078 0.5155519 0.5388996 -0.6838851 0.4734646 -0.6855896 0.4735805 0.3594362 0.5394785 1.403823 0.5390868 0.3594311 0.4735805 0.3594362 0.6218617 0.359398 0.6220512 -0.6854084 0.5560593 -0.6836678 0.5566555 1.403596 0.6225162 1.406897 0.6218617 0.359398 0.6392251 0.3593931 0.6218617 0.359398 0.6225162 1.406897 0.5566555 1.403596 0.5564125 0.3594268 0.5390868 0.3594311 0.6220512 -0.6854084 0.6218617 0.359398 0.6392251 0.3593931 0.5390868 0.3594311 0.5564125 0.3594268 0.5560593 -0.6836678 0.4643719 -0.2292869 0.4798867 0.9915816 0.3957341 0.9562646 0.3748675 0.9555461 0.2907861 0.9910471 0.3038795 -0.229851 0.9623278 0.9230691 0.9431083 0.9232831 0.9431083 0.8293845 0.2836174 -0.2293165 0.3038795 -0.229851 0.2907861 0.9910471 0.394488 -0.3015142 0.3957341 0.9562646 0.3748675 0.9555461 0.3957341 0.9562646 0.4798867 0.9915816 0.4643719 -0.2292869 0.3038795 -0.229851 0.2907861 0.9910471 0.3748675 0.9555461 0.9431083 0.8293845 0.9431083 0.9232831 0.9623278 0.9230691 0.2907861 0.9910471 0.3038795 -0.229851 0.2836174 -0.2293165 0.394488 -0.3015142 0.3736215 -0.3022328 0.3748675 0.9555461 2.176078 0.5155519 2.213959 -0.5332307 1.207026 -0.4560781 1.207753 1.483045 2.213959 1.570056 2.176078 0.5155519 0.5390868 0.3594311 0.4735805 0.3594362 0.5388996 -0.6838851 0.5390868 0.3594311 0.5394785 1.403823 0.4735805 0.3594362 0.5564125 0.3594268 0.5560593 -0.6836678 0.6218617 0.359398 0.6225162 1.406897 0.5566555 1.403596 0.6218617 0.359398 0.6218617 0.359398 0.6392251 0.3593931 0.6225162 1.406897 0.5394785 1.403823 0.5390868 0.3594311 0.5566555 1.403596 0.6393938 -0.6856318 0.6392251 0.3593931 0.6220512 -0.6854084 0.5564125 0.3594268 0.5390868 0.3594311 0.5560593 -0.6836678 0.394488 -0.3015142 0.3957341 0.9562646 0.4643719 -0.2292869 0.3736215 -0.3022328 0.3038795 -0.229851 0.3748675 0.9555461 0.9623281 0.8291705 0.9431083 0.8293845 0.9623278 0.9230691 0.2705239 0.9915814 0.2907861 0.9910471 0.2836174 -0.2293165 0.3957341 0.9562646 0.394488 -0.3015142 0.3748675 0.9555461 0.394488 -0.3015142 0.4643719 -0.2292869 0.3957341 0.9562646 0.3736215 -0.3022328 0.3748675 0.9555461 0.3038795 -0.229851 0.9623281 0.8291705 0.9623278 0.9230691 0.9431083 0.8293845 0.2705239 0.9915814 0.2836174 -0.2293165 0.2907861 0.9910471 0.3736215 -0.3022328 0.394488 -0.3015142 0.3748675 0.9555461 1.195484 0.5157757 1.207026 -0.4560781 2.176078 0.5155519 2.213959 1.570056 1.207753 1.483045 2.176078 0.5155519 0.5390868 0.3594311 0.5388996 -0.6838851 0.4735805 0.3594362 0.4741459 1.409281 0.5394785 1.403823 0.4735805 0.3594362 0.5564125 0.3594268 0.6218617 0.359398 0.5560593 -0.6836678 0.5564125 0.3594268 0.5566555 1.403596 0.6218617 0.359398 0.639905 1.409492 0.6392251 0.3593931 0.6225162 1.406897 0.5394785 1.403823 0.5566555 1.403596 0.5390868 0.3594311 0.6393938 -0.6856318 0.6220512 -0.6854084 0.6392251 0.3593931 0.5388996 -0.6838851 0.5390868 0.3594311 0.5560593 -0.6836678 0.394488 -0.3015142 0.4643719 -0.2292869 0.3957341 0.9562646 0.3736215 -0.3022328 0.3748675 0.9555461 0.3038795 -0.229851 0.9623281 0.8291705 0.9623278 0.9230691 0.9431083 0.8293845 0.2705239 0.9915814 0.2836174 -0.2293165 0.2907861 0.9910471 0.3736215 -0.3022328 0.394488 -0.3015142 0.3748675 0.9555461 0.394488 -0.3015142 0.3957341 0.9562646 0.4643719 -0.2292869 0.3736215 -0.3022328 0.3038795 -0.229851 0.3748675 0.9555461 0.9623281 0.8291705 0.9431083 0.8293845 0.9623278 0.9230691 0.2705239 0.9915814 0.2907861 0.9910471 0.2836174 -0.2293165 0.3957341 0.9562646 0.394488 -0.3015142 0.3748675 0.9555461 1.195484 0.5157757 2.176078 0.5155519 1.207026 -0.4560781 1.195484 0.5157757 1.207753 1.483045 2.176078 0.5155519</float_array>
          <technique_common>
            <accessor source="#Cube_011-mesh-map-0-array" count="240" stride="2">
              <param name="S" type="float"/>
              <param name="T" type="float"/>
            </accessor>
          </technique_common>
        </source>
        <vertices id="Cube_011-mesh-vertices">
          <input semantic="POSITION" source="#Cube_011-mesh-positions"/>
        </vertices>
        <polylist material="Wood-material" count="80">
          <input semantic="VERTEX" source="#Cube_011-mesh-vertices" offset="0"/>
          <input semantic="NORMAL" source="#Cube_011-mesh-normals" offset="1"/>
          <input semantic="TEXCOORD" source="#Cube_011-mesh-map-0" offset="2" set="0"/>
          <vcount>3 3 3 3 3 3 3 3 3 3 3 3 3 3 3 3 3 3 3 3 3 3 3 3 3 3 3 3 3 3 3 3 3 3 3 3 3 3 3 3 3 3 3 3 3 3 3 3 3 3 3 3 3 3 3 3 3 3 3 3 3 3 3 3 3 3 3 3 3 3 3 3 3 3 3 3 3 3 3 3 </vcount>
          <p>5 0 0 3 0 1 1 0 2 0 1 3 2 1 4 5 1 5 7 2 6 9 2 7 11 2 8 6 3 9 10 3 10 11 3 11 5 4 12 2 4 13 8 4 14 4 5 15 10 5 16 6 5 17 5 6 18 11 6 19 9 6 20 4 7 21 1 7 22 7 7 23 12 8 24 13 8 25 38 8 26 42 9 27 15 9 28 14 9 29 14 10 30 15 10 31 13 10 32 15 11 33 42 11 34 38 11 35 36 12 36 40 12 37 14 12 38 46 13 39 17 13 40 16 13 41 18 14 42 19 14 43 50 14 44 17 15 45 19 15 46 18 15 47 46 16 48 50 16 49 19 16 50 44 17 51 16 17 52 18 17 53 21 18 54 54 18 55 56 18 56 20 19 57 22 19 58 56 19 59 24 20 60 26 20 61 28 20 62 23 21 63 27 21 64 28 21 65 34 22 66 32 22 67 30 22 68 29 23 69 31 23 70 34 23 71 28 24 72 34 24 73 31 24 74 29 25 75 33 25 76 27 25 77 32 26 78 34 26 79 28 26 80 27 27 81 33 27 82 30 27 83 38 28 84 37 28 85 35 28 86 39 29 87 41 29 88 42 29 89 37 30 90 41 30 91 39 30 92 38 31 93 42 31 94 41 31 95 36 32 96 35 32 97 39 32 98 43 33 99 45 33 100 46 33 101 50 34 102 49 34 103 47 34 104 47 35 105 49 35 106 45 35 107 49 36 108 50 36 109 46 36 110 44 37 111 48 37 112 47 37 113 56 38 114 54 38 115 52 38 116 51 39 117 53 39 118 56 39 119 4 40 120 5 40 121 1 40 122 4 41 123 0 41 124 5 41 125 10 42 126 7 42 127 11 42 128 8 43 129 6 43 130 11 43 131 11 44 132 5 44 133 8 44 134 0 45 135 4 45 136 6 45 137 3 46 138 5 46 139 9 46 140 10 47 141 4 47 142 7 47 143 36 48 144 12 48 145 38 48 146 40 49 147 42 49 148 14 49 149 12 50 150 14 50 151 13 50 152 13 51 153 15 51 154 38 51 155 12 52 156 36 52 157 14 52 158 44 53 159 46 53 160 16 53 161 48 54 162 18 54 163 50 54 164 16 55 165 17 55 166 18 55 167 17 56 168 46 56 169 19 56 170 48 57 171 44 57 172 18 57 173 22 58 174 21 58 175 56 58 176 53 59 177 20 59 178 56 59 179 27 60 180 24 60 181 28 60 182 25 61 183 23 61 184 28 61 185 33 62 186 34 62 187 30 62 188 33 63 189 29 63 190 34 63 191 25 64 192 28 64 193 31 64 194 23 65 195 29 65 196 27 65 197 26 66 198 32 66 199 28 66 200 24 67 201 27 67 202 30 67 203 36 68 204 38 68 205 35 68 206 40 69 207 39 69 208 42 69 209 35 70 210 37 70 211 39 70 212 37 71 213 38 71 214 41 71 215 40 72 216 36 72 217 39 72 218 44 73 219 43 73 220 46 73 221 48 74 222 50 74 223 47 74 224 43 75 225 47 75 226 45 75 227 45 76 228 49 76 229 46 76 230 43 77 231 44 77 232 47 77 233 55 78 234 56 78 235 52 78 236 55 79 237 51 79 238 56 79 239</p>
        </polylist>
      </mesh>
    </geometry>
  </library_geometries>
  <library_controllers/>
  <library_visual_scenes>
    <visual_scene id="Scene" name="Scene">
      <node id="Camera" name="Camera" type="NODE">
        <matrix sid="transform">0.6858805 -0.3173701 0.6548619 58.31871 0.7276338 0.3124686 -0.6106656 -25.1951 -0.01081678 0.8953432 0.4452454 23.18686 0 0 0 1</matrix>
        <instance_camera url="#Camera-camera"/>
      </node>
      <node id="House5_Level1_Beams" name="House5_Level1_Beams" type="NODE">
        <matrix sid="transform">1 0 0 0.1164989 0 1 0 1.542486 0 0 1 1.304021 0 0 0 1</matrix>
        <instance_geometry url="#Cube_257-mesh">
          <bind_material>
            <technique_common>
              <instance_material symbol="Wood-material" target="#Wood-material">
                <bind_vertex_input semantic="UVMap" input_semantic="TEXCOORD" input_set="0"/>
              </instance_material>
            </technique_common>
          </bind_material>
        </instance_geometry>
      </node>
      <node id="House5_Level2_Beams" name="House5_Level2_Beams" type="NODE">
        <matrix sid="transform">1 0 0 0.105999 0 1 0 1.568629 0 0 1 4.652142 0 0 0 1</matrix>
        <instance_geometry url="#Cube_270-mesh">
          <bind_material>
            <technique_common>
              <instance_material symbol="Wood-material" target="#Wood-material">
                <bind_vertex_input semantic="UVMap" input_semantic="TEXCOORD" input_set="0"/>
              </instance_material>
            </technique_common>
          </bind_material>
        </instance_geometry>
      </node>
      <node id="House5_Level1_SeperatorBeams" name="House5_Level1_SeperatorBeams" type="NODE">
        <matrix sid="transform">1 0 0 0.1153431 0 1 0 1.545461 0 0 1 2.679092 0 0 0 1</matrix>
        <instance_geometry url="#Cube_271-mesh">
          <bind_material>
            <technique_common>
              <instance_material symbol="Wood-material" target="#Wood-material">
                <bind_vertex_input semantic="UVMap" input_semantic="TEXCOORD" input_set="0"/>
              </instance_material>
            </technique_common>
          </bind_material>
        </instance_geometry>
      </node>
      <node id="House5_Roof" name="House5_Roof" type="NODE">
        <matrix sid="transform">1 0 0 0.1201248 0 1 0 1.536539 0 0 1 5.77388 0 0 0 1</matrix>
        <instance_geometry url="#Cube_272-mesh">
          <bind_material>
            <technique_common>
              <instance_material symbol="RoofTiles-material" target="#RoofTiles-material">
                <bind_vertex_input semantic="UVMap" input_semantic="TEXCOORD" input_set="0"/>
              </instance_material>
            </technique_common>
          </bind_material>
        </instance_geometry>
      </node>
      <node id="House5_Level2" name="House5_Level2" type="NODE">
        <matrix sid="transform">1 0 0 0.1153431 0 1 0 1.539889 0 0 1 4.956384 0 0 0 1</matrix>
        <instance_geometry url="#Cube_273-mesh">
          <bind_material>
            <technique_common>
              <instance_material symbol="Plaster-material" target="#Plaster-material">
                <bind_vertex_input semantic="UVMap" input_semantic="TEXCOORD" input_set="0"/>
              </instance_material>
            </technique_common>
          </bind_material>
        </instance_geometry>
      </node>
      <node id="House5_Level1" name="House5_Level1" type="NODE">
        <matrix sid="transform">1 0 0 0.1153431 0 1 0 1.539889 0 0 1 1.311876 0 0 0 1</matrix>
        <instance_geometry url="#Cube_274-mesh">
          <bind_material>
            <technique_common>
              <instance_material symbol="Plaster-material" target="#Plaster-material">
                <bind_vertex_input semantic="UVMap" input_semantic="TEXCOORD" input_set="0"/>
              </instance_material>
            </technique_common>
          </bind_material>
        </instance_geometry>
      </node>
      <node id="House5_Roof_Frame" name="House5_Roof_Frame" type="NODE">
        <matrix sid="transform">1 0 0 0.1201248 0 1 0 1.536539 0 0 1 5.77388 0 0 0 1</matrix>
        <instance_geometry url="#Cube_011-mesh">
          <bind_material>
            <technique_common>
              <instance_material symbol="Wood-material" target="#Wood-material">
                <bind_vertex_input semantic="UVMap" input_semantic="TEXCOORD" input_set="0"/>
              </instance_material>
            </technique_common>
          </bind_material>
        </instance_geometry>
      </node>
    </visual_scene>
  </library_visual_scenes>
  <scene>
    <instance_visual_scene url="#Scene"/>
  </scene>
</COLLADA>