<?xml version="1.0" encoding="utf-8"?>
<COLLADA xmlns="http://www.collada.org/2005/11/COLLADASchema" version="1.4.1">
  <asset>
    <contributor>
      <author>Duion</author>
      <authoring_tool>Blender 2.67.0 r56533</authoring_tool>
    </contributor>
    <created>2013-06-12T13:21:45</created>
    <modified>2013-06-12T13:21:45</modified>
    <unit name="meter" meter="1"/>
    <up_axis>Z_UP</up_axis>
  </asset>
  <library_lights>
    <light id="Hemi-light" name="Hemi">
      <technique_common>
        <ambient>
          <color>1 1 1</color>
        </ambient>
      </technique_common>
      <extra>
        <technique profile="blender">
          <adapt_thresh>0.000999987</adapt_thresh>
          <area_shape>0</area_shape>
          <area_size>1</area_size>
          <area_sizey>1</area_sizey>
          <area_sizez>1</area_sizez>
          <atm_distance_factor>1</atm_distance_factor>
          <atm_extinction_factor>1</atm_extinction_factor>
          <atm_turbidity>2</atm_turbidity>
          <att1>0</att1>
          <att2>1</att2>
          <backscattered_light>1</backscattered_light>
          <bias>1</bias>
          <blue>1</blue>
          <buffers>1</buffers>
          <bufflag>0</bufflag>
          <bufsize>512</bufsize>
          <buftype>2</buftype>
          <clipend>40</clipend>
          <clipsta>0.5</clipsta>
          <compressthresh>0.04999995</compressthresh>
          <dist sid="blender_dist">25</dist>
          <energy sid="blender_energy">1</energy>
          <falloff_type>2</falloff_type>
          <filtertype>0</filtertype>
          <flag>0</flag>
          <gamma sid="blender_gamma">1</gamma>
          <green>1</green>
          <halo_intensity sid="blnder_halo_intensity">1</halo_intensity>
          <horizon_brightness>1</horizon_brightness>
          <mode>1</mode>
          <ray_samp>1</ray_samp>
          <ray_samp_method>1</ray_samp_method>
          <ray_samp_type>0</ray_samp_type>
          <ray_sampy>1</ray_sampy>
          <ray_sampz>1</ray_sampz>
          <red>1</red>
          <samp>3</samp>
          <shadhalostep>0</shadhalostep>
          <shadow_b sid="blender_shadow_b">0</shadow_b>
          <shadow_g sid="blender_shadow_g">0</shadow_g>
          <shadow_r sid="blender_shadow_r">0</shadow_r>
          <shadspotsize>45</shadspotsize>
          <sky_colorspace>2</sky_colorspace>
          <sky_exposure>1</sky_exposure>
          <skyblendfac>1</skyblendfac>
          <skyblendtype>1</skyblendtype>
          <soft>3</soft>
          <spotblend>0.15</spotblend>
          <spotsize>45</spotsize>
          <spread>1</spread>
          <sun_brightness>1</sun_brightness>
          <sun_effect_type>0</sun_effect_type>
          <sun_intensity>1</sun_intensity>
          <sun_size>1</sun_size>
          <type>3</type>
        </technique>
      </extra>
    </light>
  </library_lights>
  <library_images/>
  <library_effects>
    <effect id="wood_paneling_grey_01-effect">
      <profile_COMMON>
        <technique sid="common">
          <phong>
            <emission>
              <color sid="emission">0 0 0 1</color>
            </emission>
            <ambient>
              <color sid="ambient">0 0 0 1</color>
            </ambient>
            <diffuse>
              <color sid="diffuse">0.64 0.64 0.64 1</color>
            </diffuse>
            <specular>
              <color sid="specular">0.5 0.5 0.5 1</color>
            </specular>
            <shininess>
              <float sid="shininess">50</float>
            </shininess>
            <index_of_refraction>
              <float sid="index_of_refraction">1</float>
            </index_of_refraction>
          </phong>
        </technique>
        <extra>
          <technique profile="GOOGLEEARTH">
            <double_sided>1</double_sided>
          </technique>
        </extra>
      </profile_COMMON>
      <extra><technique profile="MAX3D"><double_sided>1</double_sided></technique></extra>
    </effect>
  </library_effects>
  <library_materials>
    <material id="wood_paneling_grey_01-material" name="wood_paneling_grey_01">
      <instance_effect url="#wood_paneling_grey_01-effect"/>
    </material>
  </library_materials>
  <library_geometries>
    <geometry id="bridge_128-mesh" name="bridge_128">
      <mesh>
        <source id="bridge_128-mesh-positions">
          <float_array id="bridge_128-mesh-positions-array" count="672">0.6139793 0.8020929 -1 0.6139792 0.9999998 -1 0.7629138 1 -1 0.762914 0.8020932 -1 0.6799947 2.745294 -30.92621 0.6799944 3.009279 -30.92621 0.8461189 3.00928 -30.92621 0.8461192 2.763407 -30.92621 0.7629138 -0.8020933 -1.000001 0.7629138 -1 -1.000001 0.6139792 -1 -1.000001 0.6139792 -0.8020932 -1.000001 0.776897 -2.653772 -30.92621 0.7768967 -2.878131 -30.92621 0.6334842 -2.878131 -30.92621 0.6334842 -2.662054 -30.92621 -0.7629142 -0.7298941 -1.000001 -0.6139796 -0.7298938 -1.000001 -0.6139793 -0.9278007 -1.000001 -0.762914 -0.927801 -1.000001 -0.7940723 -2.591219 -30.92621 -0.6724741 -2.594941 -30.92621 -0.6690585 -2.820413 -30.92621 -0.8006845 -2.820414 -30.92621 -0.6139795 1 -1.000001 -0.6139796 0.8020931 -1.000001 -0.7629142 0.8020931 -1.000001 -0.7629141 1 -1.000001 -0.6716756 3.00928 -30.92621 -0.6716758 2.770716 -30.92621 -0.829993 2.753905 -30.92621 -0.829993 3.00928 -30.92621 0.7211011 -1 6.31255 0.7211011 1 6.31255 0.762914 1 6.31255 0.762914 -1 6.31255 0.7211011 -1 6.815702 0.7211011 1 6.815702 0.762914 1 6.815702 0.762914 -1 6.815702 -0.7629142 -1 6.31255 -0.7629142 1 6.31255 -0.7211013 1 6.31255 -0.7211013 -1 6.31255 -0.7629142 -1 6.815701 -0.7629142 1 6.815701 -0.7211013 1 6.815701 -0.7211013 -1 6.815701 0.7211012 -1 1 0.7211012 -0.9483351 1 0.7629141 -0.9483351 1 0.7629141 -1 1 0.7211012 -1 6.31255 0.7211012 -0.9483351 6.31255 0.7629141 -0.9483351 6.31255 0.7629141 -1 6.31255 0.7211012 0.9483351 1 0.7211012 1 1 0.7629141 1 1 0.7629141 0.9483351 1 0.7211012 0.9483351 6.31255 0.7211012 1 6.31255 0.7629141 1 6.31255 0.7629141 0.9483351 6.31255 -0.7629141 -1 1 -0.7629141 -0.9483351 1 -0.7211012 -0.9483351 1 -0.7211012 -1 1 -0.7629141 -1 6.31255 -0.7629141 -0.9483351 6.31255 -0.7211012 -0.9483351 6.31255 -0.7211012 -1 6.31255 -0.7629141 0.9483351 1 -0.7629141 1 1 -0.7211012 1 1 -0.7211012 0.9483351 1 -0.7629141 0.9483351 6.31255 -0.7629141 1 6.31255 -0.7211012 1 6.31255 -0.7211012 0.9483351 6.31255 -1 -3 -2.514487 -0.9937174 -2.947001 -2.421355 -0.9519045 -2.947001 -2.421355 -0.9581871 -3 -2.514487 -1 -3 2.798062 -0.9954771 -2.961848 2.865106 -0.9536643 -2.961848 2.865106 -0.9581871 -3 2.798062 0.9581871 -3 -2.514487 0.9514551 -2.94321 -2.414692 0.993268 -2.94321 -2.414692 1 -3 -2.514487 0.9581871 -3 2.798063 0.9523198 -2.950505 2.885036 0.9941326 -2.950505 2.885036 1 -3 2.798063 -0.9931012 2.941803 -2.41222 -1 3 -2.514487 -0.9581871 3 -2.514487 -0.9512883 2.941803 -2.41222 -0.9930561 2.941423 2.900996 -1 3 2.798063 -0.9581871 3 2.798063 -0.9512432 2.941423 2.900996 0.9509088 2.938602 -2.406596 0.9581871 3 -2.514487 1 3 -2.514487 0.9927217 2.938602 -2.406596 0.9515843 2.944304 2.895939 0.9581871 3 2.798063 1 3 2.798063 0.9933972 2.944304 2.895939 -1.252025 4.573042 -9.290225 -1.259879 4.622062 -9.501372 -1.218066 4.622062 -9.501372 -1.210212 4.573042 -9.290225 -1.25155 4.570077 -3.964902 -1.259879 4.622062 -4.188822 -1.218066 4.622062 -4.188822 -1.209737 4.570077 -3.964902 1.210495 4.574808 -9.297831 1.218066 4.622062 -9.501372 1.259879 4.622062 -9.501372 1.252308 4.574808 -9.297831 1.210738 4.576324 -3.991812 1.218066 4.622062 -4.188822 1.259879 4.622062 -4.188822 1.252551 4.576324 -3.991812 -1.259878 -4.622062 -9.501372 -1.251139 -4.567512 -9.266406 -1.209326 -4.567512 -9.266406 -1.218066 -4.622062 -9.501372 -1.259878 -4.622062 -4.188822 -1.253895 -4.584718 -4.027966 -1.212082 -4.584718 -4.027966 -1.218066 -4.622062 -4.188822 1.218066 -4.622062 -9.501372 1.209656 -4.569569 -9.275263 1.251468 -4.569569 -9.275263 1.259878 -4.622062 -9.501372 1.218066 -4.622062 -4.188822 1.210473 -4.574674 -3.984702 1.252286 -4.574674 -3.984702 1.259878 -4.622062 -4.188822 -1 -3 -4.514487 -0.7629142 -1 -1 0.762914 -1 -1 0.9999999 -3 -4.514487 -1 -3 -2.514487 -0.7629142 -1 0.9999995 0.762914 -1 0.9999995 0.9999999 -3 -2.514487 -0.7629142 1 -1 -1 3 -4.514487 0.9999999 3 -4.514487 0.762914 1 -1 -0.7629142 1 0.9999995 -1 3 -2.514487 0.9999999 3 -2.514487 0.762914 1 0.9999995 -0.7629142 -1 -1 -0.7629142 1 -1 0.762914 1 -1 0.762914 -1 -1 -0.7629142 -1 0.9999995 -0.7629142 1 0.9999995 0.762914 1 0.9999995 0.762914 -1 0.9999995 -1.259879 -4.622062 -11.50137 1.259878 -4.622062 -11.50137 -1.259879 -4.622062 -9.501372 1.259878 -4.622062 -9.501372 -1.259879 4.622062 -11.50137 1.259878 4.622062 -11.50137 -1.259879 4.622062 -9.501372 1.259878 4.622062 -9.501372 0.9581869 -3 2.798062 0.7211011 -1 6.31255 0.762914 -1 6.31255 0.9999998 -3 2.798062 0.9581869 -3 3.301214 0.7211011 -1 6.815702 0.762914 -1 6.815702 0.9999998 -3 3.301214 -1 -3 2.798062 -0.7629142 -1 6.312549 -0.7211014 -1 6.312549 -0.9581871 -3 2.798062 -1 -3 3.301214 -0.7629142 -1 6.815701 -0.7211014 -1 6.815701 -0.9581871 -3 3.301214 -0.9581871 3 2.798062 -0.7210994 1 6.31255 -0.7629123 1 6.31255 -1 3 2.798062 -0.9581871 3 3.301214 -0.7210994 1 6.815702 -0.7629123 1 6.815702 -1 3 3.301214 0.9999998 3.000003 2.798062 0.7629159 1.000003 6.312549 0.721103 1.000003 6.312549 0.9581869 3.000003 2.798062 0.9999998 3.000003 3.301214 0.7629159 1.000003 6.815701 0.721103 1.000003 6.815701 0.9581869 3.000003 3.301214 1.218065 -4.622062 -4.188822 1.259878 -4.622062 -4.188822 1.218065 -4.622062 -3.68567 1.259878 -4.622062 -3.68567 -1.259879 -4.622062 -4.188822 -1.218066 -4.622062 -4.188822 -1.259879 -4.622062 -3.68567 -1.218066 -4.622062 -3.68567 1.259878 4.622062 -4.188822 1.218066 4.622062 -4.188822 1.259878 4.622062 -3.68567 1.218066 4.622062 -3.68567 -1.218066 4.622062 -4.188822 -1.259879 4.622062 -4.188822 -1.218066 4.622062 -3.68567 -1.259879 4.622062 -3.68567</float_array>
          <technique_common>
            <accessor source="#bridge_128-mesh-positions-array" count="224" stride="3">
              <param name="X" type="float"/>
              <param name="Y" type="float"/>
              <param name="Z" type="float"/>
            </accessor>
          </technique_common>
        </source>
        <source id="bridge_128-mesh-normals">
          <float_array id="bridge_128-mesh-normals-array" count="888">0.9999976 1.12894e-6 0.002205967 7.15978e-6 -0.9977536 -0.06699031 -0.9999961 -1.45452e-6 -0.002780377 -0.108169 0.9920588 0.06417882 0 0 -1 0 0 1 -1 1.06267e-6 -4.67319e-4 3.31841e-6 0.9980365 -0.06263548 0.9999998 0 6.51769e-4 0.05753886 -0.9964183 0.06196641 0 0 -1 0 0 1 -0.03053694 -0.9975945 0.0622313 -0.9998812 -0.01514685 0.002898335 -7.23089e-6 0.9980062 -0.06311649 0.999584 -0.02883791 5.6219e-4 0 0 -1 0 0 1 -0.9999982 4.99695e-7 0.001927971 -0.1053661 0.9922755 0.06547755 0.9999975 0 -0.002241432 0 -0.9977536 -0.06699031 0 0 -1 0 0 1 -1 0 0 1 0 0 0 0 -1 0 0 1 -1 0 0 1 0 0 0 0 -1 0 0 1 -1 0 0 0 1 0 1 0 0 0 -1 0 -1 0 0 0 1 0 1 0 0 0 -1 0 -1 0 0 0 1 0 1 0 0 0 -1 0 -1 0 0 0 1 0 1 0 0 0 -1 0 -0.9930468 0.1177211 0 0 0.9999961 0.002808332 0.9930468 -0.1177211 0 0 -1 0 -0.9930469 -0.1177197 0 0 0.9999991 0.001376569 0.9930468 0.1177196 0 0 -1 0 -0.9930469 -0.1177194 0 0 1 0 0.993047 0.1177193 0 0 -1 -7.13925e-5 -0.9930461 0.1177256 0 0 1 0 0.9930462 -0.1177254 0 0 -0.9999994 0.001075387 -0.9874073 -0.1581984 0 0 1 0 0.9874073 0.1581985 0 0 -0.9999998 -5.56858e-4 -0.9874075 0.1581975 0 0 1 0 0.9874075 -0.1581975 0 0 -1 2.85778e-4 -0.9874068 0.1582018 0 0 0.9999946 0.003284394 0.9874068 -0.1582016 0 0 -1 0 -0.9874074 -0.1581982 0 0 0.9999995 9.64929e-4 0.9874073 0.1581982 0 0 -1 0 -0.9930471 0.1177187 0 0 1 0 0.9930471 0.1177187 0 -0.6877651 0.6899319 -0.2254402 0.6877651 0.6899319 -0.2254402 0.5466476 -0.0945158 -0.8319956 -0.6087222 0.7706534 -0.1884518 0.6087222 0.7706534 -0.1884518 0.7150182 -0.6401868 0.2806787 0.5265359 0.2200079 0.821131 -0.5265359 0.2200079 0.821131 -0.9930471 -0.1177187 0 -0.7150182 0.6401868 0.2806787 0.7150182 0.6401868 0.2806787 0.7379376 0.6688742 0.08908349 0.9930471 -0.1177187 0 0 -1 0 -0.6087222 -0.7706534 -0.1884518 -0.6877651 -0.6899319 -0.2254402 0.6877651 -0.6899319 -0.2254402 0.5265359 -0.2200079 0.821131 -1 0 0 0 1 0 1 0 0 0 -1 0 -0.5773492 -0.5773492 -0.5773492 -0.5773492 0.5773492 -0.5773492 0.5773492 -0.5773492 -0.5773492 0.5773492 -0.5773492 0.5773492 0.5773492 0.5773492 0.5773492 -0.5773492 0.5773492 0.5773492 0 -1 0 0 1 0 -0.5466476 0.0945158 -0.8319956 -0.9874075 -0.1581974 0 0.9874075 0.1581974 0 -0.9874075 0.1581974 0 -0.7150182 -0.6401868 0.2806787 -0.7379376 -0.6688742 0.08908349 0.9874075 -0.1581974 0 -0.993047 -0.1177186 0 0.993047 0.1177186 0 0 0.974094 -0.2261438 0 0.8691236 -0.4945947 0 -0.8691236 0.4945947 -0.993047 0.1177186 0 0.993047 -0.1177186 0 0 0.974094 -0.2261438 0 0.8691237 -0.4945948 0 -0.8691237 0.4945948 0.9930468 0.1177196 0 -0.9930469 -0.1177196 0 0 -0.974094 -0.2261438 4.95577e-6 -0.8691236 -0.4945949 0 0.8691237 0.4945947 0.9930471 -0.1177177 0 -0.9930471 0.1177177 0 0 -0.974094 -0.2261434 0 -0.8691235 -0.4945949 -2.47789e-6 0.8691238 0.4945948 0 -1 0 -0.9874075 -0.1581975 0 0.9874075 0.1581975 0 0 -0.974094 0.2261438 0 -1 0 0 -0.974094 0.2261438 -0.9874075 0.1581975 0 0.9874075 -0.1581975 0 0 1 0 0 0.974094 0.2261434 0.9874074 -0.1581979 0 -0.9874074 0.1581979 0 0 1 0 0.9874075 0.1581975 0 -0.9874075 -0.1581975 0 0 0.974094 0.2261438 0.9999976 9.03523e-7 0.002205967 1.59723e-6 -0.9977537 -0.06699031 -0.9999961 -9.03523e-7 -0.002780377 -2.3961e-6 0.9978592 0.06539803 0 0 -1 0 0 1 -0.9999999 0 -4.67246e-4 7.98842e-7 0.9980365 -0.06263548 0.9999998 0 6.51769e-4 -7.98886e-7 -0.9980912 0.06175673 0 0 -1 0 0 1 1.59774e-6 -0.9980714 0.06207716 -0.9999983 -1.2047e-6 0.001840531 -1.59763e-6 0.9980062 -0.06311655 0.9999995 1.2047e-6 -0.001041233 0 0 -1 0 0 1 -0.9999982 6.02349e-7 0.001927971 0 0.9978799 0.06508255 0.9999975 -3.01174e-7 -0.002241432 0 -0.9977537 -0.06699031 0 0 -1 0 0 1 -1 0 0 1 0 0 0 0 -1 0 0 1 -1 0 0 1 0 0 0 0 -1 0 0 1 -1 0 0 0 1 0 1 0 0 0 -1 0 -1 0 0 0 1 0 1 0 0 0 -1 0 -1 0 0 0 1 0 1 0 0 0 -1 0 -1 0 0 0 1 0 1 0 0 0 -1 0 -0.9930471 0.1177175 0 0 0.9999961 0.002808332 0.9930471 -0.1177175 0 0 -1 0 -0.9930472 -0.1177168 0 0 0.9999991 0.001376569 0.9930472 0.1177169 0 0 -1 0 -0.9930472 -0.1177167 0 0 1 0 0.9930472 0.1177168 0 0 -1 -7.13925e-5 -0.9930471 0.1177179 0 0 1 0 0.993047 -0.1177181 0 0 -0.9999994 0.001075387 -0.9874072 -0.1581997 0 0 1 0 0.9874072 0.1581997 0 0 -0.9999998 -5.56858e-4 -0.9874072 0.1582 0 0 1 0 0.9874072 -0.1582002 0 0 -1 2.85778e-4 -0.9874075 0.1581971 0 0 0.9999946 0.003284394 0.9874075 -0.1581972 0 0 -1 0 -0.9874078 -0.1581959 0 0 0.9999995 9.64929e-4 0.9874078 0.1581958 0 0 -1 0 -0.9930471 0.1177187 0 0 1 0 0.9930471 0.1177187 0 -0.5466476 -0.0945158 -0.8319956 -0.9930471 -0.1177187 0 -0.7379376 0.6688742 0.08908349 0.9930471 -0.1177187 0 0 -1 0 0.6087222 -0.7706534 -0.1884518 -0.5265359 -0.2200079 0.821131 -1 0 0 0 1 0 1 0 0 0 -1 0 0.5773492 0.5773492 -0.5773492 -0.5773492 -0.5773492 0.5773492 0 -1 0 0 1 0 0.5466476 0.0945158 -0.8319956 -0.9874075 -0.1581974 0 0.9874075 0.1581974 0 -0.9874075 0.1581974 0 0.7379376 -0.6688742 0.08908349 0.9874075 -0.1581974 0 -0.993047 -0.1177186 0 0.993047 0.1177186 0 0 0.974094 -0.2261438 0 0.8691236 -0.4945947 0 -0.8691236 0.4945947 -0.993047 0.1177186 0 0.993047 -0.1177186 0 0 0.974094 -0.2261438 0 0.8691237 -0.4945948 0 -0.8691237 0.4945948 0.9930468 0.1177196 0 -0.9930469 -0.1177196 0 0 -0.974094 -0.2261438 0 -0.8691237 -0.4945947 -4.95577e-6 0.8691236 0.4945949 0.9930471 -0.1177177 0 -0.9930471 0.1177177 0 0 -0.974094 -0.2261434 2.47789e-6 -0.8691238 -0.4945948 0 0.8691235 0.4945949 0 -1 0 -0.9874075 -0.1581975 0 0.9874075 0.1581975 0 0 -0.974094 0.2261438 0 -1 0 0 -0.974094 0.2261438 -0.9874075 0.1581975 0 0.9874075 -0.1581975 0 0 1 0 0 0.974094 0.2261434 0.9874074 -0.1581979 0 -0.9874074 0.1581979 0 0 1 0 0.9874075 0.1581975 0 -0.9874075 -0.1581975 0 0 0.974094 0.2261438</float_array>
          <technique_common>
            <accessor source="#bridge_128-mesh-normals-array" count="296" stride="3">
              <param name="X" type="float"/>
              <param name="Y" type="float"/>
              <param name="Z" type="float"/>
            </accessor>
          </technique_common>
        </source>
        <source id="bridge_128-mesh-map-0">
          <float_array id="bridge_128-mesh-map-0-array" count="1704">-1.099724 0.4880094 -1.084279 0.6510508 2.066892 0.6461496 -1.087228 0.3360155 -1.071529 0.4656782 2.079632 0.4738951 -1.09142 0.9722164 -1.088797 0.8410835 2.074004 0.8390499 2.064041 0.6594286 2.064116 0.82247 -1.071637 0.822821 0.3438688 0.1277682 0.3438688 0.006840825 -0.04711627 0.1277682 -0.04711627 0.1277682 -0.04711627 0.006840825 0.3438688 0.006840825 -1.099724 0.4880094 -1.084279 0.6510508 2.08228 0.492645 -1.087228 0.3360155 -1.071529 0.4656782 2.094767 0.3299273 -1.09142 0.9722164 -1.088797 0.8410835 2.086798 0.9797198 2.064041 0.6594286 2.064116 0.82247 -1.087129 0.6597796 0.3438688 0.1277682 0.3438688 0.006840825 -0.04711627 0.006840825 -0.04711627 0.1277682 -0.04711627 0.006840825 0.3438688 0.006840825 -1.099724 0.4880094 -1.084279 0.6510508 2.066892 0.6461496 -1.087228 0.3360155 -1.071529 0.4656782 2.094767 0.3299273 -1.09142 0.9722164 -1.088797 0.8410835 2.086798 0.9797198 2.064041 0.6594286 2.064116 0.82247 -1.087129 0.6597796 0.3438688 0.1277682 0.3438688 0.006840825 -0.04711627 0.006840825 -0.04711627 0.1277682 -0.04711627 0.006840825 0.3438688 0.006840825 -1.099724 0.4880094 -1.084279 0.6510508 2.066892 0.6461496 -1.087228 0.3360155 -1.071529 0.4656782 2.094767 0.3299273 -1.09142 0.9722164 -1.088797 0.8410835 2.074004 0.8390499 2.064041 0.6594286 2.064116 0.82247 -1.087129 0.6597796 0.3438688 0.1277682 0.3438688 0.006840825 -0.04711627 0.006840825 -0.04711627 0.1277682 -0.04711627 0.006840825 0.3438688 0.006840825 -0.09213042 0.442708 1.024286 0.442708 -0.09213042 0.3486119 1.024286 0.442708 -0.09213042 0.442708 -0.09213042 0.3486119 1.445152 0.8563063 0.1746507 0.8643718 0.1751219 0.9421772 1.445623 0.9341114 0.1751219 0.9421772 0.1746507 0.8643718 -0.09213042 0.442708 1.024286 0.442708 -0.09213042 0.3486119 1.024286 0.442708 -0.09213042 0.442708 -0.09213042 0.3486119 1.027673 0.02154135 -0.04650664 0.03159463 -0.05099368 0.1214505 1.028078 0.0987665 -0.05099368 0.1214505 -0.05139905 0.04422473 0.03269958 0.8693336 0.03488171 0.8945792 0.5953781 0.8589814 0.02101343 0.7014567 0.02111208 0.7398623 0.7552136 0.7324947 0.01630169 0.1184967 0.01617741 0.07310342 0.7652156 0.06605595 0.05820691 0.7652241 0.05810827 0.7268185 0.7922099 0.7194508 0.03070455 0.8796559 0.03082638 0.9271106 0.7648062 0.8722883 0.02101343 0.7014567 0.02111208 0.7398623 0.7552136 0.7324947 0.01617741 0.07310342 0.01605308 0.02771037 0.7650913 0.02066278 0.104773 0.4206352 0.1046743 0.3822296 0.838776 0.374862 0.01617741 0.07310342 0.01630169 0.1184967 0.7652156 0.06605595 0.1180757 0.7046013 0.1181762 0.7413384 0.8672145 0.734291 0.01630169 0.1184967 0.01617741 0.07310342 0.7652156 0.06605595 0.0406903 0.2287392 0.04058974 0.1920021 0.7896279 0.1849546 0.03070455 0.8796559 0.03082638 0.9271106 0.7648062 0.8722883 0.1896011 0.8655337 0.1897017 0.9022707 0.9387399 0.8952233 0.01617741 0.07310342 0.01605308 0.02771037 0.7650913 0.02066278 0.07049262 0.1035696 0.07039201 0.06683254 0.8194302 0.05978506 0.2297112 0.07109439 0.2203503 0.1047043 0.9787493 0.06404691 0.2202694 0.07515722 0.22037 0.1118943 0.9656333 0.06969052 0.2203503 0.1047043 0.2297112 0.07109439 0.9657458 0.1107355 0.2298118 0.1078317 0.2297112 0.07109451 0.9787493 0.06404703 0.06270128 0.3885754 0.05418092 0.4177139 0.7359077 0.3761897 0.2279713 0.8813363 0.2280699 0.9197418 0.9603981 0.9115978 0.2175675 0.1146962 0.2297112 0.07109439 0.9648156 0.1140757 0.2297112 0.07109439 0.2296106 0.03435724 0.9786487 0.02730971 0.2257403 0.8713499 0.2401021 0.9250104 0.9742037 0.9176429 0.2297112 0.07109451 0.2298118 0.1078317 0.97885 0.1007841 0.2297112 0.07109439 0.2150573 0.01976513 0.9641903 0.01304996 0.8610115 0.2062346 0.8624414 0.2655822 0.294919 0.2793208 0.2264458 0.8739891 0.2401021 0.9250104 0.9742037 0.9176429 0.2400034 0.8866049 0.2401021 0.9250104 0.9742037 0.9176429 0.2297112 0.07109439 0.2157771 0.02228969 0.9633896 0.01024526 0.2265616 0.9190814 0.226463 0.8806759 0.9592779 0.9111073 0.06815153 0.531837 0.0992158 0.579275 0.8333175 0.5719075 0.09949421 0.6877142 0.09959286 0.7261198 0.8336946 0.7187522 0.0992158 0.579275 0.06815153 0.531837 0.8040253 0.5271755 0.6435818 0.3802446 0.6450186 0.4398772 0.07204669 0.3946936 0.07188481 0.5375381 0.0992158 0.579275 0.8050804 0.5287868 0.0873925 0.2640325 0.08749312 0.3007695 0.8365313 0.2937221 0.0992158 0.579275 0.07188481 0.5375381 0.8333175 0.5719075 0.05969834 0.2945928 0.05959773 0.2578558 0.8078151 0.2873404 0.08777719 0.4044976 0.06518745 0.4375216 0.8368155 0.39745 0.07728099 0.6934331 0.07737964 0.7318387 0.8011483 0.6886999 0.06518745 0.4375216 0.08777719 0.4044976 0.8038178 0.4456891 0.0995928 0.7261199 0.09949421 0.6877142 0.833596 0.6803467 0.2680849 0.05065101 0.2407119 0.08351534 1.022879 0.07261168 0.05859452 0.2576327 0.05869513 0.2943698 0.8046311 0.286633 0.05911153 0.4464039 0.08777719 0.4044976 0.8368155 0.39745 0.08749312 0.3007695 0.0873925 0.2640325 0.8364307 0.256985 0.9898151 0.8123984 0.003987431 0.8093927 0.9912968 0.6626411 0.01993328 -1.017155 0.08633637 -1.017781 0.08660298 -0.7510682 0.008755743 0.6472683 0.989815 0.6455057 0.01023739 0.4975118 -0.1504555 -0.9499148 1.128762 -0.9499148 1.294983 -1.730673 -0.1504555 -0.9499148 0.001186609 0.01275932 0.9771198 0.01275932 1.128762 -0.9499148 0.9771198 0.01275932 0.001186609 0.01275932 0.992053 0.304858 0.003993868 0.3099726 0.00547564 0.1602154 -0.1504555 1.938107 1.128762 1.938107 1.294983 2.718866 0.006389975 0.8213082 0.9900623 0.8230601 0.9915438 0.6733034 0.2395421 -1.017155 0.3059452 -1.017781 0.3062122 -0.7506205 0.001186609 0.9754334 -0.1504555 1.938107 1.128762 1.938107 0.9771198 0.9754334 1.128762 1.938107 -0.1504555 1.938107 0.9910389 0.9727092 0.008577764 0.9724291 0.9925206 0.8229526 0.6272973 0.9860634 0.5608942 0.9854382 0.5611608 0.7187259 0.01453822 0.4777113 0.9969994 0.4779914 0.998481 0.3282348 0.1529134 0.65362 0.2193165 0.6529946 0.2195835 0.9201547 0.001186609 0.01275932 0.001186609 0.9754334 0.9771198 0.01275932 0.9771198 0.01275932 0.9771198 0.9754334 0.001186609 0.9754334 0.9870712 0.4621115 0.005019068 0.4621115 0.008070826 0.3332614 0.01104259 0.8128855 0.9871511 0.8128855 0.9871511 0.6813387 1.128762 1.938107 -0.1504555 1.938107 -0.3166762 2.718866 0.003139793 0.1444589 0.004621326 -0.005298078 0.9942156 0.1541746 0.9887653 0.3135194 0.9902468 0.1637621 0.01247096 0.1658371 0.9897448 0.4976343 0.9882633 0.6473915 0.00857973 0.6427909 1.128762 -0.9499148 -0.1504555 -0.9499148 -0.3166762 -1.730673 0.9767144 0.475585 0.9781695 0.3285237 0.01846402 0.4777505 -1.181888 0.6396527 -0.09213042 0.6173306 -1.181888 0.5455555 -0.09213042 0.442708 -1.181888 0.4440754 -0.09213042 0.3486119 1.84432 0.8665897 1.844652 0.9422681 2.636281 0.8842218 1.84432 0.8665897 0.9524747 0.869603 0.9528068 0.9452807 1.844652 0.9422681 0.9528068 0.9452807 1.84432 0.8665897 -0.0423842 0.1120103 0.9788886 0.1316468 -0.0423842 0.0179131 -0.09213042 0.442708 -1.163698 0.4271951 -0.09213042 0.3486119 2.086565 0.01743704 2.08697 0.09466105 3.038212 0.07642298 2.086565 0.01743704 1.027673 0.02154135 2.08697 0.09466105 2.08697 0.09466105 1.028078 0.09876573 1.027673 0.02154135 2.159909 0.4552513 1.024286 0.442708 1.024286 0.3486119 1.024286 0.442708 2.16736 0.4552513 2.16736 0.3611541 -1.132364 0.1309882 -1.133035 0.04893451 -1.99868 0.1498729 -1.132364 0.1309882 -0.05099368 0.1214528 -0.05139905 0.04422837 -1.132769 0.05376386 -0.05139905 0.04422837 -1.132364 0.1309882 2.159912 0.4552513 1.024287 0.442708 1.024287 0.3486119 1.024287 0.442708 2.167362 0.4552513 2.167362 0.3611541 -0.994735 0.9606012 -0.9952066 0.8827957 -2.063494 0.8956984 -0.994735 0.9606012 0.1751202 0.9421803 -0.9952066 0.8827957 -0.9952066 0.8827957 0.174649 0.8643749 0.1751202 0.9421803 0.5473631 0.5469519 0.5007174 0.5469519 0.5007174 0.5047104 -2.060678 0.5474998 -2.060678 0.6415959 -1.181888 0.6396527 -2.060678 0.4436902 -2.060678 0.3495941 -1.181888 0.3499782 1.844652 0.9422681 1.84432 0.8665897 2.636281 0.8842218 0.1736003 0.5346924 0.1269542 0.5346924 0.1269542 0.4924508 2.08697 0.09466105 2.086565 0.01743704 3.038212 0.07642298 -0.9896585 0.02363181 -0.9896585 0.1177279 -0.0423842 0.1120103 -2.060678 0.4436902 -2.060678 0.3495941 -1.163698 0.3330979 0.5007174 0.5469509 0.5473636 0.5469509 0.5473636 0.5047093 -0.9952066 0.8827957 -0.994735 0.9606012 -2.063494 0.8956984 3.099467 0.3495941 3.099467 0.4436902 2.159912 0.3611541 3.099467 0.4436902 3.099467 0.3495941 2.167362 0.4552513 0.1269541 0.5346913 0.1736002 0.5346913 0.1736002 0.4924498 3.099467 0.3495941 3.099467 0.4436902 2.159909 0.3611541 3.099467 0.4436902 3.099467 0.3495941 2.16736 0.4552513 -1.132769 0.05376386 -1.132364 0.1309882 -1.99868 0.1498729 2.08228 0.492645 -1.099724 0.4880094 2.066892 0.6461496 2.094767 0.3299273 -1.087228 0.3360155 2.079632 0.4738951 2.086798 0.9797198 -1.09142 0.9722164 2.074004 0.8390499 -1.087129 0.6597796 2.064041 0.6594286 -1.071637 0.822821 0.3438688 0.006840825 -0.04711627 0.006840825 -0.04711627 0.1277682 0.3438688 0.1277682 -0.04711627 0.1277682 0.3438688 0.006840825 -1.084279 0.6510508 2.066892 0.6461496 2.08228 0.492645 -1.071529 0.4656782 2.079632 0.4738951 2.094767 0.3299273 -1.088797 0.8410835 2.074004 0.8390499 2.086798 0.9797198 2.064116 0.82247 -1.071637 0.822821 -1.087129 0.6597796 -0.04711627 0.1277682 0.3438688 0.1277682 -0.04711627 0.006840825 0.3438688 0.1277682 -0.04711627 0.1277682 0.3438688 0.006840825 2.08228 0.492645 -1.099724 0.4880094 2.066892 0.6461496 -1.071529 0.4656782 2.079632 0.4738951 2.094767 0.3299273 -1.088797 0.8410835 2.074004 0.8390499 2.086798 0.9797198 2.064116 0.82247 -1.071637 0.822821 -1.087129 0.6597796 -0.04711627 0.1277682 0.3438688 0.1277682 -0.04711627 0.006840825 0.3438688 0.1277682 -0.04711627 0.1277682 0.3438688 0.006840825 2.08228 0.492645 -1.099724 0.4880094 2.066892 0.6461496 -1.071529 0.4656782 2.079632 0.4738951 2.094767 0.3299273 2.086798 0.9797198 -1.09142 0.9722164 2.074004 0.8390499 2.064116 0.82247 -1.071637 0.822821 -1.087129 0.6597796 -0.04711627 0.1277682 0.3438688 0.1277682 -0.04711627 0.006840825 0.3438688 0.1277682 -0.04711627 0.1277682 0.3438688 0.006840825 1.024286 0.442708 1.024286 0.3486119 -0.09213042 0.3486119 1.024286 0.3486119 1.024286 0.442708 -0.09213042 0.3486119 1.445623 0.9341114 1.445152 0.8563063 0.1751219 0.9421772 1.445152 0.8563063 1.445623 0.9341114 0.1746507 0.8643718 1.024286 0.442708 1.024286 0.3486119 -0.09213042 0.3486119 1.024286 0.3486119 1.024286 0.442708 -0.09213042 0.3486119 1.028078 0.0987665 1.027673 0.02154135 -0.05099368 0.1214505 1.027673 0.02154135 1.028078 0.0987665 -0.05139905 0.04422473 0.03488171 0.8945792 0.5975603 0.8842269 0.5953781 0.8589814 0.755115 0.694089 0.02101343 0.7014567 0.7552136 0.7324947 0.7653399 0.1114491 0.01630169 0.1184967 0.7652156 0.06605595 0.7923085 0.7578566 0.05820691 0.7652241 0.7922099 0.7194508 0.03082638 0.9271106 0.7649281 0.9197431 0.7648062 0.8722883 0.755115 0.694089 0.02101343 0.7014567 0.7552136 0.7324947 0.7652156 0.06605595 0.01617741 0.07310342 0.7650913 0.02066278 0.8388746 0.4132677 0.104773 0.4206352 0.838776 0.374862 0.01630169 0.1184967 0.7653399 0.1114491 0.7652156 0.06605595 0.8671138 0.6975539 0.1180757 0.7046013 0.8672145 0.734291 0.7653399 0.1114491 0.01630169 0.1184967 0.7652156 0.06605595 0.7897285 0.2216917 0.0406903 0.2287392 0.7896279 0.1849546 0.03082638 0.9271106 0.7649281 0.9197431 0.7648062 0.8722883 0.9386393 0.8584862 0.1896011 0.8655337 0.9387399 0.8952233 0.7652156 0.06605595 0.01617741 0.07310342 0.7650913 0.02066278 0.8195308 0.09652215 0.07049262 0.1035696 0.8194302 0.05978506 0.2203503 0.1047043 0.9657458 0.1107355 0.9787493 0.06404691 0.22037 0.1118943 0.965734 0.1064276 0.9656333 0.06969052 0.2297112 0.07109439 0.9787493 0.06404691 0.9657458 0.1107355 0.97885 0.1007841 0.2298118 0.1078317 0.9787493 0.06404703 0.05418092 0.4177139 0.7261326 0.409623 0.7359077 0.3761897 0.9602994 0.8731922 0.2279713 0.8813363 0.9603981 0.9115978 0.2297112 0.07109439 0.9787493 0.06404691 0.9648156 0.1140757 0.9787493 0.06404691 0.2297112 0.07109439 0.9786487 0.02730971 0.959935 0.8643298 0.2257403 0.8713499 0.9742037 0.9176429 0.9787493 0.06404703 0.2297112 0.07109451 0.97885 0.1007841 0.9787493 0.06404691 0.2297112 0.07109439 0.9641903 0.01304996 0.293489 0.2199732 0.8610115 0.2062346 0.294919 0.2793208 0.9591503 0.8613977 0.2264458 0.8739891 0.9742037 0.9176429 0.9741051 0.8792371 0.2400034 0.8866049 0.9742037 0.9176429 0.9787493 0.06404691 0.2297112 0.07109439 0.9633896 0.01024526 0.226463 0.8806759 0.9591793 0.8727016 0.9592779 0.9111073 0.8040253 0.5271755 0.06815153 0.531837 0.8333175 0.5719075 0.833596 0.6803467 0.09949421 0.6877142 0.8336946 0.7187522 0.8333175 0.5719075 0.0992158 0.579275 0.8040253 0.5271755 0.6450186 0.4398772 0.07348346 0.4543265 0.07204669 0.3946936 0.0992158 0.579275 0.8333175 0.5719075 0.8050804 0.5287868 0.8364307 0.256985 0.0873925 0.2640325 0.8365313 0.2937221 0.07188481 0.5375381 0.8050804 0.5287868 0.8333175 0.5719075 0.05959773 0.2578558 0.8077145 0.2506033 0.8078151 0.2873404 0.06518745 0.4375216 0.8038178 0.4456891 0.8368155 0.39745 0.07737964 0.7318387 0.801247 0.7271055 0.8011483 0.6886999 0.08777719 0.4044976 0.8368155 0.39745 0.8038178 0.4456891 0.8336946 0.7187523 0.0995928 0.7261199 0.833596 0.6803467 1.0532 0.03620642 0.2680849 0.05065101 1.022879 0.07261168 0.8045305 0.2498958 0.05859452 0.2576327 0.8046311 0.286633 0.8050617 0.4438709 0.05911153 0.4464039 0.8368155 0.39745 0.8365313 0.2937221 0.08749312 0.3007695 0.8364307 0.256985 0.003987431 0.8093927 0.005469083 0.6596361 0.9912968 0.6626411 0.02019983 -0.7504429 0.01993328 -1.017155 0.08660298 -0.7510682 0.989815 0.6455057 0.9912968 0.4957483 0.01023739 0.4975118 -0.3166762 -1.730673 -0.1504555 -0.9499148 1.294983 -1.730673 1.128762 -0.9499148 -0.1504555 -0.9499148 0.9771198 0.01275932 -0.1504555 -0.9499148 1.128762 -0.9499148 0.001186609 0.01275932 0.9935346 0.1551013 0.992053 0.304858 0.00547564 0.1602154 -0.3166762 2.718866 -0.1504555 1.938107 1.294983 2.718866 0.007871747 0.6715511 0.006389975 0.8213082 0.9915438 0.6733034 0.2398091 -0.7499952 0.2395421 -1.017155 0.3062122 -0.7506205 0.9771198 0.9754334 0.001186609 0.9754334 1.128762 1.938107 0.001186609 0.9754334 0.9771198 0.9754334 -0.1504555 1.938107 0.008577764 0.9724291 0.01005935 0.8226724 0.9925206 0.8229526 0.6275638 0.7193511 0.6272973 0.9860634 0.5611608 0.7187259 0.01601982 0.3279546 0.01453822 0.4777113 0.998481 0.3282348 0.1531804 0.92078 0.1529134 0.65362 0.2195835 0.9201547 0.001186609 0.9754334 0.9771198 0.9754334 0.9771198 0.01275932 0.001186609 0.01275932 0.9771198 0.01275932 0.001186609 0.9754334 0.9901229 0.3332614 0.9870712 0.4621115 0.008070826 0.3332614 0.01104259 0.6813387 0.01104259 0.8128855 0.9871511 0.6813387 1.294983 2.718866 1.128762 1.938107 -0.3166762 2.718866 0.004621326 -0.005298078 0.9956974 0.004417359 0.9942156 0.1541746 0.01098918 0.3155945 0.9887653 0.3135194 0.01247096 0.1658371 0.0100615 0.4930335 0.9897448 0.4976343 0.00857973 0.6427909 1.294983 -1.730673 1.128762 -0.9499148 -0.3166762 -1.730673 0.9781695 0.3285237 0.01991885 0.3306894 0.01846402 0.4777505 -0.09213042 0.6173306 -0.09213042 0.5232345 -1.181888 0.5455555 -1.181888 0.4440754 -1.181888 0.3499782 -0.09213042 0.3486119 1.844652 0.9422681 2.636614 0.9598997 2.636281 0.8842218 1.844652 0.9422681 1.84432 0.8665897 0.9528068 0.9452807 0.9528068 0.9452807 0.9524747 0.869603 1.84432 0.8665897 0.9788886 0.1316468 0.9788886 0.03755068 -0.0423842 0.0179131 -1.163698 0.4271951 -1.163698 0.3330979 -0.09213042 0.3486119 3.037806 -8.01008e-4 2.086565 0.01743704 3.038212 0.07642298 1.027673 0.02154135 1.028078 0.09876573 2.08697 0.09466105 2.086565 0.01743704 2.08697 0.09466105 1.027673 0.02154135 2.159909 0.3611541 2.159909 0.4552513 1.024286 0.3486119 1.024286 0.3486119 1.024286 0.442708 2.16736 0.3611541 -1.133035 0.04893451 -1.999085 0.07264745 -1.99868 0.1498729 -1.133035 0.04893451 -1.132364 0.1309882 -0.05139905 0.04422837 -0.05139905 0.04422837 -0.05099368 0.1214528 -1.132364 0.1309882 2.159912 0.3611541 2.159912 0.4552513 1.024287 0.3486119 1.024287 0.3486119 1.024287 0.442708 2.167362 0.3611541 -2.063022 0.9735054 -0.994735 0.9606012 -2.063494 0.8956984 0.1751202 0.9421803 0.174649 0.8643749 -0.9952066 0.8827957 -0.994735 0.9606012 -0.9952066 0.8827957 0.1751202 0.9421803 0.5473631 0.5047104 0.5473631 0.5469519 0.5007174 0.5047104 -1.181888 0.5455555 -2.060678 0.5474998 -1.181888 0.6396527 -1.181888 0.4440754 -2.060678 0.4436902 -1.181888 0.3499782 2.636614 0.9598997 1.844652 0.9422681 2.636281 0.8842218 0.1736003 0.4924508 0.1736003 0.5346924 0.1269542 0.4924508 2.086565 0.01743704 3.037806 -8.01008e-4 3.038212 0.07642298 -0.0423842 0.0179131 -0.9896585 0.02363181 -0.0423842 0.1120103 -1.163698 0.4271951 -2.060678 0.4436902 -1.163698 0.3330979 0.5007174 0.5047093 0.5007174 0.5469509 0.5473636 0.5047093 -0.994735 0.9606012 -2.063022 0.9735054 -2.063494 0.8956984 3.099467 0.4436902 2.159912 0.4552513 2.159912 0.3611541 3.099467 0.3495941 2.167362 0.3611541 2.167362 0.4552513 0.1269541 0.4924498 0.1269541 0.5346913 0.1736002 0.4924498 3.099467 0.4436902 2.159909 0.4552513 2.159909 0.3611541 3.099467 0.3495941 2.16736 0.3611541 2.16736 0.4552513 -1.999085 0.07264745 -1.132769 0.05376386 -1.99868 0.1498729</float_array>
          <technique_common>
            <accessor source="#bridge_128-mesh-map-0-array" count="852" stride="2">
              <param name="S" type="float"/>
              <param name="T" type="float"/>
            </accessor>
          </technique_common>
        </source>
        <vertices id="bridge_128-mesh-vertices">
          <input semantic="POSITION" source="#bridge_128-mesh-positions"/>
        </vertices>
        <polylist material="wood_paneling_grey_01-material" count="284">
          <input semantic="VERTEX" source="#bridge_128-mesh-vertices" offset="0"/>
          <input semantic="NORMAL" source="#bridge_128-mesh-normals" offset="1"/>
          <input semantic="TEXCOORD" source="#bridge_128-mesh-map-0" offset="2" set="0"/>
          <vcount>3 3 3 3 3 3 3 3 3 3 3 3 3 3 3 3 3 3 3 3 3 3 3 3 3 3 3 3 3 3 3 3 3 3 3 3 3 3 3 3 3 3 3 3 3 3 3 3 3 3 3 3 3 3 3 3 3 3 3 3 3 3 3 3 3 3 3 3 3 3 3 3 3 3 3 3 3 3 3 3 3 3 3 3 3 3 3 3 3 3 3 3 3 3 3 3 3 3 3 3 3 3 3 3 3 3 3 3 3 3 3 3 3 3 3 3 3 3 3 3 3 3 3 3 3 3 3 3 3 3 3 3 3 3 3 3 3 3 3 3 3 3 3 3 3 3 3 3 3 3 3 3 3 3 3 3 3 3 3 3 3 3 3 3 3 3 3 3 3 3 3 3 3 3 3 3 3 3 3 3 3 3 3 3 3 3 3 3 3 3 3 3 3 3 3 3 3 3 3 3 3 3 3 3 3 3 3 3 3 3 3 3 3 3 3 3 3 3 3 3 3 3 3 3 3 3 3 3 3 3 3 3 3 3 3 3 3 3 3 3 3 3 3 3 3 3 3 3 3 3 3 3 3 3 3 3 3 3 3 3 3 3 3 3 3 3 3 3 3 3 3 3 3 3 3 3 3 3 3 3 3 3 3 3 </vcount>
          <p>4 0 0 5 0 1 1 0 2 5 1 3 6 1 4 2 1 5 6 2 6 7 2 7 3 2 8 7 3 9 4 3 10 0 3 11 0 4 12 1 4 13 3 4 14 7 5 15 6 5 16 5 5 17 12 6 18 13 6 19 8 6 20 13 7 21 14 7 22 9 7 23 14 8 24 15 8 25 10 8 26 15 9 27 12 9 28 11 9 29 8 10 30 9 10 31 10 10 32 15 11 33 14 11 34 13 11 35 20 12 36 21 12 37 17 12 38 21 13 39 22 13 40 17 13 41 22 14 42 23 14 43 18 14 44 23 15 45 20 15 46 19 15 47 16 16 48 17 16 49 18 16 50 23 17 51 22 17 52 21 17 53 28 18 54 29 18 55 25 18 56 29 19 57 30 19 58 25 19 59 30 20 60 31 20 61 27 20 62 31 21 63 28 21 64 27 21 65 24 22 66 25 22 67 26 22 68 31 23 69 30 23 70 29 23 71 36 24 72 37 24 73 32 24 74 38 25 75 39 25 76 35 25 77 32 26 78 33 26 79 34 26 80 39 27 81 38 27 82 37 27 83 44 28 84 45 28 85 40 28 86 46 29 87 47 29 88 43 29 89 40 30 90 41 30 91 42 30 92 47 31 93 46 31 94 45 31 95 52 32 96 53 32 97 48 32 98 53 33 99 54 33 100 50 33 101 54 34 102 55 34 103 51 34 104 55 35 105 52 35 106 48 35 107 60 36 108 61 36 109 56 36 110 61 37 111 62 37 112 58 37 113 62 38 114 63 38 115 59 38 116 63 39 117 60 39 118 56 39 119 68 40 120 69 40 121 64 40 122 69 41 123 70 41 124 66 41 125 70 42 126 71 42 127 67 42 128 71 43 129 68 43 130 64 43 131 76 44 132 77 44 133 72 44 134 77 45 135 78 45 136 74 45 137 78 46 138 79 46 139 75 46 140 79 47 141 76 47 142 72 47 143 84 48 144 85 48 145 80 48 146 85 49 147 86 49 148 81 49 149 86 50 150 87 50 151 82 50 152 87 51 153 84 51 154 80 51 155 92 52 156 93 52 157 88 52 158 93 53 159 94 53 160 90 53 161 94 54 162 95 54 163 90 54 164 95 55 165 92 55 166 88 55 167 100 56 168 101 56 169 97 56 170 101 57 171 102 57 172 98 57 173 102 58 174 103 58 175 99 58 176 103 59 177 100 59 178 96 59 179 108 60 180 109 60 181 105 60 182 109 61 183 110 61 184 106 61 185 110 62 186 111 62 187 107 62 188 111 63 189 108 63 190 107 63 191 116 64 192 117 64 193 113 64 194 117 65 195 118 65 196 114 65 197 118 66 198 119 66 199 115 66 200 119 67 201 116 67 202 115 67 203 124 68 204 125 68 205 120 68 206 125 69 207 126 69 208 122 69 209 126 70 210 127 70 211 122 70 212 127 71 213 124 71 214 123 71 215 132 72 216 133 72 217 128 72 218 133 73 219 134 73 220 129 73 221 134 74 222 135 74 223 130 74 224 135 75 225 132 75 226 128 75 227 140 76 228 141 76 229 137 76 230 141 77 231 142 77 232 138 77 233 142 78 234 143 78 235 139 78 236 143 79 237 140 79 238 136 79 239 148 80 240 149 80 241 144 80 242 149 81 243 150 81 244 146 81 245 150 82 246 151 82 247 146 82 248 144 83 249 147 84 250 169 85 251 144 83 252 145 86 253 146 87 254 151 88 255 150 89 256 149 90 257 156 91 258 157 91 259 153 91 260 157 92 261 158 93 262 175 94 263 158 95 264 159 95 265 155 95 266 159 96 267 156 96 268 152 96 269 152 97 270 153 98 271 154 99 272 159 100 273 158 93 274 157 92 275 164 101 276 165 101 277 160 101 278 165 102 279 166 102 280 162 102 281 166 103 282 167 103 283 163 103 284 167 104 285 164 104 286 160 104 287 160 105 288 161 106 289 163 107 290 167 108 291 166 109 292 165 110 293 171 111 294 170 111 295 168 111 296 174 112 297 175 112 298 173 112 299 154 99 300 153 98 301 172 113 302 174 114 303 172 114 304 157 114 305 171 115 306 169 115 307 147 115 308 168 116 309 170 116 310 148 116 311 151 88 312 148 117 313 170 118 314 158 119 315 154 119 316 175 119 317 180 120 318 181 120 319 176 120 320 182 121 321 183 121 322 178 121 323 176 122 324 179 122 325 208 122 326 176 123 327 177 123 328 178 123 329 183 124 330 182 124 331 180 124 332 188 125 333 189 125 334 184 125 335 190 126 336 191 126 337 186 126 338 184 127 339 187 127 340 213 127 341 184 128 342 185 128 343 187 128 344 191 129 345 190 129 346 189 129 347 196 130 348 197 130 349 193 130 350 198 131 351 199 131 352 195 131 353 192 132 354 195 132 355 220 132 356 192 133 357 193 133 358 194 133 359 199 134 360 198 134 361 196 134 362 204 135 363 205 135 364 201 135 365 206 136 366 207 136 367 203 136 368 200 137 369 203 137 370 217 137 371 200 138 372 201 138 373 203 138 374 207 139 375 206 139 376 205 139 377 211 140 378 210 140 379 208 140 380 208 141 381 210 141 382 180 141 383 211 142 384 209 142 385 179 142 386 183 143 387 180 143 388 210 143 389 215 144 390 214 144 391 212 144 392 191 145 393 188 145 394 215 145 395 212 146 396 214 146 397 188 146 398 215 147 399 213 147 400 187 147 401 219 148 402 218 148 403 216 148 404 207 149 405 204 149 406 219 149 407 216 150 408 218 150 409 200 150 410 219 151 411 217 151 412 207 151 413 223 152 414 222 152 415 220 152 416 220 153 417 222 153 418 192 153 419 223 154 420 221 154 421 199 154 422 199 155 423 196 155 424 222 155 425 0 156 426 4 156 427 1 156 428 1 157 429 5 157 430 2 157 431 2 158 432 6 158 433 3 158 434 3 159 435 7 159 436 0 159 437 1 160 438 2 160 439 3 160 440 4 161 441 7 161 442 5 161 443 13 162 444 9 162 445 8 162 446 14 163 447 10 163 448 9 163 449 15 164 450 11 164 451 10 164 452 12 165 453 8 165 454 11 165 455 11 166 456 8 166 457 10 166 458 12 167 459 15 167 460 13 167 461 16 168 462 20 168 463 17 168 464 22 169 465 18 169 466 17 169 467 23 170 468 19 170 469 18 170 470 20 171 471 16 171 472 19 171 473 19 172 474 16 172 475 18 172 476 20 173 477 23 173 478 21 173 479 24 174 480 28 174 481 25 174 482 30 175 483 26 175 484 25 175 485 26 176 486 30 176 487 27 176 488 28 177 489 24 177 490 27 177 491 27 178 492 24 178 493 26 178 494 28 179 495 31 179 496 29 179 497 37 180 498 33 180 499 32 180 500 34 181 501 38 181 502 35 181 503 35 182 504 32 182 505 34 182 506 36 183 507 39 183 508 37 183 509 45 184 510 41 184 511 40 184 512 42 185 513 46 185 514 43 185 515 43 186 516 40 186 517 42 186 518 44 187 519 47 187 520 45 187 521 53 188 522 49 188 523 48 188 524 49 189 525 53 189 526 50 189 527 50 190 528 54 190 529 51 190 530 51 191 531 55 191 532 48 191 533 61 192 534 57 192 535 56 192 536 57 193 537 61 193 538 58 193 539 58 194 540 62 194 541 59 194 542 59 195 543 63 195 544 56 195 545 69 196 546 65 196 547 64 196 548 65 197 549 69 197 550 66 197 551 66 198 552 70 198 553 67 198 554 67 199 555 71 199 556 64 199 557 77 200 558 73 200 559 72 200 560 73 201 561 77 201 562 74 201 563 74 202 564 78 202 565 75 202 566 75 203 567 79 203 568 72 203 569 85 204 570 81 204 571 80 204 572 86 205 573 82 205 574 81 205 575 87 206 576 83 206 577 82 206 578 83 207 579 87 207 580 80 207 581 93 208 582 89 208 583 88 208 584 89 209 585 93 209 586 90 209 587 95 210 588 91 210 589 90 210 590 91 211 591 95 211 592 88 211 593 96 212 594 100 212 595 97 212 596 97 213 597 101 213 598 98 213 599 98 214 600 102 214 601 99 214 602 99 215 603 103 215 604 96 215 605 104 216 606 108 216 607 105 216 608 105 217 609 109 217 610 106 217 611 106 218 612 110 218 613 107 218 614 108 219 615 104 219 616 107 219 617 112 220 618 116 220 619 113 220 620 113 221 621 117 221 622 114 221 623 114 222 624 118 222 625 115 222 626 116 223 627 112 223 628 115 223 629 125 224 630 121 224 631 120 224 632 121 225 633 125 225 634 122 225 635 127 226 636 123 226 637 122 226 638 124 227 639 120 227 640 123 227 641 133 228 642 129 228 643 128 228 644 134 229 645 130 229 646 129 229 647 135 230 648 131 230 649 130 230 650 131 231 651 135 231 652 128 231 653 136 232 654 140 232 655 137 232 656 137 233 657 141 233 658 138 233 659 138 234 660 142 234 661 139 234 662 139 235 663 143 235 664 136 235 665 149 236 666 145 236 667 144 236 668 145 237 669 149 237 670 146 237 671 151 238 672 147 238 673 146 238 674 168 239 675 144 83 676 169 85 677 147 84 678 144 83 679 146 87 680 148 117 681 151 88 682 149 90 683 152 240 684 156 240 685 153 240 686 174 241 687 157 92 688 175 94 689 154 242 690 158 242 691 155 242 692 155 243 693 159 243 694 152 243 695 155 244 696 152 97 697 154 99 698 156 245 699 159 100 700 157 92 701 165 246 702 161 246 703 160 246 704 161 247 705 165 247 706 162 247 707 162 248 708 166 248 709 163 248 710 163 249 711 167 249 712 160 249 713 161 106 714 162 250 715 163 107 716 164 251 717 167 108 718 165 110 719 169 252 720 171 252 721 168 252 722 172 253 723 174 253 724 173 253 725 173 254 726 154 99 727 172 113 728 172 255 729 153 255 730 157 255 731 151 256 732 171 256 733 147 256 734 144 257 735 168 257 736 148 257 737 171 258 738 151 88 739 170 118 740 154 259 741 173 259 742 175 259 743 181 260 744 177 260 745 176 260 746 183 261 747 179 261 748 178 261 749 179 262 750 209 262 751 208 262 752 179 263 753 176 263 754 178 263 755 182 264 756 181 264 757 180 264 758 189 265 759 185 265 760 184 265 761 191 266 762 187 266 763 186 266 764 212 267 765 184 267 766 213 267 767 185 268 768 186 268 769 187 268 770 188 269 771 191 269 772 189 269 773 192 270 774 196 270 775 193 270 776 194 271 777 198 271 778 195 271 779 195 272 780 221 272 781 220 272 782 195 273 783 192 273 784 194 273 785 198 274 786 197 274 787 196 274 788 200 275 789 204 275 790 201 275 791 202 276 792 206 276 793 203 276 794 216 277 795 200 277 796 217 277 797 201 278 798 202 278 799 203 278 800 204 279 801 207 279 802 205 279 803 209 280 804 211 280 805 208 280 806 176 281 807 208 281 808 180 281 809 183 282 810 211 282 811 179 282 812 211 283 813 183 283 814 210 283 815 213 284 816 215 284 817 212 284 818 188 285 819 214 285 820 215 285 821 184 286 822 212 286 823 188 286 824 191 287 825 215 287 826 187 287 827 217 288 828 219 288 829 216 288 830 204 289 831 218 289 832 219 289 833 218 290 834 204 290 835 200 290 836 217 291 837 203 291 838 207 291 839 221 292 840 223 292 841 220 292 842 222 293 843 196 293 844 192 293 845 221 294 846 195 294 847 199 294 848 223 295 849 199 295 850 222 295 851</p>
        </polylist>
      </mesh>
      <extra><technique profile="MAYA"><double_sided>1</double_sided></technique></extra>
    </geometry>
    <geometry id="bridge8-mesh" name="bridge8">
      <mesh>
        <source id="bridge8-mesh-positions">
          <float_array id="bridge8-mesh-positions-array" count="192">0.6139793 0.8020929 -1 0.6139792 0.9999998 -1 0.7629138 1 -1 0.762914 0.8020932 -1 0.6799947 2.745294 -30.92621 0.6799944 3.009279 -30.92621 0.8461189 3.00928 -30.92621 0.8461192 2.763407 -30.92621 0.7629138 -0.8020933 -1.000001 0.7629138 -1 -1.000001 0.6139792 -1 -1.000001 0.6139792 -0.8020932 -1.000001 0.776897 -2.653772 -30.92621 0.7768967 -2.878131 -30.92621 0.6334842 -2.878131 -30.92621 0.6334842 -2.662054 -30.92621 -0.7629142 -0.7298941 -1.000001 -0.6139796 -0.7298938 -1.000001 -0.6139793 -0.9278007 -1.000001 -0.762914 -0.927801 -1.000001 -0.7940723 -2.591219 -30.92621 -0.6724741 -2.594941 -30.92621 -0.6690585 -2.820413 -30.92621 -0.8006845 -2.820414 -30.92621 -0.6139795 1 -1.000001 -0.6139796 0.8020931 -1.000001 -0.7629142 0.8020931 -1.000001 -0.7629141 1 -1.000001 -0.6716756 3.00928 -30.92621 -0.6716758 2.770716 -30.92621 -0.829993 2.753905 -30.92621 -0.829993 3.00928 -30.92621 -1 -3 -4.514487 -0.7629142 -1 -1 0.762914 -1 -1 0.9999999 -3 -4.514487 -1 -3 -2.514487 -0.7629142 -1 0.9999995 0.762914 -1 0.9999995 0.9999999 -3 -2.514487 -0.7629142 1 -1 -1 3 -4.514487 0.9999999 3 -4.514487 0.762914 1 -1 -0.7629142 1 0.9999995 -1 3 -2.514487 0.9999999 3 -2.514487 0.762914 1 0.9999995 -0.7629142 -1 -1 -0.7629142 1 -1 0.762914 1 -1 0.762914 -1 -1 -0.7629142 -1 0.9999995 -0.7629142 1 0.9999995 0.762914 1 0.9999995 0.762914 -1 0.9999995 -1.259879 -4.622062 -11.50137 1.259878 -4.622062 -11.50137 -1.259879 -4.622062 -9.501372 1.259878 -4.622062 -9.501372 -1.259879 4.622062 -11.50137 1.259878 4.622062 -11.50137 -1.259879 4.622062 -9.501372 1.259878 4.622062 -9.501372</float_array>
          <technique_common>
            <accessor source="#bridge8-mesh-positions-array" count="64" stride="3">
              <param name="X" type="float"/>
              <param name="Y" type="float"/>
              <param name="Z" type="float"/>
            </accessor>
          </technique_common>
        </source>
        <source id="bridge8-mesh-normals">
          <float_array id="bridge8-mesh-normals-array" count="336">0.9999976 1.12894e-6 0.002205967 7.15978e-6 -0.9977536 -0.06699031 -0.9999961 -1.45452e-6 -0.002780377 -0.108169 0.9920588 0.06417882 0 0 -1 0 0 1 -1 1.06267e-6 -4.67319e-4 3.31841e-6 0.9980365 -0.06263548 0.9999998 0 6.51769e-4 0.05753886 -0.9964183 0.06196641 0 0 -1 0 0 1 -0.03053694 -0.9975945 0.0622313 -0.9998812 -0.01514685 0.002898335 -7.23089e-6 0.9980062 -0.06311649 0.999584 -0.02883791 5.6219e-4 0 0 -1 0 0 1 -0.9999982 4.99695e-7 0.001927971 -0.1053661 0.9922755 0.06547755 0.9999975 0 -0.002241432 0 -0.9977536 -0.06699031 0 0 -1 0 0 1 -0.9930471 0.1177187 0 0 1 0 0.9930471 0.1177187 0 -0.6877651 0.6899319 -0.2254402 0.6877651 0.6899319 -0.2254402 0.5466476 -0.0945158 -0.8319956 -0.6087222 0.7706534 -0.1884518 0.6087222 0.7706534 -0.1884518 0.7150182 -0.6401868 0.2806787 0.5265359 0.2200079 0.821131 -0.5265359 0.2200079 0.821131 -0.9930471 -0.1177187 0 -0.7150182 0.6401868 0.2806787 0.7150182 0.6401868 0.2806787 0.7379376 0.6688742 0.08908349 0.9930471 -0.1177187 0 0 -1 0 -0.6087222 -0.7706534 -0.1884518 -0.6877651 -0.6899319 -0.2254402 0.6877651 -0.6899319 -0.2254402 0.5265359 -0.2200079 0.821131 -1 0 0 0 1 0 1 0 0 0 -1 0 -0.5773492 -0.5773492 -0.5773492 -0.5773492 0.5773492 -0.5773492 0.5773492 -0.5773492 -0.5773492 0.5773492 -0.5773492 0.5773492 0.5773492 0.5773492 0.5773492 -0.5773492 0.5773492 0.5773492 0 -1 0 0 1 0 -0.5466476 0.0945158 -0.8319956 -0.9874075 -0.1581974 0 0.9874075 0.1581974 0 -0.9874075 0.1581974 0 -0.7150182 -0.6401868 0.2806787 -0.7379376 -0.6688742 0.08908349 0.9874075 -0.1581974 0 0.9999976 9.03523e-7 0.002205967 1.59723e-6 -0.9977537 -0.06699031 -0.9999961 -9.03523e-7 -0.002780377 -2.3961e-6 0.9978592 0.06539803 0 0 -1 0 0 1 -0.9999999 0 -4.67246e-4 7.98842e-7 0.9980365 -0.06263548 0.9999998 0 6.51769e-4 -7.98886e-7 -0.9980912 0.06175673 0 0 -1 0 0 1 1.59774e-6 -0.9980714 0.06207716 -0.9999983 -1.2047e-6 0.001840531 -1.59763e-6 0.9980062 -0.06311655 0.9999995 1.2047e-6 -0.001041233 0 0 -1 0 0 1 -0.9999982 6.02349e-7 0.001927971 0 0.9978799 0.06508255 0.9999975 -3.01174e-7 -0.002241432 0 -0.9977537 -0.06699031 0 0 -1 0 0 1 -0.9930471 0.1177187 0 0 1 0 0.9930471 0.1177187 0 -0.5466476 -0.0945158 -0.8319956 -0.9930471 -0.1177187 0 -0.7379376 0.6688742 0.08908349 0.9930471 -0.1177187 0 0 -1 0 0.6087222 -0.7706534 -0.1884518 -0.5265359 -0.2200079 0.821131 -1 0 0 0 1 0 1 0 0 0 -1 0 0.5773492 0.5773492 -0.5773492 -0.5773492 -0.5773492 0.5773492 0 -1 0 0 1 0 0.5466476 0.0945158 -0.8319956 -0.9874075 -0.1581974 0 0.9874075 0.1581974 0 -0.9874075 0.1581974 0 0.7379376 -0.6688742 0.08908349 0.9874075 -0.1581974 0</float_array>
          <technique_common>
            <accessor source="#bridge8-mesh-normals-array" count="112" stride="3">
              <param name="X" type="float"/>
              <param name="Y" type="float"/>
              <param name="Z" type="float"/>
            </accessor>
          </technique_common>
        </source>
        <source id="bridge8-mesh-map-0">
          <float_array id="bridge8-mesh-map-0-array" count="600">-1.099724 0.4880094 -1.084279 0.6510508 2.066892 0.6461496 -1.087228 0.3360155 -1.071529 0.4656782 2.079632 0.4738951 -1.09142 0.9722164 -1.088797 0.8410835 2.074004 0.8390499 2.064041 0.6594286 2.064116 0.82247 -1.071637 0.822821 0.3438688 0.1277682 0.3438688 0.006840825 -0.04711627 0.1277682 -0.04711627 0.1277682 -0.04711627 0.006840825 0.3438688 0.006840825 -1.099724 0.4880094 -1.084279 0.6510508 2.08228 0.492645 -1.087228 0.3360155 -1.071529 0.4656782 2.094767 0.3299273 -1.09142 0.9722164 -1.088797 0.8410835 2.086798 0.9797198 2.064041 0.6594286 2.064116 0.82247 -1.087129 0.6597796 0.3438688 0.1277682 0.3438688 0.006840825 -0.04711627 0.006840825 -0.04711627 0.1277682 -0.04711627 0.006840825 0.3438688 0.006840825 -1.099724 0.4880094 -1.084279 0.6510508 2.066892 0.6461496 -1.087228 0.3360155 -1.071529 0.4656782 2.094767 0.3299273 -1.09142 0.9722164 -1.088797 0.8410835 2.086798 0.9797198 2.064041 0.6594286 2.064116 0.82247 -1.087129 0.6597796 0.3438688 0.1277682 0.3438688 0.006840825 -0.04711627 0.006840825 -0.04711627 0.1277682 -0.04711627 0.006840825 0.3438688 0.006840825 -1.099724 0.4880094 -1.084279 0.6510508 2.066892 0.6461496 -1.087228 0.3360155 -1.071529 0.4656782 2.094767 0.3299273 -1.09142 0.9722164 -1.088797 0.8410835 2.074004 0.8390499 2.064041 0.6594286 2.064116 0.82247 -1.087129 0.6597796 0.3438688 0.1277682 0.3438688 0.006840825 -0.04711627 0.006840825 -0.04711627 0.1277682 -0.04711627 0.006840825 0.3438688 0.006840825 0.9898151 0.8123984 0.003987431 0.8093927 0.9912968 0.6626411 0.01993328 -1.017155 0.08633637 -1.017781 0.08660298 -0.7510682 0.008755743 0.6472683 0.989815 0.6455057 0.01023739 0.4975118 -0.1504555 -0.9499148 1.128762 -0.9499148 1.294983 -1.730673 -0.1504555 -0.9499148 0.001186609 0.01275932 0.9771198 0.01275932 1.128762 -0.9499148 0.9771198 0.01275932 0.001186609 0.01275932 0.992053 0.304858 0.003993868 0.3099726 0.00547564 0.1602154 -0.1504555 1.938107 1.128762 1.938107 1.294983 2.718866 0.006389975 0.8213082 0.9900623 0.8230601 0.9915438 0.6733034 0.2395421 -1.017155 0.3059452 -1.017781 0.3062122 -0.7506205 0.001186609 0.9754334 -0.1504555 1.938107 1.128762 1.938107 0.9771198 0.9754334 1.128762 1.938107 -0.1504555 1.938107 0.9910389 0.9727092 0.008577764 0.9724291 0.9925206 0.8229526 0.6272973 0.9860634 0.5608942 0.9854382 0.5611608 0.7187259 0.01453822 0.4777113 0.9969994 0.4779914 0.998481 0.3282348 0.1529134 0.65362 0.2193165 0.6529946 0.2195835 0.9201547 0.001186609 0.01275932 0.001186609 0.9754334 0.9771198 0.01275932 0.9771198 0.01275932 0.9771198 0.9754334 0.001186609 0.9754334 0.9870712 0.4621115 0.005019068 0.4621115 0.008070826 0.3332614 0.01104259 0.8128855 0.9871511 0.8128855 0.9871511 0.6813387 1.128762 1.938107 -0.1504555 1.938107 -0.3166762 2.718866 0.003139793 0.1444589 0.004621326 -0.005298078 0.9942156 0.1541746 0.9887653 0.3135194 0.9902468 0.1637621 0.01247096 0.1658371 0.9897448 0.4976343 0.9882633 0.6473915 0.00857973 0.6427909 1.128762 -0.9499148 -0.1504555 -0.9499148 -0.3166762 -1.730673 0.9767144 0.475585 0.9781695 0.3285237 0.01846402 0.4777505 2.08228 0.492645 -1.099724 0.4880094 2.066892 0.6461496 2.094767 0.3299273 -1.087228 0.3360155 2.079632 0.4738951 2.086798 0.9797198 -1.09142 0.9722164 2.074004 0.8390499 -1.087129 0.6597796 2.064041 0.6594286 -1.071637 0.822821 0.3438688 0.006840825 -0.04711627 0.006840825 -0.04711627 0.1277682 0.3438688 0.1277682 -0.04711627 0.1277682 0.3438688 0.006840825 -1.084279 0.6510508 2.066892 0.6461496 2.08228 0.492645 -1.071529 0.4656782 2.079632 0.4738951 2.094767 0.3299273 -1.088797 0.8410835 2.074004 0.8390499 2.086798 0.9797198 2.064116 0.82247 -1.071637 0.822821 -1.087129 0.6597796 -0.04711627 0.1277682 0.3438688 0.1277682 -0.04711627 0.006840825 0.3438688 0.1277682 -0.04711627 0.1277682 0.3438688 0.006840825 2.08228 0.492645 -1.099724 0.4880094 2.066892 0.6461496 -1.071529 0.4656782 2.079632 0.4738951 2.094767 0.3299273 -1.088797 0.8410835 2.074004 0.8390499 2.086798 0.9797198 2.064116 0.82247 -1.071637 0.822821 -1.087129 0.6597796 -0.04711627 0.1277682 0.3438688 0.1277682 -0.04711627 0.006840825 0.3438688 0.1277682 -0.04711627 0.1277682 0.3438688 0.006840825 2.08228 0.492645 -1.099724 0.4880094 2.066892 0.6461496 -1.071529 0.4656782 2.079632 0.4738951 2.094767 0.3299273 2.086798 0.9797198 -1.09142 0.9722164 2.074004 0.8390499 2.064116 0.82247 -1.071637 0.822821 -1.087129 0.6597796 -0.04711627 0.1277682 0.3438688 0.1277682 -0.04711627 0.006840825 0.3438688 0.1277682 -0.04711627 0.1277682 0.3438688 0.006840825 0.003987431 0.8093927 0.005469083 0.6596361 0.9912968 0.6626411 0.02019983 -0.7504429 0.01993328 -1.017155 0.08660298 -0.7510682 0.989815 0.6455057 0.9912968 0.4957483 0.01023739 0.4975118 -0.3166762 -1.730673 -0.1504555 -0.9499148 1.294983 -1.730673 1.128762 -0.9499148 -0.1504555 -0.9499148 0.9771198 0.01275932 -0.1504555 -0.9499148 1.128762 -0.9499148 0.001186609 0.01275932 0.9935346 0.1551013 0.992053 0.304858 0.00547564 0.1602154 -0.3166762 2.718866 -0.1504555 1.938107 1.294983 2.718866 0.007871747 0.6715511 0.006389975 0.8213082 0.9915438 0.6733034 0.2398091 -0.7499952 0.2395421 -1.017155 0.3062122 -0.7506205 0.9771198 0.9754334 0.001186609 0.9754334 1.128762 1.938107 0.001186609 0.9754334 0.9771198 0.9754334 -0.1504555 1.938107 0.008577764 0.9724291 0.01005935 0.8226724 0.9925206 0.8229526 0.6275638 0.7193511 0.6272973 0.9860634 0.5611608 0.7187259 0.01601982 0.3279546 0.01453822 0.4777113 0.998481 0.3282348 0.1531804 0.92078 0.1529134 0.65362 0.2195835 0.9201547 0.001186609 0.9754334 0.9771198 0.9754334 0.9771198 0.01275932 0.001186609 0.01275932 0.9771198 0.01275932 0.001186609 0.9754334 0.9901229 0.3332614 0.9870712 0.4621115 0.008070826 0.3332614 0.01104259 0.6813387 0.01104259 0.8128855 0.9871511 0.6813387 1.294983 2.718866 1.128762 1.938107 -0.3166762 2.718866 0.004621326 -0.005298078 0.9956974 0.004417359 0.9942156 0.1541746 0.01098918 0.3155945 0.9887653 0.3135194 0.01247096 0.1658371 0.0100615 0.4930335 0.9897448 0.4976343 0.00857973 0.6427909 1.294983 -1.730673 1.128762 -0.9499148 -0.3166762 -1.730673 0.9781695 0.3285237 0.01991885 0.3306894 0.01846402 0.4777505</float_array>
          <technique_common>
            <accessor source="#bridge8-mesh-map-0-array" count="300" stride="2">
              <param name="S" type="float"/>
              <param name="T" type="float"/>
            </accessor>
          </technique_common>
        </source>
        <vertices id="bridge8-mesh-vertices">
          <input semantic="POSITION" source="#bridge8-mesh-positions"/>
        </vertices>
        <polylist material="wood_paneling_grey_01-material" count="100">
          <input semantic="VERTEX" source="#bridge8-mesh-vertices" offset="0"/>
          <input semantic="NORMAL" source="#bridge8-mesh-normals" offset="1"/>
          <input semantic="TEXCOORD" source="#bridge8-mesh-map-0" offset="2" set="0"/>
          <vcount>3 3 3 3 3 3 3 3 3 3 3 3 3 3 3 3 3 3 3 3 3 3 3 3 3 3 3 3 3 3 3 3 3 3 3 3 3 3 3 3 3 3 3 3 3 3 3 3 3 3 3 3 3 3 3 3 3 3 3 3 3 3 3 3 3 3 3 3 3 3 3 3 3 3 3 3 3 3 3 3 3 3 3 3 3 3 3 3 3 3 3 3 3 3 3 3 3 3 3 3 </vcount>
          <p>4 0 0 5 0 1 1 0 2 5 1 3 6 1 4 2 1 5 6 2 6 7 2 7 3 2 8 7 3 9 4 3 10 0 3 11 0 4 12 1 4 13 3 4 14 7 5 15 6 5 16 5 5 17 12 6 18 13 6 19 8 6 20 13 7 21 14 7 22 9 7 23 14 8 24 15 8 25 10 8 26 15 9 27 12 9 28 11 9 29 8 10 30 9 10 31 10 10 32 15 11 33 14 11 34 13 11 35 20 12 36 21 12 37 17 12 38 21 13 39 22 13 40 17 13 41 22 14 42 23 14 43 18 14 44 23 15 45 20 15 46 19 15 47 16 16 48 17 16 49 18 16 50 23 17 51 22 17 52 21 17 53 28 18 54 29 18 55 25 18 56 29 19 57 30 19 58 25 19 59 30 20 60 31 20 61 27 20 62 31 21 63 28 21 64 27 21 65 24 22 66 25 22 67 26 22 68 31 23 69 30 23 70 29 23 71 36 24 72 37 24 73 32 24 74 37 25 75 38 25 76 34 25 77 38 26 78 39 26 79 34 26 80 32 27 81 35 28 82 57 29 83 32 27 84 33 30 85 34 31 86 39 32 87 38 33 88 37 34 89 44 35 90 45 35 91 41 35 92 45 36 93 46 37 94 63 38 95 46 39 96 47 39 97 43 39 98 47 40 99 44 40 100 40 40 101 40 41 102 41 42 103 42 43 104 47 44 105 46 37 106 45 36 107 52 45 108 53 45 109 48 45 110 53 46 111 54 46 112 50 46 113 54 47 114 55 47 115 51 47 116 55 48 117 52 48 118 48 48 119 48 49 120 49 50 121 51 51 122 55 52 123 54 53 124 53 54 125 59 55 126 58 55 127 56 55 128 62 56 129 63 56 130 61 56 131 42 43 132 41 42 133 60 57 134 62 58 135 60 58 136 45 58 137 59 59 138 57 59 139 35 59 140 56 60 141 58 60 142 36 60 143 39 32 144 36 61 145 58 62 146 46 63 147 42 63 148 63 63 149 0 64 150 4 64 151 1 64 152 1 65 153 5 65 154 2 65 155 2 66 156 6 66 157 3 66 158 3 67 159 7 67 160 0 67 161 1 68 162 2 68 163 3 68 164 4 69 165 7 69 166 5 69 167 13 70 168 9 70 169 8 70 170 14 71 171 10 71 172 9 71 173 15 72 174 11 72 175 10 72 176 12 73 177 8 73 178 11 73 179 11 74 180 8 74 181 10 74 182 12 75 183 15 75 184 13 75 185 16 76 186 20 76 187 17 76 188 22 77 189 18 77 190 17 77 191 23 78 192 19 78 193 18 78 194 20 79 195 16 79 196 19 79 197 19 80 198 16 80 199 18 80 200 20 81 201 23 81 202 21 81 203 24 82 204 28 82 205 25 82 206 30 83 207 26 83 208 25 83 209 26 84 210 30 84 211 27 84 212 28 85 213 24 85 214 27 85 215 27 86 216 24 86 217 26 86 218 28 87 219 31 87 220 29 87 221 37 88 222 33 88 223 32 88 224 33 89 225 37 89 226 34 89 227 39 90 228 35 90 229 34 90 230 56 91 231 32 27 232 57 29 233 35 28 234 32 27 235 34 31 236 36 61 237 39 32 238 37 34 239 40 92 240 44 92 241 41 92 242 62 93 243 45 36 244 63 38 245 42 94 246 46 94 247 43 94 248 43 95 249 47 95 250 40 95 251 43 96 252 40 41 253 42 43 254 44 97 255 47 44 256 45 36 257 53 98 258 49 98 259 48 98 260 49 99 261 53 99 262 50 99 263 50 100 264 54 100 265 51 100 266 51 101 267 55 101 268 48 101 269 49 50 270 50 102 271 51 51 272 52 103 273 55 52 274 53 54 275 57 104 276 59 104 277 56 104 278 60 105 279 62 105 280 61 105 281 61 106 282 42 43 283 60 57 284 60 107 285 41 107 286 45 107 287 39 108 288 59 108 289 35 108 290 32 109 291 56 109 292 36 109 293 59 110 294 39 32 295 58 62 296 42 111 297 61 111 298 63 111 299</p>
        </polylist>
      </mesh>
      <extra><technique profile="MAYA"><double_sided>1</double_sided></technique></extra>
    </geometry>
  </library_geometries>
  <library_controllers/>
  <library_visual_scenes>
    <visual_scene id="Scene" name="Scene">
      <node id="Hemi" name="Hemi" type="NODE">
        <matrix sid="transform">1 0 0 5.72098 0 1 0 4.241091 0 0 1 -0.04511762 0 0 0 1</matrix>
        <instance_light url="#Hemi-light"/>
      </node>
      <node id="base01" name="base01" type="NODE">
        <matrix sid="transform">1 0 0 0 0 1 0 0 0 0 1 0 0 0 0 1</matrix>
        <node id="start01" name="start01" type="NODE">
          <matrix sid="transform">1 0 0 0 0 1 0 0 0 0 1 0 0 0 0 1</matrix>
          <node id="bridge64" name="bridge64" type="NODE">
            <matrix sid="transform">2.320306 0 0 1.19209e-7 0 1.746144 0 0 0 0 0.1746144 0.3514487 0 0 0 1</matrix>
            <instance_geometry url="#bridge_128-mesh">
              <bind_material>
                <technique_common>
                  <instance_material symbol="wood_paneling_grey_01-material" target="#wood_paneling_grey_01-material"/>
                </technique_common>
              </bind_material>
            </instance_geometry>
          </node>
          <node id="bridge8" name="bridge8" type="NODE">
            <matrix sid="transform">2.320306 0 0 1.19209e-7 0 1.746144 0 0 0 0 0.1746144 0.3514487 0 0 0 1</matrix>
            <instance_geometry url="#bridge8-mesh">
              <bind_material>
                <technique_common>
                  <instance_material symbol="wood_paneling_grey_01-material" target="#wood_paneling_grey_01-material"/>
                </technique_common>
              </bind_material>
            </instance_geometry>
          </node>
        </node>
        <node id="detail8" name="detail8" type="NODE">
          <matrix sid="transform">1 0 0 0 0 1 0 0 0 0 1 0 0 0 0 1</matrix>
        </node>
        <node id="nulldetail0" name="nulldetail0" type="NODE">
          <matrix sid="transform">1 0 0 0 0 1 0 0 0 0 1 0 0 0 0 1</matrix>
        </node>
        <node id="detail64" name="detail64" type="NODE">
          <matrix sid="transform">1 0 0 0 0 1 0 0 0 0 1 0 0 0 0 1</matrix>
        </node>
      </node>
    </visual_scene>
  </library_visual_scenes>
  <scene>
    <instance_visual_scene url="#Scene"/>
  </scene>
</COLLADA>