<?xml version="1.0" encoding="utf-8"?>
<COLLADA xmlns="http://www.collada.org/2005/11/COLLADASchema" version="1.4.1">
  <asset>
    <contributor>
      <author>Russell</author>
      <authoring_tool>OpenCOLLADA for 3ds Max;  Version: 1.2.5;  Revision: 673;  Platform: x64;  Configuration: Release Max2010</authoring_tool>
      <source_data>file:///E:/Projects/Pacific_Art/06_Rocks/03_All%20Rocks%20V2/Allrocks_V2_01.max</source_data>
    </contributor>
    <created>2011-04-26T19:50:04</created>
    <modified>2011-04-26T19:50:04</modified>
    <unit name="meter" meter="1"/>
    <up_axis>Z_UP</up_axis>
  </asset>
  <library_effects>
    <effect id="greyrock">
      <profile_COMMON>
        <newparam sid="grayrock_diffuse_dds-surface">
          <surface type="2D">
            <init_from>grayrock_diffuse_dds</init_from>
          </surface>
        </newparam>
        <newparam sid="grayrock_diffuse_dds-sampler">
          <sampler2D>
            <source>grayrock_diffuse_dds-surface</source>
          </sampler2D>
        </newparam>
        <technique sid="common">
          <blinn>
            <emission>
              <color>0 0 0 1</color>
            </emission>
            <ambient>
              <texture texture="grayrock_diffuse_dds-sampler" texcoord="CHANNEL1"/>
            </ambient>
            <diffuse>
              <texture texture="grayrock_diffuse_dds-sampler" texcoord="CHANNEL1"/>
            </diffuse>
            <specular>
              <color>0.9 0.9 0.9 1</color>
            </specular>
            <shininess>
              <float>9.999999</float>
            </shininess>
            <reflective>
              <color>0 0 0 1</color>
            </reflective>
            <transparent opaque="A_ONE">
              <color>1 1 1 1</color>
            </transparent>
            <transparency>
              <float>1</float>
            </transparency>
          </blinn>
        </technique>
      </profile_COMMON>
      <extra>
        <technique profile="OpenCOLLADA3dsMax">
          <extended_shader>
            <apply_reflection_dimming>0</apply_reflection_dimming>
            <dim_level>0</dim_level>
            <falloff_type>0</falloff_type>
            <index_of_refraction>1.5</index_of_refraction>
            <opacity_type>0</opacity_type>
            <reflection_level>3</reflection_level>
            <wire_size>1</wire_size>
            <wire_units>0</wire_units>
          </extended_shader>
          <shader>
            <ambient_diffuse_lock>1</ambient_diffuse_lock>
            <ambient_diffuse_texture_lock>1</ambient_diffuse_texture_lock>
            <diffuse_specular_lock>0</diffuse_specular_lock>
            <soften>0.1</soften>
            <use_self_illum_color>0</use_self_illum_color>
          </shader>
        </technique>
      </extra>
    </effect>
    <effect id="greyrock_1">
      <profile_COMMON>
        <newparam sid="grayrock_diffuse_png-surface">
          <surface type="2D">
            <init_from>grayrock_diffuse_png</init_from>
          </surface>
        </newparam>
        <newparam sid="grayrock_diffuse_png-sampler">
          <sampler2D>
            <source>grayrock_diffuse_png-surface</source>
          </sampler2D>
        </newparam>
        <technique sid="common">
          <blinn>
            <emission>
              <color>0 0 0 1</color>
            </emission>
            <ambient>
              <color>0.588 0.588 0.588 1</color>
            </ambient>
            <diffuse>
              <texture texture="grayrock_diffuse_png-sampler" texcoord="CHANNEL1"/>
            </diffuse>
            <specular>
              <color>0.9 0.9 0.9 1</color>
            </specular>
            <shininess>
              <float>10</float>
            </shininess>
            <reflective>
              <color>0 0 0 1</color>
            </reflective>
            <transparent opaque="A_ONE">
              <color>1 1 1 1</color>
            </transparent>
            <transparency>
              <float>1</float>
            </transparency>
          </blinn>
        </technique>
      </profile_COMMON>
      <extra>
        <technique profile="OpenCOLLADA3dsMax">
          <extended_shader>
            <apply_reflection_dimming>0</apply_reflection_dimming>
            <dim_level>0</dim_level>
            <falloff_type>0</falloff_type>
            <index_of_refraction>1.5</index_of_refraction>
            <opacity_type>0</opacity_type>
            <reflection_level>3</reflection_level>
            <wire_size>1</wire_size>
            <wire_units>0</wire_units>
          </extended_shader>
          <shader>
            <ambient_diffuse_lock>1</ambient_diffuse_lock>
            <ambient_diffuse_texture_lock>1</ambient_diffuse_texture_lock>
            <diffuse_specular_lock>0</diffuse_specular_lock>
            <soften>0.1</soften>
            <use_self_illum_color>0</use_self_illum_color>
          </shader>
        </technique>
      </extra>
    </effect>
    <effect id="ColorEffectR26G177B26">
      <profile_COMMON>
        <technique sid="common">
          <phong>
            <ambient>
              <color>0.1019608 0.6941177 0.1019608 1</color>
            </ambient>
            <diffuse>
              <color>0.1019608 0.6941177 0.1019608 1</color>
            </diffuse>
            <specular>
              <color>1 1 1 1</color>
            </specular>
            <shininess>
              <float>10</float>
            </shininess>
            <reflective>
              <color>0 0 0 1</color>
            </reflective>
            <transparent>
              <color>1 1 1 1</color>
            </transparent>
            <transparency>
              <float>1</float>
            </transparency>
          </phong>
        </technique>
      </profile_COMMON>
      <extra>
        <technique profile="OpenCOLLADA3dsMax">
          <extended_shader>
            <apply_reflection_dimming>0</apply_reflection_dimming>
            <dim_level>0</dim_level>
            <falloff_type>0</falloff_type>
            <index_of_refraction>1.5</index_of_refraction>
            <opacity_type>0</opacity_type>
            <reflection_level>3</reflection_level>
            <wire_size>1</wire_size>
            <wire_units>0</wire_units>
          </extended_shader>
          <shader>
            <ambient_diffuse_lock>1</ambient_diffuse_lock>
            <ambient_diffuse_texture_lock>1</ambient_diffuse_texture_lock>
            <diffuse_specular_lock>0</diffuse_specular_lock>
            <soften>0.1</soften>
            <use_self_illum_color>0</use_self_illum_color>
          </shader>
        </technique>
      </extra>
    </effect>
  </library_effects>
  <library_materials>
    <material id="ColorEffectR26G177B26-material" name="ColorEffectR26G177B26-material">
      <instance_effect url="#ColorEffectR26G177B26"/>
    </material>
    <material id="greyrock-material" name="greyrock">
      <instance_effect url="#greyrock"/>
    </material>
    <material id="greyrock_1-material" name="greyrock">
      <instance_effect url="#greyrock_1"/>
    </material>
  </library_materials>
  <library_geometries>
    <geometry id="geom-genericprismone400" name="genericprismone400">
      <mesh>
        <source id="geom-genericprismone400-positions">
          <float_array id="geom-genericprismone400-positions-array" count="522">0.2596651 -3.274037 0.1417885 4.842897 0.3562346 -0.02618682 -2.69088 2.53483 0.4386531 2.76972 -1.387297 1.959698 2.977463 -1.059116 -1.199783 -1.695051 2.257675 -0.845077 -2.9517 -1.84887 -0.2221599 -2.282862 -2.679235 -0.5763264 -1.379556 -2.792255 -0.8097632 1.158321 -3.062595 0.03517091 -2.125322 -2.255854 1.917789 -1.433727 -2.830483 0.9546895 -0.6036543 -2.782572 2.002082 2.808403 -1.433244 1.258035 4.163073 1.502853 -0.7524024 4.220537 2.153697 -0.6495269 4.712842 -0.9249115 0.9784863 -1.743517 2.78108 -0.3042204 -4.350311 -0.2557373 0.007627845 -3.648173 -1.346632 -0.5371043 -3.17 -0.1266232 4.907535 -1.810162 -1.386214 -1.313923 2.636618 -1.103231 -1.363269 2.311256 -0.8785763 -1.542454 -2.01117 0.7970743 -0.8482938 -0.4451929 1.079988 -1.473971 -1.275848 1.700929 -0.9517351 2.855596 1.837098 -1.381779 -1.18183 -0.2234087 5.871221 2.296701 0.01506138 5.935362 -0.6322382 1.577566 5.639422 -2.734074 -2.246464 -0.2936872 -2.315081 -2.645973 0.05474842 -1.089579 -3.000088 -1.012254 0.5073268 -3.07938 -1.110965 1.466085 -2.936255 -1.045242 2.013178 -2.707397 -0.684372 2.900233 -2.249216 -0.4772274 2.423937 -2.42285 -1.126599 -2.533401 -2.0971 1.548326 -1.760559 -2.627385 1.081669 -1.133426 -3.018732 0.993674 -0.5198113 -3.374094 0.5647213 1.032375 -2.623414 1.495322 1.628005 -2.953879 0.5374899 1.480055 -2.614125 1.056341 1.181303 -3.21978 0.4754167 -1.534296 -1.953617 2.672489 -0.5196208 -2.270088 3.107598 3.894092 -1.403964 0.008070946 4.389276 0.9458923 -0.3075318 3.620264 0.889864 -0.9991326 4.43939 1.87397 -0.2599974 4.288017 1.763482 -0.719195 4.269048 2.197133 -0.1107931 3.651909 2.376956 -0.9608265 3.861776 2.513844 -0.5142716 3.827477 2.039132 -1.114139 3.372519 -1.492278 1.194681 3.903417 -1.367624 0.7622507 3.468501 -1.15666 2.299661 4.221339 -0.1995134 3.094772 3.183292 -1.023684 4.4695 3.586882 -0.873662 4.153835 4.111498 0.1209536 4.248548 3.490762 1.848985 3.772126 2.87917 1.42048 5.679371 2.576393 3.063446 0.1296163 1.047405 3.197356 -0.1248025 -0.8143858 2.482521 -0.5465381 -1.511542 3.001614 -0.0376308 -1.358029 2.785196 -0.3099658 -1.860363 2.899563 0.05474138 -1.43731 2.503954 1.239923 -2.086386 2.323302 1.250991 -2.195427 2.423514 2.295964 2.091702 2.202252 4.391099 0.8985428 2.520876 3.739515 -2.926132 2.351068 0.09020936 -2.778484 2.249905 -0.1647295 -2.558119 1.679674 -0.5873146 -3.522495 1.163473 -0.6454139 -3.808659 0.1169453 -0.8406013 -4.349246 -0.2368212 -0.4697133 -3.771468 -0.5239925 -0.8059136 -3.16563 -0.1366577 -1.009329 -3.945291 -1.114142 -0.2118977 -3.785756 -0.9976301 -0.6504757 -3.737355 -1.415005 -0.04712284 -2.975042 -1.462887 -0.7350333 -3.227131 -1.630708 -0.3625206 -3.557062 1.205837 1.103374 -3.911647 0.6321354 1.014861 -4.072628 0.109746 1.015429 -3.964082 -0.545228 0.5597918 -3.012455 -1.561676 1.163602 -2.803222 1.4849 2.308022 -3.371408 -0.1353369 3.068907 -2.395307 1.851983 4.057214 -3.297963 -0.4079676 4.190644 -2.335824 1.519333 4.961603 -1.931329 -0.6677189 5.240924 2.05794 -2.178755 -1.705729 -2.112946 1.404788 -0.5849079 3.323404 1.592769 -1.260358 -1.789973 -2.729027 0.3463187 -2.669264 -2.240601 0.5354152 -2.977005 -1.857878 -0.2118248 -2.59134 -2.181209 -0.956293 -1.303207 -2.351669 -1.212467 -0.2282875 -3.260776 -0.5190155 -1.021955 -2.923966 0.1407062 0.1957958 -3.199626 -0.5430493 1.582514 -2.892678 0.1521521 0.4972025 -2.65648 -1.5304 1.676185 -2.637003 -1.410979 2.138068 -2.308496 0.2884532 -1.810299 -2.653733 1.461212 -1.418228 -2.8782 0.6229672 -1.393475 -2.686852 1.34836 -0.08359301 -3.108293 1.672165 -1.07445 -2.986852 0.5202698 2.547366 -1.561886 1.952096 2.039425 -2.021988 1.924862 -2.514237 -2.066712 2.291576 -0.1041306 -2.011193 3.441706 2.492676 -1.123145 3.015929 -2.129121 -1.642672 3.746262 0.5529103 -1.568099 3.709447 -0.9280679 -1.185167 4.852777 1.343272 -1.042141 5.291512 3.810605 -1.857312 0.3158956 3.389633 -1.52254 -0.8163051 3.8189 -0.7133598 -1.268661 4.579965 -0.542675 0.1172253 4.475788 1.28548 0.1322366 4.425985 1.596947 -0.3363292 4.249872 1.871874 0.1861349 3.760706 1.646648 -1.050335 4.403069 -1.174593 1.452177 3.055416 1.991778 1.949538 3.947914 -0.9333916 2.251156 2.45086 1.811656 3.014722 2.919779 -1.152265 3.721328 3.842393 1.688372 3.80811 3.447532 -0.3214741 5.25068 0.6333216 3.377563 0.1945317 0.2948042 3.259109 -0.1943662 -0.134998 3.401737 0.1613531 -1.183628 2.959788 -0.07532704 -2.320759 2.676926 0.4517901 -1.616376 2.955473 0.3288676 -2.592061 2.529396 0.07933176 1.319861 2.821473 0.7746682 -2.105794 2.320382 3.03876 -2.359338 2.168163 3.042938 -2.917583 2.279857 0.4621942 -3.851558 0.6468153 -0.2690756 -3.652854 1.200641 0.2800268 -4.246361 -0.5811596 0.07417858 -4.266028 -0.6014128 -0.4372001 -3.263859 -1.799441 0.4570585 -3.06491 -0.8211946 -0.836798 -3.68529 0.1049452 1.877307 -2.443465 1.882896 3.37938 -3.397105 0.3607531 3.059472 -3.476971 0.3695745 3.830585 -3.208931 0.1141863 4.926888 -2.573615 -0.6740341 4.667534 -2.959125 0.1025743 5.203631 -3.249278 -1.424588 0.4741862 -3.321858 -1.475546 0.2851659 -3.380557 -1.519893 0.2379254 -3.448447 -1.566795 0.03543448</float_array>
          <technique_common>
            <accessor source="#geom-genericprismone400-positions-array" count="174" stride="3">
              <param name="X" type="float"/>
              <param name="Y" type="float"/>
              <param name="Z" type="float"/>
            </accessor>
          </technique_common>
        </source>
        <source id="geom-genericprismone400-normals">
          <float_array id="geom-genericprismone400-normals-array" count="522">0.2613426 -0.756641 -0.5993284 0.293744 -0.9153219 -0.2755 -0.07983539 -0.414087 -0.9067295 -0.6426365 -0.7642246 -0.05458206 -0.7656446 -0.5948374 0.2448609 -0.3945842 -0.9110341 0.1196669 -0.1305675 -0.8714063 0.472867 -0.4563833 -0.8613096 0.2232937 0.1043141 -0.8034358 0.5861821 0.6521775 -0.7471796 0.1280127 0.3871291 -0.7814344 0.4893784 0.3543909 -0.9329334 0.06358003 -0.2257288 -0.8951696 0.3843409 -0.6443743 -0.6988717 0.3104193 0.9772743 0.209866 -0.02985315 0.8288132 -0.02656965 -0.5588942 0.7704136 0.6109136 0.1823388 0.3117948 0.7013862 -0.6409691 0.4761373 0.8572878 -0.1958342 0.5472679 0.1957099 -0.813754 -0.1336413 0.9401924 -0.313334 0.05334132 0.7535591 -0.6552125 -0.3033487 0.9485417 -0.09082034 -0.6814631 0.6985779 -0.2181671 -0.5352262 0.5753067 -0.6185105 -0.8944251 0.4422434 -0.06651706 -0.786692 -0.6144454 -0.05976999 -0.6321261 -0.3275548 -0.7022282 -0.7678335 -0.5523797 0.3245126 -0.6319679 -0.2289246 -0.7404121 -0.4462585 -0.7520348 -0.4850742 -0.1487356 -0.2296918 -0.9618313 -0.7999 -0.4791281 0.3613809 -0.9398468 -0.3061697 0.1514863 -0.9436726 0.1395432 0.3000161 0.07560616 0.3248774 -0.9427292 0.3489595 -0.05547075 -0.9354947 0.1273797 0.02037947 -0.9916447 -0.2270146 0.2870756 -0.9306191 -0.2513683 0.2484439 -0.9354622 -0.1133476 0.1770505 -0.977653 -0.3253812 -0.7164689 0.6170895 -0.1853321 -0.2834144 0.9409189 -0.5628179 -0.04119514 0.8255538 0.4338836 0.4830316 0.7605429 -0.1374417 0.6016549 0.7868425 -0.6031185 -0.7597148 0.2430669 -0.5551587 -0.6572701 -0.5097008 -0.8039919 -0.5881553 -0.0875807 0.05697346 -0.8787885 -0.4737983 0.1625868 -0.979357 -0.1201057 -0.1018666 -0.9796703 -0.1728275 -0.2280967 -0.3263296 -0.9173227 0.3387599 -0.9363181 0.09246739 0.5473859 -0.7344996 -0.4010972 0.5458555 -0.8324605 -0.09513825 0.7139612 -0.6982365 0.05220448 0.5171061 -0.8250839 0.2276793 -0.3411584 -0.9312941 0.12768 -0.4031877 -0.9150819 0.008040776 -0.4633883 -0.8800275 0.104033 -0.2548289 -0.9536978 0.1597583 -0.4380662 -0.88521 -0.1565287 -0.3908755 -0.9140907 -0.1079567 -0.2166015 -0.9758546 0.02813463 0.1303347 -0.9906809 -0.03955059 0.5956249 -0.7970532 -0.09968612 0.6317712 -0.7393802 0.2327707 0.4863063 -0.804764 0.3403836 0.367177 -0.7950241 0.4828226 0.312991 -0.8780735 0.361972 0.4216166 -0.8866324 0.1900594 0.2280079 -0.8290004 0.5106571 -0.05002222 -0.9056652 0.4210325 0.357705 -0.9189523 0.1660532 -0.4470748 -0.8105234 0.378386 0.3601201 -0.8739069 0.3264969 0.2233575 -0.8901377 0.3971981 0.3652906 -0.9196381 -0.1443212 0.08423039 -0.8020859 0.5912388 0.7720055 -0.5607926 -0.2991976 0.6268017 -0.5436547 -0.5581748 0.5434535 -0.2435782 -0.803323 0.9245571 -0.3201541 -0.2066292 0.9409103 0.3353297 0.04734774 0.9740648 0.03784062 -0.2230828 0.7811874 0.1315472 -0.6102798 0.5477588 -0.0228167 -0.8363252 0.9573064 0.01538977 -0.288665 0.8480527 0.3025278 0.4350672 0.5322918 -0.1506825 -0.8330427 0.5666707 -0.8062965 0.1696184 0.1761269 -0.9046425 0.3880738 0.9367872 -0.3498943 -0.001920408 0.2904858 -0.8712051 0.395752 0.916024 -0.3420065 0.2095991 0.8845288 -0.1321768 0.4473679 0.7479436 0.6250094 0.2234807 0.299679 0.9490926 0.09703446 0.2118696 0.9414312 0.2623333 0.8211757 -0.2400867 0.5177151 0.1962692 -0.2318324 0.9527498 0.2026422 0.9383563 -0.2800424 0.1712883 0.9686903 0.1797203 -0.03518778 0.7845132 -0.6191129 0.1165988 0.9286711 0.3521003 0.2273869 0.9712071 0.07107764 -0.1251925 0.9913322 0.03984096 -0.1350608 0.8362324 -0.5314828 -0.1567988 0.2467046 -0.9563217 -0.05238194 0.5794497 -0.813323 -0.2596387 0.9408395 0.2177354 -0.1932831 0.8168394 -0.5435209 -0.4851539 0.8334008 -0.2647049 0.3254428 0.9199207 0.2187072 -0.478826 0.8491621 0.2228215 -0.1607783 0.9508492 0.2646433 -0.3711965 0.864213 0.3396307 -0.7845937 0.5521733 0.2819881 -0.461925 0.8867305 0.01828749 -0.3050438 0.9232058 0.2337505 -0.6639363 0.7029852 0.254952 0.01264058 0.9691541 0.2461314 -0.7304795 0.650091 0.20924 -0.1760079 0.3860254 -0.9055417 -0.209441 0.296302 -0.9318474 -0.01513848 -0.04009685 -0.9990811 -0.865002 -0.4002356 0.3026268 -0.8949806 0.09139451 -0.4366426 -0.8060473 -0.4020247 -0.4343547 -0.9588884 0.008023505 0.2836699 -0.8761517 0.4529223 -0.1649837 -0.4020136 -0.2388372 -0.8839355 -0.4719039 -0.8671547 0.1592156 -0.8087993 0.5810508 0.09068419 -0.8002316 -0.1816238 0.5715263 -0.8476725 -0.5074336 0.1547979 -0.8761618 -0.3592351 0.3213886 -0.9695879 0.2371075 0.06065689 -0.8454583 -0.5035657 0.1778256 -0.9790654 0.1872908 0.07970565 -0.4544704 -0.7438468 0.4900495 -0.74612 -0.4451675 0.495107 -0.5121375 0.6471959 0.5646705 -0.1009546 -0.8179695 0.5663338 -0.4568719 -0.8770207 0.1486703 -0.4119864 -0.8645816 -0.2876905 -0.4658704 -0.8125377 -0.3503529 -0.39355 -0.7507704 -0.5305302 0.3397685 -0.9092013 -0.2406459 -0.409667 -0.8878489 0.2095168 -0.486244 -0.8444021 0.2248376 0.7329339 -0.3302651 -0.5947545 0.7879663 0.4468782 -0.4235669 0.6777222 -0.6605824 0.3229917 0.3099125 0.9505067 0.02216013 0.6811948 -0.7138696 0.1623696 -0.5843347 0.4497836 -0.675461 -0.4979753 0.2143764 -0.8402758 -0.7739422 -0.340999 0.5336039 -0.4993134 -0.6192175 -0.6060165 -0.5498464 -0.4512291 -0.7028949 -0.9856094 0.09384228 0.1405981 -0.241365 -0.004085445 -0.9704258 -0.5954427 -0.4194657 -0.6851982 0.4196038 -0.2409955 -0.8751308 0.3479713 -0.616374 -0.7063985 0.2688072 -0.2844259 -0.9202416 0.5115765 -0.7210082 0.4673721 -0.5414796 0.7803925 0.3127099 -0.900561 0.3826234 0.2063718 -0.7492141 0.6287349 0.2082562 -0.5841355 0.767285 0.2646873 -0.8779025 0.1327159 0.4600801</float_array>
          <technique_common>
            <accessor source="#geom-genericprismone400-normals-array" count="174" stride="3">
              <param name="X" type="float"/>
              <param name="Y" type="float"/>
              <param name="Z" type="float"/>
            </accessor>
          </technique_common>
        </source>
        <source id="geom-genericprismone400-map1">
          <float_array id="geom-genericprismone400-map1-array" count="624">1.145193 0.2792909 0 1.169782 0.2855589 0 0.8769639 0.4907499 0 0.6495954 0.2821765 0 0.6529725 0.2603407 0 -0.05104138 0.2031215 0 0.2897088 0.0846065 0 0.8872895 0.4760791 0 0.2743167 0.1051406 0 0.6663235 0.294964 0 0.8828118 0.5063832 0 0.915483 0.5563607 0 0.9237491 0.5460845 0 1.121646 0.3163064 0 0.9639218 0.618428 0 0.2271713 0.06965582 0 0.6072003 0.5198408 0 0.5195305 0.5422235 0 0.06767405 0.2172261 0 0.7762256 0.260533 0 0.02434921 0.2075356 0 0.7748999 0.2333504 0 0.9102784 0.139217 0 0.08147338 0.4180066 0 0.94872 0.3825379 0 1.014617 0.3621512 0 0.7911221 0.3963258 0 0.9941625 0.3968795 0 0.7373074 0.2402288 0 0.7539641 0.2215605 0 0.9423413 0.3207134 0 0.8925798 0.4352458 0 1.096213 0.353207 0 0.9995813 0.4236934 0 1.15672 0.3335215 0 0.9348642 0.4630072 0 1.11029 0.3864011 0 1.057067 0.4290538 0 1.135459 0.3548695 0 1.167703 0.3138528 0 1.092941 0.2424623 0 0.7117667 0.263377 0 0.8013476 0.420358 0 1.156698 0.2287426 0 0.1167378 0.4566992 0 0.02601441 0.4606872 0 0.3075165 0.5765421 0 0.1293375 0.571708 0 0.8213543 0.4206768 0 0.1150075 0.2043307 0 0.1723886 0.2294504 0 0.1487124 0.1839486 0 0.1930696 0.2156003 0 0.2710589 0.1800701 0 0.2737224 0.2057716 0 0.254925 0.1713241 0 0.1183042 0.2739028 0 0.07348815 0.2503491 0 -0.04395405 0.1293186 0 -0.01439868 0.152553 0 0.0587819 0.1719908 0 0.0364179 0.1567068 0 0.06097893 0.1320122 0 0.2303406 0.0985045 0 0.214944 0.120776 0 0.1972075 0.1213769 0 0.1306866 0.07751611 0 0.3032637 0.1233607 0 0.3315049 0.1065881 0 0.3528298 0.1422926 0 0.3964055 0.1850407 0 0.3148409 0.176518 0 0.1147085 0.1572219 0 0.1341926 0.1663992 0 0.1123905 0.1897147 0 0.1333124 0.2026456 0 0.1527156 0.1656645 0 0.1556315 0.1512296 0 0.1759852 0.1666893 0 0.2172396 0.149674 0 0.6940093 0.2813284 0 0.6826792 0.2451542 0 0.5265275 0.1545354 0 0.5053584 0.22463 0 0.4572966 0.1810966 0 0.608565 0.2828957 0 0.7491825 0.4198358 0 0.2744766 0.1623392 0 0.3421957 0.2664438 0 0.3050456 0.2555864 0 0.5554014 0.2491702 0 0.250834 0.2202359 0 0.3611619 0.2401563 0 0.355382 0.2718431 0 0.5998693 0.2516466 0 0.6196954 0.2049117 0 0.6362104 0.2716844 0 0.7301225 0.3515529 0 0.8242018 0.4443121 0 0.1900658 0.310262 0 0.6434916 0.3022016 0 0.6605878 0.2311175 0 0.4667339 0.2464496 0 0.8725357 0.4756778 0 0.9048223 0.1160469 0 0.869198 0.5052781 0 0.8926886 0.4941437 0 0.906848 0.5403171 0 0.8551322 0.5673665 0 0.8292711 0.5390066 0 0.8889177 0.5380083 0 0.9260922 0.644918 0 0.8185816 0.5960258 0 0.7942043 0.6157475 0 0.8022593 0.6269935 0 0.6580101 0.6619723 0 0.6707133 0.533542 0 0.9069183 0.5684944 0 -0.02212872 0.3239525 0 0.8432062 0.1017576 0 0.8896585 0.1055641 0 -0.05592877 0.2773956 0 0.8894593 0.06591341 0 0.9728864 0.08602007 0 0.1713987 0.2875226 0 1.051285 0.1044284 0 0.9637875 0.5307906 0 0.8570884 0.6494331 0 -0.0598504 0.1819904 0 -0.08905955 0.1737027 0 -0.07215179 0.1644376 0 0.08683343 0.3199447 0 0.624674 0.4564227 0 0.9948229 0.582772 0 1.112339 0.1780377 0 0.4238888 0.2129128 0 -0.0760464 0.2409236 0 -0.1370072 0.2079649 0 0.3929826 0.2893668 0 0.3441893 0.4686821 0 -0.08963508 0.1426084 0 -0.0420805 0.1480629 0 0.227643 0.3386201 0 0.2820392 0.4898398 0 0.03748656 0.5557365 0 1.003704 0.06870387 0 0.9641442 0.05329232 0 0.7872637 0.1868522 0 0.04981504 0.3922868 0 0.1380307 0.3899323 0 0.009441845 0.4584438 0 0.01401533 0.4421899 0 0.4485286 0.3564952 0 0.3483685 0.3616922 0 0.2508135 0.4159858 0 0.4218642 0.172799 0 0.404906 0.1292164 0 0.3882165 0.2333223 0 0.3449589 0.3272374 0 0.4501358 0.4132805 0 0.01168057 0.1319 0 0.01804255 0.1743706 0 0.09210519 0.1441062 0 0.09655222 0.1219846 0 0.139655 0.1075504 0 0.1572849 0.1027049 0 0.2564776 0.1550416 0 0.0925576 0.2317208 0 0.1332691 0.1827398 0 0.3859371 0.3955984 0 -0.01905326 0.1309113 0 0.01374602 0.1065476 0 0.03347712 0.1352091 0 0.06527927 0.103145 0 0.5445094 0.4421261 0 0.8992632 0.5522028 0 0.7404749 0.6994117 0 0.9547506 0.6749438 0 0.92322 0.7246898 0 0.8326983 0.7545027 0 0.796699 0.6503654 0 0.8644462 0.7347939 0 0.7705102 0.665481 0 0.7872757 0.7874658 0 0.641854 0.2481554 0 0.672747 0.2722183 0 0.4397206 0.2516667 0 0.4695879 0.1364063 0 0.6319945 0.400352 0 0.4212099 0.298552 0 0.5597488 0.4519907 0 0.3991543 0.4603671 0 0.3593929 0.410218 0 -0.05480025 0.3323117 0 0.002088331 0.3736998 0 -0.05101225 0.365811 0 -0.01143155 0.410192 0 -0.05992959 0.1323914 0 -0.0790498 0.1900719 0 -0.1766614 0.2114042 0 -0.1244332 0.1669512 0 -0.1550124 0.2481038 0 -0.1048649 0.2568837 0 -0.02650347 0.4134367 0 0.006524891 0.1791644 0 0.002593569 0.1676111 0 0.003942557 0.1648882 0 0.00301823 0.1539763 0</float_array>
          <technique_common>
            <accessor source="#geom-genericprismone400-map1-array" count="208" stride="3">
              <param name="S" type="float"/>
              <param name="T" type="float"/>
              <param name="P" type="float"/>
            </accessor>
          </technique_common>
        </source>
        <vertices id="geom-genericprismone400-vertices">
          <input semantic="POSITION" source="#geom-genericprismone400-positions"/>
        </vertices>
        <triangles material="greyrock_1" count="344">
          <input semantic="VERTEX" source="#geom-genericprismone400-vertices" offset="0"/>
          <input semantic="NORMAL" source="#geom-genericprismone400-normals" offset="1"/>
          <input semantic="TEXCOORD" source="#geom-genericprismone400-map1" offset="2" set="1"/>
          <p>115 0 6 35 1 8 114 2 15 39 3 18 95 4 20 117 5 49 12 6 50 41 7 51 120 8 52 44 9 53 45 10 54 46 11 55 12 6 50 47 12 56 124 13 57 52 14 3 53 15 4 54 16 9 55 17 41 56 18 80 57 19 81 70 20 2 71 21 7 72 22 10 78 23 11 79 24 12 158 25 14 86 26 141 87 27 58 88 28 59 89 29 0 90 30 1 162 31 13 94 32 5 97 33 118 163 34 121 27 35 19 104 36 21 23 37 22 26 38 24 24 39 25 103 40 27 101 41 23 28 42 44 169 43 45 28 42 44 66 44 46 30 45 47 106 46 60 107 47 61 31 48 62 34 49 63 112 50 64 110 51 65 34 49 63 109 52 66 114 2 15 36 53 67 115 0 6 38 54 68 37 55 69 131 56 70 116 57 71 105 58 72 118 59 73 40 60 74 40 60 74 119 61 75 117 5 49 41 7 51 118 59 73 121 62 76 111 63 77 42 64 78 121 62 76 110 51 65 0 65 79 42 64 78 120 8 52 0 65 79 46 11 55 113 66 87 122 67 88 44 9 53 45 10 54 123 68 89 43 69 91 116 57 71 13 70 92 122 67 88 13 70 92 3 71 93 122 67 88 43 69 91 125 72 99 48 73 124 123 68 89 126 74 158 43 69 91 122 67 88 3 71 93 126 74 158 47 12 56 48 73 124 127 75 131 62 76 192 128 77 142 143 78 153 128 77 142 62 76 192 130 79 154 49 80 155 38 54 68 132 81 156 133 82 82 134 83 83 49 80 84 135 84 85 1 85 90 50 86 94 51 87 95 136 88 96 50 86 94 137 89 100 136 88 96 52 14 3 53 15 4 51 87 95 138 90 101 104 36 21 57 19 28 138 90 29 131 56 70 59 91 135 58 92 157 49 80 84 16 93 102 59 91 135 60 94 138 61 95 152 126 74 158 64 96 159 144 97 174 66 44 17 65 98 190 76 99 16 66 44 17 130 79 154 145 100 139 29 101 143 29 101 143 145 100 139 66 44 46 27 35 19 68 102 26 55 17 41 146 103 42 68 102 26 147 104 48 153 105 86 67 106 97 68 102 26 148 107 98 147 104 48 149 108 103 25 109 30 69 110 31 147 104 48 151 111 105 149 108 103 70 20 2 17 112 106 152 113 107 72 22 10 67 106 97 153 105 86 140 114 188 151 111 105 74 115 108 73 116 109 150 117 110 91 118 111 74 115 108 73 116 109 75 119 112 154 120 113 75 119 112 155 121 114 154 120 113 30 45 115 76 99 16 77 122 116 156 123 117 152 113 107 78 23 11 5 124 35 80 125 126 79 24 12 24 39 25 85 126 32 80 125 33 159 127 128 83 128 129 160 129 130 93 130 136 157 131 137 83 128 129 84 132 140 86 26 141 160 129 130 87 27 34 85 126 32 162 31 13 90 30 160 107 47 61 173 133 207 173 133 207 88 28 59 90 30 160 96 134 127 74 115 108 91 118 111 127 75 131 94 32 5 95 4 20 171 135 205 161 136 161 170 137 204 95 4 20 39 3 18 124 13 57 165 138 193 99 139 194 166 140 195 97 33 118 127 75 131 99 139 194 99 139 194 168 141 148 20 142 196 30 45 47 100 143 144 169 43 45 127 75 131 129 144 149 168 141 148 168 141 148 129 144 149 101 41 23 103 40 27 5 124 35 26 38 24 106 46 60 31 48 62 32 145 162 32 145 162 31 48 62 7 146 163 109 52 66 8 147 164 7 146 163 111 63 77 8 147 164 33 148 165 109 52 66 34 49 63 33 148 165 9 149 166 112 50 64 34 49 63 114 2 15 35 1 8 34 49 63 116 57 71 35 1 8 36 53 67 38 54 68 37 55 69 36 53 67 10 150 167 39 3 18 117 5 49 106 46 60 40 60 74 95 4 20 12 6 50 11 151 168 41 7 51 42 64 78 120 8 52 41 7 51 43 69 91 120 8 52 46 11 55 9 149 166 44 9 53 46 11 55 44 9 53 122 67 88 45 10 54 10 150 167 12 6 50 124 13 57 12 6 50 43 69 91 48 73 124 43 69 91 126 74 158 128 77 142 131 56 70 37 55 69 49 80 155 52 14 3 14 152 184 53 15 4 54 16 9 53 15 4 15 153 185 27 35 19 55 17 41 57 19 28 57 19 81 56 18 80 15 153 185 60 94 138 13 70 92 58 92 157 59 91 135 16 93 102 139 154 186 59 91 135 139 154 186 58 92 157 140 114 188 142 155 132 65 98 190 126 74 158 63 156 169 143 78 153 143 78 153 63 156 169 62 76 192 61 95 152 64 96 159 63 156 169 150 117 110 70 20 2 72 22 10 70 20 2 69 110 31 71 21 7 72 22 10 71 21 7 17 112 106 78 23 11 17 112 106 79 24 12 158 25 14 79 24 12 81 157 133 80 125 33 82 158 36 81 157 37 85 126 32 84 132 38 82 158 36 161 136 161 171 135 205 172 159 206 86 26 141 84 132 140 87 27 197 88 28 59 87 27 58 19 160 170 89 29 171 6 161 172 90 30 160 162 31 13 90 30 1 19 160 39 18 162 198 94 32 5 93 130 136 93 130 136 94 32 5 163 34 121 21 163 40 89 29 0 25 109 30 21 163 40 108 164 43 89 29 0 22 165 104 23 37 22 133 82 119 133 82 119 4 166 120 22 165 104 4 166 120 132 81 122 22 165 104 23 37 22 22 165 104 102 167 123 22 165 104 132 81 122 102 167 123 102 167 123 114 2 125 23 37 22 89 29 0 162 31 13 25 109 30 114 2 125 25 109 30 27 35 19 114 2 125 27 35 19 23 37 22 26 38 24 5 124 35 69 110 31 25 109 30 162 31 13 24 39 25 24 39 25 26 38 24 25 109 30 26 38 24 69 110 31 25 109 30 25 109 30 147 104 48 27 35 19 28 42 44 101 41 23 129 144 149 129 144 149 130 79 154 28 42 44 28 42 44 130 79 154 29 101 143 169 43 45 28 42 44 30 45 47 66 44 46 28 42 44 29 101 143 105 58 72 106 46 60 32 145 162 7 146 163 8 147 164 32 145 162 31 48 62 107 47 61 6 161 172 7 146 163 31 48 62 108 164 173 108 164 173 109 52 66 7 146 163 31 48 62 6 161 172 108 164 173 108 164 43 21 163 40 109 52 134 21 163 40 25 109 30 109 52 134 110 51 65 112 50 64 0 65 79 110 51 65 111 63 77 33 148 165 33 148 165 34 49 63 110 51 65 111 63 77 105 58 72 32 145 162 111 63 77 32 145 162 8 147 164 33 148 165 8 147 164 109 52 66 113 66 87 9 149 166 34 49 63 34 49 63 35 1 8 113 66 87 9 149 166 0 65 79 112 50 64 114 2 125 109 52 134 25 109 30 114 2 125 102 167 123 115 0 145 36 53 67 37 55 69 116 57 71 116 57 71 113 66 87 35 1 8 36 53 67 35 1 8 115 0 6 38 54 146 115 0 145 102 167 123 102 167 123 132 81 122 38 54 146 95 4 20 40 60 74 117 5 49 10 150 167 124 13 57 39 3 18 106 46 60 95 4 20 161 136 161 106 46 60 105 58 72 40 60 74 40 60 74 118 59 73 11 151 168 40 60 74 11 151 168 119 61 75 43 69 91 12 6 50 120 8 52 12 6 50 117 5 49 119 61 75 12 6 50 119 61 75 11 151 168 121 62 76 42 64 78 41 7 51 41 7 51 11 151 168 118 59 73 121 62 76 118 59 73 105 58 72 105 58 72 111 63 77 121 62 76 111 63 77 110 51 65 42 64 78 42 64 78 0 65 79 120 8 52 46 11 55 45 10 54 43 69 91 0 65 79 9 149 166 46 11 55 9 149 166 113 66 87 44 9 53 113 66 87 116 57 71 122 67 88 45 10 54 122 67 88 123 68 89 10 150 167 117 5 49 12 6 50 48 73 124 47 12 56 12 6 50 128 77 142 125 72 99 43 69 91 123 68 89 122 67 88 126 74 158 124 13 57 47 12 56 127 75 131 127 75 131 48 73 124 129 144 149 48 73 124 125 72 99 129 144 149 128 77 142 129 144 149 125 72 99 128 77 142 126 74 158 143 78 153 129 144 149 128 77 142 130 79 154 132 81 187 133 82 82 49 80 84 49 80 155 37 55 69 38 54 68 132 81 122 4 166 120 133 82 119 1 85 90 134 83 83 133 82 82 23 37 22 51 87 147 133 82 119 133 82 82 51 87 95 1 85 90 50 86 94 136 88 96 135 84 85 50 86 94 1 85 90 51 87 95 23 37 22 104 36 21 51 87 147 51 87 95 14 152 184 136 88 96 56 18 80 54 16 9 15 153 185 54 16 9 137 89 100 52 14 3 137 89 100 135 84 85 136 88 96 52 14 3 136 88 96 14 152 184 15 153 185 53 15 4 138 90 101 138 90 101 57 19 81 15 153 185 53 15 4 14 152 184 51 87 95 138 90 29 51 87 147 104 36 21 104 36 21 27 35 19 57 19 28 139 154 186 60 94 138 58 92 157 60 94 138 3 71 93 13 70 92 58 92 157 13 70 92 116 57 71 58 92 157 116 57 71 131 56 70 131 56 70 49 80 155 59 91 135 49 80 84 134 83 83 16 93 102 134 83 83 144 97 174 16 93 102 144 97 174 134 83 83 1 85 90 1 85 90 135 84 85 144 97 174 135 84 85 137 89 100 140 114 188 137 89 100 54 16 9 140 114 188 3 71 93 60 94 138 126 74 158 60 94 138 139 154 186 141 168 189 139 154 186 16 93 102 141 168 189 60 94 138 141 168 189 61 95 152 141 168 189 16 93 102 61 95 152 61 95 152 144 97 174 64 96 159 16 93 102 144 97 174 61 95 152 65 98 190 144 97 174 135 84 85 65 98 190 135 84 85 140 114 188 126 74 158 61 95 152 63 156 169 63 156 169 64 96 159 66 44 17 144 97 174 65 98 190 66 44 17 65 98 190 142 155 132 76 99 16 145 100 139 130 79 154 62 76 192 145 100 191 62 76 192 63 156 169 63 156 169 66 44 17 145 100 191 67 106 97 54 16 9 56 18 80 55 17 41 68 102 26 67 106 97 67 106 97 56 18 80 55 17 41 27 35 19 147 104 48 68 102 26 148 107 98 146 103 42 147 104 48 146 103 42 153 105 86 68 102 26 147 104 48 69 110 31 149 108 103 2 169 175 150 117 110 72 22 10 72 22 10 152 113 107 2 169 175 150 117 110 151 111 105 70 20 2 151 111 105 148 107 98 149 108 103 70 20 2 149 108 103 69 110 31 17 112 106 71 21 7 69 110 31 69 110 31 5 124 35 17 112 106 54 16 9 67 106 97 140 114 188 153 105 86 73 116 109 154 120 113 153 105 86 146 103 42 73 116 109 146 103 42 148 107 98 73 116 109 73 116 109 74 115 108 75 119 112 148 107 98 151 111 105 73 116 109 151 111 105 150 117 110 74 115 108 150 117 110 2 169 175 91 118 111 76 99 16 142 155 132 153 105 86 153 105 86 142 155 132 140 114 188 76 99 16 153 105 86 77 122 116 153 105 86 154 120 113 77 122 116 30 45 115 66 44 17 76 99 16 154 120 113 100 143 176 30 45 115 30 45 115 77 122 116 154 120 113 158 25 14 156 123 117 78 23 11 156 123 117 2 169 175 152 113 107 78 23 11 152 113 107 17 112 106 79 24 12 80 125 126 81 157 133 79 24 12 17 112 106 5 124 35 5 124 35 103 40 27 80 125 33 81 157 199 82 158 200 157 131 137 103 40 27 24 39 25 80 125 33 24 39 25 162 31 13 85 126 32 80 125 33 85 126 32 82 158 36 160 129 130 86 26 141 159 127 128 159 127 128 18 162 198 83 128 129 160 129 130 83 128 129 82 158 200 82 158 200 84 132 140 160 129 130 18 162 198 93 130 136 83 128 129 83 128 129 157 131 137 82 158 200 172 159 206 173 133 207 107 47 61 107 47 61 161 136 161 172 159 206 19 160 170 90 30 160 88 28 59 19 160 39 87 27 34 162 31 13 87 27 34 84 132 38 85 126 32 89 29 171 108 164 173 6 161 172 90 30 160 6 161 172 107 47 61 2 169 175 156 123 117 91 118 111 156 123 117 158 25 14 91 118 111 91 118 111 92 170 177 163 34 178 163 34 178 96 134 127 91 118 111 158 25 14 92 170 177 91 118 111 158 25 201 81 157 199 92 170 202 81 157 199 157 131 137 92 170 202 93 130 136 163 34 121 92 170 202 93 130 136 92 170 202 157 131 137 18 162 198 159 127 128 94 32 5 170 137 204 161 136 161 95 4 20 159 127 128 86 26 141 94 32 5 166 140 179 164 171 180 155 121 114 164 171 180 154 120 113 155 121 114 75 119 112 96 134 127 155 121 114 74 115 108 96 134 127 75 119 112 155 121 114 163 34 178 165 138 181 96 134 127 163 34 178 155 121 114 97 33 118 165 138 193 163 34 121 94 32 5 127 75 131 97 33 118 95 4 20 124 13 57 127 75 131 98 172 182 100 143 176 154 120 113 154 120 113 164 171 180 98 172 182 164 171 180 166 140 179 98 172 182 167 173 183 100 143 176 98 172 182 167 173 183 98 172 182 166 140 179 155 121 114 165 138 181 166 140 179 166 140 195 99 139 194 20 142 196 20 142 196 167 173 203 166 140 195 165 138 193 97 33 118 99 139 194 127 75 131 168 141 148 99 139 194 100 143 144 167 173 150 169 43 45 167 173 150 20 142 151 169 43 45 101 41 23 169 43 45 20 142 151 20 142 151 168 141 148 101 41 23 95 4 20 94 32 5 170 137 204 86 26 141 171 135 205 170 137 204 170 137 204 94 32 5 86 26 141 171 135 205 86 26 141 88 28 59 88 28 59 172 159 206 171 135 205 172 159 206 88 28 59 173 133 207 161 136 161 107 47 61 106 46 60</p>
        </triangles>
      </mesh>
    </geometry>
    <geometry id="geom-genericprismone100" name="genericprismone100">
      <mesh>
        <source id="geom-genericprismone100-positions">
          <float_array id="geom-genericprismone100-positions-array" count="204">-1.089579 -2.992805 -1.012254 -2.926132 2.358351 0.09020936 4.403069 -1.16731 1.452177 -3.208931 0.1214693 4.926888 4.43939 1.881253 -0.2599974 -4.350311 -0.2484543 0.007627845 2.423937 -2.415567 -1.126599 -0.08359301 -3.10101 1.672165 2.87917 1.427763 5.679371 3.447532 -0.3141911 5.25068 -0.134998 3.40902 0.1613531 -2.514237 -2.059429 2.291576 -2.335824 1.526616 4.961603 -3.648173 -1.339349 -0.5371043 2.76972 -1.380014 1.959698 1.628005 -2.946596 0.5374899 -2.558119 1.686957 -0.5873146 3.842393 1.695655 3.80811 3.827477 2.046415 -1.114139 1.466085 -2.928972 -1.045242 -3.808659 0.1242282 -0.8406013 -1.931329 -0.6604359 5.240924 -1.511542 3.008897 -0.0376308 3.586882 -0.866379 4.153835 -2.59134 -2.173926 -0.956293 3.8189 -0.7060769 -1.268661 -1.760559 -2.620102 1.081669 -2.105794 2.327665 3.03876 2.45086 1.818939 3.014722 -3.737355 -1.407722 -0.04712284 2.311256 -0.8712933 -1.542454 -0.4451929 1.087271 -1.473971 4.475788 1.292763 0.1322366 -3.68529 0.1122282 1.877307 1.319861 2.828756 0.7746682 -0.5198113 -3.366811 0.5647213 4.111498 0.1282365 4.248548 3.810605 -1.850029 0.3158956 -2.129121 -1.635389 3.746262 2.492676 -1.115862 3.015929 2.091702 2.209535 4.391099 -2.977005 -1.850595 -0.2118248 0.4972025 -2.649197 -1.5304 -2.086386 2.330585 1.250991 -3.012455 -1.554393 1.163602 1.343272 -1.034858 5.291512 4.220537 2.16098 -0.6495269 -1.695051 2.264958 -0.845077 -1.18183 -0.2161257 5.871221 -0.5196208 -2.262805 3.107598 2.576393 3.070729 0.1296163 -2.282862 -2.671952 -0.5763264 -4.349246 -0.2295382 -0.4697133 -2.69088 2.542113 0.4386531 -3.476971 0.3768575 3.830585 2.05794 -2.171472 -1.705729 4.712842 -0.9176285 0.9784863 3.620264 0.8971469 -0.9991326 4.842897 0.3635175 -0.02618682 -3.522495 1.170756 -0.6454139 -3.380557 -1.51261 0.2379254 -0.6322382 1.584849 5.639422 -2.975042 -1.455604 -0.7350333 1.480055 -2.606842 1.056341 2.296701 0.02234435 5.935362 2.138068 -2.301213 0.2884532 -4.072628 0.117029 1.015429 3.894092 -1.396681 0.008070946</float_array>
          <technique_common>
            <accessor source="#geom-genericprismone100-positions-array" count="68" stride="3">
              <param name="X" type="float"/>
              <param name="Y" type="float"/>
              <param name="Z" type="float"/>
            </accessor>
          </technique_common>
        </source>
        <source id="geom-genericprismone100-normals">
          <float_array id="geom-genericprismone100-normals-array" count="204">-0.07163 -0.4558028 -0.8871939 -0.1127797 0.2431826 -0.9634018 0.4449676 0.3614895 -0.8193467 0.3015804 -0.9093882 0.2864653 -0.3076741 -0.6850155 0.6603715 0.07167639 -0.8338259 0.5473544 0.06581479 0.9130783 0.4024381 -0.4431692 0.8772141 0.1846529 0.1797359 0.9547575 0.2369245 -0.9531407 0.04740129 0.2987904 -0.4748314 -0.7775802 0.4121942 -0.8038188 -0.1077536 0.5850337 0.9482541 0.09595822 -0.3026653 0.9046238 -0.4262075 -0.001682791 0.5819698 -0.2006678 -0.7880633 0.4339829 0.4832035 0.760377 -0.2123961 -0.2773155 0.9370081 0.1962692 -0.2318324 0.9527498 -0.5800254 -0.3809348 -0.720041 -0.4494693 -0.2642267 -0.8533238 -0.5395237 0.827698 0.1543704 -0.2495899 -0.7362408 -0.6290106 0.5079171 -0.8440719 0.1719385 0.5660747 -0.8158246 0.1182784 0.3784679 -0.870082 0.3157837 -0.1686764 -0.9835019 0.06536333 0.2870373 -0.9008713 -0.3256387 0.9499663 0.3036425 -0.07324799 0.2708228 0.9621199 -0.03131099 0.4268839 0.9042942 0.004700417 0.6886662 0.7051811 0.1686963 0.8188978 -0.5423822 0.1876914 0.8718276 -0.2117297 0.4416867 -0.06431127 0.9944602 -0.08314349 0.02781227 0.9872183 0.156929 -0.4717897 -0.8678865 0.1555237 -0.7368145 -0.6485082 0.1911585 -0.5235149 -0.8364539 -0.1621019 -0.6843174 -0.7238486 -0.08805028 -0.971588 0.1721152 0.1624598 -0.142225 0.6114883 0.7783663 -0.3323197 0.3305655 -0.8833404 -0.3349173 0.04778817 -0.9410349 -0.99084 -0.008739746 0.134758 -0.6188605 -0.7276179 0.2959455 0.5451 -0.8088763 0.2204203 0.03150984 -0.8840449 0.4663385 0.08264358 -0.906839 0.4132954 0.381736 -0.749955 0.5402271 -0.6865402 0.6860437 -0.2408454 -0.2383608 0.9296425 -0.2809785 -0.1631346 0.5368806 -0.8277357 -0.5940116 0.4700961 -0.6528093 0.7699584 0.5212089 -0.3681105 0.008100021 0.09776232 -0.9951769 0.6276345 -0.02263678 -0.778179 0.5611917 -0.7343599 -0.381811 -0.7651954 -0.6238266 0.1591112 -0.8743495 -0.07799564 -0.4789882 -0.9441721 0.1148106 0.3088 0.7047595 -0.709404 -0.00774989 0.8201703 -0.2809907 0.4983622 0.7690395 -0.598896 -0.2233869 -0.6894062 -0.671441 0.2718199 -0.5150709 0.6273677 0.5840476 0.9368703 0.3392802 -0.08463503 -0.6743506 -0.4789063 -0.5620497 0.3515147 -0.2721889 -0.8957403</float_array>
          <technique_common>
            <accessor source="#geom-genericprismone100-normals-array" count="68" stride="3">
              <param name="X" type="float"/>
              <param name="Y" type="float"/>
              <param name="Z" type="float"/>
            </accessor>
          </technique_common>
        </source>
        <source id="geom-genericprismone100-map1">
          <float_array id="geom-genericprismone100-map1-array" count="288">1.145318 0.2798778 0 1.169809 0.2861208 0 0.8781558 0.4904953 0 0.6516919 0.2827516 0 0.2779062 0.1064202 0 0.9165217 0.5558453 0 0.2309484 0.07107598 0 0.6094652 0.5194698 0 0.5221444 0.5417641 0 0.02893297 0.2084077 0 0.9113382 0.1403606 0 0.08582988 0.4180419 0 0.739055 0.2409707 0 0.9432732 0.3211349 0 1.000285 0.4237053 0 0.9358258 0.4628634 0 1.110554 0.3865614 0 1.057543 0.4290449 0 1.167739 0.3143019 0 1.156777 0.2295305 0 0.1209542 0.45658 0 0.3109738 0.5759461 0 0.1335038 0.5711313 0 0.1969824 0.2164403 0 0.2746614 0.1810511 0 0.2773142 0.2066503 0 0.07787646 0.2510507 0 -0.009660684 0.1536435 0 0.0409537 0.1577808 0 0.3348668 0.107862 0 0.3995094 0.186002 0 0.3182692 0.1775133 0 0.1166241 0.1906576 0 0.1799658 0.1677236 0 0.6846439 0.2458765 0 0.5291137 0.1556182 0 0.4601581 0.1820741 0 0.6108248 0.2834677 0 0.7508831 0.4198632 0 0.557873 0.2498763 0 0.3586489 0.2724596 0 0.6219109 0.2057945 0 0.7318989 0.3518521 0 0.8256036 0.4442416 0 0.4695579 0.2471664 0 0.8564109 0.5668072 0 0.7957256 0.6149957 0 0.6600732 0.6610371 0 0.8445327 0.1030505 0 -0.05102565 0.2779897 0 0.9736975 0.08737554 0 0.1753975 0.2880764 0 1.051783 0.1057106 0 0.9646339 0.5303764 0 -0.08402459 0.1747094 0 0.09116849 0.3203696 0 0.6268698 0.4563049 0 0.995546 0.5821509 0 1.112594 0.1790273 0 -0.07106335 0.2416629 0 0.3475009 0.4685148 0 0.2855979 0.4895885 0 0.04201824 0.555223 0 1.004393 0.07012859 0 0.9649894 0.05477813 0 0.7888128 0.1878068 0 0.01408502 0.458317 0 0.2544965 0.416029 0 0.4248667 0.1738091 0 0.3482675 0.3276335 0 0.4530259 0.4133336 0 0.100849 0.1231966 0 0.1613401 0.1039936 0 0.3890825 0.3957224 0 -0.0142967 0.1320876 0 0.01837197 0.1078209 0 0.06970029 0.1044325 0 0.547024 0.4420646 0 0.9003663 0.5517034 0 0.7422097 0.6983272 0 0.955633 0.6739568 0 0.9242282 0.7235045 0 0.8340663 0.753199 0 0.7888244 0.7860308 0 0.6747516 0.2728325 0 0.4426521 0.2523628 0 0.4724006 0.1375619 0 0.4022471 0.4602335 0 -0.04612858 0.3660535 0 -0.05501059 0.1335621 0 -0.07405447 0.1910129 0 -0.171278 0.2122606 0 -0.1192575 0.1679845 0 -0.149715 0.248814 0 -0.02171743 0.4134895 0 0.008607537 0.1659297 0</float_array>
          <technique_common>
            <accessor source="#geom-genericprismone100-map1-array" count="96" stride="3">
              <param name="S" type="float"/>
              <param name="T" type="float"/>
              <param name="P" type="float"/>
            </accessor>
          </technique_common>
        </source>
        <vertices id="geom-genericprismone100-vertices">
          <input semantic="POSITION" source="#geom-genericprismone100-positions"/>
        </vertices>
        <triangles material="greyrock" count="132">
          <input semantic="VERTEX" source="#geom-genericprismone100-vertices" offset="0"/>
          <input semantic="NORMAL" source="#geom-genericprismone100-normals" offset="1"/>
          <input semantic="TEXCOORD" source="#geom-genericprismone100-map1" offset="2" set="1"/>
          <p>42 0 52 31 1 13 18 2 12 39 3 69 21 4 11 49 5 51 34 6 38 27 7 46 40 8 7 33 9 49 38 10 55 3 11 94 58 12 39 56 13 44 25 14 35 8 15 21 48 16 20 64 17 61 24 18 19 62 19 0 31 1 13 33 9 81 27 7 46 53 20 78 42 0 52 0 21 58 31 1 13 15 22 24 65 23 31 14 24 40 38 10 55 49 5 51 21 4 11 15 22 24 35 25 33 19 26 4 4 27 3 50 28 42 28 29 56 17 30 77 56 13 44 58 12 39 14 24 40 65 23 31 37 31 30 56 13 44 17 30 77 36 32 70 31 1 13 10 33 43 18 2 12 27 7 46 43 34 45 53 20 78 26 35 32 44 36 9 51 37 71 44 36 9 41 38 28 51 37 71 27 7 46 33 9 81 54 39 82 48 16 20 8 15 21 61 40 22 16 41 14 62 19 0 20 42 16 44 36 9 5 43 90 60 44 95 2 45 85 36 32 70 39 3 69 21 4 11 39 3 69 45 46 67 7 47 23 35 25 33 15 22 24 39 3 69 49 5 51 63 48 25 1 49 5 22 50 2 47 51 15 1 49 5 16 41 53 59 52 57 36 32 70 17 30 77 8 15 8 40 8 7 28 29 56 34 6 38 50 28 42 46 53 84 18 2 12 30 54 10 18 2 12 57 55 65 6 56 29 37 31 30 65 23 31 42 0 52 18 2 12 30 54 10 20 42 92 29 57 27 52 58 54 1 49 93 59 52 91 66 59 59 38 10 55 21 4 11 3 11 94 3 11 66 48 16 20 61 40 22 34 6 38 43 34 45 27 7 46 31 1 13 22 50 2 10 33 43 39 3 69 23 60 73 45 46 67 23 60 73 8 15 8 9 61 87 24 18 19 31 1 13 0 21 58 26 35 32 51 37 71 0 21 72 30 54 10 57 55 65 25 14 48 6 56 86 25 14 35 67 62 36 11 63 26 26 35 32 7 47 23 35 25 33 7 47 23 26 35 32 27 7 46 54 39 82 12 64 79 61 40 47 40 8 7 27 7 46 17 30 77 28 29 56 40 8 7 17 30 77 32 65 37 28 29 56 62 19 75 24 18 76 41 38 28 29 57 27 20 42 92 13 66 89 6 56 64 30 54 10 25 14 48 55 67 50 42 0 52 30 54 10 47 51 15 22 50 2 31 1 13 31 1 13 62 19 0 16 41 14 32 65 37 4 27 3 28 29 56 25 14 35 57 55 41 58 12 39 5 43 90 38 10 55 33 9 49 53 20 78 66 59 80 33 9 81 18 2 12 10 33 43 50 28 42 34 6 38 10 33 43 43 34 45 0 21 72 19 26 4 35 25 33 35 25 33 26 35 32 0 21 72 23 60 73 36 32 70 8 15 8 39 3 69 36 32 70 23 60 73 67 62 36 2 45 85 14 24 40 25 14 35 56 13 44 67 62 36 38 10 55 5 43 90 44 36 9 11 63 26 49 5 51 38 10 55 63 48 25 14 24 40 39 3 69 14 24 40 2 45 85 39 3 69 61 40 47 8 15 8 40 8 7 17 30 77 40 8 7 8 15 8 60 44 95 41 38 28 44 36 9 13 66 74 41 38 28 29 57 27 19 26 4 0 21 72 42 0 6 42 0 52 55 67 50 19 26 63 22 50 2 53 20 78 43 34 45 10 33 43 22 50 2 43 34 45 11 63 26 44 36 9 26 35 32 44 36 9 11 63 26 38 10 55 48 16 20 45 46 67 64 17 61 9 61 60 45 46 67 23 60 73 50 28 42 4 27 3 46 53 84 57 55 41 4 27 3 32 65 37 16 41 14 47 51 15 31 1 13 47 51 15 16 41 53 1 49 5 21 4 11 48 16 20 3 11 66 21 4 11 45 46 67 48 16 20 7 47 23 49 5 51 11 63 26 7 47 23 63 48 25 49 5 51 34 6 38 50 28 42 10 33 43 50 28 42 34 6 38 28 29 56 24 18 76 0 21 72 51 37 71 51 37 71 41 38 28 24 18 76 52 58 54 29 57 27 5 43 90 66 59 59 59 52 91 52 58 54 22 50 2 1 49 5 53 20 78 1 49 5 66 59 80 53 20 78 3 11 83 12 64 79 54 39 82 54 39 88 33 9 49 3 11 94 30 54 10 6 56 64 55 67 50 6 56 64 19 26 63 55 67 50 2 45 85 56 13 44 36 32 70 67 62 36 56 13 44 2 45 85 57 55 41 46 53 84 4 27 3 46 53 84 57 55 41 18 2 34 58 12 39 32 65 37 17 30 77 32 65 37 58 12 39 57 55 41 52 58 54 59 52 91 20 42 92 16 41 14 20 42 16 59 52 17 60 44 95 29 57 27 41 38 28 60 44 95 5 43 90 29 57 27 27 7 46 12 64 79 61 40 47 61 40 22 12 64 62 3 11 66 62 19 0 41 38 1 13 66 18 13 66 18 20 42 16 62 19 0 15 22 24 14 24 40 63 48 25 63 48 25 7 47 23 15 22 24 64 17 61 9 61 60 8 15 21 45 46 67 9 61 60 64 17 61 65 23 31 15 22 24 19 26 4 19 26 4 6 56 29 65 23 31 5 43 90 66 59 59 52 58 54 66 59 59 5 43 90 33 9 49 37 31 30 67 62 36 14 24 40 37 31 30 6 56 29 67 62 68</p>
        </triangles>
      </mesh>
    </geometry>
    <geometry id="geom-genericprismone200" name="genericprismone200">
      <mesh>
        <source id="geom-genericprismone200-positions">
          <float_array id="geom-genericprismone200-positions-array" count="336">-1.089579 -3.00374 -1.012254 -2.926132 2.347416 0.09020936 4.403069 -1.178245 1.452177 -3.208931 0.1105342 4.926888 4.43939 1.870318 -0.2599974 -4.350311 -0.2593894 0.007627845 2.423937 -2.426502 -1.126599 -0.08359301 -3.111945 1.672165 2.87917 1.416828 5.679371 3.447532 -0.3251262 5.25068 -0.134998 3.398085 0.1613531 -2.514237 -2.070364 2.291576 -2.335824 1.515681 4.961603 -3.648173 -1.350284 -0.5371043 2.76972 -1.390949 1.959698 1.628005 -2.957531 0.5374899 -2.558119 1.676022 -0.5873146 3.842393 1.68472 3.80811 3.827477 2.03548 -1.114139 1.466085 -2.939907 -1.045242 -3.808659 0.1132932 -0.8406013 -1.931329 -0.671371 5.240924 -1.511542 2.997962 -0.0376308 3.586882 -0.8773141 4.153835 -2.59134 -2.184861 -0.956293 3.8189 -0.7170119 -1.268661 -1.760559 -2.631037 1.081669 -2.105794 2.316729 3.03876 2.45086 1.808004 3.014722 -3.737355 -1.418657 -0.04712284 2.311256 -0.8822284 -1.542454 -0.4451929 1.076336 -1.473971 4.475788 1.281828 0.1322366 -3.68529 0.1012931 1.877307 1.319861 2.817821 0.7746682 -0.5198113 -3.377746 0.5647213 4.111498 0.1173015 4.248548 3.810605 -1.860964 0.3158956 -2.129121 -1.646324 3.746262 2.492676 -1.126797 3.015929 2.091702 2.1986 4.391099 -2.977005 -1.86153 -0.2118248 0.4972025 -2.660132 -1.5304 -2.086386 2.31965 1.250991 -3.012455 -1.565328 1.163602 1.343272 -1.045793 5.291512 4.220537 2.150046 -0.6495269 -1.695051 2.254023 -0.845077 -1.18183 -0.2270608 5.871221 -0.5196208 -2.27374 3.107598 2.576393 3.059794 0.1296163 -2.282862 -2.682887 -0.5763264 -4.349246 -0.2404733 -0.4697133 -2.69088 2.531178 0.4386531 -3.476971 0.3659225 3.830585 2.05794 -2.182407 -1.705729 4.712842 -0.9285636 0.9784863 3.620264 0.8862119 -0.9991326 4.842897 0.3525825 -0.02618682 -3.522495 1.159821 -0.6454139 -3.380557 -1.523545 0.2379254 -0.6322382 1.573914 5.639422 -2.975042 -1.466539 -0.7350333 1.480055 -2.617777 1.056341 2.296701 0.01140928 5.935362 2.138068 -2.312148 0.2884532 -4.072628 0.1060939 1.015429 3.894092 -1.407616 0.008070946 4.221339 -0.2031655 3.094772 0.5529103 -1.571751 3.709447 -1.789973 -2.732679 0.3463187 -3.557062 1.202185 1.103374 -2.01117 0.7934222 -0.8482938 2.808403 -1.436896 1.258035 0.6333216 3.373911 0.1945317 3.389633 -1.526192 -0.8163051 -0.9280679 -1.188819 4.852777 -3.297963 -0.4116197 4.190644 -2.195427 2.419862 2.295964 -0.8143858 2.478869 -0.5465381 4.288017 1.75983 -0.719195 -2.669264 -2.244253 0.5354152 2.855596 1.833446 -1.381779 0.5073268 -3.083032 -1.110965 -1.303207 -2.355321 -1.212467 -3.16563 -0.1403098 -1.009329 -1.534296 -1.957269 2.672489 3.055416 1.988126 1.949538 -0.2282875 -3.264428 -0.5190155 -1.021955 -2.927619 0.1407062 4.579965 -0.5463271 0.1172253 -3.652854 1.196989 0.2800268 -0.6036543 -2.786224 2.002082 4.269048 2.193481 -0.1107931 -1.616376 2.951821 0.3288676 3.372519 -1.49593 1.194681 0.8985428 2.517224 3.739515 -1.275848 1.697277 -0.9517351 3.468501 -1.160312 2.299661 1.032375 -2.627066 1.495322 1.181303 -3.223432 0.4754167 3.903417 -1.371276 0.7622507 -3.06491 -0.8248467 -0.836798 -1.810299 -2.657385 1.461212 -2.533401 -2.100752 1.548326 3.651909 2.373304 -0.9608265 -2.803222 1.481247 2.308022 -3.371408 -0.138989 3.068907 3.183292 -1.027336 4.4695 -2.959125 0.09892225 5.203631 -3.771468 -0.5276446 -0.8059136 4.389276 0.9422402 -0.3075318</float_array>
          <technique_common>
            <accessor source="#geom-genericprismone200-positions-array" count="112" stride="3">
              <param name="X" type="float"/>
              <param name="Y" type="float"/>
              <param name="Z" type="float"/>
            </accessor>
          </technique_common>
        </source>
        <source id="geom-genericprismone200-normals">
          <float_array id="geom-genericprismone200-normals-array" count="336">-0.07178333 -0.4146836 -0.9071299 -0.1524376 0.2580572 -0.954028 0.0680792 0.3368449 -0.9390957 0.2035173 -0.899527 0.3865642 -0.07688537 -0.8210965 0.5655874 -0.01383709 -0.8966001 0.442625 0.1028489 0.8978773 0.4280635 -0.4614463 0.869659 0.1753866 0.01264039 0.9691541 0.2461313 -0.8780999 -0.4572988 0.1407776 -0.4510436 -0.8139881 0.3660367 -0.8252654 -0.5164634 0.2284791 0.9740648 0.03784061 -0.2230828 0.924557 -0.3201541 -0.2066291 0.5456027 -0.2397121 -0.8030291 0.4339829 0.4832035 0.760377 -0.1853321 -0.2834143 0.9409189 0.1962692 -0.2318324 0.9527498 -0.5834047 -0.4014767 -0.7060138 -0.783547 -0.1574949 -0.6010404 -0.9137612 0.2863545 0.2881692 -0.8077086 0.5409876 0.234391 -0.8075657 0.5264847 0.2658035 -0.2367486 -0.2468923 -0.9396777 0.5634261 -0.8025972 0.1959309 0.5776103 -0.8058442 0.1303131 0.4161283 -0.8816035 0.2227388 0.3553218 -0.9292153 0.1015148 -0.09812454 -0.984449 -0.1457113 0.05070313 -0.8720332 -0.4868134 0.7642107 0.6191127 0.1807798 0.2474417 0.967318 0.05539352 0.3267247 0.9169422 0.2290586 0.701948 0.6840009 0.1985242 0.1761269 -0.9046425 0.3880738 0.7135727 -0.6973478 0.06723166 0.9380928 -0.3455248 -0.02438316 0.9157391 -0.3390514 0.2155601 -0.06561056 0.9953939 -0.06990076 -0.3930497 0.8732019 0.2881497 -0.3194871 -0.9383692 0.1318755 -0.6311428 -0.74661 0.2103147 -0.4903295 -0.8333368 -0.2551996 -0.7181026 -0.665733 -0.202801 -0.9646829 0.2262761 0.1348549 -0.1374417 0.6016551 0.7868423 -0.2522092 0.2004804 -0.9466774 -0.1716048 -0.2397092 -0.9555581 -0.01658994 -0.0440856 -0.99889 -0.7587256 -0.6094699 0.2299605 -0.9919199 -0.008450492 0.1265834 -0.6847392 -0.6761991 0.2718213 0.2977846 -0.8688273 0.3955546 0.3467852 -0.9134872 0.2127938 0.08423039 -0.8020859 0.5912387 0.08540682 -0.8158476 0.5719252 0.3852942 -0.7847078 0.485574 -0.669903 0.6993253 -0.2493477 -0.2561688 0.8889973 -0.3795542 -0.1831414 0.4398811 -0.8791836 -0.3007153 0.3565111 -0.8845734 -0.5780991 0.4489267 -0.6813709 0.8845288 -0.1321768 0.4473679 0.2197215 0.9410235 0.2572882 0.3542742 0.9344615 0.0356564 0.7645093 0.5529299 -0.3313516 0.2966373 0.7604356 -0.5777058 0.1486377 6.5595e-4 -0.9888915 0.4725614 0.2425035 -0.8472767 0.59685 -0.04645988 -0.8010066 0.5399568 -0.7794555 -0.317641 -0.4279199 -0.3017684 -0.8519509 -0.7515696 -0.6366857 0.172553 -0.9193622 -0.02035659 -0.3928851 -0.8993969 0.4358149 -0.03391942 -0.9560345 0.05579431 0.2878974 -0.3446268 -0.6700321 0.6574871 -0.615338 -0.1537056 0.7731324 0.03709631 0.589906 -0.8066193 0.3522935 -0.9007887 0.2539077 0.6478484 -0.7454046 0.1570489 0.8211757 -0.2400867 0.5177151 -0.4033178 -0.9137091 -0.04970374 -0.2629555 -0.7785321 -0.5698615 0.6244766 -0.5497584 -0.5547923 0.7788756 -0.5518031 -0.298104 -0.6176221 -0.7854669 -0.03980868 -0.4111496 -0.8791055 0.2411006 -0.1407666 -0.881901 0.4499282 -0.1080096 -0.9937257 0.0290375 -0.437867 -0.8952817 0.08211725 -0.5136731 0.6580036 0.5506097 0.9392453 0.3378826 0.06044457 -0.5752587 -0.5422944 -0.6123676 0.2609469 -0.3077822 -0.9149737 -0.1858052 0.2905136 -0.9386577 0.9610874 0.2599847 -0.09337582 0.05390389 0.9980136 0.0326048 0.5666707 -0.8062965 0.1696184 0.5882586 -0.7743749 0.2330135 -0.6399783 -0.7061787 0.3028854 -0.2257288 -0.8951696 0.3843409 0.40521 -0.7612348 0.506287 0.3091587 -0.8964936 -0.3173644 -0.2890695 0.9234223 0.252448 -0.5432267 0.8113173 0.2160299 0.771288 0.1538653 -0.6176085 -0.8441175 -0.08151694 0.5299252 0.8732381 -0.1558228 -0.4617082 -0.4377091 0.1606964 -0.8846397 0.3405644 -0.8730384 0.3490271 -0.1396943 0.9899924 0.02001359</float_array>
          <technique_common>
            <accessor source="#geom-genericprismone200-normals-array" count="112" stride="3">
              <param name="X" type="float"/>
              <param name="Y" type="float"/>
              <param name="Z" type="float"/>
            </accessor>
          </technique_common>
        </source>
        <source id="geom-genericprismone200-map1">
          <float_array id="geom-genericprismone200-map1-array" count="426">1.145318 0.2798778 0 1.169809 0.2861208 0 0.8781558 0.4904953 0 0.6516919 0.2827516 0 0.6550553 0.2610026 0 0.2779062 0.1064202 0 0.6683536 0.2954881 0 0.9165217 0.5558453 0 1.121865 0.3167456 0 0.9647677 0.6176658 0 0.2309484 0.07107598 0 0.6094652 0.5194698 0 0.5221444 0.5417641 0 0.07208546 0.2180591 0 0.7778183 0.2611948 0 0.02893297 0.2084077 0 0.9113382 0.1403606 0 0.08582988 0.4180419 0 0.9496265 0.3827138 0 1.015262 0.362408 0 0.739055 0.2409707 0 0.9432732 0.3211349 0 0.8937101 0.4352127 0 1.096533 0.3534997 0 1.000285 0.4237053 0 0.9358258 0.4628634 0 1.110554 0.3865614 0 1.057543 0.4290449 0 1.135623 0.355155 0 1.167739 0.3143019 0 0.7136161 0.264027 0 0.8028404 0.4203836 0 1.156777 0.2295305 0 0.1209542 0.45658 0 0.03059161 0.4605525 0 0.3109738 0.5759461 0 0.1335038 0.5711313 0 0.1192305 0.2052158 0 0.1763836 0.2302358 0 0.1969824 0.2164403 0 0.2746614 0.1810511 0 0.2773142 0.2066503 0 0.2585915 0.1723401 0 0.1225142 0.2745103 0 0.07787646 0.2510507 0 -0.009660684 0.1536435 0 0.06322878 0.1730042 0 0.0409537 0.1577808 0 0.2341049 0.09981027 0 0.2011037 0.1225919 0 0.1348474 0.07890525 0 0.3348668 0.107862 0 0.3995094 0.186002 0 0.3182692 0.1775133 0 0.1189329 0.1582942 0 0.1166241 0.1906576 0 0.1596931 0.1523254 0 0.1799658 0.1677236 0 0.6846439 0.2458765 0 0.5291137 0.1556182 0 0.5080286 0.2254338 0 0.4601581 0.1820741 0 0.6108248 0.2834677 0 0.7508831 0.4198632 0 0.557873 0.2498763 0 0.2545169 0.2210573 0 0.364406 0.2408986 0 0.3586489 0.2724596 0 0.6021636 0.252343 0 0.6219109 0.2057945 0 0.7318989 0.3518521 0 0.8256036 0.4442416 0 0.4695579 0.2471664 0 0.8704206 0.5049654 0 0.8564109 0.5668072 0 0.9270884 0.64405 0 0.8200062 0.5953524 0 0.7957256 0.6149957 0 0.6600732 0.6610371 0 0.6727259 0.533117 0 -0.0173601 0.3243619 0 0.8445327 0.1030505 0 -0.05102565 0.2779897 0 0.8906015 0.06734881 0 0.9736975 0.08737554 0 0.1753975 0.2880764 0 1.051783 0.1057106 0 0.9646339 0.5303764 0 0.8583597 0.6485476 0 -0.08402459 0.1747094 0 0.09116849 0.3203696 0 0.6268698 0.4563049 0 0.995546 0.5821509 0 1.112594 0.1790273 0 0.4268833 0.2137637 0 -0.07106335 0.2416629 0 0.3961 0.2899131 0 0.3475009 0.4685148 0 -0.08459791 0.1437386 0 0.2314183 0.3389707 0 0.2855979 0.4895885 0 0.04201824 0.555223 0 1.004393 0.07012859 0 0.9649894 0.05477813 0 0.7888128 0.1878068 0 0.1421622 0.3900791 0 0.01408502 0.458317 0 0.4514249 0.3567747 0 0.2544965 0.416029 0 0.4248667 0.1738091 0 0.4079761 0.1303998 0 0.3913529 0.2340919 0 0.3482675 0.3276335 0 0.4530259 0.4133336 0 0.100849 0.1231966 0 0.1613401 0.1039936 0 0.3890825 0.3957224 0 -0.0142967 0.1320876 0 0.01837197 0.1078209 0 0.06970029 0.1044325 0 0.547024 0.4420646 0 0.9003663 0.5517034 0 0.7422097 0.6983272 0 0.955633 0.6739568 0 0.9242282 0.7235045 0 0.8340663 0.753199 0 0.7888244 0.7860308 0 0.6747516 0.2728325 0 0.4426521 0.2523628 0 0.4724006 0.1375619 0 0.634161 0.4004569 0 0.4022471 0.4602335 0 0.362644 0.4102835 0 0.006760724 0.373911 0 -0.04612858 0.3660535 0 -0.05501059 0.1335621 0 -0.07405447 0.1910129 0 -0.171278 0.2122606 0 -0.1192575 0.1679845 0 -0.149715 0.248814 0 -0.02171743 0.4134895 0 0.008607537 0.1659297 0</float_array>
          <technique_common>
            <accessor source="#geom-genericprismone200-map1-array" count="142" stride="3">
              <param name="S" type="float"/>
              <param name="T" type="float"/>
              <param name="P" type="float"/>
            </accessor>
          </technique_common>
        </source>
        <vertices id="geom-genericprismone200-vertices">
          <input semantic="POSITION" source="#geom-genericprismone200-positions"/>
        </vertices>
        <triangles material="greyrock" count="220">
          <input semantic="VERTEX" source="#geom-genericprismone200-vertices" offset="0"/>
          <input semantic="NORMAL" source="#geom-genericprismone200-normals" offset="1"/>
          <input semantic="TEXCOORD" source="#geom-genericprismone200-map1" offset="2" set="1"/>
          <p>42 0 86 31 1 21 82 2 14 69 3 99 76 4 105 49 5 85 34 6 63 27 7 77 96 8 79 107 9 80 38 10 90 77 11 133 58 12 64 90 13 60 25 14 59 8 15 35 48 16 33 64 17 100 24 18 32 62 19 0 31 1 21 33 20 124 106 21 88 71 22 75 42 0 86 84 23 93 31 1 21 15 24 40 65 25 53 14 26 67 38 10 90 49 5 85 76 4 105 100 27 42 88 28 49 83 29 48 93 30 6 50 31 70 87 32 130 17 33 120 90 13 60 58 12 64 95 34 111 65 25 53 37 35 52 56 36 72 17 33 120 68 37 107 31 1 21 10 38 71 82 2 14 106 21 88 43 39 74 71 22 75 70 40 54 81 41 46 51 42 114 81 41 46 41 43 47 51 42 114 27 7 77 33 20 124 54 44 125 48 16 33 8 15 35 61 45 36 72 46 19 102 47 8 85 48 23 44 49 15 5 50 136 60 51 141 98 52 96 68 37 107 39 53 112 76 4 105 69 3 99 45 54 108 7 55 39 88 28 49 100 27 42 69 3 99 49 5 85 99 56 65 1 57 7 22 58 2 47 59 25 1 57 7 16 60 87 59 61 92 36 62 113 17 33 120 8 15 12 40 63 11 28 64 91 34 6 63 50 31 70 46 65 127 105 66 30 30 67 16 18 68 20 57 69 104 6 70 51 37 35 52 65 25 53 42 0 86 82 2 14 30 67 16 110 71 98 29 72 45 52 73 89 91 74 139 59 61 137 66 75 95 38 10 90 21 76 17 77 11 133 109 77 34 48 16 33 61 45 36 34 6 63 43 39 74 27 7 77 31 1 21 79 78 22 10 38 71 69 3 99 108 79 132 45 54 108 23 80 116 8 15 12 9 81 131 24 18 32 31 1 21 84 23 93 89 82 56 51 42 114 0 83 115 30 67 16 57 69 104 25 14 81 75 84 129 25 14 59 67 85 61 104 86 13 103 87 37 92 88 38 35 89 57 7 55 39 26 90 55 27 7 77 54 44 125 12 91 122 61 45 78 96 8 79 27 7 77 17 33 120 28 64 91 40 63 11 17 33 120 32 92 62 87 32 130 62 19 118 24 18 119 41 43 47 29 72 45 110 71 98 13 93 135 75 84 83 30 67 16 25 14 81 55 94 84 42 0 86 30 67 16 97 95 18 79 78 22 31 1 21 31 1 21 102 47 8 72 46 19 32 92 62 4 96 3 87 32 130 25 14 59 57 69 69 58 12 64 5 50 136 38 10 90 107 9 80 71 22 75 66 75 123 33 20 124 105 66 30 74 97 31 50 31 70 34 6 63 74 97 31 43 39 74 0 83 115 83 29 48 88 28 49 88 28 49 89 82 56 0 83 115 23 80 116 36 62 113 8 15 12 39 53 112 68 37 107 23 80 116 101 98 94 2 99 128 95 34 111 25 14 59 90 13 60 67 85 61 38 10 90 5 50 136 44 49 15 11 100 44 86 101 43 38 10 90 63 102 41 14 26 67 39 53 112 14 26 67 98 52 96 39 53 112 61 45 78 8 15 12 40 63 11 17 33 120 40 63 11 8 15 12 60 51 141 41 43 47 81 41 46 13 93 117 41 43 47 29 72 45 83 29 48 84 23 50 42 0 10 42 0 86 55 94 84 19 103 102 94 104 73 53 105 121 43 39 74 10 38 71 94 104 73 43 39 74 104 86 13 44 49 15 103 87 37 44 49 15 11 100 44 38 10 90 48 16 33 45 54 108 64 17 100 9 81 97 45 54 108 108 79 132 50 31 70 93 30 6 46 65 127 57 69 69 4 96 3 111 106 68 72 46 19 97 95 18 31 1 21 47 59 25 16 60 87 1 57 7 21 76 17 48 16 33 109 77 34 76 4 105 45 54 108 48 16 33 92 88 38 86 101 43 11 100 44 92 88 38 99 56 65 49 5 85 34 6 63 50 31 70 74 97 31 50 31 70 34 6 63 87 32 130 24 18 119 84 23 50 51 42 114 51 42 114 41 43 47 24 18 119 52 73 89 29 72 45 5 50 136 66 75 95 59 61 137 52 73 89 22 58 2 1 57 7 53 105 121 91 74 9 66 75 123 71 22 75 3 107 126 12 91 122 54 44 125 54 44 134 107 9 80 77 11 133 30 67 16 75 84 83 55 94 84 6 70 103 19 103 102 55 94 84 2 99 128 56 36 72 68 37 107 101 98 94 56 36 72 2 99 128 57 69 69 80 108 4 4 96 3 80 108 4 57 69 69 18 68 58 58 12 64 32 92 62 17 33 120 111 106 68 58 12 64 57 69 69 52 73 89 59 61 137 20 109 138 16 60 24 20 109 26 59 61 27 60 51 141 29 72 45 41 43 47 60 51 141 5 50 136 29 72 45 27 7 77 12 91 122 61 45 78 61 45 36 12 91 101 109 77 34 102 47 8 41 43 1 13 93 29 13 93 29 85 48 23 102 47 8 15 24 40 14 26 67 63 102 41 99 56 65 7 55 39 100 27 42 64 17 100 9 81 97 8 15 35 45 54 108 9 81 97 64 17 100 65 25 53 15 24 40 19 103 5 19 103 5 6 70 51 65 25 53 5 50 136 66 75 95 52 73 89 66 75 95 5 50 136 33 20 82 37 35 52 101 98 94 95 34 111 37 35 52 6 70 51 67 85 109 68 37 107 17 33 120 36 62 113 68 37 107 36 62 113 23 80 116 99 56 65 39 53 112 69 3 99 69 3 99 39 53 112 23 80 116 89 82 56 35 89 57 26 90 55 81 41 46 70 40 54 26 90 55 53 105 121 71 22 75 43 39 74 53 105 121 91 74 9 71 22 75 72 46 19 85 48 23 16 60 24 97 95 18 72 46 19 16 60 24 65 25 53 73 110 66 14 26 67 98 52 96 14 26 67 73 110 66 74 97 31 10 38 71 43 39 74 82 2 14 10 38 71 74 97 31 67 85 109 6 70 51 75 84 110 55 94 84 75 84 83 6 70 103 48 16 33 21 76 17 76 4 105 38 10 90 76 4 105 21 76 17 77 11 133 21 76 17 3 107 140 54 44 134 77 11 133 3 107 140 43 39 74 78 111 76 27 7 77 106 21 88 33 20 124 27 7 77 79 78 22 47 59 25 22 58 2 10 38 71 79 78 22 22 58 2 93 30 6 80 108 4 46 65 127 46 65 127 80 108 4 18 68 58 81 41 46 26 90 55 44 49 15 81 41 46 44 49 15 60 51 141 82 2 14 18 68 20 30 67 16 82 2 14 74 97 31 105 66 30 42 0 10 19 103 5 83 29 48 83 29 48 19 103 5 15 24 40 84 23 50 83 29 48 0 83 115 84 23 50 0 83 115 51 42 114 16 60 24 85 48 23 20 109 26 13 93 29 110 71 28 85 48 23 49 5 85 86 101 43 92 88 38 86 101 43 49 5 85 38 10 90 87 32 130 28 64 91 17 33 120 34 6 63 28 64 91 87 32 130 35 89 57 88 28 49 7 55 39 89 82 56 88 28 49 35 89 57 26 90 55 70 40 54 89 82 56 89 82 56 70 40 54 51 42 114 90 13 60 17 33 120 56 36 72 67 85 61 90 13 60 56 36 72 91 74 9 1 57 7 59 61 92 91 74 9 53 105 121 1 57 7 99 56 65 92 88 38 7 55 39 92 88 38 26 90 55 7 55 39 4 96 3 93 30 6 87 32 130 4 96 3 80 108 4 93 30 6 94 104 73 10 38 71 22 58 2 53 105 121 94 104 73 22 58 2 95 34 111 73 110 66 65 25 53 98 52 96 73 110 66 95 34 111 61 45 78 40 63 11 96 8 79 40 63 11 34 6 63 96 8 79 97 95 18 47 59 25 79 78 22 16 60 24 47 59 25 97 95 18 98 52 96 2 99 128 68 37 107 2 99 128 98 52 96 95 34 111 100 27 42 63 102 41 99 56 65 63 102 41 39 53 112 99 56 65 15 24 40 100 27 42 83 29 48 15 24 40 63 102 41 100 27 42 37 35 52 67 85 109 101 98 94 67 85 61 56 36 72 101 98 94 62 19 0 102 47 8 31 1 21 62 19 0 41 43 1 102 47 8 92 88 38 103 87 37 26 90 55 44 49 15 26 90 55 103 87 37 104 86 13 92 88 38 11 100 44 44 49 15 104 86 13 11 100 44 105 66 30 46 65 127 18 68 58 82 2 14 105 66 30 18 68 20 43 39 74 106 21 88 78 111 76 78 111 76 106 21 88 27 7 77 5 50 136 107 9 80 33 20 82 107 9 80 54 44 134 33 20 82 108 79 132 69 3 99 23 80 116 9 81 131 108 79 132 23 80 116 12 91 101 3 107 106 109 77 34 21 76 17 109 77 34 3 107 106 20 109 138 110 71 98 52 73 89 85 48 23 110 71 28 20 109 26 111 106 68 4 96 3 32 92 62 32 92 62 58 12 64 111 106 68</p>
        </triangles>
      </mesh>
    </geometry>
    <geometry id="geom-bounds_1" name="bounds">
      <mesh>
        <source id="geom-bounds_1-positions">
          <float_array id="geom-bounds_1-positions-array" count="24">-4.396742 -3.408315 -1.74432 4.889327 -3.408315 -1.74432 -4.396742 3.435959 -1.74432 4.889327 3.435959 -1.74432 -4.396742 -3.408315 5.973953 4.889327 -3.408315 5.973953 -4.396742 3.435959 5.973953 4.889327 3.435959 5.973953</float_array>
          <technique_common>
            <accessor source="#geom-bounds_1-positions-array" count="8" stride="3">
              <param name="X" type="float"/>
              <param name="Y" type="float"/>
              <param name="Z" type="float"/>
            </accessor>
          </technique_common>
        </source>
        <source id="geom-bounds_1-normals">
          <float_array id="geom-bounds_1-normals-array" count="72">0 0 -1 0 0 -1 0 0 -1 0 0 -1 0 0 1 0 0 1 0 0 1 0 0 1 0 -1 0 0 -1 0 0 -1 0 0 -1 0 1 0 0 1 0 0 1 0 0 1 0 0 0 1 0 0 1 0 0 1 0 0 1 0 -1 0 0 -1 0 0 -1 0 0 -1 0 0</float_array>
          <technique_common>
            <accessor source="#geom-bounds_1-normals-array" count="24" stride="3">
              <param name="X" type="float"/>
              <param name="Y" type="float"/>
              <param name="Z" type="float"/>
            </accessor>
          </technique_common>
        </source>
        <vertices id="geom-bounds_1-vertices">
          <input semantic="POSITION" source="#geom-bounds_1-positions"/>
        </vertices>
        <triangles material="greyrock" count="12">
          <input semantic="VERTEX" source="#geom-bounds_1-vertices" offset="0"/>
          <input semantic="NORMAL" source="#geom-bounds_1-normals" offset="1"/>
          <p>0 0 2 1 3 2 3 2 1 3 0 0 4 4 5 5 7 6 7 6 6 7 4 4 0 8 1 9 5 10 5 10 4 11 0 8 1 12 3 13 7 14 7 14 5 15 1 12 3 16 2 17 6 18 6 18 7 19 3 16 2 20 0 21 4 22 4 22 6 23 2 20</p>
        </triangles>
      </mesh>
    </geometry>
    <geometry id="geom-col-1_3" name="col-1">
      <mesh>
        <source id="geom-col-1_3-positions">
          <float_array id="geom-col-1_3-positions-array" count="69">-4.266 -0.6014001 -0.4372 -3.17 -0.1266 4.9075 -2.9261 2.3511 0.09019998 2.8792 1.4205 5.6794 -0.6322 1.5776 5.6394 2.2967 0.0151 5.9354 -0.135 3.4017 0.1614 -0.4452 1.08 -1.474 2.0579 -2.1788 -1.7057 -1.0896 -3.0001 -1.0123 3.8189 -0.7134001 -1.2687 4.7128 -0.9249001 0.9785 3.4475 -0.3215 5.2507 -0.0836 -3.1083 1.672199 -2.3358 1.5193 4.9616 -2.5142 -2.0667 2.2916 1.1813 -3.2198 0.4753999 3.8424 1.6884 3.8081 3.8618 2.5138 -0.5143 -1.1818 -0.2234 5.8712 4.8429 0.3562001 -0.0262 2.8556 1.8371 -1.3818 -3.5225 1.1635 -0.6454</float_array>
          <technique_common>
            <accessor source="#geom-col-1_3-positions-array" count="23" stride="3">
              <param name="X" type="float"/>
              <param name="Y" type="float"/>
              <param name="Z" type="float"/>
            </accessor>
          </technique_common>
        </source>
        <source id="geom-col-1_3-normals">
          <float_array id="geom-col-1_3-normals-array" count="378">-0.9099454 0.38574 0.1523285 -0.9099454 0.38574 0.1523285 -0.9099454 0.38574 0.1523285 -0.00313058 0.1804606 0.9835772 -0.00313058 0.1804606 0.9835773 -0.00313058 0.1804606 0.9835773 0.03873695 0.9470107 0.3188577 0.03873696 0.9470107 0.3188577 0.03873696 0.9470107 0.3188577 -0.1945251 -0.07990579 -0.9776375 -0.1945251 -0.07990579 -0.9776375 -0.1945251 -0.07990579 -0.9776375 -0.2310098 -0.07330033 -0.9701864 -0.2310098 -0.07330033 -0.9701864 -0.2310098 -0.07330032 -0.9701863 0.6513772 -0.686243 -0.3236946 0.6513772 -0.686243 -0.3236946 0.6513773 -0.6862431 -0.3236947 0.4999105 -0.04969925 0.8646499 0.4999105 -0.04969925 0.8646499 0.4999105 -0.04969925 0.86465 0.08897458 -0.8265045 0.5558542 0.0889746 -0.8265045 0.5558542 0.08897459 -0.8265045 0.5558542 -0.151541 0.9418656 0.2998742 -0.151541 0.9418656 0.2998742 -0.151541 0.9418656 0.2998742 -0.3496918 0.9155499 0.1987062 -0.3496917 0.9155499 0.1987062 -0.3496917 0.9155499 0.1987062 -0.8795267 0.4398035 0.1816752 -0.8795266 0.4398034 0.1816753 -0.8795266 0.4398034 0.1816753 -0.6064907 -0.7942231 -0.03713148 -0.6064907 -0.7942231 -0.03713148 -0.6064907 -0.7942231 -0.03713148 -0.3699185 -0.9235139 0.101402 -0.3699185 -0.9235139 0.101402 -0.3699185 -0.9235139 0.101402 -0.8009661 -0.5591867 0.2139241 -0.8009661 -0.5591868 0.2139241 -0.8009661 -0.5591868 0.2139242 0.4987603 -0.8254581 0.2643048 0.4987603 -0.8254582 0.2643048 0.4987603 -0.8254582 0.2643048 0.2927707 -0.8727034 0.3907354 0.2927707 -0.8727034 0.3907354 0.2927707 -0.8727034 0.3907354 -0.09282487 -0.9956681 -0.005345428 -0.09282488 -0.9956682 -0.005345428 -0.09282486 -0.9956681 -0.005345427 0.1562827 -0.9143359 -0.3735849 0.1562827 -0.9143358 -0.3735849 0.1562827 -0.9143358 -0.3735849 0.5538559 -0.8157455 -0.1667419 0.5538559 -0.8157455 -0.1667419 0.5538559 -0.8157455 -0.1667419 0.8666956 0.167074 0.4700266 0.8666956 0.167074 0.4700266 0.8666956 0.167074 0.4700266 0.9592742 0.01402107 0.2821285 0.9592742 0.01402107 0.2821285 0.9592742 0.01402107 0.2821285 0.242588 0.9527097 0.183017 0.242588 0.9527098 0.183017 0.242588 0.9527097 0.183017 0.1937542 0.9522281 0.236053 0.1937542 0.9522281 0.236053 0.1937542 0.9522281 0.236053 -0.2918143 -0.8017981 0.5215018 -0.2918143 -0.8017981 0.5215018 -0.2918143 -0.8017981 0.5215018 -0.2252616 -0.8295327 0.5110114 -0.2252616 -0.8295328 0.5110114 -0.2252616 -0.8295327 0.5110114 -0.3666686 0.2279849 0.901985 -0.3666686 0.2279849 0.901985 -0.3666686 0.2279849 0.901985 -0.4214083 0.1843986 0.8879257 -0.4214084 0.1843986 0.8879258 -0.4214084 0.1843986 0.8879258 -0.0275948 0.1358837 0.9903404 -0.0275948 0.1358837 0.9903404 -0.0275948 0.1358837 0.9903404 0.0454807 -0.8177729 0.5737413 0.0454807 -0.8177729 0.5737413 0.04548069 -0.8177729 0.5737413 0.8994855 0.4284338 0.08585018 0.8994855 0.4284338 0.08585018 0.8994855 0.4284338 0.08585018 0.9709412 0.07865603 0.2260232 0.9709411 0.07865603 0.2260232 0.9709412 0.07865603 0.2260232 0.8473474 -0.3783142 -0.372667 0.8473474 -0.3783142 -0.3726671 0.8473474 -0.3783142 -0.372667 0.6924407 0.1554861 -0.7045211 0.6924407 0.1554861 -0.7045211 0.6924407 0.1554861 -0.7045211 0.57018 0.1798052 -0.8016015 0.5701799 0.1798051 -0.8016014 0.57018 0.1798052 -0.8016015 0.009852394 0.07844492 -0.9968698 0.009852393 0.07844491 -0.9968697 0.009852393 0.07844491 -0.9968697 0.2118182 0.03669413 -0.97662 0.2118182 0.03669413 -0.97662 0.2118182 0.03669413 -0.97662 0.05691748 0.7541152 -0.6542711 0.05691748 0.7541152 -0.6542712 0.05691748 0.7541151 -0.6542711 -0.1110369 0.5821847 -0.8054388 -0.1110369 0.5821848 -0.8054389 -0.1110369 0.5821847 -0.8054388 -0.912648 0.3962862 0.1001547 -0.912648 0.3962862 0.1001547 -0.912648 0.3962863 0.1001547 -0.2601086 -0.004329312 -0.9655697 -0.2601087 -0.004329312 -0.9655697 -0.2601087 -0.004329312 -0.9655697 -0.2008509 0.5867584 -0.7844574 -0.2008509 0.5867584 -0.7844574 -0.2008509 0.5867584 -0.7844574 -0.1966574 0.5820532 -0.789012 -0.1966574 0.5820533 -0.789012 -0.1966574 0.5820533 -0.7890119</float_array>
          <technique_common>
            <accessor source="#geom-col-1_3-normals-array" count="126" stride="3">
              <param name="X" type="float"/>
              <param name="Y" type="float"/>
              <param name="Z" type="float"/>
            </accessor>
          </technique_common>
        </source>
        <vertices id="geom-col-1_3-vertices">
          <input semantic="POSITION" source="#geom-col-1_3-positions"/>
        </vertices>
        <triangles material="ColorMaterial" count="42">
          <input semantic="VERTEX" source="#geom-col-1_3-vertices" offset="0"/>
          <input semantic="NORMAL" source="#geom-col-1_3-normals" offset="1"/>
          <p>0 0 1 1 2 2 3 3 4 4 5 5 6 6 4 7 3 8 7 9 8 10 9 11 7 12 9 13 0 14 10 15 11 16 8 17 12 18 3 19 5 20 12 21 5 22 13 23 14 24 4 25 6 26 14 27 6 28 2 29 14 30 2 31 1 32 15 33 0 34 9 35 15 36 9 37 13 38 15 39 1 40 0 41 16 42 11 43 12 44 16 45 12 46 13 47 16 48 13 49 9 50 16 51 9 52 8 53 16 54 8 55 11 56 17 57 3 58 12 59 17 60 12 61 11 62 17 63 18 64 6 65 17 66 6 67 3 68 19 69 1 70 15 71 19 72 15 73 13 74 19 75 4 76 14 77 19 78 14 79 1 80 19 81 5 82 4 83 19 84 13 85 5 86 20 87 18 88 17 89 20 90 17 91 11 92 20 93 11 94 10 95 20 96 10 97 18 98 21 99 18 100 10 101 21 102 8 103 7 104 21 105 10 106 8 107 21 108 6 109 18 110 21 111 7 112 6 113 22 114 0 115 2 116 22 117 7 118 0 119 22 120 2 121 6 122 22 123 6 124 7 125</p>
        </triangles>
      </mesh>
    </geometry>
  </library_geometries>
  <library_lights>
    <light id="EnvironmentAmbientLight" name="EnvironmentAmbientLight">
      <technique_common>
        <ambient>
          <color>0 0 0</color>
        </ambient>
      </technique_common>
    </light>
  </library_lights>
  <library_images>
    <image id="grayrock_diffuse_png">
      <init_from>file:///C:/Projects/ForestKitNew/art/shapes/rocks/grayrock_diffuse.png</init_from>
    </image>
    <image id="grayrock_diffuse_dds">
      <init_from>file:///E:/Projects/Pacific/game/art/shapes/rocks/grayrock_diffuse.dds</init_from>
    </image>
  </library_images>
  <library_visual_scenes>
    <visual_scene id="MaxScene">
      <node name="EnvironmentAmbientLight">
        <instance_light url="#EnvironmentAmbientLight"/>
      </node>
      <node id="node-base00" name="base00">
        <matrix>1 0 0 0 0 1 0 0 0 0 1 0 0 0 0 1</matrix>
        <node id="node-start00" name="start00">
          <matrix>1 0 0 0 0 1 0 0 0 0 1 0 0 0 0 1</matrix>
          <node id="node-genericprismone400" name="genericprismone400">
            <matrix>1 0 0 0 0 1 0 0 0 0 1 0 0 0 0 1</matrix>
            <instance_geometry url="#geom-genericprismone400">
              <bind_material>
                <technique_common>
                  <instance_material symbol="greyrock_1" target="#greyrock-material">
                    <bind_vertex_input semantic="CHANNEL1" input_semantic="TEXCOORD" input_set="1"/>
                    <bind_vertex_input semantic="CHANNEL1" input_semantic="TEXCOORD" input_set="1"/>
                  </instance_material>
                </technique_common>
              </bind_material>
            </instance_geometry>
          </node>
          <node id="node-genericprismone100" name="genericprismone100">
            <matrix>1 0 0 0 0 1 0 0 0 0 1 0 0 0 0 1</matrix>
            <instance_geometry url="#geom-genericprismone100">
              <bind_material>
                <technique_common>
                  <instance_material symbol="greyrock" target="#greyrock-material">
                    <bind_vertex_input semantic="CHANNEL1" input_semantic="TEXCOORD" input_set="1"/>
                    <bind_vertex_input semantic="CHANNEL1" input_semantic="TEXCOORD" input_set="1"/>
                  </instance_material>
                </technique_common>
              </bind_material>
            </instance_geometry>
          </node>
          <node id="node-genericprismone200" name="genericprismone200">
            <matrix>1 0 0 0 0 1 0 0 0 0 1 0 0 0 0 1</matrix>
            <instance_geometry url="#geom-genericprismone200">
              <bind_material>
                <technique_common>
                  <instance_material symbol="greyrock" target="#greyrock-material">
                    <bind_vertex_input semantic="CHANNEL1" input_semantic="TEXCOORD" input_set="1"/>
                    <bind_vertex_input semantic="CHANNEL1" input_semantic="TEXCOORD" input_set="1"/>
                  </instance_material>
                </technique_common>
              </bind_material>
            </instance_geometry>
          </node>
        </node>
        <node id="node-detail200" name="detail200">
          <matrix>1 0 0 0 0 1 0 0 0 0 1 0 0 0 0 1</matrix>
        </node>
        <node id="node-detail400" name="detail400">
          <matrix>1 0 0 0 0 1 0 0 0 0 1 0 0 0 0 1</matrix>
        </node>
        <node id="node-Collision-1" name="Collision-1">
          <matrix>1 0 0 0 0 1 0 0 0 0 1 0 0 0 0 1</matrix>
        </node>
        <node id="node-Collision-2" name="Collision-2">
          <matrix>1 0 0 0 0 1 0 0 0 0 1 0 0 0 0 1</matrix>
        </node>
        <node id="node-detail100" name="detail100">
          <matrix>1 0 0 0 0 1 0 0 0 0 1 0 0 0 0 1</matrix>
        </node>
        <node id="node-BB__detail30" name="BB__detail30">
          <matrix>1 0 0 0 0 1 0 0 0 0 1 0 0 0 0 1</matrix>
          <extra>
            <technique profile="OpenCOLLADA">
              <user_properties>BB:DIM=128
BB::EQUATOR_STEPS=16
BB::POLAR_STEPS=0
BB::POLAR_ANGLE=60
BB::INCLUDE_POLES=0
BB::DL=0</user_properties>
            </technique>
          </extra>
        </node>
      </node>
      <node id="node-bounds_1" name="bounds">
        <matrix>1 0 0 0 0 1 0 0 0 0 1 0 0 0 0 1</matrix>
        <instance_geometry url="#geom-bounds_1">
          <bind_material>
            <technique_common>
              <instance_material symbol="greyrock" target="#greyrock_1-material">
                <bind_vertex_input semantic="CHANNEL1" input_semantic="TEXCOORD" input_set="1"/>
              </instance_material>
            </technique_common>
          </bind_material>
        </instance_geometry>
      </node>
      <node id="node-col-1_3" name="col-1">
        <matrix>1 0 0 0 0 1 0 0 0 0 1 0 0 0 0 1</matrix>
        <instance_geometry url="#geom-col-1_3">
          <bind_material>
            <technique_common>
              <instance_material symbol="ColorMaterial" target="#ColorEffectR26G177B26-material"/>
            </technique_common>
          </bind_material>
        </instance_geometry>
      </node>
    </visual_scene>
  </library_visual_scenes>
  <scene>
    <instance_visual_scene url="#MaxScene"/>
  </scene>
</COLLADA>