<?xml version="1.0" encoding="utf-8"?>
<COLLADA xmlns="http://www.collada.org/2005/11/COLLADASchema" version="1.4.1">
  <asset>
    <contributor>
      <author>Blender User</author>
      <authoring_tool>Blender 2.71.0 commit date:2014-06-25, commit time:18:36, hash:9337574</authoring_tool>
    </contributor>
    <created>2014-10-23T23:16:47</created>
    <modified>2014-10-23T23:16:47</modified>
    <unit name="meter" meter="1"/>
    <up_axis>Z_UP</up_axis>
  </asset>
  <library_cameras>
    <camera id="Camera-camera" name="Camera">
      <optics>
        <technique_common>
          <perspective>
            <xfov sid="xfov">49.13434</xfov>
            <aspect_ratio>1.777778</aspect_ratio>
            <znear sid="znear">0.1</znear>
            <zfar sid="zfar">100</zfar>
          </perspective>
        </technique_common>
      </optics>
      <extra>
        <technique profile="blender">
          <YF_dofdist>0</YF_dofdist>
          <shiftx>0</shiftx>
          <shifty>0</shifty>
        </technique>
      </extra>
    </camera>
  </library_cameras>
  <library_lights>
    <light id="Lamp-light" name="Lamp">
      <technique_common>
        <point>
          <color sid="color">1 1 1</color>
          <constant_attenuation>1</constant_attenuation>
          <linear_attenuation>0</linear_attenuation>
          <quadratic_attenuation>0.00111109</quadratic_attenuation>
        </point>
      </technique_common>
      <extra>
        <technique profile="blender">
          <adapt_thresh>0.000999987</adapt_thresh>
          <area_shape>0</area_shape>
          <area_size>1</area_size>
          <area_sizey>1</area_sizey>
          <area_sizez>1</area_sizez>
          <atm_distance_factor>1</atm_distance_factor>
          <atm_extinction_factor>1</atm_extinction_factor>
          <atm_turbidity>2</atm_turbidity>
          <att1>0</att1>
          <att2>1</att2>
          <backscattered_light>1</backscattered_light>
          <bias>1</bias>
          <blue>1</blue>
          <buffers>1</buffers>
          <bufflag>0</bufflag>
          <bufsize>2880</bufsize>
          <buftype>2</buftype>
          <clipend>30.002</clipend>
          <clipsta>1.000799</clipsta>
          <compressthresh>0.04999995</compressthresh>
          <dist sid="blender_dist">29.99998</dist>
          <energy sid="blender_energy">1</energy>
          <falloff_type>2</falloff_type>
          <filtertype>0</filtertype>
          <flag>0</flag>
          <gamma sid="blender_gamma">1</gamma>
          <green>1</green>
          <halo_intensity sid="blnder_halo_intensity">1</halo_intensity>
          <horizon_brightness>1</horizon_brightness>
          <mode>8192</mode>
          <ray_samp>1</ray_samp>
          <ray_samp_method>1</ray_samp_method>
          <ray_samp_type>0</ray_samp_type>
          <ray_sampy>1</ray_sampy>
          <ray_sampz>1</ray_sampz>
          <red>1</red>
          <samp>3</samp>
          <shadhalostep>0</shadhalostep>
          <shadow_b sid="blender_shadow_b">0</shadow_b>
          <shadow_g sid="blender_shadow_g">0</shadow_g>
          <shadow_r sid="blender_shadow_r">0</shadow_r>
          <sky_colorspace>0</sky_colorspace>
          <sky_exposure>1</sky_exposure>
          <skyblendfac>1</skyblendfac>
          <skyblendtype>1</skyblendtype>
          <soft>3</soft>
          <spotblend>0.15</spotblend>
          <spotsize>75</spotsize>
          <spread>1</spread>
          <sun_brightness>1</sun_brightness>
          <sun_effect_type>0</sun_effect_type>
          <sun_intensity>1</sun_intensity>
          <sun_size>1</sun_size>
          <type>0</type>
        </technique>
      </extra>
    </light>
  </library_lights>
  <library_images>
    <image id="Wood_jpg" name="Wood_jpg">
      <init_from>Wood.jpg</init_from>
    </image>
    <image id="Rusted_Metal_png" name="Rusted_Metal_png">
      <init_from>Rusted%20Metal.png</init_from>
    </image>
  </library_images>
  <library_effects>
    <effect id="Wood2-effect">
      <profile_COMMON>
        <newparam sid="Wood_jpg-surface">
          <surface type="2D">
            <init_from>Wood_jpg</init_from>
          </surface>
        </newparam>
        <newparam sid="Wood_jpg-sampler">
          <sampler2D>
            <source>Wood_jpg-surface</source>
          </sampler2D>
        </newparam>
        <technique sid="common">
          <phong>
            <emission>
              <color sid="emission">0 0 0 1</color>
            </emission>
            <ambient>
              <color sid="ambient">0 0 0 1</color>
            </ambient>
            <diffuse>
              <texture texture="Wood_jpg-sampler"/>
            </diffuse>
            <specular>
              <color sid="specular">0.02078331 0.02078331 0.02078331 1</color>
            </specular>
            <shininess>
              <float sid="shininess">100</float>
            </shininess>
            <index_of_refraction>
              <float sid="index_of_refraction">1</float>
            </index_of_refraction>
          </phong>
          <extra>
            <technique profile="FCOLLADA">
              <bump>
                <texture texture="Wood_jpg-sampler"/>
              </bump>
            </technique>
          </extra>
        </technique>
        <extra>
          <technique profile="GOOGLEEARTH">
            <double_sided>1</double_sided>
          </technique>
        </extra>
      </profile_COMMON>
      <extra><technique profile="MAX3D"><double_sided>1</double_sided></technique></extra>
    </effect>
    <effect id="Metal-effect">
      <profile_COMMON>
        <newparam sid="Rusted_Metal_png-surface">
          <surface type="2D">
            <init_from>Rusted_Metal_png</init_from>
          </surface>
        </newparam>
        <newparam sid="Rusted_Metal_png-sampler">
          <sampler2D>
            <source>Rusted_Metal_png-surface</source>
          </sampler2D>
        </newparam>
        <technique sid="common">
          <phong>
            <emission>
              <color sid="emission">0 0 0 1</color>
            </emission>
            <ambient>
              <color sid="ambient">0 0 0 1</color>
            </ambient>
            <diffuse>
              <texture texture="Rusted_Metal_png-sampler"/>
            </diffuse>
            <specular>
              <color sid="specular">0.02 0.02 0.02 1</color>
            </specular>
            <shininess>
              <float sid="shininess">50</float>
            </shininess>
            <index_of_refraction>
              <float sid="index_of_refraction">1</float>
            </index_of_refraction>
          </phong>
          <extra>
            <technique profile="FCOLLADA">
              <bump>
                <texture texture="Rusted_Metal_png-sampler"/>
              </bump>
            </technique>
          </extra>
        </technique>
        <extra>
          <technique profile="GOOGLEEARTH">
            <double_sided>1</double_sided>
          </technique>
        </extra>
      </profile_COMMON>
      <extra><technique profile="MAX3D"><double_sided>1</double_sided></technique></extra>
    </effect>
  </library_effects>
  <library_materials>
    <material id="Wood2-material" name="Wood2">
      <instance_effect url="#Wood2-effect"/>
    </material>
    <material id="Metal-material" name="Metal">
      <instance_effect url="#Metal-effect"/>
    </material>
  </library_materials>
  <library_geometries>
    <geometry id="Barrel-mesh" name="Barrel">
      <mesh>
        <source id="Barrel-mesh-positions">
          <float_array id="Barrel-mesh-positions-array" count="1248">0 -0.09980356 -0.2973899 -0.1138062 -0.09980356 -0.2747524 -0.2102864 -0.09980356 -0.2102864 -0.2747524 -0.09980356 -0.1138061 -0.2973899 -0.09980362 0 -0.2747524 -0.09980356 0.1138062 -0.2102864 -0.09980356 0.2102864 -0.1138062 -0.09980356 0.2747524 0 -0.09980356 0.2973899 0.1138061 -0.09980356 0.2747525 0.2102863 -0.09980356 0.2102864 0.2747524 -0.09980356 0.1138062 0.2973899 -0.09980356 0 0.2747524 -0.09980356 -0.1138062 0.2102863 -0.09980356 -0.2102864 0.113806 -0.09980356 -0.2747524 0 -0.1507477 -0.2973899 -0.1145511 -0.1507477 -0.2747524 -0.2116629 -0.1507477 -0.2102864 -0.2765509 -0.1507476 -0.1138061 -0.2993366 -0.1507476 0 -0.2765509 -0.1507477 0.1138062 -0.2116629 -0.1507476 0.2102864 -0.1145511 -0.1507476 0.2747524 0 -0.1507476 0.2973899 0.1145511 -0.1507476 0.2747524 0.2116628 -0.1507476 0.2102864 0.276551 -0.1507476 0.1138062 0.2993366 -0.1507476 0 0.2765509 -0.1507476 -0.1138062 0.2116628 -0.1507477 -0.2102864 0.114551 -0.1507477 -0.2747525 0 -0.09984403 -0.2605627 -0.09979957 -0.09998899 -0.2406924 -0.1843435 -0.1003421 -0.1841558 -0.2407778 -0.1006972 -0.09963101 -0.2605818 -0.100845 0 -0.2407778 -0.1006971 0.09963101 -0.1843435 -0.1003421 0.1841558 -0.09979957 -0.09998899 0.2406924 0 -0.09984397 0.2605628 0.09979951 -0.09998899 0.2406924 0.1843435 -0.100342 0.1841559 0.2407778 -0.1006972 0.09963101 0.2605818 -0.100845 0 0.2407778 -0.1006972 -0.09963101 0.1843434 -0.1003421 -0.1841559 0.09979945 -0.09998899 -0.2406924 0 -0.1507881 -0.2605627 -0.1004445 -0.150936 -0.240734 -0.185611 -0.1512901 -0.1842637 -0.2425336 -0.1516432 -0.09973216 -0.2625285 -0.1517891 0 -0.2425336 -0.1516432 0.09973216 -0.185611 -0.1512901 0.1842637 -0.1004445 -0.150936 0.240734 0 -0.1507881 0.2605627 0.1004444 -0.150936 0.240734 0.185611 -0.1512901 0.1842638 0.2425336 -0.1516432 0.09973216 0.2625285 -0.1517891 0 0.2425336 -0.1516432 -0.09973216 0.1856109 -0.1512901 -0.1842638 0.1004444 -0.150936 -0.2407341 0 0.1496466 -0.2973899 -0.1138062 0.1496466 -0.2747524 -0.2102864 0.1496466 -0.2102864 -0.2747524 0.1496466 -0.1138062 -0.2973899 0.1496466 0 -0.2747524 0.1496466 0.1138062 -0.2102864 0.1496466 0.2102864 -0.1138062 0.1496467 0.2747524 0 0.1496466 0.2973899 0.1138061 0.1496466 0.2747525 0.2102863 0.1496466 0.2102864 0.2747524 0.1496466 0.1138062 0.2973899 0.1496466 0 0.2747524 0.1496466 -0.1138062 0.2102863 0.1496466 -0.2102864 0.113806 0.1496466 -0.2747524 0 0.09870254 -0.2973899 -0.1145511 0.09870254 -0.2747524 -0.2116629 0.0987026 -0.2102864 -0.2765509 0.0987026 -0.1138062 -0.2993366 0.09870254 0 -0.2765509 0.0987026 0.1138062 -0.2116629 0.0987026 0.2102864 -0.1145511 0.0987026 0.2747524 0 0.09870254 0.2973899 0.1145511 0.0987026 0.2747524 0.2116628 0.0987026 0.2102864 0.276551 0.0987026 0.1138062 0.2993366 0.0987026 0 0.2765509 0.0987026 -0.1138062 0.2116628 0.0987026 -0.2102864 0.114551 0.09870254 -0.2747525 0 0.1496062 -0.2605627 -0.09979957 0.1494612 -0.2406924 -0.1843435 0.1491081 -0.1841558 -0.2407778 0.1487531 -0.09963101 -0.2605818 0.1486051 0 -0.2407778 0.1487531 0.09963101 -0.1843435 0.1491082 0.1841558 -0.09979957 0.1494613 0.2406924 0 0.1496062 0.2605627 0.09979951 0.1494613 0.2406924 0.1843435 0.1491082 0.1841559 0.2407778 0.1487531 0.09963101 0.2605818 0.1486051 0 0.2407778 0.1487531 -0.09963101 0.1843435 0.1491081 -0.1841559 0.09979945 0.1494612 -0.2406924 0 0.09866213 -0.2605628 -0.1004445 0.09851419 -0.240734 -0.185611 0.09816014 -0.1842637 -0.2425336 0.09780704 -0.09973216 -0.2625285 0.09766107 0 -0.2425336 0.09780704 0.09973216 -0.185611 0.09816008 0.1842637 -0.1004445 0.09851419 0.240734 0 0.09866213 0.2605627 0.1004444 0.09851419 0.240734 0.185611 0.09816014 0.1842638 0.2425336 0.09780704 0.09973216 0.2625285 0.09766107 0 0.2425336 0.09780704 -0.09973222 0.1856109 0.09816014 -0.1842638 0.1004444 0.09851419 -0.2407341 0 -0.4072246 -0.2609635 0.09986639 -0.4072246 -0.2410988 0.184529 -0.4072246 -0.184529 0.2410988 -0.4072246 -0.09986639 0.2609635 -0.4072247 0 0.2410988 -0.4072247 0.09986644 0.184529 -0.4072247 0.1845291 0.09986639 -0.4072247 0.2410988 0 -0.4072248 0.2609636 -0.09986639 -0.4072248 0.2410989 -0.184529 -0.4072248 0.1845291 -0.2410988 -0.4072248 0.09986644 -0.2609635 -0.4072247 0 -0.2410988 -0.4072247 -0.09986644 -0.184529 -0.4072247 -0.1845291 -0.09986633 -0.4072247 -0.2410989 0 -0.3562806 -0.2609635 0.1036366 -0.3562806 -0.2410988 0.1914955 -0.3562806 -0.184529 0.2502009 -0.3562806 -0.09986639 0.2708156 -0.3562806 0 0.2502009 -0.3562806 0.09986644 0.1914955 -0.3562806 0.1845291 0.1036366 -0.3562807 0.2410988 0 -0.3562807 0.2609636 -0.1036366 -0.3562807 0.2410989 -0.1914955 -0.3562807 0.1845291 -0.250201 -0.3562807 0.09986644 -0.2708156 -0.3562807 0 -0.2502009 -0.3562806 -0.09986644 -0.1914955 -0.3562806 -0.1845291 -0.1036365 -0.3562806 -0.2410989 0 -0.4069918 -0.2286472 0.0879423 -0.406193 -0.2110805 0.1622619 -0.4042135 -0.1613022 0.2117985 -0.4021729 -0.08720362 0.2291916 -0.4013149 0 0.2117985 -0.402173 0.08720362 0.1622619 -0.4042136 0.1613023 0.0879423 -0.4061931 0.2110806 0 -0.406992 0.2286472 -0.0879423 -0.4061931 0.2110806 -0.1622619 -0.4042137 0.1613023 -0.2117986 -0.4021731 0.08720362 -0.2291916 -0.401315 0 -0.2117986 -0.402173 -0.08720362 -0.1622619 -0.4042136 -0.1613023 -0.08794224 -0.406193 -0.2110806 0 -0.3560478 -0.2286472 0.09121149 -0.3551779 -0.2112866 0.1686859 -0.3531265 -0.1618545 0.2206975 -0.3511579 -0.08771449 0.2390436 -0.3503708 0 0.2206975 -0.3511579 0.08771455 0.1686859 -0.3531265 0.1618546 0.09121149 -0.355178 0.2112867 0 -0.3560479 0.2286472 -0.09121149 -0.3551781 0.2112867 -0.1686859 -0.3531266 0.1618546 -0.2206975 -0.351158 0.08771455 -0.2390437 -0.3503709 0 -0.2206975 -0.3511579 -0.08771449 -0.1686859 -0.3531265 -0.1618546 -0.09121143 -0.3551779 -0.2112867 0 0.3990969 -0.2609636 -0.09986639 0.3990969 -0.2410988 -0.1845291 0.3990969 -0.1845291 -0.2410988 0.3990969 -0.09986639 -0.2609635 0.3990969 0 -0.2410988 0.3990969 0.09986639 -0.1845291 0.3990969 0.184529 -0.09986639 0.3990969 0.2410988 0 0.3990969 0.2609635 0.09986633 0.3990969 0.2410988 0.184529 0.3990969 0.1845291 0.2410988 0.3990969 0.09986644 0.2609635 0.3990969 0 0.2410988 0.3990969 -0.09986644 0.184529 0.3990969 -0.1845291 0.09986627 0.3990969 -0.2410989 0 0.3481528 -0.2609636 -0.1036366 0.3481528 -0.2410988 -0.1914955 0.3481529 -0.1845291 -0.2502009 0.3481529 -0.09986639 -0.2708156 0.3481529 0 -0.2502009 0.3481529 0.09986639 -0.1914955 0.3481529 0.184529 -0.1036366 0.3481529 0.2410988 0 0.3481529 0.2609635 0.1036366 0.3481529 0.2410988 0.1914955 0.3481529 0.1845291 0.250201 0.3481529 0.09986644 0.2708156 0.3481528 0 0.2502009 0.3481528 -0.09986644 0.1914954 0.3481528 -0.1845291 0.1036365 0.3481528 -0.2410989 0 0.4143057 -0.2286472 -0.0879423 0.4135068 -0.2110806 -0.1622619 0.4115273 -0.1613023 -0.2117986 0.4094867 -0.08720362 -0.2291916 0.4086287 0 -0.2117986 0.4094867 0.08720362 -0.1622619 0.4115274 0.1613022 -0.08794236 0.4135068 0.2110805 0 0.4143057 0.2286472 0.08794224 0.4135068 0.2110806 0.1622619 0.4115274 0.1613023 0.2117986 0.4094867 0.08720362 0.2291916 0.4086287 0 0.2117985 0.4094867 -0.08720368 0.1622619 0.4115273 -0.1613023 0.08794218 0.4135068 -0.2110806 0 0.3479201 -0.2286472 -0.09121149 0.3470502 -0.2112867 -0.1686859 0.3449987 -0.1618546 -0.2206975 0.3430302 -0.08771449 -0.2390437 0.3422431 0 -0.2206975 0.3430302 0.08771449 -0.1686859 0.3449987 0.1618545 -0.09121155 0.3470502 0.2112866 0 0.3479201 0.2286472 0.09121143 0.3470501 0.2112867 0.1686859 0.3449987 0.1618546 0.2206975 0.3430302 0.08771449 0.2390437 0.3422431 0 0.2206975 0.3430302 -0.08771455 0.1686859 0.3449987 -0.1618546 0.09121137 0.3470502 -0.2112867 0 -0.4 -0.25 0.09567081 -0.4 -0.2309699 0.1767767 -0.4 -0.1767767 0.2309699 -0.4 -0.09567081 0.25 -0.4 0 0.2309699 -0.4 0.09567087 0.1767767 -0.4 0.1767767 0.09567087 -0.4 0.2309699 0 -0.4 0.25 -0.09567075 -0.4 0.2309699 -0.1767766 -0.4 0.1767767 -0.2309699 -0.4 0.09567087 -0.25 -0.4 0 -0.2309699 -0.4 -0.09567087 -0.1767766 -0.4 -0.1767767 -0.0956707 -0.4 -0.2309699 0 0.4 -0.25 0.09567081 0.4 -0.2309699 0.1767767 0.4 -0.1767767 0.2309699 0.4 -0.09567087 0.25 0.4 0 0.2309699 0.4 0.09567081 0.1767767 0.4 0.1767767 0.09567087 0.4 0.2309699 0 0.4 0.25 -0.09567075 0.4 0.2309699 -0.1767766 0.4 0.1767767 -0.2309699 0.4 0.09567087 -0.25 0.4 0 -0.2309699 0.4 -0.09567087 -0.1767766 0.4 -0.1767767 -0.0956707 0.4 -0.2309699 0.09567087 -0.4 0.2309699 0.09567087 0.4 0.2309699 0 -0.4 0.25 0 0.4 0.25 0.1118315 0.1558558 0.2699851 0.1118315 -0.1558558 0.2699851 0 0.1558558 0.2922298 0 -0.1558558 0.2922298 0 -0.4 0.25 0 0.4 0.25 -0.09567075 -0.4 0.2309699 -0.09567075 0.4 0.2309699 0 0.1558558 0.2922298 0 -0.1558558 0.2922298 -0.1118314 0.1558558 0.2699851 -0.1118314 -0.1558558 0.2699851 -0.09567081 -0.4 0.2309699 -0.09567081 0.4 0.2309699 -0.1767766 -0.4 0.1767767 -0.1767766 0.4 0.1767767 -0.1118314 0.1558558 0.2699851 -0.1118314 -0.1558558 0.2699851 -0.2066376 0.1558558 0.2066377 -0.2066376 -0.1558558 0.2066377 -0.1767766 -0.4 0.1767767 -0.1767766 0.4 0.1767767 -0.2309698 -0.4 0.09567093 -0.2309698 0.4 0.09567087 -0.2066376 0.1558558 0.2066377 -0.2066376 -0.1558558 0.2066377 -0.2699851 0.1558558 0.1118316 -0.2699851 -0.1558558 0.1118316 -0.2309698 -0.4 0.09567093 -0.2309698 0.4 0.09567087 -0.25 -0.4 0 -0.25 0.4 0 -0.2699851 0.1558558 0.1118316 -0.2699851 -0.1558558 0.1118316 -0.2922298 0.1558558 0 -0.2922298 -0.1558558 0 -0.25 -0.4 0 -0.25 0.4 0 -0.2309699 -0.4 -0.0956707 -0.2309699 0.4 -0.09567075 -0.2922298 0.1558558 0 -0.2922298 -0.1558558 0 -0.2699851 0.1558558 -0.1118314 -0.2699851 -0.1558558 -0.1118313 -0.2309699 -0.4 -0.0956707 -0.2309699 0.4 -0.09567075 -0.1767768 -0.4 -0.1767765 -0.1767768 0.4 -0.1767766 -0.2699851 0.1558558 -0.1118314 -0.2699851 -0.1558558 -0.1118313 -0.2066377 0.1558558 -0.2066375 -0.2066377 -0.1558558 -0.2066375 -0.1767768 -0.4 -0.1767765 -0.1767768 0.4 -0.1767766 -0.09567099 -0.4 -0.2309698 -0.09567099 0.4 -0.2309698 -0.2066377 0.1558558 -0.2066375 -0.2066377 -0.1558558 -0.2066375 -0.1118316 0.1558558 -0.269985 -0.1118316 -0.1558558 -0.269985 -0.09567099 -0.4 -0.2309698 -0.09567099 0.4 -0.2309698 -1.63913e-7 -0.4 -0.25 -1.63913e-7 0.4 -0.25 -0.1118316 0.1558558 -0.269985 -0.1118316 -0.1558558 -0.269985 -2.08616e-7 0.1558558 -0.2922297 -2.08616e-7 -0.1558558 -0.2922297 -1.63913e-7 -0.4 -0.25 -1.63913e-7 0.4 -0.25 0.0956707 -0.4 -0.2309699 0.0956707 0.4 -0.2309699 -2.08616e-7 0.1558558 -0.2922297 -2.08616e-7 -0.1558558 -0.2922297 0.1118313 0.1558558 -0.2699851 0.1118313 -0.1558558 -0.2699851 0.0956707 -0.4 -0.2309699 0.0956707 0.4 -0.2309699 0.1767765 -0.4 -0.1767768 0.1767765 0.4 -0.1767768 0.1118313 0.1558558 -0.2699851 0.1118313 -0.1558558 -0.2699851 0.2066375 0.1558558 -0.2066378 0.2066375 -0.1558558 -0.2066378 0.1767765 -0.4 -0.1767768 0.1767765 0.4 -0.1767768 0.2309697 -0.4 -0.09567099 0.2309697 0.4 -0.09567105 0.2066375 0.1558558 -0.2066378 0.2066375 -0.1558558 -0.2066378 0.269985 0.1558558 -0.1118317 0.269985 -0.1558558 -0.1118317 0.2309697 -0.4 -0.09567099 0.2309697 0.4 -0.09567105 0.25 -0.4 -2.13483e-7 0.25 0.4 -2.48453e-7 0.269985 0.1558558 -0.1118317 0.269985 -0.1558558 -0.1118317 0.2922297 0.1558558 -3.04836e-7 0.2922297 -0.1558558 -2.91211e-7 0.25 -0.4 -2.13483e-7 0.25 0.4 -2.48453e-7 0.2309699 -0.4 0.09567064 0.2309699 0.4 0.09567058 0.2922297 0.1558558 -3.04836e-7 0.2922297 -0.1558558 -2.91211e-7 0.2699852 0.1558558 0.1118311 0.2699852 -0.1558558 0.1118312 0.2309699 -0.4 0.09567064 0.2309699 0.4 0.09567058 0.1767768 -0.4 0.1767765 0.1767768 0.4 0.1767765 0.2699852 0.1558558 0.1118311 0.2699852 -0.1558558 0.1118312 0.2066378 0.1558558 0.2066374 0.2066378 -0.1558558 0.2066374 0.1767768 -0.4 0.1767765 0.1767768 0.4 0.1767765 0.09567111 -0.4 0.2309697 0.09567111 0.4 0.2309697 0.2066378 0.1558558 0.2066374 0.2066378 -0.1558558 0.2066374 0.1118318 0.1558558 0.269985 0.1118318 -0.1558558 0.269985</float_array>
          <technique_common>
            <accessor source="#Barrel-mesh-positions-array" count="416" stride="3">
              <param name="X" type="float"/>
              <param name="Y" type="float"/>
              <param name="Z" type="float"/>
            </accessor>
          </technique_common>
        </source>
        <source id="Barrel-mesh-normals">
          <float_array id="Barrel-mesh-normals-array" count="1140">0.7260354 0.6876431 0 0.765862 -0.6429945 0 0.7051607 -0.6461074 -0.29194 -0.5183264 0.6774804 0.521836 -0.5352336 -0.653676 0.534959 -0.2872097 -0.6612141 0.6930143 -0.2823572 0.670278 -0.6862392 0 0.6673178 -0.7447432 0 -0.6643269 -0.7474288 0.672689 0.6846523 -0.2805261 0.5352336 -0.653676 -0.534959 -0.2823572 0.670278 0.6862392 0 -0.6643269 0.7474288 -0.5183264 0.6774804 -0.521836 -0.2872097 -0.6612141 -0.6930143 0.5183264 0.6774804 -0.521836 0.2872097 -0.6612141 -0.6930143 0.2823572 0.670278 0.6862392 0 0.6673178 0.7447432 -0.672689 0.6846523 -0.2805261 -0.5352336 -0.653676 -0.534959 0.2823572 0.670278 -0.6862392 0.5183264 0.6774804 0.521836 0.2872097 -0.6612141 0.6930143 -0.7260354 0.6876431 0 -0.7051607 -0.6461074 -0.29194 0.672689 0.6846523 0.2805261 0.5352336 -0.653676 0.534959 -0.765862 -0.6429945 0 -0.7051607 -0.6461074 0.29194 0.7051607 -0.6461074 0.29194 -0.672689 0.6846523 0.2805261 0.002075254 0.9999695 -0.006195247 -0.02612382 -0.9996338 0 -0.02087461 -0.9997254 -0.009186029 -0.02087461 -0.9997254 0.009186029 0.0208441 0.9997254 0.009094476 0.009887993 0.9998779 0.010773 0.009887993 0.9998779 -0.010773 0.02612382 -0.9996338 0 -0.009887993 0.9998779 -0.010773 -0.002075254 0.9999695 -0.006195247 -0.0208441 0.9997254 0.009094476 -0.002075254 -0.9999695 0.006256282 0.02087461 -0.9997254 -0.009186029 0 -0.9999695 0.003234922 0.002075254 -0.9999695 0.006256282 -0.009887993 0.9998779 0.010773 0.00991851 -0.9998779 -0.01086455 -0.00991851 -0.9998779 -0.01086455 0 0.9999695 0.003173887 0.0208441 0.9997254 -0.009094476 -0.0208441 0.9997254 -0.009094476 -0.002075254 0.9999695 0.006195247 0 -0.9999695 -0.003234922 -0.002075254 -0.9999695 -0.006256282 0.002075254 -0.9999695 -0.006256282 0.002075254 0.9999695 0.006195247 0.02087461 -0.9997254 0.009186029 0.02612382 0.9996338 0 0.00991851 -0.9998779 0.01086455 -0.00991851 -0.9998779 0.01086455 -0.02612382 0.9996338 0 0 0.9999695 -0.003173887 0.7260354 0.6876431 0 0.765862 -0.6429945 0 0.7051607 -0.6461074 -0.29194 -0.5183264 0.6774804 0.521836 -0.5352336 -0.653676 0.534959 -0.2872097 -0.6612141 0.6930143 -0.2823572 0.670278 -0.6862392 0 0.6673178 -0.7447432 0 -0.6643269 -0.7474288 0.672689 0.6846523 -0.2805261 0.5352336 -0.653676 -0.534959 -0.2823572 0.670278 0.6862392 0 -0.6643269 0.7474288 -0.5183264 0.6774804 -0.521836 -0.2872097 -0.6612141 -0.6930143 0.5183264 0.6774804 -0.521836 0.2872097 -0.6612141 -0.6930143 0.2823572 0.670278 0.6862392 0 0.6673178 0.7447432 -0.672689 0.6846523 -0.2805261 -0.5352336 -0.653676 -0.534959 0.2823572 0.670278 -0.6862392 0.5183264 0.6774804 0.521836 0.2872097 -0.6612141 0.6930143 -0.7260354 0.6876431 0 -0.7051607 -0.6461074 -0.29194 0.672689 0.6846523 0.2805261 0.5352336 -0.653676 0.534959 -0.765862 -0.6429945 0 -0.7051607 -0.6461074 0.29194 0.7051607 -0.6461074 0.29194 -0.672689 0.6846523 0.2805261 0.002075254 0.9999695 -0.006195247 -0.02612382 -0.9996338 0 -0.02087461 -0.9997254 -0.009186029 -0.02087461 -0.9997254 0.009186029 0.0208441 0.9997254 0.009094476 0.009887993 0.9998779 0.010773 0.009887993 0.9998779 -0.010773 0.02612382 -0.9996338 0 -0.009887993 0.9998779 -0.010773 -0.002075254 0.9999695 -0.006195247 -0.0208441 0.9997254 0.009094476 -0.002075254 -0.9999695 0.006256282 0.02087461 -0.9997254 -0.009186029 0 -0.9999695 0.003234922 0.002075254 -0.9999695 0.006256282 -0.009887993 0.9998779 0.010773 0.00991851 -0.9998779 -0.01086455 -0.00991851 -0.9998779 -0.01086455 0 0.9999695 0.003173887 0.0208441 0.9997254 -0.009094476 -0.0208441 0.9997254 -0.009094476 -0.002075254 0.9999695 0.006195247 0 -0.9999695 -0.003234922 -0.002075254 -0.9999695 -0.006256282 0.002075254 -0.9999695 -0.006256282 0.002075254 0.9999695 0.006195247 0.02087461 -0.9997254 0.009186029 0.02612382 0.9996338 0 0.00991851 -0.9998779 0.01086455 -0.00991851 -0.9998779 0.01086455 -0.02612382 0.9996338 0 0 0.9999695 -0.003173887 -0.6250496 -0.7805719 0 -0.8465834 0.5322123 0 -0.770745 0.5504013 -0.3208716 0.4752647 -0.7284158 0.4934538 0.5674612 0.5945616 0.569567 0.2938017 0.638844 0.7109897 0.2683492 -0.6907865 -0.6714072 0 -0.6751 -0.7376934 0 0.6571245 -0.7537462 -0.5908994 -0.7654653 -0.2546464 -0.5674612 0.5945616 -0.569567 0.2683492 -0.6907865 0.6714072 0 0.6571245 0.7537462 0.4752647 -0.7284158 -0.4934538 0.2938017 0.638844 -0.7109897 -0.4752647 -0.7284158 -0.4934538 -0.2938017 0.638844 -0.7109897 -0.2683492 -0.6907865 0.6714072 0 -0.6751 0.7376934 0.5908994 -0.7654653 -0.2546464 0.5674612 0.5945616 -0.569567 -0.2683492 -0.6907865 -0.6714072 -0.4752647 -0.7284158 0.4934538 -0.2938017 0.638844 0.7109897 0.6250496 -0.7805719 0 0.770745 0.5504013 -0.3208716 -0.5908994 -0.7654653 0.2546464 -0.5674612 0.5945616 0.569567 0.8465834 0.5322123 0 0.770745 0.5504013 0.3208716 -0.770745 0.5504013 0.3208716 0.5908994 -0.7654653 0.2546464 -0.01339757 -0.999115 -0.03958249 0.1696218 0.9855037 0 0.1353191 0.9888913 -0.06143373 0.1353191 0.9888913 0.06143373 -0.1347697 -0.9891354 0.05862605 -0.06378364 -0.9955443 0.06918543 -0.06378364 -0.9955443 -0.06918543 -0.1696218 0.9855037 0 0.06378364 -0.9955443 -0.06918543 0.01339757 -0.999115 -0.03958249 0.1347697 -0.9891354 0.05862605 0.01348912 0.9990234 0.04177981 -0.1353191 0.9888913 -0.06143373 0 0.9997559 0.02154606 -0.01348912 0.9990234 0.04177981 0.06378364 -0.9955443 0.06918543 -0.06414991 0.9952697 -0.07263404 0.06414991 0.9952697 -0.07263404 0 -0.9997864 0.02026426 -0.1347697 -0.9891354 -0.05862605 0.1347697 -0.9891354 -0.05862605 0.01339757 -0.999115 0.03958249 0 0.9997559 -0.02154606 0.01348912 0.9990234 -0.04177981 -0.01348912 0.9990234 -0.04177981 -0.01339757 -0.999115 0.03958249 -0.1353191 0.9888913 0.06143373 -0.168981 -0.9855953 0 -0.06414991 0.9952697 0.07263404 0.06414991 0.9952697 0.07263404 0.168981 -0.9855953 0 0 -0.9997864 -0.02026426 0.7741935 0.6328929 0 0.8465834 -0.5322123 0 0.770745 -0.5504013 -0.3208716 -0.5713981 0.5736259 0.5868404 -0.5674612 -0.5945616 0.569567 -0.2938017 -0.638844 0.7109897 -0.3169957 0.5322123 -0.7849971 0 0.515244 -0.8570208 0 -0.6571245 -0.7537462 0.7250587 0.6154973 -0.3088473 0.5674612 -0.5945616 -0.569567 -0.3169957 0.5322123 0.7849971 0 -0.6571245 0.7537462 -0.5713981 0.5736259 -0.5868404 -0.2938017 -0.638844 -0.7109897 0.5713981 0.5736259 -0.5868404 0.2938017 -0.638844 -0.7109897 0.3169957 0.5322123 0.7849971 0 0.515244 0.8570208 -0.7250587 0.6154973 -0.3088473 -0.5674612 -0.5945616 -0.569567 0.3169957 0.5322123 -0.7849971 0.5713981 0.5736259 0.5868404 0.2938017 -0.638844 0.7109897 -0.7741935 0.6328929 0 -0.770745 -0.5504013 -0.3208716 0.7250587 0.6154973 0.3088473 0.5674612 -0.5945616 0.569567 -0.8465834 -0.5322123 0 -0.770745 -0.5504013 0.3208716 0.770745 -0.5504013 0.3208716 -0.7250587 0.6154973 0.3088473 -0.4991912 -0.842555 0.202063 -0.5187537 -0.854915 0 -0.5789666 0.8153325 0 0.2446669 -0.7752922 -0.5822321 0.4179205 -0.8105106 -0.4103519 0.3502609 0.8549456 -0.3825495 0 -0.7598193 0.6501053 0 0.88876 0.4582964 0.1673024 0.8794519 0.4455702 -0.4179205 -0.8105106 0.4103519 -0.5121921 0.8275399 0.2297738 0 -0.7598193 -0.6501053 0.1673024 0.8794519 -0.4455702 0.2446669 -0.7752922 0.5822321 0.3502609 0.8549456 0.3825495 -0.2446669 -0.7752922 0.5822321 -0.3502609 0.8549456 0.3825495 0 0.88876 -0.4582964 -0.1673024 0.8794519 -0.4455702 0.4179205 -0.8105106 0.4103519 0.5121921 0.8275399 0.2297738 -0.1673024 0.8794519 0.4455702 -0.2446669 -0.7752922 -0.5822321 -0.3502609 0.8549456 -0.3825495 0.4991912 -0.842555 0.202063 0.5789666 0.8153325 0 -0.4179205 -0.8105106 -0.4103519 -0.5121921 0.8275399 -0.2297738 0.4991912 -0.842555 -0.202063 0.5187537 -0.854915 0 -0.4991912 -0.842555 -0.202063 0.5121616 0.8275399 -0.2297738 0 -1 0 0 1 0 0.1923422 0.1672574 0.9669691 0.1923421 -0.1672573 0.9669693 0.1950903 0 0.9807853 -0.1923419 0.1672574 0.9669693 -0.1923421 -0.1672571 0.9669693 -0.1950903 0 0.9807853 -0.547744 0.1672573 0.8197571 -0.5477439 -0.1672572 0.8197571 -0.55557 0 0.8314697 -0.8197568 0.1672573 0.5477443 -0.8197566 -0.1672572 0.5477445 -0.8314694 0 0.5555706 -0.9669691 0.1672574 0.1923425 -0.9669692 -0.1672574 0.1923424 -0.9807852 0 0.1950905 -0.9669693 0.1672573 -0.1923418 -0.9669693 -0.1672573 -0.1923419 -0.9807853 0 -0.19509 -0.8197572 0.1672573 -0.5477437 -0.8197572 -0.1672573 -0.5477436 -0.8314698 0 -0.5555698 -0.5477446 0.1672573 -0.8197566 -0.5477446 -0.1672574 -0.8197567 -0.5555707 0 -0.8314694 -0.192343 0.1672571 -0.9669691 -0.1923426 -0.1672573 -0.9669691 -0.1950908 0 -0.9807852 0.1923416 0.1672571 -0.9669694 0.1923413 -0.1672573 -0.9669694 0.1950895 0 -0.9807855 0.5477436 0.1672572 -0.8197574 0.5477434 -0.1672573 -0.8197574 0.5555696 0 -0.8314701 0.8197566 0.1672572 -0.5477447 0.8197566 -0.1672572 -0.5477446 0.8314692 0 -0.555571 0.966969 0.1672573 -0.1923429 0.966969 -0.1672572 -0.1923431 0.9807851 0 -0.1950914 0.9669694 0.1672573 0.1923412 0.9669694 -0.1672572 0.1923411 0.9807855 0 0.1950893 0.8197575 0.1672573 0.5477433 0.8197575 -0.1672572 0.5477433 0.8314702 0 0.5555693 0.547745 0.1672573 0.8197564 0.5477452 -0.1672571 0.8197563 0.5555713 0 0.8314688 0 -1 0 0 -1 0 0 -1 0 0 -1 0 0 -1 0 0 -1 0 0 -1 0 0 -1 0 0 -1 0 0 1 0 0 -1 0 0 -1 0 0 -1 0 0 -1 0 0.1923421 0.1672574 0.9669692 0 1 0 0 1 0 0 1 0 0 1 0 0 1 0 0 1 0 0 1 0 0 1 0 0 1 0 0 1 0 0 1 0 0 1 0 0.1923424 -0.1672571 0.9669691 0.1950903 0 0.9807853 -0.1923421 0.1672573 0.9669692 -0.1923421 -0.1672572 0.9669693 -0.1950903 0 0.9807853 -0.5477439 0.1672573 0.819757 -0.547744 -0.1672572 0.8197571 -0.55557 0 0.8314697 -0.8197567 0.1672574 0.5477444 -0.8197568 -0.1672573 0.5477443 -0.8314693 0 0.5555707 -0.9669692 0.1672573 0.1923424 -0.9669691 -0.1672573 0.1923425 -0.9807852 0 0.1950905 -0.9669693 0.1672573 -0.1923419 -0.9669693 -0.1672573 -0.1923418 -0.9807853 0 -0.19509 -0.8197571 0.1672573 -0.5477436 -0.8197572 -0.1672574 -0.5477437 -0.8314699 0 -0.5555698 -0.5477445 0.1672573 -0.8197566 -0.5477446 -0.1672573 -0.8197566 -0.5555707 0 -0.8314694 -0.1923426 0.1672572 -0.9669691 -0.1923428 -0.1672573 -0.9669691 -0.1950908 0 -0.9807852 0.1923413 0.167257 -0.9669694 0.1923415 -0.1672573 -0.9669693 0.1950895 0 -0.9807855 0.5477434 0.1672571 -0.8197574 0.5477435 -0.1672573 -0.8197574 0.5555696 0 -0.8314701 0.8197566 0.1672571 -0.5477448 0.8197566 -0.1672573 -0.5477447 0.8314692 0 -0.5555709 0.966969 0.1672572 -0.1923431 0.966969 -0.1672573 -0.1923429 0.9807851 0 -0.1950914 0.9669696 0.1672573 0.1923411 0.9669694 -0.1672573 0.1923412 0.9807855 0 0.1950893 0.8197576 0.1672573 0.5477432 0.8197575 -0.1672572 0.5477432 0.8314702 0 0.5555694 0.5477451 0.1672574 0.8197562 0.5477449 -0.1672573 0.8197563 0.5555713 0 0.8314688</float_array>
          <technique_common>
            <accessor source="#Barrel-mesh-normals-array" count="380" stride="3">
              <param name="X" type="float"/>
              <param name="Y" type="float"/>
              <param name="Z" type="float"/>
            </accessor>
          </technique_common>
        </source>
        <source id="Barrel-mesh-map-0">
          <float_array id="Barrel-mesh-map-0-array" count="3240">0.9702812 0.1673583 0.9417582 0.1674864 0.9419595 0.102441 1.6854e-4 0.6568356 0.0287168 0.655991 0.02871203 0.7024172 0.268573 0.8280747 0.2683731 0.7630456 0.2969232 0.7629581 0.9704841 0.1023293 0.9419595 0.102441 0.9416316 0.04224902 1.62911e-4 0.7029144 0.02871203 0.7024172 0.02881819 0.7629581 0.2688373 0.8881015 0.268573 0.8280747 0.2971242 0.8283967 0.2682735 0.6568356 0.2968217 0.655991 0.296817 0.7024173 4.6804e-4 0.8280747 2.68134e-4 0.7630457 0.02881819 0.7629581 0.2691256 0.9339876 0.2688373 0.8881015 0.2973892 0.8887709 0.2682679 0.7029145 0.296817 0.7024173 0.2969232 0.7629581 7.32283e-4 0.8881016 4.6804e-4 0.8280747 0.02901911 0.8283967 0.9705616 0.7523094 0.9698632 0.8123221 0.9413387 0.8124338 0.001020669 0.9339877 7.32283e-4 0.8881016 0.02928423 0.8887709 0.9705616 0.7523094 0.9420386 0.7524375 0.9422399 0.6873921 0.9702812 0.1673583 0.9695828 0.2273711 0.9410582 0.2274828 0.9707645 0.6872804 0.9422399 0.6873921 0.9419121 0.6272002 0.5831454 0.3539512 0.6291282 0.3999341 0.6119382 0.4113568 0.5229507 0.3289841 0.457905 0.3290656 0.4619293 0.3088337 0.3978418 0.3040983 0.4092969 0.2869392 0.4619293 0.3088337 0.5830763 0.3038664 0.5229507 0.3289841 0.5189341 0.3087474 0.3979569 0.3539512 0.409463 0.3710759 0.3691735 0.4113368 0.5230659 0.3290656 0.5831454 0.3539512 0.5716189 0.371068 0.4583144 8.14724e-5 0.5233602 0 0.5193358 0.02023184 0.6291282 0.5851225 0.6119289 0.5737197 0.6337611 0.5210681 0.5230659 0.6559911 0.4580363 0.6559911 0.4621133 0.6357668 0.6540953 0.1970475 0.6291282 0.2575365 0.611972 0.2460633 0.3981888 0.02519911 0.4583144 8.14724e-5 0.4623311 0.02031809 0.6540953 0.1970475 0.633853 0.1930211 0.633936 0.135643 0.4580363 0.6559911 0.3979569 0.6311053 0.4094833 0.6139886 0.352137 0.07152915 0.3981888 0.02519911 0.4096441 0.04236394 0.3519051 0.2578836 0.369057 0.2464091 0.4092969 0.2869392 0.3519741 0.5851225 0.3270884 0.5250431 0.3473308 0.5210166 0.4580364 0.3290656 0.5230659 0.3290656 0.518989 0.3492898 0.5831453 0.6311053 0.5716392 0.6139807 0.6119289 0.5737197 0.3979569 0.6311053 0.3519741 0.5851225 0.369164 0.5736997 0.3271698 0.132018 0.3474122 0.1360445 0.3473292 0.1934225 0.3271698 0.132018 0.352137 0.07152915 0.3692931 0.08300232 0.3519741 0.3999341 0.3691735 0.4113368 0.3473411 0.4639884 0.5834234 0.02496713 0.5719683 0.04212629 0.5193358 0.02023184 0.4580364 0.3290656 0.4620608 0.3492974 0.409463 0.3710759 0.6293601 0.07118201 0.6122082 0.0826565 0.5719683 0.04212629 0.6291282 0.2575365 0.5830763 0.3038664 0.5716211 0.2867016 0.6541768 0.1316086 0.633936 0.135643 0.6122082 0.0826565 0.5230659 0.6559911 0.5190415 0.6357592 0.5716392 0.6139807 0.6291282 0.3999341 0.6540139 0.4600135 0.6337715 0.46404 0.6540139 0.525043 0.6337611 0.5210681 0.6337715 0.46404 0.3270884 0.4600135 0.3473411 0.4639884 0.3473308 0.5210166 0.3270884 0.197457 0.3473292 0.1934225 0.369057 0.2464091 0.1479616 0.7811653 0.1194387 0.7812934 0.11964 0.7162479 0.2976837 0.6568356 0.326232 0.655991 0.3262273 0.7024172 0.6249088 0.8280747 0.6247088 0.7630456 0.653259 0.762958 0.1481645 0.7161362 0.11964 0.7162479 0.1193122 0.6560559 0.2976781 0.7029144 0.3262273 0.7024172 0.3263335 0.7629581 0.6251731 0.8881015 0.6249088 0.8280747 0.6534599 0.8283967 0.6246092 0.6568356 0.6531574 0.655991 0.6531528 0.7024173 0.2979832 0.8280747 0.2977833 0.7630456 0.3263335 0.7629581 0.6254613 0.9339876 0.6251731 0.8881015 0.653725 0.8887708 0.6246036 0.7029145 0.6531528 0.7024173 0.653259 0.762958 0.2982475 0.8881015 0.2979832 0.8280747 0.3265344 0.8283967 0.1788995 0.7811652 0.1782013 0.841178 0.1496767 0.8412896 0.2985358 0.9339877 0.2982475 0.8881015 0.3267995 0.8887709 0.1788995 0.7811652 0.1503767 0.7812933 0.150578 0.7162479 0.1479616 0.7811653 0.1472633 0.8411781 0.1187387 0.8412898 0.1791025 0.7161362 0.150578 0.7162479 0.1502501 0.656056 0.2562199 0.3539513 0.3022027 0.3999341 0.2850127 0.4113569 0.1958623 0.328984 0.1308165 0.3290655 0.1348409 0.3088336 0.07075333 0.3040983 0.08220845 0.2869392 0.1348409 0.3088336 0.2559879 0.3038664 0.1958623 0.328984 0.1918456 0.3087474 0.07103145 0.3539512 0.08253753 0.3710759 0.04224795 0.4113368 0.1961404 0.3290656 0.2562199 0.3539513 0.2446934 0.371068 0.131226 8.1439e-5 0.1962718 0 0.1922474 0.02023184 0.3022027 0.5851225 0.2850034 0.5737197 0.3068357 0.5210681 0.1961404 0.6559911 0.1311108 0.655991 0.1351878 0.6357668 0.3270069 0.1970475 0.3020398 0.2575365 0.2848836 0.2460632 0.07110041 0.02519911 0.131226 8.1439e-5 0.1352427 0.02031809 0.3270069 0.1970475 0.3067646 0.1930211 0.3068475 0.135643 0.1311108 0.655991 0.07103139 0.6311053 0.08255779 0.6139886 0.02504855 0.07152909 0.07110041 0.02519911 0.08255565 0.04236394 0.02481663 0.2578836 0.04196858 0.2464091 0.08220845 0.2869392 0.02504855 0.5851225 1.62911e-4 0.5250431 0.02040523 0.5210166 0.1311109 0.3290656 0.1961404 0.3290656 0.1920635 0.3492898 0.2562199 0.6311053 0.2447138 0.6139808 0.2850034 0.5737197 0.07103139 0.6311053 0.02504855 0.5851225 0.04223853 0.5736997 8.14557e-5 0.1320179 0.02032375 0.1360444 0.02024078 0.1934225 8.14557e-5 0.1320179 0.02504855 0.07152909 0.04220473 0.08300226 0.02504861 0.3999341 0.04224795 0.4113368 0.02041566 0.4639884 0.2563351 0.02496713 0.2448799 0.04212623 0.1922474 0.02023184 0.1311109 0.3290656 0.1351352 0.3492974 0.08253753 0.3710759 0.3022717 0.07118195 0.2851198 0.08265644 0.2448799 0.04212623 0.3020398 0.2575365 0.2559879 0.3038664 0.2445327 0.2867016 0.3270884 0.1316086 0.3068475 0.135643 0.2851198 0.08265644 0.1961404 0.6559911 0.192116 0.6357592 0.2447138 0.6139808 0.3022027 0.3999341 0.3270884 0.4600135 0.306846 0.46404 0.3270884 0.5250431 0.3068357 0.5210681 0.306846 0.46404 1.62945e-4 0.4600135 0.02041566 0.4639884 0.02040523 0.5210166 0 0.197457 0.02024078 0.1934225 0.04196858 0.2464091 0.9699975 0.3826506 0.9413387 0.3816472 0.9416371 0.3290656 0.08745247 0.8628475 0.05888819 0.8665906 0.058986 0.8121583 0.2386999 0.7003434 0.2384684 0.7531088 0.2099183 0.7530212 0.2382084 0.9031139 0.2096398 0.9080314 0.2096382 0.8665906 0.08754378 0.8101727 0.058986 0.8121583 0.05916839 0.7530213 0.2389528 0.6599093 0.2386999 0.7003434 0.2101574 0.6981826 0.2382025 0.8628474 0.2096382 0.8665906 0.209736 0.8121582 0.08794999 0.7003434 0.08771848 0.7531089 0.05916839 0.7530213 0.9701694 0.9230827 0.9707769 0.9758582 0.9421517 0.9751744 0.2382938 0.8101726 0.209736 0.8121582 0.2099183 0.7530212 0.08820295 0.6599094 0.08794999 0.7003434 0.05940753 0.6981827 0.9699974 0.8660188 0.9701694 0.9230827 0.9415194 0.9221624 0.9701695 0.4397144 0.970777 0.4924898 0.9421518 0.491806 0.9699974 0.8660188 0.9413387 0.8650155 0.941637 0.8124338 0.9699975 0.3826506 0.9701695 0.4397144 0.9415195 0.4387941 0.08745843 0.903114 0.0588898 0.9080314 0.05888819 0.8665906 0.3892765 0.6778286 0.4419969 0.655991 0.4452691 0.6737946 0.8261236 0.6263724 0.7689809 0.6271352 0.7723475 0.6096506 0.7162069 0.6052089 0.7260205 0.5902602 0.7723475 0.6096506 0.8789353 0.6030365 0.8261236 0.6263724 0.8225623 0.6088485 0.3270884 0.8279638 0.344578 0.8242071 0.3637047 0.8703521 0.3489259 0.7181791 0.3892765 0.6778286 0.3989763 0.6930299 0.769229 0.3298284 0.8263717 0.3290656 0.8230051 0.3465502 0.5921322 0.7181791 0.5773534 0.7285113 0.5419455 0.6930246 0.6139698 0.8279639 0.5921322 0.8806844 0.5774115 0.8705207 0.9412894 0.5057519 0.9193762 0.5606802 0.9042866 0.5506835 0.7164172 0.3531643 0.769229 0.3298284 0.7727903 0.3473523 0.9412894 0.5057519 0.9235051 0.5023276 0.9236159 0.4502928 0.5921322 0.8806844 0.5517817 0.9210349 0.5420818 0.9058336 0.6759763 0.3955206 0.7164172 0.3531643 0.7264785 0.3681195 0.6758359 0.5639314 0.6907309 0.5537814 0.7260205 0.5902602 0.4990611 0.9428724 0.4419969 0.9428724 0.4455302 0.9251095 0.3270884 0.7708996 0.3489259 0.7181791 0.3636466 0.7283428 0.6139698 0.7708996 0.5964801 0.7746563 0.5773534 0.7285113 0.5517817 0.9210349 0.4990611 0.9428724 0.4957889 0.9250689 0.6540632 0.4504489 0.6718475 0.4538731 0.6717366 0.505908 0.6540632 0.4504489 0.6759763 0.3955206 0.691066 0.4055173 0.3489259 0.8806843 0.3637047 0.8703521 0.3991126 0.9058388 0.8791457 0.3509919 0.8693321 0.3659406 0.8230051 0.3465502 0.3270884 0.7708996 0.344552 0.7743733 0.344578 0.8242071 0.9195168 0.3922694 0.9046217 0.4024194 0.8693321 0.3659406 0.9193762 0.5606802 0.8789353 0.6030365 0.8688741 0.5880813 0.9413387 0.4466139 0.9236159 0.4502928 0.9046217 0.4024194 0.6139698 0.8279639 0.5965061 0.8244901 0.5964801 0.7746563 0.4419969 0.655991 0.4990612 0.655991 0.4955279 0.673754 0.5517817 0.6778286 0.5419455 0.6930246 0.4955279 0.673754 0.3892764 0.9210349 0.3991126 0.9058388 0.4455302 0.9251095 0.6540139 0.5095869 0.6717366 0.505908 0.6907309 0.5537814 0.9995415 0.1738999 0.971105 0.1749039 0.971275 0.117757 0.02957814 0.6599094 0.05811876 0.655991 0.05811822 0.6981834 0.2392206 0.8101739 0.2390452 0.7531101 0.2675953 0.7530224 0.9997196 0.1168361 0.971275 0.117757 0.9709679 0.06474214 0.02957314 0.7003442 0.05811822 0.6981834 0.05821555 0.7530225 0.2394525 0.8628483 0.2392206 0.8101739 0.267776 0.8121595 0.2389578 0.6599094 0.2674986 0.655991 0.267498 0.6981835 0.02984088 0.8101739 0.02966547 0.7531101 0.05821555 0.7530225 0.2397055 0.9031139 0.2394525 0.8628483 0.268012 0.8665914 0.2389528 0.7003443 0.267498 0.6981835 0.2675953 0.7530224 0.03007274 0.8628484 0.02984088 0.8101739 0.0583961 0.8121595 0.999822 0.7588509 0.9992092 0.811513 0.9707645 0.8124338 0.03032582 0.903114 0.03007274 0.8628484 0.05863231 0.8665914 0.999822 0.7588509 0.9713855 0.759855 0.9715554 0.7027081 0.9995415 0.1738999 0.9989288 0.2265619 0.9704841 0.2274828 1 0.7017871 0.9715554 0.7027081 0.9712484 0.6496933 0.1187387 0.9376578 0.1187524 0.8874359 0.1473967 0.8887908 0.1174743 0.8408836 0.1187387 0.8781306 0.09008795 0.8747141 0.2076524 0.7926095 0.1791025 0.7927847 0.1792414 0.7425242 0.1198318 0.9841613 0.1187387 0.9376578 0.1474167 0.9386269 0.1167527 0.7926095 0.1174743 0.8408836 0.08887434 0.8392391 0.2078216 0.7405735 0.1792414 0.7425242 0.180005 0.6962661 0.2083739 0.8408836 0.2096382 0.8781306 0.1809875 0.8747142 0.1167527 0.7926095 0.08820295 0.7927846 0.08834183 0.7425242 0.2086169 0.6926178 0.180005 0.6962661 0.180819 0.6610045 0.2076524 0.7926095 0.2083739 0.8408836 0.1797739 0.839239 0.116922 0.7405735 0.08834183 0.7425242 0.08910536 0.6962661 0.1504319 0.8412896 0.1791025 0.8428199 0.1778039 0.8887907 0.1177173 0.6926178 0.08910536 0.6962661 0.0899195 0.6610045 0.1491459 0.9376577 0.1491597 0.8874357 0.1778039 0.8887907 0.1200246 0.8412898 0.1486952 0.8428201 0.1473967 0.8887908 0.1502391 0.9841611 0.1491459 0.9376577 0.177824 0.9386267 0.7690854 0.04218411 0.8261496 0.04218411 0.8223596 0.0598846 0.8261235 0.9244421 0.7689809 0.9252049 0.7723474 0.9077202 0.7162069 0.9032785 0.7260204 0.8883298 0.7723474 0.9077202 0.8789353 0.9011061 0.8261235 0.9244421 0.8225623 0.9069181 0.6541768 0.1570926 0.6717727 0.1603149 0.6717846 0.2102668 0.7163649 0.06402164 0.7690854 0.04218411 0.7722296 0.05994027 0.7692289 0.627898 0.8263716 0.6271352 0.8230051 0.6446199 0.9410582 0.1570926 0.9234504 0.1609828 0.9043179 0.1146474 0.9192206 0.2668774 0.8788701 0.307228 0.8691595 0.2922046 0.9412893 0.8038216 0.9193762 0.8587499 0.9042865 0.8487532 0.7164171 0.651234 0.7692289 0.627898 0.7727902 0.645422 0.9412893 0.8038216 0.9235051 0.8003973 0.9236159 0.7483624 0.8788701 0.307228 0.8261496 0.3290655 0.8230054 0.3113093 0.6759763 0.6935904 0.7164171 0.651234 0.7264784 0.6661891 0.6758358 0.8620011 0.6907309 0.8518511 0.7260204 0.8883298 0.7690853 0.3290655 0.7163649 0.307228 0.7264268 0.2921693 0.6760144 0.1043722 0.7163649 0.06402164 0.7260755 0.07904505 0.9410582 0.2141569 0.9234623 0.2109346 0.9234504 0.1609828 0.8261496 0.3290655 0.7690853 0.3290655 0.7728753 0.311365 0.6540632 0.7485186 0.6718475 0.7519428 0.6717366 0.8039777 0.6540632 0.7485186 0.6759763 0.6935904 0.6910659 0.7035869 0.6541768 0.2141569 0.6717846 0.2102668 0.6909171 0.2566022 0.8791457 0.6490616 0.8693321 0.6640103 0.8230051 0.6446199 0.6760144 0.1043722 0.6908193 0.1142646 0.6717727 0.1603149 0.9195168 0.6903391 0.9046217 0.7004891 0.8693321 0.6640103 0.9193762 0.8587499 0.8789353 0.9011061 0.868874 0.886151 0.9413387 0.7446836 0.9236159 0.7483624 0.9046217 0.7004891 0.9192206 0.2668774 0.9044156 0.2569851 0.9234623 0.2109346 0.8261496 0.04218411 0.8788701 0.06402164 0.8688082 0.07908034 0.9192206 0.1043722 0.9043179 0.1146474 0.8688082 0.07908034 0.6760144 0.2668774 0.6909171 0.2566022 0.7264268 0.2921693 0.6540139 0.8076566 0.6717366 0.8039777 0.6907309 0.8518511 0.02609086 0.268407 0.07427972 0.02609086 0.2054179 0 0.3270695 0.296266 0.394016 0.3964586 0.2703151 0.5815904 0.7064733 0.1449327 0.7104646 0.01480948 0.7624484 0.0146501 0.7117726 0.4411469 0.7069829 0.3110507 0.7677478 0.3108643 0.7069829 0.3110507 0.7064733 0.1449327 0.7672383 0.1447463 0.4798912 0.1484006 0.4838824 0.01827734 0.5358663 0.01811796 0.4804008 0.3145186 0.5411656 0.3143322 0.5371744 0.4444554 0.4804008 0.3145186 0.4798912 0.1484006 0.5406562 0.1482142 0.243773 0.07723176 0.2957568 0.07707238 0.3005467 0.2071686 0.2402913 0.373473 0.3010562 0.3732866 0.2970649 0.5034098 0.2402913 0.373473 0.2397817 0.207355 0.3005467 0.2071686 0.7064733 0.1449327 0.7104646 0.01480948 0.7624484 0.0146501 0.7117726 0.4411469 0.7069829 0.3110507 0.7677478 0.3108643 0.7069829 0.3110507 0.7064733 0.1449327 0.7672383 0.1447463 0.3987274 0.1726759 0.4027187 0.0425527 0.4547025 0.04239332 0.4040266 0.4688901 0.399237 0.3387939 0.4600018 0.3386076 0.399237 0.3387939 0.3987274 0.1726759 0.4594923 0.1724895 0.4765093 0.1726759 0.4805006 0.0425527 0.5324845 0.04239332 0.4818086 0.4688901 0.4770189 0.3387939 0.5377838 0.3386076 0.4765093 0.1726759 0.5372743 0.1724895 0.5377838 0.3386076 0.6320732 0.540274 0.6360645 0.4101507 0.6880483 0.4099913 0.6373724 0.8364881 0.6325828 0.7063919 0.6933476 0.7062056 0.6325828 0.7063919 0.6320732 0.540274 0.6928382 0.5400876 0.2505366 0.0980392 0.3025205 0.09787982 0.3073103 0.227976 0.2518446 0.5243766 0.2470549 0.3942804 0.3078198 0.3940941 0.2470549 0.3942804 0.2465453 0.2281624 0.3073103 0.227976 0.8694103 0.2679666 0.9213941 0.2678072 0.926184 0.3979035 0.8707183 0.694304 0.8659286 0.5642078 0.9266934 0.5640214 0.8659286 0.5642078 0.865419 0.3980898 0.926184 0.3979035 0.7916284 0.1882047 0.8436122 0.1880453 0.848402 0.3181416 0.7929363 0.6145421 0.7881467 0.4844459 0.8489115 0.4842596 0.7881467 0.4844459 0.7876371 0.318328 0.848402 0.3181416 0.2505366 0.02521318 0.3025205 0.02505379 0.3073103 0.15515 0.2518446 0.4515506 0.2470549 0.3214544 0.3078198 0.321268 0.2470549 0.3214544 0.2465453 0.1553364 0.3073103 0.15515 0.2471548 0.2055443 0.2991386 0.2053849 0.3039285 0.3354812 0.2484627 0.6318817 0.2436731 0.5017855 0.3044379 0.5015991 0.2436731 0.5017855 0.2431635 0.3356676 0.3039285 0.3354812 0.4853705 0.398776 0.5373544 0.3986166 0.5421442 0.5287129 0.4866784 0.8251134 0.4818888 0.6950172 0.5426536 0.6948308 0.4818888 0.6950172 0.4813792 0.5288993 0.5421442 0.5287129 0.6347118 0.04366242 0.6866956 0.04350304 0.6914855 0.1735993 0.6360198 0.4699999 0.6312301 0.3399037 0.691995 0.3397173 0.6312301 0.3399037 0.6307205 0.1737856 0.6914855 0.1735993 0.3993368 0.1673973 0.4513207 0.1672379 0.4561105 0.2973342 0.4006448 0.5937348 0.3958551 0.4636386 0.45662 0.4634522 0.3958551 0.4636386 0.3953456 0.2975206 0.4561105 0.2973342 0.7808735 0.2246945 0.7848647 0.09457129 0.8368486 0.0944119 0.7861727 0.5209087 0.781383 0.3908125 0.8421479 0.3906261 0.781383 0.3908125 0.7808735 0.2246945 0.8416385 0.2245081 0.9704841 0.1023293 0.9702812 0.1673583 0.9419595 0.102441 1.62911e-4 0.7029144 1.6854e-4 0.6568356 0.02871203 0.7024172 0.2971242 0.8283967 0.268573 0.8280747 0.2969232 0.7629581 0.9701608 0.04218411 0.9704841 0.1023293 0.9416316 0.04224902 2.68134e-4 0.7630457 1.62911e-4 0.7029144 0.02881819 0.7629581 0.2973892 0.8887709 0.2688373 0.8881015 0.2971242 0.8283967 0.2682679 0.7029145 0.2682735 0.6568356 0.296817 0.7024173 0.02901911 0.8283967 4.6804e-4 0.8280747 0.02881819 0.7629581 0.2976781 0.934889 0.2691256 0.9339876 0.2973892 0.8887709 0.2683731 0.7630456 0.2682679 0.7029145 0.2969232 0.7629581 0.02928423 0.8887709 7.32283e-4 0.8881016 0.02901911 0.8283967 0.9420386 0.7524375 0.9705616 0.7523094 0.9413387 0.8124338 0.02957314 0.9348891 0.001020669 0.9339877 0.02928423 0.8887709 0.9707645 0.6872804 0.9705616 0.7523094 0.9422399 0.6873921 0.9417582 0.1674864 0.9702812 0.1673583 0.9410582 0.2274828 0.9704412 0.6271352 0.9707645 0.6872804 0.9419121 0.6272002 0.5716189 0.371068 0.5831454 0.3539512 0.6119382 0.4113568 0.5189341 0.3087474 0.5229507 0.3289841 0.4619293 0.3088337 0.457905 0.3290656 0.3978418 0.3040983 0.4619293 0.3088337 0.5716211 0.2867016 0.5830763 0.3038664 0.5189341 0.3087474 0.3519741 0.3999341 0.3979569 0.3539512 0.3691735 0.4113368 0.518989 0.3492898 0.5230659 0.3290656 0.5716189 0.371068 0.4623311 0.02031809 0.4583144 8.14724e-5 0.5193358 0.02023184 0.6540139 0.525043 0.6291282 0.5851225 0.6337611 0.5210681 0.5190415 0.6357592 0.5230659 0.6559911 0.4621133 0.6357668 0.633853 0.1930211 0.6540953 0.1970475 0.611972 0.2460633 0.4096441 0.04236394 0.3981888 0.02519911 0.4623311 0.02031809 0.6541768 0.1316086 0.6540953 0.1970475 0.633936 0.135643 0.4621133 0.6357668 0.4580363 0.6559911 0.4094833 0.6139886 0.3692931 0.08300232 0.352137 0.07152915 0.4096441 0.04236394 0.3978418 0.3040983 0.3519051 0.2578836 0.4092969 0.2869392 0.369164 0.5736997 0.3519741 0.5851225 0.3473308 0.5210166 0.4620608 0.3492974 0.4580364 0.3290656 0.518989 0.3492898 0.6291282 0.5851225 0.5831453 0.6311053 0.6119289 0.5737197 0.4094833 0.6139886 0.3979569 0.6311053 0.369164 0.5736997 0.3270884 0.197457 0.3271698 0.132018 0.3473292 0.1934225 0.3474122 0.1360445 0.3271698 0.132018 0.3692931 0.08300232 0.3270884 0.4600135 0.3519741 0.3999341 0.3473411 0.4639884 0.5233602 0 0.5834234 0.02496713 0.5193358 0.02023184 0.3979569 0.3539512 0.4580364 0.3290656 0.409463 0.3710759 0.5834234 0.02496713 0.6293601 0.07118201 0.5719683 0.04212629 0.611972 0.2460633 0.6291282 0.2575365 0.5716211 0.2867016 0.6293601 0.07118201 0.6541768 0.1316086 0.6122082 0.0826565 0.5831453 0.6311053 0.5230659 0.6559911 0.5716392 0.6139807 0.6119382 0.4113568 0.6291282 0.3999341 0.6337715 0.46404 0.6540139 0.4600135 0.6540139 0.525043 0.6337715 0.46404 0.3270884 0.5250431 0.3270884 0.4600135 0.3473308 0.5210166 0.3519051 0.2578836 0.3270884 0.197457 0.369057 0.2464091 0.1481645 0.7161362 0.1479616 0.7811653 0.11964 0.7162479 0.2976781 0.7029144 0.2976837 0.6568356 0.3262273 0.7024172 0.6534599 0.8283967 0.6249088 0.8280747 0.653259 0.762958 0.1478414 0.655991 0.1481645 0.7161362 0.1193122 0.6560559 0.2977833 0.7630456 0.2976781 0.7029144 0.3263335 0.7629581 0.653725 0.8887708 0.6251731 0.8881015 0.6534599 0.8283967 0.6246036 0.7029145 0.6246092 0.6568356 0.6531528 0.7024173 0.3265344 0.8283967 0.2979832 0.8280747 0.3263335 0.7629581 0.6540139 0.9348889 0.6254613 0.9339876 0.653725 0.8887708 0.6247088 0.7630456 0.6246036 0.7029145 0.653259 0.762958 0.3267995 0.8887709 0.2982475 0.8881015 0.3265344 0.8283967 0.1503767 0.7812933 0.1788995 0.7811652 0.1496767 0.8412896 0.3270884 0.9348891 0.2985358 0.9339877 0.3267995 0.8887709 0.1791025 0.7161362 0.1788995 0.7811652 0.150578 0.7162479 0.1194387 0.7812934 0.1479616 0.7811653 0.1187387 0.8412898 0.1787793 0.655991 0.1791025 0.7161362 0.1502501 0.656056 0.2446934 0.371068 0.2562199 0.3539513 0.2850127 0.4113569 0.1918456 0.3087474 0.1958623 0.328984 0.1348409 0.3088336 0.1308165 0.3290655 0.07075333 0.3040983 0.1348409 0.3088336 0.2445327 0.2867016 0.2559879 0.3038664 0.1918456 0.3087474 0.02504861 0.3999341 0.07103145 0.3539512 0.04224795 0.4113368 0.1920635 0.3492898 0.1961404 0.3290656 0.2446934 0.371068 0.1352427 0.02031809 0.131226 8.1439e-5 0.1922474 0.02023184 0.3270884 0.5250431 0.3022027 0.5851225 0.3068357 0.5210681 0.192116 0.6357592 0.1961404 0.6559911 0.1351878 0.6357668 0.3067646 0.1930211 0.3270069 0.1970475 0.2848836 0.2460632 0.08255565 0.04236394 0.07110041 0.02519911 0.1352427 0.02031809 0.3270884 0.1316086 0.3270069 0.1970475 0.3068475 0.135643 0.1351878 0.6357668 0.1311108 0.655991 0.08255779 0.6139886 0.04220473 0.08300226 0.02504855 0.07152909 0.08255565 0.04236394 0.07075333 0.3040983 0.02481663 0.2578836 0.08220845 0.2869392 0.04223853 0.5736997 0.02504855 0.5851225 0.02040523 0.5210166 0.1351352 0.3492974 0.1311109 0.3290656 0.1920635 0.3492898 0.3022027 0.5851225 0.2562199 0.6311053 0.2850034 0.5737197 0.08255779 0.6139886 0.07103139 0.6311053 0.04223853 0.5736997 0 0.197457 8.14557e-5 0.1320179 0.02024078 0.1934225 0.02032375 0.1360444 8.14557e-5 0.1320179 0.04220473 0.08300226 1.62945e-4 0.4600135 0.02504861 0.3999341 0.02041566 0.4639884 0.1962718 0 0.2563351 0.02496713 0.1922474 0.02023184 0.07103145 0.3539512 0.1311109 0.3290656 0.08253753 0.3710759 0.2563351 0.02496713 0.3022717 0.07118195 0.2448799 0.04212623 0.2848836 0.2460632 0.3020398 0.2575365 0.2445327 0.2867016 0.3022717 0.07118195 0.3270884 0.1316086 0.2851198 0.08265644 0.2562199 0.6311053 0.1961404 0.6559911 0.2447138 0.6139808 0.2850127 0.4113569 0.3022027 0.3999341 0.306846 0.46404 0.3270884 0.4600135 0.3270884 0.5250431 0.306846 0.46404 1.62911e-4 0.5250431 1.62945e-4 0.4600135 0.02040523 0.5210166 0.02481663 0.2578836 0 0.197457 0.04196858 0.2464091 0.9702871 0.3299858 0.9699975 0.3826506 0.9416371 0.3290656 0.08754378 0.8101727 0.08745247 0.8628475 0.058986 0.8121583 0.2101574 0.6981826 0.2386999 0.7003434 0.2099183 0.7530212 0.2382025 0.8628474 0.2382084 0.9031139 0.2096382 0.8665906 0.08771848 0.7531089 0.08754378 0.8101727 0.05916839 0.7530213 0.2104169 0.655991 0.2389528 0.6599093 0.2101574 0.6981826 0.2382938 0.8101726 0.2382025 0.8628474 0.209736 0.8121582 0.05940753 0.6981827 0.08794999 0.7003434 0.05916839 0.7530213 0.9415194 0.9221624 0.9701694 0.9230827 0.9421517 0.9751744 0.2384684 0.7531088 0.2382938 0.8101726 0.2099183 0.7530212 0.05966699 0.655991 0.08820295 0.6599094 0.05940753 0.6981827 0.9413387 0.8650155 0.9699974 0.8660188 0.9415194 0.9221624 0.9415195 0.4387941 0.9701695 0.4397144 0.9421518 0.491806 0.970287 0.8133541 0.9699974 0.8660188 0.941637 0.8124338 0.9413387 0.3816472 0.9699975 0.3826506 0.9415195 0.4387941 0.08745247 0.8628475 0.08745843 0.903114 0.05888819 0.8665906 0.3989763 0.6930299 0.3892765 0.6778286 0.4452691 0.6737946 0.8225623 0.6088485 0.8261236 0.6263724 0.7723475 0.6096506 0.7689809 0.6271352 0.7162069 0.6052089 0.7723475 0.6096506 0.8688741 0.5880813 0.8789353 0.6030365 0.8225623 0.6088485 0.3489259 0.8806843 0.3270884 0.8279638 0.3637047 0.8703521 0.3636466 0.7283428 0.3489259 0.7181791 0.3989763 0.6930299 0.7727903 0.3473523 0.769229 0.3298284 0.8230051 0.3465502 0.5517817 0.6778286 0.5921322 0.7181791 0.5419455 0.6930246 0.5965061 0.8244901 0.6139698 0.8279639 0.5774115 0.8705207 0.9235051 0.5023276 0.9412894 0.5057519 0.9042866 0.5506835 0.7264785 0.3681195 0.7164172 0.3531643 0.7727903 0.3473523 0.9413387 0.4466139 0.9412894 0.5057519 0.9236159 0.4502928 0.5774115 0.8705207 0.5921322 0.8806844 0.5420818 0.9058336 0.691066 0.4055173 0.6759763 0.3955206 0.7264785 0.3681195 0.7162069 0.6052089 0.6758359 0.5639314 0.7260205 0.5902602 0.4957889 0.9250689 0.4990611 0.9428724 0.4455302 0.9251095 0.344552 0.7743733 0.3270884 0.7708996 0.3636466 0.7283428 0.5921322 0.7181791 0.6139698 0.7708996 0.5773534 0.7285113 0.5420818 0.9058336 0.5517817 0.9210349 0.4957889 0.9250689 0.6540139 0.5095869 0.6540632 0.4504489 0.6717366 0.505908 0.6718475 0.4538731 0.6540632 0.4504489 0.691066 0.4055173 0.3892764 0.9210349 0.3489259 0.8806843 0.3991126 0.9058388 0.8263717 0.3290656 0.8791457 0.3509919 0.8230051 0.3465502 0.3270884 0.8279638 0.3270884 0.7708996 0.344578 0.8242071 0.8791457 0.3509919 0.9195168 0.3922694 0.8693321 0.3659406 0.9042866 0.5506835 0.9193762 0.5606802 0.8688741 0.5880813 0.9195168 0.3922694 0.9413387 0.4466139 0.9046217 0.4024194 0.6139698 0.7708996 0.6139698 0.8279639 0.5964801 0.7746563 0.4452691 0.6737946 0.4419969 0.655991 0.4955279 0.673754 0.4990612 0.655991 0.5517817 0.6778286 0.4955279 0.673754 0.4419969 0.9428724 0.3892764 0.9210349 0.4455302 0.9251095 0.6758359 0.5639314 0.6540139 0.5095869 0.6907309 0.5537814 0.9997196 0.1168361 0.9995415 0.1738999 0.971275 0.117757 0.02957314 0.7003442 0.02957814 0.6599094 0.05811822 0.6981834 0.267776 0.8121595 0.2392206 0.8101739 0.2675953 0.7530224 0.999436 0.06405788 0.9997196 0.1168361 0.9709679 0.06474214 0.02966547 0.7531101 0.02957314 0.7003442 0.05821555 0.7530225 0.268012 0.8665914 0.2394525 0.8628483 0.267776 0.8121595 0.2389528 0.7003443 0.2389578 0.6599094 0.267498 0.6981835 0.0583961 0.8121595 0.02984088 0.8101739 0.05821555 0.7530225 0.2682679 0.9080314 0.2397055 0.9031139 0.268012 0.8665914 0.2390452 0.7531101 0.2389528 0.7003443 0.2675953 0.7530224 0.05863231 0.8665914 0.03007274 0.8628484 0.0583961 0.8121595 0.9713855 0.759855 0.999822 0.7588509 0.9707645 0.8124338 0.05888819 0.9080315 0.03032582 0.903114 0.05863231 0.8665914 1 0.7017871 0.999822 0.7588509 0.9715554 0.7027081 0.971105 0.1749039 0.9995415 0.1738999 0.9704841 0.2274828 0.9997165 0.649009 1 0.7017871 0.9712484 0.6496933 0.1474167 0.9386269 0.1187387 0.9376578 0.1473967 0.8887908 0.08887434 0.8392391 0.1174743 0.8408836 0.09008795 0.8747141 0.2078216 0.7405735 0.2076524 0.7926095 0.1792414 0.7425242 0.1485252 0.9848335 0.1198318 0.9841613 0.1474167 0.9386269 0.08820295 0.7927846 0.1167527 0.7926095 0.08887434 0.8392391 0.2086169 0.6926178 0.2078216 0.7405735 0.180005 0.6962661 0.1797739 0.839239 0.2083739 0.8408836 0.1809875 0.8747142 0.116922 0.7405735 0.1167527 0.7926095 0.08834183 0.7425242 0.2093828 0.655991 0.2086169 0.6926178 0.180819 0.6610045 0.1791025 0.7927847 0.2076524 0.7926095 0.1797739 0.839239 0.1177173 0.6926178 0.116922 0.7405735 0.08910536 0.6962661 0.1491597 0.8874357 0.1504319 0.8412896 0.1778039 0.8887907 0.1184833 0.655991 0.1177173 0.6926178 0.0899195 0.6610045 0.177824 0.9386267 0.1491459 0.9376577 0.1778039 0.8887907 0.1187524 0.8874359 0.1200246 0.8412898 0.1473967 0.8887908 0.1789324 0.9848334 0.1502391 0.9841611 0.177824 0.9386267 0.7722296 0.05994027 0.7690854 0.04218411 0.8223596 0.0598846 0.8225623 0.9069181 0.8261235 0.9244421 0.7723474 0.9077202 0.7689809 0.9252049 0.7162069 0.9032785 0.7723474 0.9077202 0.868874 0.886151 0.8789353 0.9011061 0.8225623 0.9069181 0.6541768 0.2141569 0.6541768 0.1570926 0.6717846 0.2102668 0.7260755 0.07904505 0.7163649 0.06402164 0.7722296 0.05994027 0.7727902 0.645422 0.7692289 0.627898 0.8230051 0.6446199 0.9192206 0.1043722 0.9410582 0.1570926 0.9043179 0.1146474 0.9044156 0.2569851 0.9192206 0.2668774 0.8691595 0.2922046 0.9235051 0.8003973 0.9412893 0.8038216 0.9042865 0.8487532 0.7264784 0.6661891 0.7164171 0.651234 0.7727902 0.645422 0.9413387 0.7446836 0.9412893 0.8038216 0.9236159 0.7483624 0.8691595 0.2922046 0.8788701 0.307228 0.8230054 0.3113093 0.6910659 0.7035869 0.6759763 0.6935904 0.7264784 0.6661891 0.7162069 0.9032785 0.6758358 0.8620011 0.7260204 0.8883298 0.7728753 0.311365 0.7690853 0.3290655 0.7264268 0.2921693 0.6908193 0.1142646 0.6760144 0.1043722 0.7260755 0.07904505 0.9410582 0.1570926 0.9410582 0.2141569 0.9234504 0.1609828 0.8230054 0.3113093 0.8261496 0.3290655 0.7728753 0.311365 0.6540139 0.8076566 0.6540632 0.7485186 0.6717366 0.8039777 0.6718475 0.7519428 0.6540632 0.7485186 0.6910659 0.7035869 0.6760144 0.2668774 0.6541768 0.2141569 0.6909171 0.2566022 0.8263716 0.6271352 0.8791457 0.6490616 0.8230051 0.6446199 0.6541768 0.1570926 0.6760144 0.1043722 0.6717727 0.1603149 0.8791457 0.6490616 0.9195168 0.6903391 0.8693321 0.6640103 0.9042865 0.8487532 0.9193762 0.8587499 0.868874 0.886151 0.9195168 0.6903391 0.9413387 0.7446836 0.9046217 0.7004891 0.9410582 0.2141569 0.9192206 0.2668774 0.9234623 0.2109346 0.8223596 0.0598846 0.8261496 0.04218411 0.8688082 0.07908034 0.8788701 0.06402164 0.9192206 0.1043722 0.8688082 0.07908034 0.7163649 0.307228 0.6760144 0.2668774 0.7264268 0.2921693 0.6758358 0.8620011 0.6540139 0.8076566 0.6907309 0.8518511 0.07427972 0.02609086 0.1372538 2.93642e-6 0.2054179 0 0.2054179 0 0.2683944 0.02608251 0.3165957 0.07427966 0.3165957 0.07427966 0.3426837 0.1372539 0.3426867 0.2054179 0.2684069 0.3165957 0.3165957 0.07427966 0.3166041 0.2683944 0.2684069 0.3165957 0.2054327 0.3426837 0.1372687 0.3426867 0.1372687 0.3426867 0.07429224 0.3166041 0.02609086 0.268407 0.02609086 0.268407 2.9156e-6 0.2054327 0 0.1372687 0 0.1372687 0.02608251 0.07429218 0.07427972 0.02609086 0.3165957 0.07427966 0.02609086 0.268407 0.2054179 0 0.3270697 0.5580819 0.2703151 0.5815904 0.394016 0.3964586 0.02609086 0.268407 0.3165957 0.07427966 0.1372687 0.3426867 0.02609086 0.268407 0 0.1372687 0.07427972 0.02609086 0.3165957 0.07427966 0.3426867 0.2054179 0.3166041 0.2683944 0.3165957 0.07427966 0.2684069 0.3165957 0.1372687 0.3426867 0.7672383 0.1447463 0.7064733 0.1449327 0.7624484 0.0146501 0.2703151 0.5815904 0.2088843 0.5815904 0.1521297 0.558082 0.1521297 0.558082 0.1086916 0.5146439 0.08518314 0.4578893 0.1086916 0.339704 0.2088842 0.2727575 0.08518314 0.3964586 0.1086916 0.339704 0.1521297 0.296266 0.2088842 0.2727575 0.3270695 0.296266 0.08518314 0.4578893 0.2703149 0.2727575 0.3270695 0.296266 0.3705075 0.339704 0.394016 0.3964586 0.3940161 0.4578893 0.3705075 0.5146439 0.3270697 0.5580819 0.2703151 0.5815904 0.1521297 0.558082 0.08518314 0.4578893 0.08518314 0.4578893 0.2088842 0.2727575 0.2703149 0.2727575 0.2088842 0.2727575 0.08518314 0.4578893 0.08518314 0.3964586 0.08518314 0.4578893 0.3270695 0.296266 0.2703151 0.5815904 0.3940161 0.4578893 0.3270697 0.5580819 0.394016 0.3964586 0.7637565 0.4409875 0.7117726 0.4411469 0.7677478 0.3108643 0.7677478 0.3108643 0.7069829 0.3110507 0.7672383 0.1447463 0.5406562 0.1482142 0.4798912 0.1484006 0.5358663 0.01811796 0.4851904 0.4446148 0.4804008 0.3145186 0.5371744 0.4444554 0.5411656 0.3143322 0.4804008 0.3145186 0.5406562 0.1482142 0.2397817 0.207355 0.243773 0.07723176 0.3005467 0.2071686 0.245081 0.5035692 0.2402913 0.373473 0.2970649 0.5034098 0.3010562 0.3732866 0.2402913 0.373473 0.3005467 0.2071686 0.7672383 0.1447463 0.7064733 0.1449327 0.7624484 0.0146501 0.7637565 0.4409875 0.7117726 0.4411469 0.7677478 0.3108643 0.7677478 0.3108643 0.7069829 0.3110507 0.7672383 0.1447463 0.4594923 0.1724895 0.3987274 0.1726759 0.4547025 0.04239332 0.4560105 0.4687308 0.4040266 0.4688901 0.4600018 0.3386076 0.4600018 0.3386076 0.399237 0.3387939 0.4594923 0.1724895 0.5372743 0.1724895 0.4765093 0.1726759 0.5324845 0.04239332 0.5337925 0.4687308 0.4818086 0.4688901 0.5377838 0.3386076 0.4770189 0.3387939 0.4765093 0.1726759 0.5377838 0.3386076 0.6928382 0.5400876 0.6320732 0.540274 0.6880483 0.4099913 0.6893563 0.8363288 0.6373724 0.8364881 0.6933476 0.7062056 0.6933476 0.7062056 0.6325828 0.7063919 0.6928382 0.5400876 0.2465453 0.2281624 0.2505366 0.0980392 0.3073103 0.227976 0.3038285 0.5242173 0.2518446 0.5243766 0.3078198 0.3940941 0.3078198 0.3940941 0.2470549 0.3942804 0.3073103 0.227976 0.865419 0.3980898 0.8694103 0.2679666 0.926184 0.3979035 0.9227022 0.6941446 0.8707183 0.694304 0.9266934 0.5640214 0.9266934 0.5640214 0.8659286 0.5642078 0.926184 0.3979035 0.7876371 0.318328 0.7916284 0.1882047 0.848402 0.3181416 0.8449202 0.6143828 0.7929363 0.6145421 0.8489115 0.4842596 0.8489115 0.4842596 0.7881467 0.4844459 0.848402 0.3181416 0.2465453 0.1553364 0.2505366 0.02521318 0.3073103 0.15515 0.3038285 0.4513912 0.2518446 0.4515506 0.3078198 0.321268 0.3078198 0.321268 0.2470549 0.3214544 0.3073103 0.15515 0.2431635 0.3356676 0.2471548 0.2055443 0.3039285 0.3354812 0.3004467 0.6317223 0.2484627 0.6318817 0.3044379 0.5015991 0.3044379 0.5015991 0.2436731 0.5017855 0.3039285 0.3354812 0.4813792 0.5288993 0.4853705 0.398776 0.5421442 0.5287129 0.5386624 0.824954 0.4866784 0.8251134 0.5426536 0.6948308 0.5426536 0.6948308 0.4818888 0.6950172 0.5421442 0.5287129 0.6307205 0.1737856 0.6347118 0.04366242 0.6914855 0.1735993 0.6880037 0.4698405 0.6360198 0.4699999 0.691995 0.3397173 0.691995 0.3397173 0.6312301 0.3399037 0.6914855 0.1735993 0.3953456 0.2975206 0.3993368 0.1673973 0.4561105 0.2973342 0.4526287 0.5935754 0.4006448 0.5937348 0.45662 0.4634522 0.45662 0.4634522 0.3958551 0.4636386 0.4561105 0.2973342 0.8416385 0.2245081 0.7808735 0.2246945 0.8368486 0.0944119 0.8381566 0.5207493 0.7861727 0.5209087 0.8421479 0.3906261 0.8421479 0.3906261 0.781383 0.3908125 0.8416385 0.2245081</float_array>
          <technique_common>
            <accessor source="#Barrel-mesh-map-0-array" count="1620" stride="2">
              <param name="S" type="float"/>
              <param name="T" type="float"/>
            </accessor>
          </technique_common>
        </source>
        <vertices id="Barrel-mesh-vertices">
          <input semantic="POSITION" source="#Barrel-mesh-positions"/>
        </vertices>
        <polylist material="Wood2-material" count="124">
          <input semantic="VERTEX" source="#Barrel-mesh-vertices" offset="0"/>
          <input semantic="NORMAL" source="#Barrel-mesh-normals" offset="1"/>
          <input semantic="TEXCOORD" source="#Barrel-mesh-map-0" offset="2" set="0"/>
          <vcount>3 3 3 3 3 3 3 3 3 3 3 3 3 3 3 3 3 3 3 3 3 3 3 3 3 3 3 3 3 3 3 3 3 3 3 3 3 3 3 3 3 3 3 3 3 3 3 3 3 3 3 3 3 3 3 3 3 3 3 3 3 3 3 3 3 3 3 3 3 3 3 3 3 3 3 3 3 3 3 3 3 3 3 3 3 3 3 3 3 3 3 3 3 3 3 3 3 3 3 3 3 3 3 3 3 3 3 3 3 3 3 3 3 3 3 3 3 3 3 3 3 3 3 3 </vcount>
          <p>267 256 624 271 256 625 257 256 626 276 257 627 274 257 628 286 257 629 292 258 630 289 258 631 291 258 632 288 259 633 293 259 634 295 259 635 293 260 636 292 260 637 294 260 638 300 261 639 297 261 640 299 261 641 301 262 642 303 262 643 298 262 644 301 263 645 300 263 646 302 263 647 305 264 648 307 264 649 310 264 650 309 265 651 311 265 652 306 265 653 309 266 654 308 266 655 310 266 656 316 267 657 313 267 658 315 267 659 312 268 660 317 268 661 319 268 662 317 269 663 316 269 664 318 269 665 324 270 666 321 270 667 323 270 668 320 271 669 325 271 670 327 271 671 325 272 672 324 272 673 326 272 674 332 273 675 329 273 676 331 273 677 328 274 678 333 274 679 335 274 680 332 275 681 334 275 682 335 275 683 340 276 684 337 276 685 339 276 686 336 277 687 341 277 688 343 277 689 341 278 690 340 278 691 342 278 692 345 279 693 347 279 694 350 279 695 344 280 696 349 280 697 351 280 698 349 281 699 348 281 700 350 281 701 353 282 702 355 282 703 358 282 704 352 283 705 357 283 706 359 283 707 357 284 708 356 284 709 358 284 710 361 285 711 363 285 712 366 285 713 360 286 714 365 286 715 367 286 716 365 287 717 364 287 718 366 287 719 369 288 720 371 288 721 374 288 722 368 289 723 373 289 724 375 289 725 373 290 726 372 290 727 374 290 728 377 291 729 379 291 730 382 291 731 376 292 732 381 292 733 383 292 734 381 293 735 380 293 736 382 293 737 385 294 738 387 294 739 390 294 740 384 295 741 389 295 742 391 295 743 389 296 744 388 296 745 390 296 746 393 297 747 395 297 748 398 297 749 392 298 750 397 298 751 399 298 752 397 299 753 396 299 754 398 299 755 401 300 756 403 300 757 406 300 758 400 301 759 405 301 760 407 301 761 405 302 762 404 302 763 406 302 764 412 303 765 409 303 766 411 303 767 408 304 768 413 304 769 415 304 770 413 305 771 412 305 772 414 305 773 271 306 1398 256 306 1399 257 306 1400 257 307 1401 258 307 1402 259 307 1403 259 308 1404 260 308 1405 261 308 1406 263 309 1407 259 309 1408 262 309 1409 263 310 1410 264 310 1411 265 310 1412 265 311 1413 266 311 1414 267 311 1415 267 312 1416 268 312 1417 269 312 1418 269 313 1419 270 313 1420 271 313 1421 259 314 1422 267 314 1423 257 314 1424 287 315 1425 286 315 1426 274 315 1427 267 316 1428 259 316 1429 265 316 1430 267 317 1431 269 317 1432 271 317 1433 259 318 1434 261 318 1435 262 318 1436 259 319 1437 263 319 1438 265 319 1439 294 320 1440 292 320 1441 291 320 1442 286 321 1443 285 321 1444 284 321 1445 284 322 1446 283 322 1447 282 322 1448 280 323 1449 278 323 1450 281 323 1451 280 324 1452 279 324 1453 278 324 1454 276 325 1455 282 325 1456 277 325 1457 276 326 1458 275 326 1459 274 326 1460 273 327 1461 272 327 1462 287 327 1463 286 328 1464 284 328 1465 282 328 1466 282 329 1467 278 329 1468 277 329 1469 278 330 1470 282 330 1471 281 330 1472 282 331 1473 276 331 1474 286 331 1475 273 332 1476 287 332 1477 274 332 1478 290 333 1479 288 333 1480 295 333 1481 295 334 1482 293 334 1483 294 334 1484 302 335 1485 300 335 1486 299 335 1487 296 336 1488 301 336 1489 298 336 1490 303 337 1491 301 337 1492 302 337 1493 308 338 1494 305 338 1495 310 338 1496 304 339 1497 309 339 1498 306 339 1499 311 340 1500 309 340 1501 310 340 1502 318 341 1503 316 341 1504 315 341 1505 314 342 1506 312 342 1507 319 342 1508 319 343 1509 317 343 1510 318 343 1511 326 344 1512 324 344 1513 323 344 1514 322 345 1515 320 345 1516 327 345 1517 327 346 1518 325 346 1519 326 346 1520 334 347 1521 332 347 1522 331 347 1523 330 348 1524 328 348 1525 335 348 1526 333 349 1527 332 349 1528 335 349 1529 342 350 1530 340 350 1531 339 350 1532 338 351 1533 336 351 1534 343 351 1535 343 352 1536 341 352 1537 342 352 1538 348 353 1539 345 353 1540 350 353 1541 346 354 1542 344 354 1543 351 354 1544 351 355 1545 349 355 1546 350 355 1547 356 356 1548 353 356 1549 358 356 1550 354 357 1551 352 357 1552 359 357 1553 359 358 1554 357 358 1555 358 358 1556 364 359 1557 361 359 1558 366 359 1559 362 360 1560 360 360 1561 367 360 1562 367 361 1563 365 361 1564 366 361 1565 372 362 1566 369 362 1567 374 362 1568 370 363 1569 368 363 1570 375 363 1571 375 364 1572 373 364 1573 374 364 1574 380 365 1575 377 365 1576 382 365 1577 378 366 1578 376 366 1579 383 366 1580 383 367 1581 381 367 1582 382 367 1583 388 368 1584 385 368 1585 390 368 1586 386 369 1587 384 369 1588 391 369 1589 391 370 1590 389 370 1591 390 370 1592 396 371 1593 393 371 1594 398 371 1595 394 372 1596 392 372 1597 399 372 1598 399 373 1599 397 373 1600 398 373 1601 404 374 1602 401 374 1603 406 374 1604 402 375 1605 400 375 1606 407 375 1607 407 376 1608 405 376 1609 406 376 1610 414 377 1611 412 377 1612 411 377 1613 410 378 1614 408 378 1615 415 378 1616 415 379 1617 413 379 1618 414 379 1619</p>
        </polylist>
        <polylist material="Metal-material" count="416">
          <input semantic="VERTEX" source="#Barrel-mesh-vertices" offset="0"/>
          <input semantic="NORMAL" source="#Barrel-mesh-normals" offset="1"/>
          <input semantic="TEXCOORD" source="#Barrel-mesh-map-0" offset="2" set="0"/>
          <vcount>3 3 3 3 3 3 3 3 3 3 3 3 3 3 3 3 3 3 3 3 3 3 3 3 3 3 3 3 3 3 3 3 3 3 3 3 3 3 3 3 3 3 3 3 3 3 3 3 3 3 3 3 3 3 3 3 3 3 3 3 3 3 3 3 3 3 3 3 3 3 3 3 3 3 3 3 3 3 3 3 3 3 3 3 3 3 3 3 3 3 3 3 3 3 3 3 3 3 3 3 3 3 3 3 3 3 3 3 3 3 3 3 3 3 3 3 3 3 3 3 3 3 3 3 3 3 3 3 3 3 3 3 3 3 3 3 3 3 3 3 3 3 3 3 3 3 3 3 3 3 3 3 3 3 3 3 3 3 3 3 3 3 3 3 3 3 3 3 3 3 3 3 3 3 3 3 3 3 3 3 3 3 3 3 3 3 3 3 3 3 3 3 3 3 3 3 3 3 3 3 3 3 3 3 3 3 3 3 3 3 3 3 3 3 3 3 3 3 3 3 3 3 3 3 3 3 3 3 3 3 3 3 3 3 3 3 3 3 3 3 3 3 3 3 3 3 3 3 3 3 3 3 3 3 3 3 3 3 3 3 3 3 3 3 3 3 3 3 3 3 3 3 3 3 3 3 3 3 3 3 3 3 3 3 3 3 3 3 3 3 3 3 3 3 3 3 3 3 3 3 3 3 3 3 3 3 3 3 3 3 3 3 3 3 3 3 3 3 3 3 3 3 3 3 3 3 3 3 3 3 3 3 3 3 3 3 3 3 3 3 3 3 3 3 3 3 3 3 3 3 3 3 3 3 3 3 3 3 3 3 3 3 3 3 3 3 3 3 3 3 3 3 3 3 3 3 3 3 3 3 3 3 3 3 3 3 3 3 3 3 3 3 3 3 3 3 3 3 3 3 3 3 3 3 3 3 3 3 3 3 3 3 3 3 3 3 </vcount>
          <p>12 0 0 28 1 1 29 2 2 6 3 3 22 4 4 23 5 5 1 6 6 0 7 7 16 8 8 13 9 9 29 2 10 30 10 11 7 11 12 23 5 13 24 12 14 2 13 15 1 6 16 17 14 17 14 15 18 30 10 19 31 16 20 9 17 21 8 18 22 24 12 23 3 19 24 2 13 25 18 20 26 15 21 27 31 16 28 16 8 29 10 22 30 9 17 31 25 23 32 4 24 33 3 19 34 19 25 35 11 26 36 10 22 37 26 27 38 4 24 39 20 28 40 21 29 41 12 0 42 11 26 43 27 30 44 5 31 45 21 29 46 22 4 47 6 3 48 7 11 49 39 32 50 21 29 51 20 28 52 52 33 53 19 25 54 51 34 55 52 33 56 22 4 57 21 29 58 53 35 59 3 19 60 35 36 61 34 37 62 5 31 63 6 3 64 38 38 65 29 2 66 28 1 67 60 39 68 10 22 69 42 40 70 41 41 71 12 0 72 13 9 73 45 42 74 24 12 75 23 5 76 55 43 77 30 10 78 29 2 79 61 44 80 24 12 81 56 45 82 57 46 83 13 9 84 14 15 85 46 47 86 31 16 87 30 10 88 62 48 89 18 20 90 50 49 91 51 34 92 15 21 93 0 7 94 32 50 95 4 24 96 5 31 97 37 51 98 11 26 99 43 52 100 42 40 101 14 15 102 15 21 103 47 53 104 16 8 105 48 54 106 49 55 107 16 8 108 31 16 109 63 56 110 2 13 111 34 37 112 33 57 113 27 30 114 59 58 115 60 39 116 4 24 117 36 59 118 35 36 119 26 27 120 58 60 121 59 58 122 23 5 123 22 4 124 54 61 125 25 23 126 57 46 127 58 60 128 12 0 129 44 62 130 43 52 131 7 11 132 8 18 133 40 63 134 9 17 135 41 41 136 40 63 137 1 6 138 33 57 139 32 50 140 17 14 141 49 55 142 50 49 143 76 64 144 92 65 145 93 66 146 70 67 147 86 68 148 87 69 149 65 70 150 64 71 151 80 72 152 77 73 153 93 66 154 94 74 155 71 75 156 87 69 157 88 76 158 66 77 159 65 70 160 81 78 161 78 79 162 94 74 163 95 80 164 73 81 165 72 82 166 88 76 167 67 83 168 66 77 169 82 84 170 79 85 171 95 80 172 80 72 173 74 86 174 73 81 175 89 87 176 68 88 177 67 83 178 83 89 179 75 90 180 74 86 181 90 91 182 68 88 183 84 92 184 85 93 185 76 64 186 75 90 187 91 94 188 69 95 189 85 93 190 86 68 191 70 67 192 71 75 193 103 96 194 85 93 195 84 92 196 116 97 197 83 89 198 115 98 199 116 97 200 86 68 201 85 93 202 117 99 203 67 83 204 99 100 205 98 101 206 69 95 207 70 67 208 102 102 209 93 66 210 92 65 211 124 103 212 74 86 213 106 104 214 105 105 215 76 64 216 77 73 217 109 106 218 88 76 219 87 69 220 119 107 221 94 74 222 93 66 223 125 108 224 88 76 225 120 109 226 121 110 227 77 73 228 78 79 229 110 111 230 95 80 231 94 74 232 126 112 233 82 84 234 114 113 235 115 98 236 79 85 237 64 71 238 96 114 239 68 88 240 69 95 241 101 115 242 75 90 243 107 116 244 106 104 245 78 79 246 79 85 247 111 117 248 80 72 249 112 118 250 113 119 251 80 72 252 95 80 253 127 120 254 66 77 255 98 101 256 97 121 257 91 94 258 123 122 259 124 103 260 68 88 261 100 123 262 99 100 263 90 91 264 122 124 265 123 122 266 87 69 267 86 68 268 118 125 269 89 87 270 121 110 271 122 124 272 76 64 273 108 126 274 107 116 275 71 75 276 72 82 277 104 127 278 73 81 279 105 105 280 104 127 281 65 70 282 97 121 283 96 114 284 81 78 285 113 119 286 114 113 287 140 128 288 156 129 289 157 130 290 134 131 291 150 132 292 151 133 293 129 134 294 128 135 295 144 136 296 141 137 297 157 130 298 158 138 299 135 139 300 151 133 301 152 140 302 130 141 303 129 134 304 145 142 305 142 143 306 158 138 307 159 144 308 137 145 309 136 146 310 152 140 311 131 147 312 130 141 313 146 148 314 143 149 315 159 144 316 144 136 317 138 150 318 137 145 319 153 151 320 132 152 321 131 147 322 147 153 323 139 154 324 138 150 325 154 155 326 132 152 327 148 156 328 149 157 329 140 128 330 139 154 331 155 158 332 133 159 333 149 157 334 150 132 335 134 131 336 135 139 337 167 160 338 149 157 339 148 156 340 180 161 341 147 153 342 179 162 343 180 161 344 150 132 345 149 157 346 181 163 347 131 147 348 163 164 349 162 165 350 133 159 351 134 131 352 166 166 353 157 130 354 156 129 355 188 167 356 138 150 357 170 168 358 169 169 359 140 128 360 141 137 361 173 170 362 152 140 363 151 133 364 183 171 365 158 138 366 157 130 367 189 172 368 152 140 369 184 173 370 185 174 371 141 137 372 142 143 373 174 175 374 159 144 375 158 138 376 190 176 377 146 148 378 178 177 379 179 162 380 143 149 381 128 135 382 160 178 383 132 152 384 133 159 385 165 179 386 139 154 387 171 180 388 170 168 389 142 143 390 143 149 391 175 181 392 144 136 393 176 182 394 177 183 395 144 136 396 159 144 397 191 184 398 130 141 399 162 165 400 161 185 401 155 158 402 187 186 403 188 167 404 132 152 405 164 187 406 163 164 407 154 155 408 186 188 409 187 186 410 151 133 411 150 132 412 182 189 413 153 151 414 185 174 415 186 188 416 140 128 417 172 190 418 171 180 419 135 139 420 136 146 421 168 191 422 137 145 423 169 169 424 168 191 425 129 134 426 161 185 427 160 178 428 145 142 429 177 183 430 178 177 431 204 192 432 220 193 433 221 194 434 198 195 435 214 196 436 215 197 437 193 198 438 192 199 439 208 200 440 205 201 441 221 194 442 222 202 443 199 203 444 215 197 445 216 204 446 194 205 447 193 198 448 209 206 449 206 207 450 222 202 451 223 208 452 201 209 453 200 210 454 216 204 455 195 211 456 194 205 457 210 212 458 207 213 459 223 208 460 208 200 461 202 214 462 201 209 463 217 215 464 196 216 465 195 211 466 211 217 467 203 218 468 202 214 469 218 219 470 196 216 471 212 220 472 213 221 473 204 192 474 203 218 475 219 222 476 197 223 477 213 221 478 214 196 479 253 224 480 252 225 481 236 226 482 247 227 483 246 228 484 230 229 485 240 230 486 224 231 487 225 232 488 254 233 489 253 224 490 237 234 491 248 235 492 247 227 493 231 236 494 241 237 495 225 232 496 226 238 497 255 239 498 254 233 499 238 240 500 248 235 501 232 241 502 233 242 503 242 243 504 226 238 505 227 244 506 240 230 507 255 239 508 239 245 509 249 246 510 233 242 511 234 247 512 243 248 513 227 244 514 228 249 515 250 250 516 234 247 517 235 251 518 245 252 519 244 253 520 228 249 521 251 254 522 235 251 523 236 226 524 246 228 525 245 252 526 229 255 527 198 195 528 199 203 529 231 236 530 213 221 531 212 220 532 244 253 533 211 217 534 243 248 535 244 253 536 214 196 537 213 221 538 245 252 539 195 211 540 227 244 541 226 238 542 197 223 543 198 195 544 230 229 545 221 194 546 220 193 547 252 225 548 202 214 549 234 247 550 233 242 551 204 192 552 205 201 553 237 234 554 216 204 555 215 197 556 247 227 557 222 202 558 221 194 559 253 224 560 216 204 561 248 235 562 249 246 563 205 201 564 206 207 565 238 240 566 223 208 567 222 202 568 254 233 569 210 212 570 242 243 571 243 248 572 207 213 573 192 199 574 224 231 575 196 216 576 197 223 577 229 255 578 203 218 579 235 251 580 234 247 581 206 207 582 207 213 583 239 245 584 208 200 585 240 230 586 241 237 587 208 200 588 223 208 589 255 239 590 194 205 591 226 238 592 225 232 593 219 222 594 251 254 595 252 225 596 196 216 597 228 249 598 227 244 599 218 219 600 250 250 601 251 254 602 215 197 603 214 196 604 246 228 605 217 215 606 249 246 607 250 250 608 204 192 609 236 226 610 235 251 611 199 203 612 200 210 613 232 241 614 201 209 615 233 242 616 232 241 617 193 198 618 225 232 619 224 231 620 209 206 621 241 237 622 242 243 623 13 9 774 12 0 775 29 2 776 7 11 777 6 3 778 23 5 779 17 14 780 1 6 781 16 8 782 14 15 783 13 9 784 30 10 785 8 18 786 7 11 787 24 12 788 18 20 789 2 13 790 17 14 791 15 21 792 14 15 793 31 16 794 25 23 795 9 17 796 24 12 797 19 25 798 3 19 799 18 20 800 0 7 801 15 21 802 16 8 803 26 27 804 10 22 805 25 23 806 20 28 807 4 24 808 19 25 809 27 30 810 11 26 811 26 27 812 5 31 813 4 24 814 21 29 815 28 1 816 12 0 817 27 30 818 6 3 819 5 31 820 22 4 821 38 38 822 6 3 823 39 32 824 53 35 825 21 29 826 52 33 827 20 28 828 19 25 829 52 33 830 54 61 831 22 4 832 53 35 833 2 13 834 3 19 835 34 37 836 37 51 837 5 31 838 38 38 839 61 44 840 29 2 841 60 39 842 9 17 843 10 22 844 41 41 845 44 62 846 12 0 847 45 42 848 56 45 849 24 12 850 55 43 851 62 48 852 30 10 853 61 44 854 25 23 855 24 12 856 57 46 857 45 42 858 13 9 859 46 47 860 63 56 861 31 16 862 62 48 863 19 25 864 18 20 865 51 34 866 47 53 867 15 21 868 32 50 869 36 59 870 4 24 871 37 51 872 10 22 873 11 26 874 42 40 875 46 47 876 14 15 877 47 53 878 17 14 879 16 8 880 49 55 881 48 54 882 16 8 883 63 56 884 1 6 885 2 13 886 33 57 887 28 1 888 27 30 889 60 39 890 3 19 891 4 24 892 35 36 893 27 30 894 26 27 895 59 58 896 55 43 897 23 5 898 54 61 899 26 27 900 25 23 901 58 60 902 11 26 903 12 0 904 43 52 905 39 32 906 7 11 907 40 63 908 8 18 909 9 17 910 40 63 911 0 7 912 1 6 913 32 50 914 18 20 915 17 14 916 50 49 917 77 73 918 76 64 919 93 66 920 71 75 921 70 67 922 87 69 923 81 78 924 65 70 925 80 72 926 78 79 927 77 73 928 94 74 929 72 82 930 71 75 931 88 76 932 82 84 933 66 77 934 81 78 935 79 85 936 78 79 937 95 80 938 89 87 939 73 81 940 88 76 941 83 89 942 67 83 943 82 84 944 64 71 945 79 85 946 80 72 947 90 91 948 74 86 949 89 87 950 84 92 951 68 88 952 83 89 953 91 94 954 75 90 955 90 91 956 69 95 957 68 88 958 85 93 959 92 65 960 76 64 961 91 94 962 70 67 963 69 95 964 86 68 965 102 102 966 70 67 967 103 96 968 117 99 969 85 93 970 116 97 971 84 92 972 83 89 973 116 97 974 118 125 975 86 68 976 117 99 977 66 77 978 67 83 979 98 101 980 101 115 981 69 95 982 102 102 983 125 108 984 93 66 985 124 103 986 73 81 987 74 86 988 105 105 989 108 126 990 76 64 991 109 106 992 120 109 993 88 76 994 119 107 995 126 112 996 94 74 997 125 108 998 89 87 999 88 76 1000 121 110 1001 109 106 1002 77 73 1003 110 111 1004 127 120 1005 95 80 1006 126 112 1007 83 89 1008 82 84 1009 115 98 1010 111 117 1011 79 85 1012 96 114 1013 100 123 1014 68 88 1015 101 115 1016 74 86 1017 75 90 1018 106 104 1019 110 111 1020 78 79 1021 111 117 1022 81 78 1023 80 72 1024 113 119 1025 112 118 1026 80 72 1027 127 120 1028 65 70 1029 66 77 1030 97 121 1031 92 65 1032 91 94 1033 124 103 1034 67 83 1035 68 88 1036 99 100 1037 91 94 1038 90 91 1039 123 122 1040 119 107 1041 87 69 1042 118 125 1043 90 91 1044 89 87 1045 122 124 1046 75 90 1047 76 64 1048 107 116 1049 103 96 1050 71 75 1051 104 127 1052 72 82 1053 73 81 1054 104 127 1055 64 71 1056 65 70 1057 96 114 1058 82 84 1059 81 78 1060 114 113 1061 141 137 1062 140 128 1063 157 130 1064 135 139 1065 134 131 1066 151 133 1067 145 142 1068 129 134 1069 144 136 1070 142 143 1071 141 137 1072 158 138 1073 136 146 1074 135 139 1075 152 140 1076 146 148 1077 130 141 1078 145 142 1079 143 149 1080 142 143 1081 159 144 1082 153 151 1083 137 145 1084 152 140 1085 147 153 1086 131 147 1087 146 148 1088 128 135 1089 143 149 1090 144 136 1091 154 155 1092 138 150 1093 153 151 1094 148 156 1095 132 152 1096 147 153 1097 155 158 1098 139 154 1099 154 155 1100 133 159 1101 132 152 1102 149 157 1103 156 129 1104 140 128 1105 155 158 1106 134 131 1107 133 159 1108 150 132 1109 166 166 1110 134 131 1111 167 160 1112 181 163 1113 149 157 1114 180 161 1115 148 156 1116 147 153 1117 180 161 1118 182 189 1119 150 132 1120 181 163 1121 130 141 1122 131 147 1123 162 165 1124 165 179 1125 133 159 1126 166 166 1127 189 172 1128 157 130 1129 188 167 1130 137 145 1131 138 150 1132 169 169 1133 172 190 1134 140 128 1135 173 170 1136 184 173 1137 152 140 1138 183 171 1139 190 176 1140 158 138 1141 189 172 1142 153 151 1143 152 140 1144 185 174 1145 173 170 1146 141 137 1147 174 175 1148 191 184 1149 159 144 1150 190 176 1151 147 153 1152 146 148 1153 179 162 1154 175 181 1155 143 149 1156 160 178 1157 164 187 1158 132 152 1159 165 179 1160 138 150 1161 139 154 1162 170 168 1163 174 175 1164 142 143 1165 175 181 1166 145 142 1167 144 136 1168 177 183 1169 176 182 1170 144 136 1171 191 184 1172 129 134 1173 130 141 1174 161 185 1175 156 129 1176 155 158 1177 188 167 1178 131 147 1179 132 152 1180 163 164 1181 155 158 1182 154 155 1183 187 186 1184 183 171 1185 151 133 1186 182 189 1187 154 155 1188 153 151 1189 186 188 1190 139 154 1191 140 128 1192 171 180 1193 167 160 1194 135 139 1195 168 191 1196 136 146 1197 137 145 1198 168 191 1199 128 135 1200 129 134 1201 160 178 1202 146 148 1203 145 142 1204 178 177 1205 205 201 1206 204 192 1207 221 194 1208 199 203 1209 198 195 1210 215 197 1211 209 206 1212 193 198 1213 208 200 1214 206 207 1215 205 201 1216 222 202 1217 200 210 1218 199 203 1219 216 204 1220 210 212 1221 194 205 1222 209 206 1223 207 213 1224 206 207 1225 223 208 1226 217 215 1227 201 209 1228 216 204 1229 211 217 1230 195 211 1231 210 212 1232 192 199 1233 207 213 1234 208 200 1235 218 219 1236 202 214 1237 217 215 1238 212 220 1239 196 216 1240 211 217 1241 219 222 1242 203 218 1243 218 219 1244 197 223 1245 196 216 1246 213 221 1247 220 193 1248 204 192 1249 219 222 1250 198 195 1251 197 223 1252 214 196 1253 237 234 1254 253 224 1255 236 226 1256 231 236 1257 247 227 1258 230 229 1259 241 237 1260 240 230 1261 225 232 1262 238 240 1263 254 233 1264 237 234 1265 232 241 1266 248 235 1267 231 236 1268 242 243 1269 241 237 1270 226 238 1271 239 245 1272 255 239 1273 238 240 1274 249 246 1275 248 235 1276 233 242 1277 243 248 1278 242 243 1279 227 244 1280 224 231 1281 240 230 1282 239 245 1283 250 250 1284 249 246 1285 234 247 1286 244 253 1287 243 248 1288 228 249 1289 251 254 1290 250 250 1291 235 251 1292 229 255 1293 245 252 1294 228 249 1295 252 225 1296 251 254 1297 236 226 1298 230 229 1299 246 228 1300 229 255 1301 230 229 1302 198 195 1303 231 236 1304 245 252 1305 213 221 1306 244 253 1307 212 220 1308 211 217 1309 244 253 1310 246 228 1311 214 196 1312 245 252 1313 194 205 1314 195 211 1315 226 238 1316 229 255 1317 197 223 1318 230 229 1319 253 224 1320 221 194 1321 252 225 1322 201 209 1323 202 214 1324 233 242 1325 236 226 1326 204 192 1327 237 234 1328 248 235 1329 216 204 1330 247 227 1331 254 233 1332 222 202 1333 253 224 1334 217 215 1335 216 204 1336 249 246 1337 237 234 1338 205 201 1339 238 240 1340 255 239 1341 223 208 1342 254 233 1343 211 217 1344 210 212 1345 243 248 1346 239 245 1347 207 213 1348 224 231 1349 228 249 1350 196 216 1351 229 255 1352 202 214 1353 203 218 1354 234 247 1355 238 240 1356 206 207 1357 239 245 1358 209 206 1359 208 200 1360 241 237 1361 240 230 1362 208 200 1363 255 239 1364 193 198 1365 194 205 1366 225 232 1367 220 193 1368 219 222 1369 252 225 1370 195 211 1371 196 216 1372 227 244 1373 219 222 1374 218 219 1375 251 254 1376 247 227 1377 215 197 1378 246 228 1379 218 219 1380 217 215 1381 250 250 1382 203 218 1383 204 192 1384 235 251 1385 231 236 1386 199 203 1387 232 241 1388 200 210 1389 201 209 1390 232 241 1391 192 199 1392 193 198 1393 224 231 1394 210 212 1395 209 206 1396 242 243 1397</p>
        </polylist>
      </mesh>
    </geometry>
  </library_geometries>
  <library_controllers/>
  <library_visual_scenes>
    <visual_scene id="Scene" name="Scene">
      <node id="Barrel" name="Barrel" type="NODE">
        <matrix sid="transform">1 0 0 0 0 7.54979e-8 -1 0 0 1 7.54979e-8 0.06665704 0 0 0 1</matrix>
        <instance_geometry url="#Barrel-mesh">
          <bind_material>
            <technique_common>
              <instance_material symbol="Wood2-material" target="#Wood2-material"/>
              <instance_material symbol="Metal-material" target="#Metal-material"/>
            </technique_common>
          </bind_material>
        </instance_geometry>
      </node>
      <node id="Camera" name="Camera" type="NODE">
        <matrix sid="transform">0.2696217 -0.5057907 0.8194389 6.042857 0.9629666 0.1416167 -0.2294353 -0.8704965 1.97236e-8 0.8509529 0.5252423 3.456182 0 0 0 1</matrix>
        <instance_camera url="#Camera-camera"/>
      </node>
      <node id="Lamp" name="Lamp" type="NODE">
        <matrix sid="transform">-0.2908646 -0.7711008 0.5663932 4.076245 0.9551712 -0.1998834 0.2183912 1.005454 -0.05518906 0.6045247 0.7946723 5.903862 0 0 0 1</matrix>
        <instance_light url="#Lamp-light"/>
      </node>
    </visual_scene>
  </library_visual_scenes>
  <scene>
    <instance_visual_scene url="#Scene"/>
  </scene>
</COLLADA>